{
	"credit": "Made by JoubaMety with Blockbench",
	"ambientocclusion": false,
	"textures": {
		"bottom": "blocks/door_iron_upper",
		"particle": "blocks/door_iron_upper",
		"texture": "blocks/m_jungle_door_upper_sides"
	},
	"elements": [
		{
			"from": [6, 14, 3],
			"to": [8, 16, 16],
			"faces": {
				"north": {"uv": [15, 0, 16, 2], "texture": "#bottom", "cullface": "south"},
				"east": {"uv": [3, 0, 16, 2], "texture": "#bottom", "cullface": "west"},
				"south": {"uv": [16, 0, 15, 2], "texture": "#bottom", "cullface": "north"},
				"west": {"uv": [3, 0, 16, 2], "texture": "#bottom"},
				"up": {"uv": [3, 1, 16, 2], "rotation": 90, "texture": "#bottom"},
				"down": {"uv": [3, 1, 16, 2], "rotation": 90, "texture": "#bottom", "cullface": "down"}
			}
		},
		{
			"from": [0, 0, 0],
			"to": [2, 16, 3],
			"faces": {
				"north": {"uv": [0, 0, 1, 16], "texture": "#bottom", "cullface": "south"},
				"east": {"uv": [0, 0, 3, 16], "texture": "#bottom", "cullface": "west"},
				"south": {"uv": [0, 0, 1, 16], "texture": "#bottom", "cullface": "north"},
				"west": {"uv": [0, 0, 3, 16], "texture": "#bottom"},
				"up": {"uv": [0, 0, 3, 1], "rotation": 270, "texture": "#bottom"},
				"down": {"uv": [0, 0, 3, 1], "rotation": 270, "texture": "#bottom", "cullface": "down"}
			}
		},
		{
			"from": [6, 0, 0],
			"to": [8, 16, 3],
			"faces": {
				"north": {"uv": [0, 0, 1, 16], "texture": "#bottom", "cullface": "south"},
				"east": {"uv": [0, 0, 3, 16], "texture": "#bottom", "cullface": "west"},
				"south": {"uv": [0, 0, 1, 16], "texture": "#bottom", "cullface": "north"},
				"west": {"uv": [0, 0, 3, 16], "texture": "#bottom"},
				"up": {"uv": [0, 0, 3, 1], "rotation": 270, "texture": "#bottom"},
				"down": {"uv": [0, 0, 3, 1], "rotation": 270, "texture": "#bottom", "cullface": "down"}
			}
		},
		{
			"from": [0, 14, 3],
			"to": [2, 16, 16],
			"faces": {
				"north": {"uv": [15, 0, 16, 2], "texture": "#bottom", "cullface": "south"},
				"east": {"uv": [3, 0, 16, 2], "texture": "#bottom", "cullface": "west"},
				"south": {"uv": [16, 0, 15, 2], "texture": "#bottom", "cullface": "north"},
				"west": {"uv": [3, 0, 16, 2], "texture": "#bottom"},
				"up": {"uv": [3, 1, 16, 2], "rotation": 90, "texture": "#bottom"},
				"down": {"uv": [3, 1, 16, 2], "rotation": 90, "texture": "#bottom", "cullface": "down"}
			}
		},
		{
			"from": [1, 0, -2],
			"to": [2, 5, -1],
			"faces": {
				"north": {"uv": [0, 0, 1, 16], "texture": "#bottom", "cullface": "south"},
				"east": {"uv": [4, 0, 5, 5], "texture": "#bottom", "cullface": "west"},
				"south": {"uv": [0, 0, 1, 16], "texture": "#bottom", "cullface": "north"},
				"west": {"uv": [4, 11, 5, 16], "texture": "#bottom"},
				"up": {"uv": [13, 3, 16, 4], "rotation": 270, "texture": "#bottom"},
				"down": {"uv": [13, 12, 16, 13], "rotation": 270, "texture": "#bottom", "cullface": "down"}
			}
		},
		{
			"from": [2, 0, -6],
			"to": [6, 16, 10],
			"faces": {
				"north": {"uv": [0, 0, 6, 16], "texture": "#texture", "cullface": "south"},
				"east": {"uv": [16, 0, 0, 16], "texture": "#bottom", "cullface": "west"},
				"south": {"uv": [6, 0, 0, 16], "texture": "#texture", "cullface": "north"},
				"west": {"uv": [0, 0, 16, 16], "texture": "#bottom"},
				"up": {"uv": [0, 0, 6, 16], "rotation": 180, "texture": "#texture"},
				"down": {"uv": [13, 0, 16, 16], "rotation": 180, "texture": "#texture", "cullface": "down"}
			}
		},
		{
			"from": [0.5, 0, 1],
			"to": [2, 1, 2],
			"faces": {
				"north": {"uv": [3, 1, 6, 2], "rotation": 270, "texture": "#bottom", "cullface": "south"},
				"east": {"uv": [3, 1, 6, 2], "rotation": 270, "texture": "#bottom", "cullface": "west"},
				"south": {"uv": [3, 1, 6, 2], "rotation": 270, "texture": "#bottom", "cullface": "north"},
				"west": {"uv": [3, 1, 6, 2], "rotation": 270, "texture": "#bottom"},
				"up": {"uv": [3, 1, 7, 2], "rotation": 270, "texture": "#bottom"},
				"down": {"uv": [0, 0, 3, 1], "rotation": 270, "texture": "#bottom", "cullface": "down"}
			}
		},
		{
			"from": [1, 0, 6],
			"to": [2, 3, 7],
			"faces": {
				"north": {"uv": [0, 0, 1, 16], "texture": "#bottom", "cullface": "south"},
				"east": {"uv": [12, 0, 13, 4], "texture": "#bottom", "cullface": "west"},
				"south": {"uv": [0, 0, 1, 16], "texture": "#bottom", "cullface": "north"},
				"west": {"uv": [12, 0, 13, 4], "texture": "#bottom"},
				"up": {"uv": [13, 12, 16, 13], "rotation": 270, "texture": "#bottom"},
				"down": {"uv": [0, 0, 3, 1], "rotation": 270, "texture": "#bottom", "cullface": "down"}
			}
		},
		{
			"from": [1, 0, 4],
			"to": [2, 12, 6],
			"faces": {
				"north": {"uv": [0, 0, 1, 16], "texture": "#bottom", "cullface": "south"},
				"east": {"uv": [12, 4, 10, 16], "texture": "#bottom", "cullface": "west"},
				"south": {"uv": [0, 0, 1, 16], "texture": "#bottom", "cullface": "north"},
				"west": {"uv": [10, 4, 12, 16], "texture": "#bottom"},
				"up": {"uv": [13, 3, 16, 4], "rotation": 270, "texture": "#bottom"},
				"down": {"uv": [13, 12, 16, 13], "rotation": 270, "texture": "#bottom", "cullface": "down"}
			}
		},
		{
			"from": [1, 0, 2],
			"to": [2, 11, 4],
			"faces": {
				"north": {"uv": [0, 0, 1, 16], "texture": "#bottom", "cullface": "south"},
				"east": {"uv": [10, 0, 8, 11], "texture": "#bottom", "cullface": "west"},
				"south": {"uv": [0, 0, 1, 16], "texture": "#bottom", "cullface": "north"},
				"west": {"uv": [8, 5, 10, 16], "texture": "#bottom"},
				"up": {"uv": [13, 3, 16, 4], "rotation": 270, "texture": "#bottom"},
				"down": {"uv": [13, 12, 16, 13], "rotation": 270, "texture": "#bottom", "cullface": "down"}
			}
		},
		{
			"from": [1, 0, 1],
			"to": [2, 10, 2],
			"faces": {
				"north": {"uv": [0, 0, 1, 16], "texture": "#bottom", "cullface": "south"},
				"east": {"uv": [7, 0, 8, 10], "texture": "#bottom", "cullface": "west"},
				"south": {"uv": [0, 0, 1, 16], "texture": "#bottom", "cullface": "north"},
				"west": {"uv": [7, 6, 8, 16], "texture": "#bottom"},
				"up": {"uv": [13, 3, 16, 4], "rotation": 270, "texture": "#bottom"},
				"down": {"uv": [13, 12, 16, 13], "rotation": 270, "texture": "#bottom", "cullface": "down"}
			}
		},
		{
			"from": [1, 0, 0],
			"to": [2, 9, 1],
			"faces": {
				"north": {"uv": [0, 0, 1, 16], "texture": "#bottom", "cullface": "south"},
				"east": {"uv": [6, 0, 7, 9], "texture": "#bottom", "cullface": "west"},
				"south": {"uv": [0, 0, 1, 16], "texture": "#bottom", "cullface": "north"},
				"west": {"uv": [6, 7, 7, 16], "texture": "#bottom"},
				"up": {"uv": [13, 3, 16, 4], "rotation": 270, "texture": "#bottom"},
				"down": {"uv": [13, 12, 16, 13], "rotation": 270, "texture": "#bottom", "cullface": "down"}
			}
		},
		{
			"from": [1, 0, -1],
			"to": [2, 7, 0],
			"faces": {
				"north": {"uv": [0, 0, 1, 16], "texture": "#bottom", "cullface": "south"},
				"east": {"uv": [5, 0, 6, 7], "texture": "#bottom", "cullface": "west"},
				"south": {"uv": [0, 0, 1, 16], "texture": "#bottom", "cullface": "north"},
				"west": {"uv": [5, 9, 6, 16], "texture": "#bottom"},
				"up": {"uv": [13, 3, 16, 4], "rotation": 270, "texture": "#bottom"},
				"down": {"uv": [13, 12, 16, 13], "rotation": 270, "texture": "#bottom", "cullface": "down"}
			}
		},
		{
			"from": [1, 3, 6],
			"to": [2, 13, 10],
			"faces": {
				"north": {"uv": [0, 0, 1, 16], "texture": "#bottom", "cullface": "south"},
				"east": {"uv": [16, 3, 12, 13], "texture": "#bottom", "cullface": "west"},
				"south": {"uv": [0, 0, 1, 16], "texture": "#bottom", "cullface": "north"},
				"west": {"uv": [12, 3, 16, 13], "texture": "#bottom"},
				"up": {"uv": [13, 3, 16, 4], "rotation": 270, "texture": "#bottom"},
				"down": {"uv": [13, 12, 16, 13], "rotation": 270, "texture": "#bottom", "cullface": "down"}
			}
		},
		{
			"from": [0.5, 0, -3],
			"to": [2, 2, 1],
			"faces": {
				"north": {"uv": [3, 1, 6, 2], "rotation": 270, "texture": "#bottom", "cullface": "south"},
				"east": {"uv": [3, 0, 7, 2], "texture": "#bottom", "cullface": "west"},
				"south": {"uv": [3, 1, 6, 2], "rotation": 270, "texture": "#bottom", "cullface": "north"},
				"west": {"uv": [3, 14, 7, 16], "texture": "#bottom"},
				"up": {"uv": [3, 1, 6, 2], "rotation": 270, "texture": "#bottom"},
				"down": {"uv": [3, 1, 7, 2], "rotation": 270, "texture": "#bottom", "cullface": "down"}
			}
		},
		{
			"from": [0, 0, 3],
			"to": [1, 4, 4],
			"faces": {
				"north": {"uv": [9, 12, 10, 16], "texture": "#bottom", "cullface": "south"},
				"east": {"uv": [9, 12, 10, 16], "texture": "#bottom", "cullface": "west"},
				"south": {"uv": [9, 12, 10, 16], "texture": "#bottom", "cullface": "north"},
				"west": {"uv": [9, 12, 10, 16], "texture": "#bottom"},
				"up": {"uv": [9, 12, 10, 13], "texture": "#bottom"},
				"down": {"uv": [9, 12, 10, 13], "texture": "#bottom", "cullface": "down"}
			}
		},
		{
			"from": [0, 7, 7],
			"to": [1, 8, 10],
			"faces": {
				"north": {"uv": [14, 8, 13, 9], "rotation": 270, "texture": "#bottom", "cullface": "south"},
				"east": {"uv": [16, 8, 13, 9], "texture": "#bottom", "cullface": "west"},
				"south": {"uv": [16, 8, 15, 9], "rotation": 270, "texture": "#bottom", "cullface": "north"},
				"west": {"uv": [16, 8, 13, 9], "texture": "#bottom"},
				"up": {"uv": [16, 8, 13, 9], "rotation": 270, "texture": "#bottom"},
				"down": {"uv": [16, 8, 13, 9], "rotation": 270, "texture": "#bottom", "cullface": "down"}
			}
		},
		{
			"from": [0, 8, 6],
			"to": [1, 9, 7],
			"faces": {
				"north": {"uv": [12, 7, 13, 8], "texture": "#bottom", "cullface": "south"},
				"east": {"uv": [12, 7, 13, 8], "texture": "#bottom", "cullface": "west"},
				"south": {"uv": [12, 7, 13, 8], "texture": "#bottom", "cullface": "north"},
				"west": {"uv": [12, 7, 13, 8], "texture": "#bottom"},
				"up": {"uv": [12, 7, 13, 8], "texture": "#bottom"},
				"down": {"uv": [12, 7, 13, 8], "texture": "#bottom", "cullface": "down"}
			}
		},
		{
			"from": [6, 0, -3],
			"to": [7.5, 2, 1],
			"faces": {
				"north": {"uv": [3, 1, 6, 2], "rotation": 270, "texture": "#bottom", "cullface": "south"},
				"east": {"uv": [3, 14, 7, 16], "texture": "#bottom", "cullface": "west"},
				"south": {"uv": [3, 1, 6, 2], "rotation": 270, "texture": "#bottom", "cullface": "north"},
				"west": {"uv": [3, 0, 7, 2], "texture": "#bottom"},
				"up": {"uv": [3, 1, 6, 2], "rotation": 270, "texture": "#bottom"},
				"down": {"uv": [3, 1, 7, 2], "rotation": 270, "texture": "#bottom", "cullface": "down"}
			}
		},
		{
			"from": [6, 0, 1],
			"to": [7.5, 1, 2],
			"faces": {
				"north": {"uv": [3, 1, 6, 2], "rotation": 270, "texture": "#bottom", "cullface": "south"},
				"east": {"uv": [3, 1, 6, 2], "rotation": 270, "texture": "#bottom", "cullface": "west"},
				"south": {"uv": [3, 1, 6, 2], "rotation": 270, "texture": "#bottom", "cullface": "north"},
				"west": {"uv": [3, 1, 6, 2], "rotation": 270, "texture": "#bottom"},
				"up": {"uv": [3, 1, 7, 2], "rotation": 270, "texture": "#bottom"},
				"down": {"uv": [0, 0, 3, 1], "rotation": 270, "texture": "#bottom", "cullface": "down"}
			}
		},
		{
			"from": [6, 0, 2],
			"to": [7, 11, 4],
			"faces": {
				"north": {"uv": [0, 0, 1, 16], "texture": "#bottom", "cullface": "south"},
				"east": {"uv": [10, 5, 8, 16], "texture": "#bottom", "cullface": "west"},
				"south": {"uv": [0, 0, 1, 16], "texture": "#bottom", "cullface": "north"},
				"west": {"uv": [0, 0, 3, 16], "texture": "#bottom"},
				"up": {"uv": [13, 3, 16, 4], "rotation": 270, "texture": "#bottom"},
				"down": {"uv": [13, 12, 16, 13], "rotation": 270, "texture": "#bottom", "cullface": "down"}
			}
		},
		{
			"from": [6, 0, 4],
			"to": [7, 12, 6],
			"faces": {
				"north": {"uv": [0, 0, 1, 16], "texture": "#bottom", "cullface": "south"},
				"east": {"uv": [12, 4, 10, 16], "texture": "#bottom", "cullface": "west"},
				"south": {"uv": [0, 0, 1, 16], "texture": "#bottom", "cullface": "north"},
				"west": {"uv": [0, 0, 3, 16], "texture": "#bottom"},
				"up": {"uv": [13, 3, 16, 4], "rotation": 270, "texture": "#bottom"},
				"down": {"uv": [13, 12, 16, 13], "rotation": 270, "texture": "#bottom", "cullface": "down"}
			}
		},
		{
			"from": [6, 0, 6],
			"to": [7, 3, 7],
			"faces": {
				"north": {"uv": [0, 0, 1, 16], "texture": "#bottom", "cullface": "south"},
				"east": {"uv": [12, 0, 13, 4], "texture": "#bottom", "cullface": "west"},
				"south": {"uv": [0, 0, 1, 16], "texture": "#bottom", "cullface": "north"},
				"west": {"uv": [0, 0, 3, 16], "texture": "#bottom"},
				"up": {"uv": [13, 12, 16, 13], "rotation": 270, "texture": "#bottom"},
				"down": {"uv": [0, 0, 3, 1], "rotation": 270, "texture": "#bottom", "cullface": "down"}
			}
		},
		{
			"from": [6, 3, 6],
			"to": [7, 13, 10],
			"faces": {
				"north": {"uv": [0, 0, 1, 16], "texture": "#bottom", "cullface": "south"},
				"east": {"uv": [16, 3, 12, 13], "texture": "#bottom", "cullface": "west"},
				"south": {"uv": [0, 0, 1, 16], "texture": "#bottom", "cullface": "north"},
				"west": {"uv": [3, 0, 0, 16], "texture": "#bottom"},
				"up": {"uv": [13, 3, 16, 4], "rotation": 270, "texture": "#bottom"},
				"down": {"uv": [13, 12, 16, 13], "rotation": 270, "texture": "#bottom", "cullface": "down"}
			}
		},
		{
			"from": [6, 0, 1],
			"to": [7, 10, 2],
			"faces": {
				"north": {"uv": [0, 0, 1, 16], "texture": "#bottom", "cullface": "south"},
				"east": {"uv": [7, 6, 8, 16], "texture": "#bottom", "cullface": "west"},
				"south": {"uv": [0, 0, 1, 16], "texture": "#bottom", "cullface": "north"},
				"west": {"uv": [0, 0, 3, 16], "texture": "#bottom"},
				"up": {"uv": [13, 3, 16, 4], "rotation": 270, "texture": "#bottom"},
				"down": {"uv": [13, 12, 16, 13], "rotation": 270, "texture": "#bottom", "cullface": "down"}
			}
		},
		{
			"from": [6, 0, 0],
			"to": [7, 9, 1],
			"faces": {
				"north": {"uv": [0, 0, 1, 16], "texture": "#bottom", "cullface": "south"},
				"east": {"uv": [6, 7, 7, 16], "texture": "#bottom", "cullface": "west"},
				"south": {"uv": [0, 0, 1, 16], "texture": "#bottom", "cullface": "north"},
				"west": {"uv": [0, 0, 3, 16], "texture": "#bottom"},
				"up": {"uv": [13, 3, 16, 4], "rotation": 270, "texture": "#bottom"},
				"down": {"uv": [13, 12, 16, 13], "rotation": 270, "texture": "#bottom", "cullface": "down"}
			}
		},
		{
			"from": [6, 0, -1],
			"to": [7, 7, 0],
			"faces": {
				"north": {"uv": [0, 0, 1, 16], "texture": "#bottom", "cullface": "south"},
				"east": {"uv": [5, 9, 6, 16], "texture": "#bottom", "cullface": "west"},
				"south": {"uv": [0, 0, 1, 16], "texture": "#bottom", "cullface": "north"},
				"west": {"uv": [0, 0, 3, 16], "texture": "#bottom"},
				"up": {"uv": [13, 3, 16, 4], "rotation": 270, "texture": "#bottom"},
				"down": {"uv": [13, 12, 16, 13], "rotation": 270, "texture": "#bottom", "cullface": "down"}
			}
		},
		{
			"from": [6, 0, -2],
			"to": [7, 5, -1],
			"faces": {
				"north": {"uv": [0, 0, 1, 16], "texture": "#bottom", "cullface": "south"},
				"east": {"uv": [4, 11, 5, 16], "texture": "#bottom", "cullface": "west"},
				"south": {"uv": [0, 0, 1, 16], "texture": "#bottom", "cullface": "north"},
				"west": {"uv": [0, 0, 3, 16], "texture": "#bottom"},
				"up": {"uv": [13, 3, 16, 4], "rotation": 270, "texture": "#bottom"},
				"down": {"uv": [13, 12, 16, 13], "rotation": 270, "texture": "#bottom", "cullface": "down"}
			}
		},
		{
			"from": [7, 7, 7],
			"to": [8, 8, 10],
			"faces": {
				"north": {"uv": [14, 8, 13, 9], "rotation": 270, "texture": "#bottom", "cullface": "south"},
				"east": {"uv": [16, 8, 13, 9], "texture": "#bottom", "cullface": "west"},
				"south": {"uv": [16, 8, 15, 9], "rotation": 270, "texture": "#bottom", "cullface": "north"},
				"west": {"uv": [16, 8, 13, 9], "texture": "#bottom"},
				"up": {"uv": [16, 8, 13, 9], "rotation": 270, "texture": "#bottom"},
				"down": {"uv": [16, 8, 13, 9], "rotation": 270, "texture": "#bottom", "cullface": "down"}
			}
		},
		{
			"from": [7, 8, 6],
			"to": [8, 9, 7],
			"faces": {
				"north": {"uv": [12, 7, 13, 8], "texture": "#bottom", "cullface": "south"},
				"east": {"uv": [12, 7, 13, 8], "texture": "#bottom", "cullface": "west"},
				"south": {"uv": [12, 7, 13, 8], "texture": "#bottom", "cullface": "north"},
				"west": {"uv": [12, 7, 13, 8], "texture": "#bottom"},
				"up": {"uv": [12, 7, 13, 8], "texture": "#bottom"},
				"down": {"uv": [12, 7, 13, 8], "texture": "#bottom", "cullface": "down"}
			}
		},
		{
			"from": [7, 0, 3],
			"to": [8, 4, 4],
			"faces": {
				"north": {"uv": [9, 12, 10, 16], "texture": "#bottom", "cullface": "south"},
				"east": {"uv": [9, 12, 10, 16], "texture": "#bottom", "cullface": "west"},
				"south": {"uv": [9, 12, 10, 16], "texture": "#bottom", "cullface": "north"},
				"west": {"uv": [9, 12, 10, 16], "texture": "#bottom"},
				"up": {"uv": [9, 12, 10, 13], "texture": "#bottom"},
				"down": {"uv": [9, 12, 10, 13], "texture": "#bottom", "cullface": "down"}
			}
		}
	],
	"groups": [0, 1, 2, 3,
		{
			"name": "group",
			"children": [4, 5, 6, 7, 8, 9, 10, 11, 12, 13, 14, 15, 16, 17, 18, 19, 20, 21, 22, 23, 24, 25, 26, 27, 28, 29, 30]
		}
	]
}