{
	"credit": "Made by 0ptima, totally cool guy from Frostburn",
	"ambientocclusion": false,
	"textures": {
		"0": "blocks/stone_slab_side",
		"1": "blocks/stone_slab_top",
		"2": "blocks/stone_slab_under",
		"particle": "blocks/stone_slab_side"
	},
	"elements": [
		{
			"from": [1.01309, 0.00002, 3.98689],
			"to": [15.01309, 1.00002, 17.98689],
			"rotation": {"angle": 22.5, "axis": "y", "origin": [8.01309, 0.50002, 10.98689]},
			"faces": {
				"north": {"uv": [1, 0, 15, 1], "texture": "#0"},
				"east": {"uv": [1, 0, 15, 1], "texture": "#0"},
				"south": {"uv": [1, 0, 15, 1], "texture": "#0"},
				"west": {"uv": [1, 0, 15, 1], "texture": "#0"},
				"up": {"uv": [1, 1, 15, 14.999], "rotation": 90, "texture": "#1"}
			}
		},
		{
			"from": [0, 0.03125, 0],
			"to": [16, 0.03125, 16],
			"faces": {
				"up": {"uv": [0, 0, 16, 16], "texture": "#2"}
			}
		}
	],
	"display": {
		"thirdperson_righthand": {
			"rotation": [71, 0, 16],
			"translation": [-1.5, 2.75, 2.5],
			"scale": [0.5, 0.5, 0.5]
		},
		"thirdperson_lefthand": {
			"rotation": [71, 0, 16],
			"translation": [-1.5, 2.75, 2.5],
			"scale": [0.5, 0.5, 0.5]
		},
		"firstperson_righthand": {
			"rotation": [35, -14, 0],
			"translation": [2.5, 4, 0]
		},
		"firstperson_lefthand": {
			"rotation": [35, -14, 0],
			"translation": [2.5, 4, 0]
		},
		"ground": {
			"translation": [0, 3.5, 0],
			"scale": [0.65, 0.65, 0.65]
		},
		"gui": {
			"rotation": [45, 35, 0],
			"translation": [0.25, 4, 0],
			"scale": [0.72461, 0.72461, 0.72461]
		}
	}
}