{
	"credit": "Made by 0ptima, totally cool guy from Frostburn",
	"textures": {
		"texture": "blocks/m_wall",
		"particle": "blocks/m_wall",
		"texture1": "blocks/m_wall_top"
	},
	"elements": [
		{
			"name": "Cube1",
			"from": [4, 0, 5.5],
			"to": [5, 16, 10.5],
			"faces": {
				"north": {"uv": [1, 0, 2, 16], "texture": "#texture"},
				"east": {"uv": [0, 0, 5, 16], "texture": "#texture"},
				"south": {"uv": [0, 0, 1, 16], "texture": "#texture"},
				"west": {"uv": [0, 0, 5, 16], "texture": "#texture"},
				"up": {"uv": [2, 8, 8, 9], "rotation": 90, "texture": "#texture1"},
				"down": {"uv": [2, 8, 8, 9], "rotation": 90, "texture": "#texture1"}
			}
		},
		{
			"name": "Cube1",
			"from": [5.5, 0, 11],
			"to": [10.5, 16, 12],
			"faces": {
				"north": {"uv": [11, 0, 16, 16], "texture": "#texture"},
				"east": {"uv": [0, 0, 4, 16], "texture": "#texture"},
				"south": {"uv": [11, 0, 16, 16], "texture": "#texture"},
				"west": {"uv": [0, 0, 4, 16], "texture": "#texture"},
				"up": {"uv": [9, 0, 10, 6], "rotation": 90, "texture": "#texture1"},
				"down": {"uv": [4, 0, 5, 6], "texture": "#texture1"}
			}
		},
		{
			"name": "Cube1",
			"from": [5, 0, 6],
			"to": [11, 16, 8],
			"faces": {
				"north": {"uv": [11, 0, 16, 16], "texture": "#texture"},
				"east": {"uv": [0, 0, 2, 16], "texture": "#texture"},
				"south": {"uv": [11, 0, 16, 16], "texture": "#texture"},
				"west": {"uv": [0, 0, 2, 16], "texture": "#texture"},
				"up": {"uv": [9, 0, 16, 2], "texture": "#texture1"},
				"down": {"uv": [4, 0, 7, 6], "texture": "#texture1"}
			}
		},
		{
			"name": "Cube1",
			"from": [5.5, 0, 4],
			"to": [10.5, 16, 5],
			"faces": {
				"north": {"uv": [11, 0, 16, 16], "texture": "#texture"},
				"east": {"uv": [0, 0, 4, 16], "texture": "#texture"},
				"south": {"uv": [11, 0, 16, 16], "texture": "#texture"},
				"west": {"uv": [0, 0, 4, 16], "texture": "#texture"},
				"up": {"uv": [9, 0, 10, 6], "rotation": 90, "texture": "#texture1"},
				"down": {"uv": [4, 0, 5, 6.5], "texture": "#texture1"}
			}
		},
		{
			"name": "Cube1",
			"from": [5, 0, 5],
			"to": [11, 16, 11],
			"faces": {
				"north": {"uv": [5.5, 0, 11.5, 16], "texture": "#texture"},
				"east": {"uv": [10, 0, 16, 16], "texture": "#texture"},
				"south": {"uv": [0, 0, 6, 16], "texture": "#texture"},
				"west": {"uv": [5, 0, 11, 16], "texture": "#texture"},
				"up": {"uv": [4, 0, 9, 5], "texture": "#texture1"},
				"down": {"uv": [4, 0, 9, 5], "texture": "#texture1"}
			}
		},
		{
			"name": "Cube1",
			"from": [5, 16, 5],
			"to": [11, 17, 11],
			"faces": {
				"north": {"uv": [0, 15, 5.5, 16], "texture": "#texture"},
				"east": {"uv": [0, 15, 5.5, 16], "texture": "#texture"},
				"south": {"uv": [0, 15, 5.5, 16], "texture": "#texture"},
				"west": {"uv": [0, 15, 5.5, 16], "texture": "#texture"},
				"up": {"uv": [2, 8, 10, 16], "texture": "#texture1"},
				"down": {"uv": [3, 9, 9, 15], "texture": "#texture1"}
			}
		},
		{
			"name": "Cube1",
			"from": [11, 0, 5.5],
			"to": [12, 16, 10.5],
			"faces": {
				"north": {"uv": [1, 0, 2, 16], "texture": "#texture"},
				"east": {"uv": [0, 0, 5, 16], "texture": "#texture"},
				"south": {"uv": [0, 0, 1, 16], "texture": "#texture"},
				"west": {"uv": [0, 0, 5, 16], "texture": "#texture"},
				"up": {"uv": [2, 8, 8, 9], "rotation": 90, "texture": "#texture1"},
				"down": {"uv": [2, 8, 8, 9], "rotation": 90, "texture": "#texture1"}
			}
		}
	]
}