{
	"credit": "Made by 0ptima, totally cool guy from Frostburn",
	"ambientocclusion": false,
	"textures": {
		"2": "models/acacia",
		"3": "models/slab",
		"4": "models/acacia2",
		"particle": "models/acacia"
	},
	"elements": [
		{
			"from": [0, 7, 7],
			"to": [16, 9, 11],
			"faces": {
				"north": {"uv": [0, 1, 15.999, 2.999], "texture": "#2"},
				"east": {"uv": [5, 9, 9.998, 10.999], "texture": "#4"},
				"south": {"uv": [0, 1, 15.999, 2.999], "texture": "#2"},
				"west": {"uv": [4, 5, 8.998, 6.999], "texture": "#4"},
				"up": {"uv": [0, 3, 15.999, 7.998], "texture": "#2"},
				"down": {"uv": [0, 7, 15.999, 11.998], "texture": "#2"}
			}
		},
		{
			"from": [0, 13.51186, 2.49371],
			"to": [16, 17.51186, 4.49371],
			"rotation": {"angle": -22.5, "axis": "x", "origin": [8, 12.51186, 3.99371]},
			"faces": {
				"north": {"uv": [0, 7, 15.999, 11.998], "texture": "#2"},
				"east": {"uv": [11, 5, 12.998, 9.998], "texture": "#4"},
				"south": {"uv": [0, 7, 15.999, 11.998], "texture": "#2"},
				"west": {"uv": [12, 4, 13.998, 8.998], "texture": "#4"},
				"up": {"uv": [0, 1, 15.999, 2.999], "texture": "#2"},
				"down": {"uv": [0, 1, 15.999, 2.999], "texture": "#2"}
			}
		},
		{
			"from": [7, 6.57359, 4.35629],
			"to": [9, 6.97359, 15.35629],
			"faces": {
				"east": {"uv": [5, 6, 11, 6.4], "texture": "#3"},
				"south": {"uv": [4, 4, 6, 5], "texture": "#3"},
				"west": {"uv": [5, 5, 11, 5.4], "texture": "#3"},
				"up": {"uv": [6, 3, 7.999, 9], "texture": "#3"},
				"down": {"uv": [7, 4, 8, 10], "texture": "#3"}
			}
		},
		{
			"from": [7, 5.56245, 8.78323],
			"to": [9, 6.56245, 11.78323],
			"faces": {
				"north": {"uv": [4, 4, 6, 5], "texture": "#3"},
				"east": {"uv": [4, 4, 7, 5], "texture": "#3"},
				"south": {"uv": [4, 4, 6, 5], "texture": "#3"},
				"west": {"uv": [4, 4, 7, 5], "texture": "#3"},
				"down": {"uv": [7, 5, 8.999, 8], "texture": "#3"}
			}
		},
		{
			"from": [7, -0.57143, 11.31355],
			"to": [9, 5.74107, 11.81355],
			"rotation": {"angle": -22.5, "axis": "x", "origin": [7, 5.74107, 11.56355]},
			"faces": {
				"north": {"uv": [6, 3, 7.999, 9.998], "rotation": 180, "texture": "#3"},
				"east": {"uv": [5, 4, 6, 8.999], "rotation": 180, "texture": "#3"},
				"south": {"uv": [6, 3, 7.999, 9.998], "rotation": 180, "texture": "#3"},
				"west": {"uv": [5, 4, 6, 8.999], "rotation": 180, "texture": "#3"}
			}
		},
		{
			"from": [0, 7, 12],
			"to": [16, 9, 16],
			"faces": {
				"north": {"uv": [0, 1, 15.999, 2.999], "texture": "#2"},
				"east": {"uv": [10, 7, 14.998, 8.999], "texture": "#4"},
				"south": {"uv": [0, 1, 15.999, 2.999], "texture": "#2"},
				"west": {"uv": [0, 0, 4.998, 1.999], "texture": "#4"},
				"up": {"uv": [0, 11, 15.999, 15.998], "rotation": 180, "texture": "#2"},
				"down": {"uv": [0, 11, 15.999, 15.998], "texture": "#2"}
			}
		},
		{
			"from": [0, 8.51186, 2.49371],
			"to": [16, 12.51186, 4.49371],
			"rotation": {"angle": -22.5, "axis": "x", "origin": [8, 12.51186, 3.99371]},
			"faces": {
				"north": {"uv": [0, 3, 15.999, 7.998], "texture": "#2"},
				"east": {"uv": [4, 1, 5.998, 5.998], "texture": "#4"},
				"south": {"uv": [0, 11, 15.999, 15.998], "texture": "#2"},
				"west": {"uv": [1, 6, 2.998, 10.998], "texture": "#4"},
				"up": {"uv": [0, 1, 15.999, 2.999], "texture": "#2"},
				"down": {"uv": [0, 1, 15.999, 2.999], "texture": "#2"}
			}
		},
		{
			"from": [7, 6.88686, 2.05621],
			"to": [9, 16.51186, 2.49371],
			"rotation": {"angle": -22.5, "axis": "x", "origin": [8, 12.51186, 3.99371]},
			"faces": {
				"north": {"uv": [2, 5, 13.999, 6.999], "rotation": 90, "texture": "#3"},
				"east": {"uv": [5, 5, 11, 5.4], "rotation": 90, "texture": "#3"},
				"south": {"uv": [2, 5, 13.999, 6.999], "rotation": 90, "texture": "#3"},
				"west": {"uv": [5, 5, 11, 5.4], "rotation": 90, "texture": "#3"},
				"up": {"uv": [2, 5, 3.999, 5.999], "texture": "#3"}
			}
		},
		{
			"from": [7, -0.57143, 8.81355],
			"to": [9, 5.74107, 9.31355],
			"rotation": {"angle": 22.5, "axis": "x", "origin": [7, 5.74107, 9.06355]},
			"faces": {
				"north": {"uv": [6, 3, 7.999, 9.998], "rotation": 180, "texture": "#3"},
				"east": {"uv": [6.999, 3, 7.999, 7.999], "rotation": 180, "texture": "#3"},
				"south": {"uv": [6, 3, 7.999, 9.998], "rotation": 180, "texture": "#3"},
				"west": {"uv": [6.999, 3, 7.999, 7.999], "rotation": 180, "texture": "#3"}
			}
		}
	],
	"display": {
		"thirdperson_righthand": {
			"translation": [0.5, 0, 0]
		},
		"gui": {
			"rotation": [34, -49, 19]
		},
		"fixed": {
			"rotation": [0, 180, 0],
			"translation": [-0.75, 9.5, -16.5],
			"scale": [2.10742, 3.06836, 2.56055]
		}
	}
}