{
	"credit": "Made by 0ptima. Check TwinsProductionMC & Aurora Entertainment!",
	"parent": "block/fence_gate_closed",
	"textures": {
		"1": "blocks/cryoinfo_l1",
		"particle": "blocks/cryoinfo_l1"
	},
	"elements": [
		{
			"from": [1, 5, 7.5],
			"to": [15, 6, 8.5],
			"faces": {
				"north": {"uv": [2.125, 1.125, 2.875, 1.875], "texture": "#1"},
				"east": {"uv": [2.125, 1.125, 2.875, 1.875], "texture": "#1"},
				"south": {"uv": [2.125, 1.125, 2.875, 1.875], "texture": "#1"},
				"west": {"uv": [2.125, 1.125, 2.875, 1.875], "texture": "#1"},
				"up": {"uv": [2.125, 1.125, 2.875, 1.875], "texture": "#1"},
				"down": {"uv": [2.125, 1.125, 2.875, 1.875], "texture": "#1"}
			}
		},
		{
			"from": [1, 10, 7.5],
			"to": [15, 11, 8.5],
			"faces": {
				"north": {"uv": [2.125, 1.125, 2.875, 1.875], "texture": "#1"},
				"east": {"uv": [2.125, 1.125, 2.875, 1.875], "texture": "#1"},
				"south": {"uv": [2.125, 1.125, 2.875, 1.875], "texture": "#1"},
				"west": {"uv": [2.125, 1.125, 2.875, 1.875], "texture": "#1"},
				"up": {"uv": [2.125, 1.125, 2.875, 1.875], "texture": "#1"},
				"down": {"uv": [2.125, 1.125, 2.875, 1.875], "texture": "#1"}
			}
		},
		{
			"from": [15, -1, 7.5],
			"to": [16, 13, 8.5],
			"faces": {
				"north": {"uv": [2.125, 1.125, 2.875, 1.875], "texture": "#1"},
				"east": {"uv": [2.125, 1.125, 2.875, 1.875], "texture": "#1"},
				"south": {"uv": [2.125, 1.125, 2.875, 1.875], "texture": "#1"},
				"west": {"uv": [2.125, 1.125, 2.875, 1.875], "texture": "#1"},
				"up": {"uv": [2.125, 1.125, 2.875, 1.875], "texture": "#1"},
				"down": {"uv": [2.125, 1.125, 2.875, 1.875], "texture": "#1"}
			}
		},
		{
			"from": [0, -1, 7.5],
			"to": [1, 13, 8.5],
			"faces": {
				"north": {"uv": [2.125, 1.125, 2.875, 1.875], "texture": "#1"},
				"east": {"uv": [2.125, 1.125, 2.875, 1.875], "texture": "#1"},
				"south": {"uv": [2.125, 1.125, 2.875, 1.875], "texture": "#1"},
				"west": {"uv": [2.125, 1.125, 2.875, 1.875], "texture": "#1"},
				"up": {"uv": [2.125, 1.125, 2.875, 1.875], "texture": "#1"},
				"down": {"uv": [2.125, 1.125, 2.875, 1.875], "texture": "#1"}
			}
		},
		{
			"from": [0, 13, 7],
			"to": [16, 15, 9],
			"faces": {
				"north": {"uv": [2.125, 1.125, 2.875, 1.875], "texture": "#1"},
				"east": {"uv": [2.125, 1.125, 2.875, 1.875], "texture": "#1"},
				"south": {"uv": [2.125, 1.125, 2.875, 1.875], "texture": "#1"},
				"west": {"uv": [2.125, 1.125, 2.875, 1.875], "texture": "#1"},
				"up": {"uv": [2.125, 1.125, 2.875, 1.875], "texture": "#1"},
				"down": {"uv": [2.125, 1.125, 2.875, 1.875], "texture": "#1"}
			}
		}
	]
}