{
	"credit": "Made by 0ptima. Check TwinsProductionMC & Aurora Entertainment!",
	"parent": "block/fence_gate_closed",
	"textures": {
		"1": "blocks/cryoinfo_l1",
		"2": "models/armor/armor_on_stand",
		"particle": "blocks/cryoinfo_l1"
	},
	"elements": [
		{
			"from": [1, 5, 7.5],
			"to": [15, 6, 8.5],
			"faces": {
				"north": {"uv": [2.125, 1.125, 2.875, 1.875], "texture": "#1"},
				"east": {"uv": [2.125, 1.125, 2.875, 1.875], "texture": "#1"},
				"south": {"uv": [2.125, 1.125, 2.875, 1.875], "texture": "#1"},
				"west": {"uv": [2.125, 1.125, 2.875, 1.875], "texture": "#1"},
				"up": {"uv": [2.125, 1.125, 2.875, 1.875], "texture": "#1"},
				"down": {"uv": [2.125, 1.125, 2.875, 1.875], "texture": "#1"}
			}
		},
		{
			"from": [1, 10, 7.5],
			"to": [15, 11, 8.5],
			"faces": {
				"north": {"uv": [2.125, 1.125, 2.875, 1.875], "texture": "#1"},
				"east": {"uv": [2.125, 1.125, 2.875, 1.875], "texture": "#1"},
				"south": {"uv": [2.125, 1.125, 2.875, 1.875], "texture": "#1"},
				"west": {"uv": [2.125, 1.125, 2.875, 1.875], "texture": "#1"},
				"up": {"uv": [2.125, 1.125, 2.875, 1.875], "texture": "#1"},
				"down": {"uv": [2.125, 1.125, 2.875, 1.875], "texture": "#1"}
			}
		},
		{
			"from": [15, -1, 7.5],
			"to": [16, 13, 8.5],
			"faces": {
				"north": {"uv": [2.125, 1.125, 2.875, 1.875], "texture": "#1"},
				"east": {"uv": [2.125, 1.125, 2.875, 1.875], "texture": "#1"},
				"south": {"uv": [2.125, 1.125, 2.875, 1.875], "texture": "#1"},
				"west": {"uv": [2.125, 1.125, 2.875, 1.875], "texture": "#1"},
				"up": {"uv": [2.125, 1.125, 2.875, 1.875], "texture": "#1"},
				"down": {"uv": [2.125, 1.125, 2.875, 1.875], "texture": "#1"}
			}
		},
		{
			"from": [0, -1, 7.5],
			"to": [1, 13, 8.5],
			"faces": {
				"north": {"uv": [2.125, 1.125, 2.875, 1.875], "texture": "#1"},
				"east": {"uv": [2.125, 1.125, 2.875, 1.875], "texture": "#1"},
				"south": {"uv": [2.125, 1.125, 2.875, 1.875], "texture": "#1"},
				"west": {"uv": [2.125, 1.125, 2.875, 1.875], "texture": "#1"},
				"up": {"uv": [2.125, 1.125, 2.875, 1.875], "texture": "#1"},
				"down": {"uv": [2.125, 1.125, 2.875, 1.875], "texture": "#1"}
			}
		},
		{
			"from": [0, 13, 7],
			"to": [16, 15, 9],
			"faces": {
				"north": {"uv": [2.125, 1.125, 2.875, 1.875], "texture": "#1"},
				"east": {"uv": [2.125, 1.125, 2.875, 1.875], "texture": "#1"},
				"south": {"uv": [2.125, 1.125, 2.875, 1.875], "texture": "#1"},
				"west": {"uv": [2.125, 1.125, 2.875, 1.875], "texture": "#1"},
				"up": {"uv": [2.125, 1.125, 2.875, 1.875], "texture": "#1"},
				"down": {"uv": [2.125, 1.125, 2.875, 1.875], "texture": "#1"}
			}
		},
		{
			"from": [3.5, 3, 6.75],
			"to": [7.25, 11.25, 7.5],
			"faces": {
				"north": {"uv": [4.25, 1.75, 5.75, 5], "texture": "#2"},
				"east": {"uv": [4.25, 1.75, 4.5, 5], "texture": "#2"},
				"south": {"uv": [5.75, 1.75, 4.25, 5], "texture": "#2"},
				"west": {"uv": [5.5, 1.75, 5.75, 5], "texture": "#2"},
				"up": {"uv": [5.75, 1.75, 4.25, 2], "texture": "#2"},
				"down": {"uv": [4.25, 4.75, 5.75, 5], "texture": "#2"}
			}
		},
		{
			"from": [8.75, 3, 6.75],
			"to": [12.5, 11.25, 7.5],
			"faces": {
				"north": {"uv": [2.25, 1.75, 3.75, 5], "texture": "#2"},
				"east": {"uv": [2.25, 1.75, 2.5, 5], "texture": "#2"},
				"south": {"uv": [3.75, 1.75, 2.25, 5], "texture": "#2"},
				"west": {"uv": [3.5, 1.75, 3.75, 5], "texture": "#2"},
				"up": {"uv": [3.75, 1.75, 2.25, 2], "texture": "#2"},
				"down": {"uv": [2.25, 4.75, 3.75, 5], "texture": "#2"}
			}
		},
		{
			"from": [7.25, 5.5, 7],
			"to": [8.75, 6.25, 7.25],
			"faces": {
				"north": {"uv": [3.75, 3.75, 4.25, 4], "texture": "#2"},
				"east": {"uv": [3.75, 3.75, 4.25, 4], "texture": "#2"},
				"south": {"uv": [3.75, 3.75, 4.25, 4], "texture": "#2"},
				"west": {"uv": [3.75, 3.75, 4.25, 4], "texture": "#2"},
				"up": {"uv": [4.25, 3.75, 3.75, 4], "texture": "#2"},
				"down": {"uv": [4.25, 3.75, 3.75, 4], "texture": "#2"}
			}
		},
		{
			"from": [7.25, 8.5, 7],
			"to": [8.75, 9.25, 7.25],
			"faces": {
				"north": {"uv": [3.75, 3.75, 4.25, 4], "texture": "#2"},
				"east": {"uv": [3.75, 3.75, 4.25, 4], "texture": "#2"},
				"south": {"uv": [3.75, 3.75, 4.25, 4], "texture": "#2"},
				"west": {"uv": [3.75, 3.75, 4.25, 4], "texture": "#2"},
				"up": {"uv": [4.25, 3.75, 3.75, 4], "texture": "#2"},
				"down": {"uv": [4.25, 3.75, 3.75, 4], "texture": "#2"}
			}
		},
		{
			"from": [4.25, 1.5, 6.75],
			"to": [11.75, 3, 7.5],
			"faces": {
				"north": {"uv": [2.5, 5, 5.5, 5.5], "texture": "#2"},
				"east": {"uv": [2.5, 5, 2.75, 5.5], "texture": "#2"},
				"south": {"uv": [5.5, 5, 2.5, 5.5], "texture": "#2"},
				"west": {"uv": [5.25, 5, 5.5, 5.5], "texture": "#2"},
				"up": {"uv": [2.5, 5, 5.5, 5.25], "texture": "#2"},
				"down": {"uv": [2.5, 5, 5.5, 5.25], "texture": "#2"}
			}
		},
		{
			"from": [9.75, 11.25, 6.75],
			"to": [11.75, 12.75, 7.5],
			"faces": {
				"north": {"uv": [2.5, 1.25, 3.25, 1.75], "texture": "#2"},
				"east": {"uv": [2.5, 1.25, 2.75, 1.75], "texture": "#2"},
				"south": {"uv": [3.25, 1.25, 2.5, 1.75], "texture": "#2"},
				"west": {"uv": [3, 1.25, 3.25, 1.75], "texture": "#2"},
				"up": {"uv": [2.5, 1.25, 3.25, 1.5], "texture": "#2"}
			}
		},
		{
			"from": [4.25, 11.25, 6.75],
			"to": [6.25, 12.75, 7.5],
			"faces": {
				"north": {"uv": [4.75, 1.25, 5.5, 1.75], "texture": "#2"},
				"east": {"uv": [4.75, 1.25, 5, 1.75], "texture": "#2"},
				"south": {"uv": [5.5, 1.25, 4.75, 1.75], "texture": "#2"},
				"west": {"uv": [5.25, 1.25, 5.5, 1.75], "texture": "#2"},
				"up": {"uv": [4.75, 1.25, 5.5, 1.5], "texture": "#2"}
			}
		},
		{
			"from": [7.5, 7.25, 8.75],
			"to": [8.5, 11, 9.25],
			"faces": {
				"north": {"uv": [10.25, 1.75, 9.75, 3.25], "texture": "#2"},
				"east": {"uv": [10, 1.75, 10.25, 3.25], "texture": "#2"},
				"south": {"uv": [9.75, 1.75, 10.25, 3.25], "texture": "#2"},
				"west": {"uv": [9.75, 1.75, 10, 3.25], "texture": "#2"}
			}
		},
		{
			"from": [3.75, 11, 8.75],
			"to": [12.25, 11.5, 9.25],
			"faces": {
				"north": {"uv": [11.75, 1.5, 8.25, 1.75], "texture": "#2"},
				"east": {"uv": [11.5, 1.5, 11.75, 1.75], "texture": "#2"},
				"south": {"uv": [8.25, 1.5, 11.75, 1.75], "texture": "#2"},
				"west": {"uv": [8.25, 1.5, 8.5, 1.75], "texture": "#2"},
				"up": {"uv": [8.25, 1.5, 11.75, 1.75], "texture": "#2"},
				"down": {"uv": [8.25, 1.5, 11.75, 1.75], "texture": "#2"}
			}
		},
		{
			"from": [4.25, 6, 8.75],
			"to": [11.75, 7.25, 9.25],
			"faces": {
				"north": {"uv": [11.5, 3.25, 8.5, 3.75], "texture": "#2"},
				"east": {"uv": [11.25, 3.25, 11.5, 3.75], "texture": "#2"},
				"south": {"uv": [8.5, 3.25, 11.5, 3.75], "texture": "#2"},
				"west": {"uv": [8.5, 3.25, 8.75, 3.75], "texture": "#2"},
				"up": {"uv": [8.5, 3.5, 11.5, 3.75], "texture": "#2"},
				"down": {"uv": [8.5, 3.5, 11.5, 3.75], "texture": "#2"}
			}
		},
		{
			"from": [3.75, 7.25, 8.75],
			"to": [4.75, 11, 9.25],
			"faces": {
				"north": {"uv": [8.75, 1.75, 8.25, 3.25], "texture": "#2"},
				"east": {"uv": [8.5, 1.75, 8.75, 3.25], "texture": "#2"},
				"south": {"uv": [8.25, 1.75, 8.75, 3.25], "texture": "#2"},
				"west": {"uv": [8.25, 1.75, 8.5, 3.25], "texture": "#2"},
				"down": {"uv": [8.25, 3, 8.75, 3.25], "texture": "#2"}
			}
		},
		{
			"from": [3.75, 9.5, 7.5],
			"to": [4.25, 10, 8.75],
			"faces": {
				"north": {"uv": [6.5, 2.25, 6.75, 2.5], "texture": "#2"},
				"east": {"uv": [6.5, 2.25, 6.75, 2.5], "texture": "#2"},
				"south": {"uv": [6.5, 2.25, 6.75, 2.5], "texture": "#2"},
				"west": {"uv": [6.5, 2.25, 6.75, 2.5], "texture": "#2"},
				"up": {"uv": [6.5, 2.25, 6.75, 2.5], "texture": "#2"},
				"down": {"uv": [6.5, 2.25, 6.75, 2.5], "texture": "#2"}
			}
		},
		{
			"from": [11.75, 9.5, 7.5],
			"to": [12.25, 10, 8.75],
			"faces": {
				"north": {"uv": [6.5, 2.25, 6.75, 2.5], "texture": "#2"},
				"east": {"uv": [6.5, 2.25, 6.75, 2.5], "texture": "#2"},
				"south": {"uv": [6.5, 2.25, 6.75, 2.5], "texture": "#2"},
				"west": {"uv": [6.5, 2.25, 6.75, 2.5], "texture": "#2"},
				"up": {"uv": [6.5, 2.25, 6.75, 2.5], "texture": "#2"},
				"down": {"uv": [6.5, 2.25, 6.75, 2.5], "texture": "#2"}
			}
		},
		{
			"from": [4.25, 6.5, 7.5],
			"to": [4.75, 7, 8.75],
			"faces": {
				"north": {"uv": [6.5, 2.25, 6.75, 2.5], "texture": "#2"},
				"east": {"uv": [6.5, 2.25, 6.75, 2.5], "texture": "#2"},
				"south": {"uv": [6.5, 2.25, 6.75, 2.5], "texture": "#2"},
				"west": {"uv": [6.5, 2.25, 6.75, 2.5], "texture": "#2"},
				"up": {"uv": [6.5, 2.25, 6.75, 2.5], "texture": "#2"},
				"down": {"uv": [6.5, 2.25, 6.75, 2.5], "texture": "#2"}
			}
		},
		{
			"from": [11.25, 6.5, 7.5],
			"to": [11.75, 7, 8.75],
			"faces": {
				"north": {"uv": [6.5, 2.25, 6.75, 2.5], "texture": "#2"},
				"east": {"uv": [6.5, 2.25, 6.75, 2.5], "texture": "#2"},
				"south": {"uv": [6.5, 2.25, 6.75, 2.5], "texture": "#2"},
				"west": {"uv": [6.5, 2.25, 6.75, 2.5], "texture": "#2"},
				"up": {"uv": [6.5, 2.25, 6.75, 2.5], "texture": "#2"},
				"down": {"uv": [6.5, 2.25, 6.75, 2.5], "texture": "#2"}
			}
		},
		{
			"from": [11.25, 7.25, 8.75],
			"to": [12.25, 11, 9.25],
			"faces": {
				"north": {"uv": [11.75, 1.75, 11.25, 3.25], "texture": "#2"},
				"east": {"uv": [11.5, 1.75, 11.75, 3.25], "texture": "#2"},
				"south": {"uv": [11.25, 1.75, 11.75, 3.25], "texture": "#2"},
				"west": {"uv": [11.25, 1.75, 11.5, 3.25], "texture": "#2"},
				"down": {"uv": [11.25, 3, 11.75, 3.25], "texture": "#2"}
			}
		}
	]
}