{
	"credit": "Made by 0ptima, totally cool guy from Frostburn",
	"textures": {
		"2": "models/lamp",
		"particle": "models/lamp"
	},
	"elements": [
		{
			"from": [14.5, 7, 7],
			"to": [15, 8.5, 9],
			"faces": {
				"north": {"uv": [6, 0, 6.997, 2.998], "rotation": 180, "texture": "#2"},
				"south": {"uv": [8.998, 0, 9.998, 2.998], "rotation": 180, "texture": "#2"},
				"west": {"uv": [6, 0, 9.998, 2.998], "rotation": 180, "texture": "#2"},
				"up": {"uv": [6, 0, 9.998, 0.997], "rotation": 90, "texture": "#2"},
				"down": {"uv": [6, 1.997, 9.998, 2.997], "rotation": 90, "texture": "#2"}
			}
		},
		{
			"from": [15, 6.5, 6.5],
			"to": [15.5, 9, 9.5],
			"faces": {
				"north": {"uv": [11, 0, 11.997, 3.998], "rotation": 180, "texture": "#2"},
				"south": {"uv": [14.998, 0, 15.998, 3.998], "rotation": 180, "texture": "#2"},
				"west": {"uv": [11, 0, 15.998, 3.998], "rotation": 180, "texture": "#2"},
				"up": {"uv": [11, 0, 15.998, 0.997], "rotation": 90, "texture": "#2"},
				"down": {"uv": [11, 2.997, 15.998, 3.997], "rotation": 90, "texture": "#2"}
			}
		},
		{
			"from": [14.61314, 5.43121, 7.5],
			"to": [15.11314, 7.43121, 8.5],
			"rotation": {"angle": 22.5, "axis": "z", "origin": [10.61314, 5.93121, 7]},
			"faces": {
				"north": {"uv": [6, 4, 6.997, 6.998], "rotation": 180, "texture": "#2"},
				"east": {"uv": [6, 4, 7.998, 6.998], "rotation": 180, "texture": "#2"},
				"south": {"uv": [6, 4, 6.997, 6.998], "rotation": 180, "texture": "#2"},
				"west": {"uv": [6, 4, 7.998, 6.998], "rotation": 180, "texture": "#2"}
			}
		},
		{
			"from": [2.12778, 8.65224, 6.5],
			"to": [4.12778, 9.15224, 9.5],
			"rotation": {"angle": -22.5, "axis": "z", "origin": [13.12778, 5.15224, 8]},
			"faces": {
				"north": {"uv": [4.997, 6, 4, 3], "rotation": 270, "texture": "#2"},
				"south": {"uv": [4.997, 6, 4, 3], "rotation": 270, "texture": "#2"},
				"west": {"uv": [8.997, 16, 4, 15], "rotation": 180, "texture": "#2"},
				"up": {"uv": [8.998, 6, 4, 3], "rotation": 270, "texture": "#2"},
				"down": {"uv": [8.998, 6, 4, 3], "rotation": 270, "texture": "#2"}
			}
		},
		{
			"from": [1.66626, 8.64568, 7],
			"to": [2.16626, 8.94568, 9],
			"rotation": {"angle": -22.5, "axis": "z", "origin": [13.66626, 5.14568, 7.5]},
			"faces": {
				"north": {"uv": [5.996, 16, 5, 15], "rotation": 270, "texture": "#2"},
				"south": {"uv": [5.996, 16, 5, 15], "rotation": 270, "texture": "#2"},
				"west": {"uv": [6.996, 11, 6, 10], "rotation": 270, "texture": "#2"},
				"up": {"uv": [7.997, 16, 5, 15], "rotation": 270, "texture": "#2"},
				"down": {"uv": [7.997, 16, 5, 15], "rotation": 270, "texture": "#2"}
			}
		},
		{
			"from": [1.16646, 8.54672, 7.5],
			"to": [1.66646, 8.74672, 8.5],
			"rotation": {"angle": -22.5, "axis": "z", "origin": [14.16646, 5.04672, 8]},
			"faces": {
				"north": {"uv": [6.996, 13, 6, 12], "rotation": 270, "texture": "#2"},
				"east": {"uv": [2, 9, 9.999, 15.999], "rotation": 180, "texture": "#missing"},
				"south": {"uv": [6.996, 14, 6, 13], "rotation": 270, "texture": "#2"},
				"west": {"uv": [7.996, 12, 7, 11], "rotation": 270, "texture": "#2"},
				"up": {"uv": [6.996, 15, 5, 14], "rotation": 270, "texture": "#2"},
				"down": {"uv": [6.996, 15, 5, 14], "rotation": 270, "texture": "#2"}
			}
		},
		{
			"from": [2.53085, 8.02179, 7.5],
			"to": [12.40585, 8.62179, 8.5],
			"rotation": {"angle": -22.5, "axis": "z", "origin": [13.28085, 5.52179, 4]},
			"faces": {
				"north": {"uv": [0, 0, 0.997, 11], "rotation": 90, "texture": "#2"},
				"east": {"uv": [0, 0, 2.998, 2], "texture": "#2"},
				"south": {"uv": [2, 0, 2.997, 11], "rotation": 90, "texture": "#2"},
				"west": {"uv": [0, 0, 2.998, 2], "texture": "#2"},
				"down": {"uv": [0, 0, 2.998, 11], "rotation": 90, "texture": "#2"}
			}
		},
		{
			"from": [4.12778, 8.65224, 6.5],
			"to": [12.62778, 9.15224, 9.5],
			"rotation": {"angle": -22.5, "axis": "z", "origin": [13.12778, 5.15224, 8]},
			"faces": {
				"north": {"uv": [4.997, 16, 4, 3], "rotation": 270, "texture": "#2"},
				"east": {"uv": [8.998, 4, 4, 3], "rotation": 180, "texture": "#2"},
				"south": {"uv": [8.998, 16, 7.998, 3], "rotation": 270, "texture": "#2"},
				"up": {"uv": [8.998, 16, 4, 3], "rotation": 270, "texture": "#2"},
				"down": {"uv": [8.998, 16, 4, 3], "rotation": 270, "texture": "#2"}
			}
		},
		{
			"from": [9.12778, 8.52724, 6.375],
			"to": [9.62778, 9.27724, 9.625],
			"rotation": {"angle": -22.5, "axis": "z", "origin": [13.12778, 5.15224, 8]},
			"faces": {
				"north": {"uv": [6.997, 1, 6, 0], "rotation": 270, "texture": "#2"},
				"east": {"uv": [6.997, 1, 6, 0], "rotation": 270, "texture": "#2"},
				"south": {"uv": [6.997, 1, 6, 0], "rotation": 270, "texture": "#2"},
				"west": {"uv": [6.997, 1, 6, 0], "rotation": 270, "texture": "#2"},
				"up": {"uv": [6.997, 1, 6, 0], "rotation": 270, "texture": "#2"},
				"down": {"uv": [6.997, 1, 6, 0], "rotation": 270, "texture": "#2"}
			}
		},
		{
			"from": [7.12778, 8.52724, 6.375],
			"to": [7.62778, 9.27724, 9.625],
			"rotation": {"angle": -22.5, "axis": "z", "origin": [13.12778, 5.15224, 8]},
			"faces": {
				"north": {"uv": [11.997, 1, 11, 0], "rotation": 270, "texture": "#2"},
				"east": {"uv": [11.997, 1, 11, 0], "rotation": 270, "texture": "#2"},
				"south": {"uv": [11.997, 1, 11, 0], "rotation": 270, "texture": "#2"},
				"west": {"uv": [11.997, 1, 11, 0], "rotation": 270, "texture": "#2"},
				"up": {"uv": [11.997, 1, 11, 0], "rotation": 270, "texture": "#2"},
				"down": {"uv": [11.997, 1, 11, 0], "rotation": 270, "texture": "#2"}
			}
		},
		{
			"from": [5.12778, 8.52724, 6.375],
			"to": [5.62778, 9.27724, 9.625],
			"rotation": {"angle": -22.5, "axis": "z", "origin": [13.12778, 5.15224, 8]},
			"faces": {
				"north": {"uv": [6.997, 1, 6, 0], "rotation": 270, "texture": "#2"},
				"east": {"uv": [6.997, 1, 6, 0], "rotation": 270, "texture": "#2"},
				"south": {"uv": [6.997, 1, 6, 0], "rotation": 270, "texture": "#2"},
				"west": {"uv": [6.997, 1, 6, 0], "rotation": 270, "texture": "#2"},
				"up": {"uv": [6.997, 1, 6, 0], "rotation": 270, "texture": "#2"},
				"down": {"uv": [6.997, 1, 6, 0], "rotation": 270, "texture": "#2"}
			}
		},
		{
			"from": [3.12778, 8.52724, 6.375],
			"to": [3.62778, 9.27724, 9.625],
			"rotation": {"angle": -22.5, "axis": "z", "origin": [13.12778, 5.15224, 8]},
			"faces": {
				"north": {"uv": [11.997, 1, 11, 0], "rotation": 270, "texture": "#2"},
				"east": {"uv": [11.997, 1, 11, 0], "rotation": 270, "texture": "#2"},
				"south": {"uv": [11.997, 1, 11, 0], "rotation": 270, "texture": "#2"},
				"west": {"uv": [11.997, 1, 11, 0], "rotation": 270, "texture": "#2"},
				"up": {"uv": [11.997, 1, 11, 0], "rotation": 270, "texture": "#2"},
				"down": {"uv": [11.997, 1, 11, 0], "rotation": 270, "texture": "#2"}
			}
		},
		{
			"from": [11.12778, 8.52724, 6.375],
			"to": [11.62778, 9.27724, 9.625],
			"rotation": {"angle": -22.5, "axis": "z", "origin": [13.12778, 5.15224, 8]},
			"faces": {
				"north": {"uv": [11.997, 1, 11, 0], "rotation": 270, "texture": "#2"},
				"east": {"uv": [11.997, 1, 11, 0], "rotation": 270, "texture": "#2"},
				"south": {"uv": [11.997, 1, 11, 0], "rotation": 270, "texture": "#2"},
				"west": {"uv": [11.997, 1, 11, 0], "rotation": 270, "texture": "#2"},
				"up": {"uv": [11.997, 1, 11, 0], "rotation": 270, "texture": "#2"},
				"down": {"uv": [11.997, 1, 11, 0], "rotation": 270, "texture": "#2"}
			}
		}
	]
}