{
	"credit": "Made by 0ptima, totally cool guy from Frostburn",
	"textures": {
		"0": "blocks/purpur_stairs_top",
		"particle": "blocks/purpur_stairs_top"
	},
	"elements": [
		{
			"from": [0, 0, 0],
			"to": [16, 1, 0.5],
			"faces": {
				"north": {"uv": [0, 4.9995, 15.99939, 5.99876], "texture": "#0"},
				"east": {"uv": [8.99986, 8.99986, 9.99877, 9.99877], "texture": "#0"},
				"south": {"uv": [0, 8.99974, 15.99939, 9.999], "texture": "#0"},
				"west": {"uv": [7.99991, 3.99978, 8.99986, 4.99973], "texture": "#0"},
				"up": {"uv": [0, 0, 16, 1], "texture": "#0"},
				"down": {"uv": [0, 0, 16, 1], "texture": "#0"}
			}
		},
		{
			"from": [0, 0, 15.5],
			"to": [16, 1, 16],
			"faces": {
				"north": {"uv": [0, 13.99924, 15.99939, 14.99769], "texture": "#0"},
				"east": {"uv": [3.99978, 4.99973, 4.9987, 5.99864], "texture": "#0"},
				"south": {"uv": [0, 2.99938, 15.99939, 3.99783], "texture": "#0"},
				"west": {"uv": [3.99978, 1.99989, 4.99938, 2.99949], "texture": "#0"},
				"up": {"uv": [0, 5.99956, 15.99939, 6.99882], "texture": "#0"},
				"down": {"uv": [0, 10.99987, 15.99939, 11.99912], "texture": "#0"}
			}
		},
		{
			"from": [0, 0, 0.5],
			"to": [0.5, 1, 15.5],
			"faces": {
				"east": {"uv": [0.99926, 7.99968, 15.99853, 8.99894], "texture": "#0"},
				"west": {"uv": [0.99926, 9.9998, 15.99853, 10.99906], "texture": "#0"},
				"up": {"uv": [5.99956, 0, 6.99882, 14.99928], "texture": "#0"},
				"down": {"uv": [12.99999, 0.99926, 13.99924, 15.99853], "texture": "#0"}
			}
		},
		{
			"from": [15.5, 0, 0.5],
			"to": [16, 1, 15.5],
			"faces": {
				"east": {"uv": [1.99932, 7.99968, 15.99854, 8.99894], "texture": "#0"},
				"west": {"uv": [0.99926, 7.99968, 14.9977, 8.99813], "texture": "#0"},
				"up": {"uv": [8.99974, 0, 9.999, 14.99928], "texture": "#0"},
				"down": {"uv": [7.99968, 0, 8.99813, 13.99844], "texture": "#0"}
			}
		},
		{
			"from": [7.5, 0, 0.5],
			"to": [8.5, 1, 15.5],
			"faces": {
				"east": {"uv": [0.99926, 8.99974, 15.99853, 9.999], "texture": "#0"},
				"west": {"uv": [0.99926, 9.9998, 15.99853, 10.99906], "texture": "#0"},
				"up": {"uv": [8.99974, 0, 9.99819, 14.9985], "texture": "#0"},
				"down": {"uv": [12.99999, 0.99926, 13.99924, 15.99853], "texture": "#0"}
			}
		},
		{
			"from": [0.5, 0, 7.5],
			"to": [7.5, 1, 8.5],
			"faces": {
				"north": {"uv": [7.99968, 5.99956, 14.99852, 6.99801], "texture": "#0"},
				"south": {"uv": [8.99974, 10.99987, 15.99936, 11.99912], "texture": "#0"},
				"up": {"uv": [5.99956, 1.99932, 12.99917, 2.99857], "texture": "#0"},
				"down": {"uv": [6.99962, 11.99993, 13.99923, 12.99918], "texture": "#0"}
			}
		},
		{
			"from": [8.5, 0, 7.5],
			"to": [15.5, 1, 8.5],
			"faces": {
				"north": {"uv": [1.99932, 12.99999, 8.99893, 13.99924], "texture": "#0"},
				"south": {"uv": [8.99974, 10.99987, 15.99936, 11.99912], "texture": "#0"},
				"up": {"uv": [7.99968, 3.99944, 14.99929, 4.99869], "texture": "#0"},
				"down": {"uv": [6.99962, 12.99999, 13.99923, 13.99924], "texture": "#0"}
			}
		},
		{
			"from": [8.5, 0, 3.5],
			"to": [15.5, 1, 4.5],
			"faces": {
				"north": {"uv": [0, 0, 6.99883, 0.99845], "texture": "#0"},
				"south": {"uv": [0.99926, 8.99974, 7.99809, 9.99819], "texture": "#0"},
				"up": {"uv": [7.99968, 3.99944, 14.99929, 4.99869], "texture": "#0"},
				"down": {"uv": [6.99962, 12.99999, 13.99923, 13.99924], "texture": "#0"}
			}
		},
		{
			"from": [8.5, 0, 11.5],
			"to": [15.5, 1, 12.5],
			"faces": {
				"north": {"uv": [3.99944, 2.99938, 10.99827, 3.99783], "texture": "#0"},
				"south": {"uv": [0, 12.99999, 6.99883, 13.99844], "texture": "#0"},
				"up": {"uv": [2.99938, 5.99956, 9.99821, 6.99801], "texture": "#0"},
				"down": {"uv": [6.99962, 12.99999, 13.99923, 13.99924], "texture": "#0"}
			}
		},
		{
			"from": [0.5, 0, 11.5],
			"to": [7.5, 1, 12.5],
			"faces": {
				"north": {"uv": [0, 14.9993, 6.99883, 15.99775], "texture": "#0"},
				"south": {"uv": [4.9995, 1.99932, 11.99833, 2.99777], "texture": "#0"},
				"up": {"uv": [0.99926, 9.9998, 7.99809, 10.99745], "texture": "#0"},
				"down": {"uv": [6.99962, 12.99999, 13.99923, 13.99924], "texture": "#0"}
			}
		},
		{
			"from": [0.5, 0, 3.5],
			"to": [7.5, 1, 4.5],
			"faces": {
				"north": {"uv": [7.99968, 8.99974, 14.99852, 9.99819], "texture": "#0"},
				"south": {"uv": [2.99938, 3.99944, 9.99821, 4.99789], "texture": "#0"},
				"up": {"uv": [7.99968, 13.99924, 14.99852, 14.99689], "texture": "#0"},
				"down": {"uv": [6.99962, 12.99999, 13.99923, 13.99924], "texture": "#0"}
			}
		},
		{
			"from": [0, 7, 0],
			"to": [16, 8, 0.5],
			"faces": {
				"north": {"uv": [0, 4.9995, 15.99939, 5.99876], "texture": "#0"},
				"east": {"uv": [8.99986, 8.99986, 9.99877, 9.99877], "texture": "#0"},
				"south": {"uv": [0, 8.99974, 15.99939, 9.999], "texture": "#0"},
				"west": {"uv": [7.99991, 3.99978, 8.99986, 4.99973], "texture": "#0"},
				"up": {"uv": [0, 0, 16, 1], "texture": "#0"},
				"down": {"uv": [0, 0, 16, 1], "texture": "#0"}
			}
		},
		{
			"from": [0, 7, 15.5],
			"to": [16, 8, 16],
			"faces": {
				"north": {"uv": [0, 13.99924, 15.99939, 14.99769], "texture": "#0"},
				"east": {"uv": [3.99978, 4.99973, 4.9987, 5.99864], "texture": "#0"},
				"south": {"uv": [0, 2.99938, 15.99939, 3.99783], "texture": "#0"},
				"west": {"uv": [3.99978, 1.99989, 4.99938, 2.99949], "texture": "#0"},
				"up": {"uv": [0, 5.99956, 15.99939, 6.99882], "texture": "#0"},
				"down": {"uv": [0, 10.99987, 15.99939, 11.99912], "texture": "#0"}
			}
		},
		{
			"from": [0, 7, 0.5],
			"to": [0.5, 8, 15.5],
			"faces": {
				"east": {"uv": [0.99926, 7.99968, 15.99853, 8.99894], "texture": "#0"},
				"west": {"uv": [0.99926, 9.9998, 15.99853, 10.99906], "texture": "#0"},
				"up": {"uv": [5.99956, 0, 6.99882, 14.99928], "texture": "#0"},
				"down": {"uv": [12.99999, 0.99926, 13.99924, 15.99853], "texture": "#0"}
			}
		},
		{
			"from": [15.5, 7, 0.5],
			"to": [16, 8, 15.5],
			"faces": {
				"east": {"uv": [1.99932, 7.99968, 15.99854, 8.99894], "texture": "#0"},
				"west": {"uv": [0.99926, 7.99968, 14.9977, 8.99813], "texture": "#0"},
				"up": {"uv": [8.99974, 0, 9.999, 14.99928], "texture": "#0"},
				"down": {"uv": [7.99968, 0, 8.99813, 13.99844], "texture": "#0"}
			}
		},
		{
			"from": [7.5, 7, 0.5],
			"to": [8.5, 8, 15.5],
			"faces": {
				"east": {"uv": [0.99926, 8.99974, 15.99853, 9.999], "texture": "#0"},
				"west": {"uv": [0.99926, 9.9998, 15.99853, 10.99906], "texture": "#0"},
				"up": {"uv": [8.99974, 0, 9.99819, 14.9985], "texture": "#0"},
				"down": {"uv": [12.99999, 0.99926, 13.99924, 15.99853], "texture": "#0"}
			}
		},
		{
			"from": [0.5, 7, 7.5],
			"to": [7.5, 8, 8.5],
			"faces": {
				"north": {"uv": [7.99968, 5.99956, 14.99852, 6.99801], "texture": "#0"},
				"south": {"uv": [8.99974, 10.99987, 15.99936, 11.99912], "texture": "#0"},
				"up": {"uv": [5.99956, 1.99932, 12.99917, 2.99857], "texture": "#0"},
				"down": {"uv": [6.99962, 11.99993, 13.99923, 12.99918], "texture": "#0"}
			}
		},
		{
			"from": [8.5, 7, 7.5],
			"to": [15.5, 8, 8.5],
			"faces": {
				"north": {"uv": [1.99932, 12.99999, 8.99893, 13.99924], "texture": "#0"},
				"south": {"uv": [8.99974, 10.99987, 15.99936, 11.99912], "texture": "#0"},
				"up": {"uv": [7.99968, 3.99944, 14.99929, 4.99869], "texture": "#0"},
				"down": {"uv": [6.99962, 12.99999, 13.99923, 13.99924], "texture": "#0"}
			}
		},
		{
			"from": [8.5, 7, 3.5],
			"to": [15.5, 8, 4.5],
			"faces": {
				"north": {"uv": [0, 0, 6.99883, 0.99845], "texture": "#0"},
				"south": {"uv": [0.99926, 8.99974, 7.99809, 9.99819], "texture": "#0"},
				"up": {"uv": [7.99968, 3.99944, 14.99929, 4.99869], "texture": "#0"},
				"down": {"uv": [6.99962, 12.99999, 13.99923, 13.99924], "texture": "#0"}
			}
		},
		{
			"from": [8.5, 7, 11.5],
			"to": [15.5, 8, 12.5],
			"faces": {
				"north": {"uv": [3.99944, 2.99938, 10.99827, 3.99783], "texture": "#0"},
				"south": {"uv": [0, 12.99999, 6.99883, 13.99844], "texture": "#0"},
				"up": {"uv": [2.99938, 5.99956, 9.99821, 6.99801], "texture": "#0"},
				"down": {"uv": [6.99962, 12.99999, 13.99923, 13.99924], "texture": "#0"}
			}
		},
		{
			"from": [0.5, 7, 11.5],
			"to": [7.5, 8, 12.5],
			"faces": {
				"north": {"uv": [0, 14.9993, 6.99883, 15.99775], "texture": "#0"},
				"south": {"uv": [4.9995, 1.99932, 11.99833, 2.99777], "texture": "#0"},
				"up": {"uv": [0.99926, 9.9998, 7.99809, 10.99745], "texture": "#0"},
				"down": {"uv": [6.99962, 12.99999, 13.99923, 13.99924], "texture": "#0"}
			}
		},
		{
			"from": [0.5, 7, 3.5],
			"to": [7.5, 8, 4.5],
			"faces": {
				"north": {"uv": [7.99968, 8.99974, 14.99852, 9.99819], "texture": "#0"},
				"south": {"uv": [2.99938, 3.99944, 9.99821, 4.99789], "texture": "#0"},
				"up": {"uv": [7.99968, 13.99924, 14.99852, 14.99689], "texture": "#0"},
				"down": {"uv": [6.99962, 12.99999, 13.99923, 13.99924], "texture": "#0"}
			}
		},
		{
			"from": [0, 1, 0],
			"to": [0.5, 7, 1],
			"faces": {
				"north": {"uv": [4.99973, 3.99978, 5.4997, 9.99945], "texture": "#0"},
				"east": {"uv": [7.99968, 0.99926, 8.99894, 6.99881], "texture": "#0"},
				"south": {"uv": [6.99997, 2.99984, 7.49994, 8.9995], "texture": "#0"},
				"west": {"uv": [0, 0, 1, 6], "texture": "#0"}
			}
		},
		{
			"from": [0, 1, 15],
			"to": [0.5, 7, 16],
			"faces": {
				"north": {"uv": [9.9998, 1.99932, 10.49943, 7.99887], "texture": "#0"},
				"east": {"uv": [5.99956, 5.99956, 6.99801, 11.99834], "texture": "#0"},
				"south": {"uv": [2.99938, 7.99968, 3.49901, 13.99924], "texture": "#0"},
				"west": {"uv": [9.9998, 4.9995, 10.99906, 10.99906], "texture": "#0"}
			}
		},
		{
			"from": [15.5, 1, 15],
			"to": [16, 7, 16],
			"faces": {
				"north": {"uv": [6.99962, 0.99926, 7.49925, 6.99803], "texture": "#0"},
				"east": {"uv": [3.99944, 7.99968, 4.99709, 13.99846], "texture": "#0"},
				"south": {"uv": [8.99974, 3.99944, 9.49937, 9.99822], "texture": "#0"},
				"west": {"uv": [13.99924, 7.99968, 14.99769, 13.99846], "texture": "#0"}
			}
		},
		{
			"from": [15.5, 1, 0],
			"to": [16, 7, 1],
			"faces": {
				"north": {"uv": [12.99999, 8.99974, 13.49962, 14.99852], "texture": "#0"},
				"east": {"uv": [7.99968, 1.99932, 8.99733, 7.99809], "texture": "#0"},
				"south": {"uv": [8.99974, 3.99944, 9.49937, 9.99822], "texture": "#0"},
				"west": {"uv": [7.99968, 0.99926, 8.99733, 6.99803], "texture": "#0"}
			}
		}
	],
	"display": {
		"thirdperson_righthand": {
			"rotation": [36, 36, 0],
			"translation": [0, 1.25, 0],
			"scale": [0.3, 0.3, 0.3]
		},
		"thirdperson_lefthand": {
			"rotation": [36, 36, 0],
			"translation": [0, 1.25, 0],
			"scale": [0.3, 0.3, 0.3]
		},
		"firstperson_righthand": {
			"rotation": [13, 53, 0],
			"translation": [7.5, -1.75, -2]
		},
		"firstperson_lefthand": {
			"rotation": [13, 53, 0],
			"translation": [7.5, -1.75, -2]
		},
		"ground": {
			"scale": [0.3, 0.3, 0.3]
		},
		"gui": {
			"rotation": [35, 45, 0],
			"translation": [0, 2, 0],
			"scale": [0.7, 0.7, 0.7]
		}
	}
}