{
	"credit": "Made by 0ptima, totally cool guy from Frostburn",
	"ambientocclusion": false,
	"textures": {
		"bottom": "blocks/door_jungle_upper",
		"texture": "blocks/m_jungle_door_upper_sides"
	},
	"elements": [
		{
			"from": [-15, 0, 1],
			"to": [1, 16, 7],
			"faces": {
				"north": {"uv": [16, 0, 0, 16], "texture": "#bottom"},
				"east": {"uv": [6, 0, 0, 16], "texture": "#texture"},
				"south": {"uv": [0, 0, 16, 16], "texture": "#bottom"},
				"west": {"uv": [0, 0, 6, 16], "texture": "#texture"},
				"up": {"uv": [0, 0, 6, 16], "rotation": 90, "texture": "#texture"},
				"down": {"uv": [13, 0, 16, 16], "rotation": 270, "texture": "#texture"}
			}
		},
		{
			"from": [-3.5, 3, 3],
			"to": [3, 5, 5],
			"faces": {
				"north": {"uv": [12, 11, 6, 13], "texture": "#texture"},
				"east": {"uv": [14, 11, 12, 13], "texture": "#texture"},
				"south": {"uv": [6, 13, 12, 15], "texture": "#texture"},
				"west": {"uv": [0, 0, 6, 16], "texture": "#texture"},
				"up": {"uv": [6, 11, 12, 13], "texture": "#texture"},
				"down": {"uv": [6, 11, 12, 13], "texture": "#texture"}
			}
		},
		{
			"from": [-3.5, 10, 3],
			"to": [3, 12, 5],
			"faces": {
				"north": {"uv": [12, 11, 6, 13], "texture": "#texture"},
				"east": {"uv": [14, 11, 12, 13], "texture": "#texture"},
				"south": {"uv": [6, 13, 12, 15], "texture": "#texture"},
				"west": {"uv": [0, 0, 6, 16], "texture": "#texture"},
				"up": {"uv": [6, 11, 12, 13], "texture": "#texture"},
				"down": {"uv": [6, 11, 12, 13], "texture": "#texture"}
			}
		}
	]
}