{
	"credit": "Made by JoubaMety",
	"ambientocclusion": false,
	"textures": {
		"texture": "blocks/m_fence_dark_oak",
		"texture1": "blocks/m_fence_dark_oak_top"
	},
	"elements": [
		{
			"name": "Cube1",
			"from": [7, 15.92, 7],
			"to": [9, 18.67, 9],
			"faces": {
				"north": {"uv": [6, 6, 7, 8], "texture": "#texture"},
				"east": {"uv": [9, 2, 10, 4], "texture": "#texture"},
				"south": {"uv": [9, 9, 10, 11], "texture": "#texture"},
				"west": {"uv": [6, 3, 7, 5], "texture": "#texture"},
				"up": {"uv": [7, 1, 9, 3], "texture": "#texture1"},
				"down": {"uv": [7, 1, 9, 3], "texture": "#texture1"}
			}
		},
		{
			"name": "Cube1",
			"from": [2.04, 5, 8.54],
			"to": [4.04, 16, 10.54],
			"faces": {
				"north": {"uv": [16, 0, 14, 11], "texture": "#texture"},
				"east": {"uv": [16, 0, 14, 11], "texture": "#texture"},
				"south": {"uv": [16, 0, 14, 11], "texture": "#texture"},
				"west": {"uv": [16, 0, 14, 11], "texture": "#texture"},
				"up": {"uv": [13, 0, 10, 6], "rotation": 270, "texture": "#texture"},
				"down": {"uv": [16, 14, 14, 16], "rotation": 90, "texture": "#texture"}
			}
		},
		{
			"name": "Cube2",
			"from": [2.04, 0, 8.54],
			"to": [4.04, 5, 10.54],
			"faces": {
				"north": {"uv": [16, 9.05, 14, 13.05], "texture": "#texture"},
				"east": {"uv": [16, 9.05, 14, 13.05], "texture": "#texture"},
				"south": {"uv": [16, 9.05, 14, 13.05], "texture": "#texture"},
				"west": {"uv": [16, 9.05, 14, 13.05], "texture": "#texture"},
				"up": {"uv": [12.95, 8.55, 10.95, 10.45], "rotation": 270, "texture": "#texture"},
				"down": {"uv": [12, 8.55, 10, 13.55], "rotation": 90, "texture": "#texture"}
			}
		},
		{
			"name": "Cube1",
			"from": [2.04, 5, 5.54],
			"to": [4.04, 16, 7.54],
			"faces": {
				"north": {"uv": [14, 0, 16, 11], "texture": "#texture"},
				"east": {"uv": [14, 0, 16, 11], "texture": "#texture"},
				"south": {"uv": [14, 0, 16, 11], "texture": "#texture"},
				"west": {"uv": [14, 0, 16, 11], "texture": "#texture"},
				"up": {"uv": [10, 0, 13, 6], "rotation": 270, "texture": "#texture"},
				"down": {"uv": [14, 14, 16, 16], "rotation": 90, "texture": "#texture"}
			}
		},
		{
			"name": "Cube2",
			"from": [2.04, 0, 5.54],
			"to": [4.04, 5, 7.54],
			"faces": {
				"north": {"uv": [14, 9.05, 16, 13.05], "texture": "#texture"},
				"east": {"uv": [14, 9.05, 16, 13.05], "texture": "#texture"},
				"south": {"uv": [14, 9.05, 16, 13.05], "texture": "#texture"},
				"west": {"uv": [14, 9.05, 16, 13.05], "texture": "#texture"},
				"up": {"uv": [10.95, 8.55, 12.95, 10.45], "rotation": 270, "texture": "#texture"},
				"down": {"uv": [10, 8.55, 12, 13.55], "rotation": 90, "texture": "#texture"}
			}
		},
		{
			"name": "Cube2",
			"from": [0.04, -0.08, 6.54],
			"to": [6.04, 5, 9.54],
			"faces": {
				"north": {"uv": [10, 9, 16, 13], "texture": "#texture"},
				"east": {"uv": [13, 9, 16, 13], "texture": "#texture"},
				"south": {"uv": [0, 9, 6, 13], "texture": "#texture"},
				"west": {"uv": [13, 9, 16, 13], "texture": "#texture"},
				"up": {"uv": [10, 0, 13, 6], "rotation": 270, "texture": "#texture"},
				"down": {"uv": [10, 10, 13, 16], "rotation": 90, "texture": "#texture"}
			}
		},
		{
			"name": "Cube1",
			"from": [0.04, 5, 6.54],
			"to": [6.04, 15.92, 9.54],
			"faces": {
				"north": {"uv": [10, 0, 16, 11], "texture": "#texture"},
				"east": {"uv": [13, 0, 16, 11], "texture": "#texture"},
				"south": {"uv": [0, 0, 6, 11], "texture": "#texture"},
				"west": {"uv": [13, 0, 16, 11], "texture": "#texture"},
				"up": {"uv": [10, 0, 13, 6], "rotation": 270, "texture": "#texture"},
				"down": {"uv": [10, 10, 13, 16], "rotation": 90, "texture": "#texture"}
			}
		},
		{
			"name": "Cube1",
			"from": [6, 3, 6],
			"to": [10, 15.96, 10],
			"faces": {
				"north": {"uv": [6, 0, 10, 13], "texture": "#texture"},
				"east": {"uv": [6, 0, 10, 13], "texture": "#texture"},
				"south": {"uv": [6, 0, 10, 13], "texture": "#texture"},
				"west": {"uv": [6, 0, 10, 13], "texture": "#texture"},
				"up": {"uv": [6, 0, 10, 4], "texture": "#texture"},
				"down": {"uv": [6, 6, 10, 10], "texture": "#texture"}
			}
		},
		{
			"name": "Cube2",
			"from": [6, -0.04, 6],
			"to": [10, 3, 10],
			"faces": {
				"north": {"uv": [6, 10, 10, 13], "texture": "#texture"},
				"east": {"uv": [6, 10, 10, 13], "texture": "#texture"},
				"south": {"uv": [6, 10, 10, 13], "texture": "#texture"},
				"west": {"uv": [6, 10, 10, 13], "texture": "#texture"},
				"up": {"uv": [6, 0, 10, 4], "texture": "#texture"},
				"down": {"uv": [6, 6, 10, 10], "texture": "#texture"}
			}
		},
		{
			"name": "Cube1",
			"from": [5.5, 5, 12],
			"to": [7.5, 16, 14],
			"faces": {
				"north": {"uv": [16, 0, 14, 11], "texture": "#texture"},
				"east": {"uv": [16, 0, 14, 11], "texture": "#texture"},
				"south": {"uv": [16, 0, 14, 11], "texture": "#texture"},
				"west": {"uv": [16, 0, 14, 11], "texture": "#texture"},
				"up": {"uv": [13, 0, 10, 6], "texture": "#texture"},
				"down": {"uv": [16, 14, 14, 16], "texture": "#texture"}
			}
		},
		{
			"name": "Cube2",
			"from": [5.5, 0, 12],
			"to": [7.5, 5, 14],
			"faces": {
				"north": {"uv": [16, 9.05, 14, 13.05], "texture": "#texture"},
				"east": {"uv": [16, 9.05, 14, 13.05], "texture": "#texture"},
				"south": {"uv": [16, 9.05, 14, 13.05], "texture": "#texture"},
				"west": {"uv": [16, 9.05, 14, 13.05], "texture": "#texture"},
				"up": {"uv": [12.95, 8.55, 10.95, 10.45], "texture": "#texture"},
				"down": {"uv": [12, 8.55, 10, 13.55], "texture": "#texture"}
			}
		},
		{
			"name": "Cube1",
			"from": [8.5, 5, 12],
			"to": [10.5, 16, 14],
			"faces": {
				"north": {"uv": [14, 0, 16, 11], "texture": "#texture"},
				"east": {"uv": [14, 0, 16, 11], "texture": "#texture"},
				"south": {"uv": [14, 0, 16, 11], "texture": "#texture"},
				"west": {"uv": [14, 0, 16, 11], "texture": "#texture"},
				"up": {"uv": [10, 0, 13, 6], "texture": "#texture"},
				"down": {"uv": [14, 14, 16, 16], "texture": "#texture"}
			}
		},
		{
			"name": "Cube2",
			"from": [8.5, 0, 12],
			"to": [10.5, 5, 14],
			"faces": {
				"north": {"uv": [14, 9.05, 16, 13.05], "texture": "#texture"},
				"east": {"uv": [14, 9.05, 16, 13.05], "texture": "#texture"},
				"south": {"uv": [14, 9.05, 16, 13.05], "texture": "#texture"},
				"west": {"uv": [14, 9.05, 16, 13.05], "texture": "#texture"},
				"up": {"uv": [10.95, 8.55, 12.95, 10.45], "texture": "#texture"},
				"down": {"uv": [10, 8.55, 12, 13.55], "texture": "#texture"}
			}
		},
		{
			"name": "Cube2",
			"from": [6.5, -0.08, 10],
			"to": [9.5, 5, 16],
			"faces": {
				"north": {"uv": [13, 9, 16, 13], "texture": "#texture"},
				"east": {"uv": [10, 9, 16, 13], "texture": "#texture"},
				"south": {"uv": [13, 9, 16, 13], "texture": "#texture"},
				"west": {"uv": [0, 9, 6, 13], "texture": "#texture"},
				"up": {"uv": [10, 0, 13, 6], "texture": "#texture"},
				"down": {"uv": [10, 10, 13, 16], "texture": "#texture"}
			}
		},
		{
			"name": "Cube1",
			"from": [6.5, 5, 10],
			"to": [9.5, 15.92, 16],
			"faces": {
				"north": {"uv": [13, 0, 16, 11], "texture": "#texture"},
				"east": {"uv": [10, 0, 16, 11], "texture": "#texture"},
				"south": {"uv": [13, 0, 16, 11], "texture": "#texture"},
				"west": {"uv": [0, 0, 6, 11], "texture": "#texture"},
				"up": {"uv": [10, 0, 13, 6], "texture": "#texture"},
				"down": {"uv": [10, 10, 13, 16], "texture": "#texture"}
			}
		},
		{
			"name": "Cube1",
			"from": [5.5, 5, 2],
			"to": [7.5, 16, 4],
			"faces": {
				"north": {"uv": [16, 0, 14, 11], "texture": "#texture"},
				"east": {"uv": [16, 0, 14, 11], "texture": "#texture"},
				"south": {"uv": [16, 0, 14, 11], "texture": "#texture"},
				"west": {"uv": [16, 0, 14, 11], "texture": "#texture"},
				"up": {"uv": [13, 0, 10, 6], "texture": "#texture"},
				"down": {"uv": [16, 14, 14, 16], "texture": "#texture"}
			}
		},
		{
			"name": "Cube2",
			"from": [5.5, 0, 2],
			"to": [7.5, 5, 4],
			"faces": {
				"north": {"uv": [16, 9.05, 14, 13.05], "texture": "#texture"},
				"east": {"uv": [16, 9.05, 14, 13.05], "texture": "#texture"},
				"south": {"uv": [16, 9.05, 14, 13.05], "texture": "#texture"},
				"west": {"uv": [16, 9.05, 14, 13.05], "texture": "#texture"},
				"up": {"uv": [12.95, 8.55, 10.95, 10.45], "texture": "#texture"},
				"down": {"uv": [12, 8.55, 10, 13.55], "texture": "#texture"}
			}
		},
		{
			"name": "Cube1",
			"from": [8.5, 5, 2],
			"to": [10.5, 16, 4],
			"faces": {
				"north": {"uv": [14, 0, 16, 11], "texture": "#texture"},
				"east": {"uv": [14, 0, 16, 11], "texture": "#texture"},
				"south": {"uv": [14, 0, 16, 11], "texture": "#texture"},
				"west": {"uv": [14, 0, 16, 11], "texture": "#texture"},
				"up": {"uv": [10, 0, 13, 6], "texture": "#texture"},
				"down": {"uv": [14, 14, 16, 16], "texture": "#texture"}
			}
		},
		{
			"name": "Cube2",
			"from": [8.5, 0, 2],
			"to": [10.5, 5, 4],
			"faces": {
				"north": {"uv": [14, 9.05, 16, 13.05], "texture": "#texture"},
				"east": {"uv": [14, 9.05, 16, 13.05], "texture": "#texture"},
				"south": {"uv": [14, 9.05, 16, 13.05], "texture": "#texture"},
				"west": {"uv": [14, 9.05, 16, 13.05], "texture": "#texture"},
				"up": {"uv": [10.95, 8.55, 12.95, 10.45], "texture": "#texture"},
				"down": {"uv": [10, 8.55, 12, 13.55], "texture": "#texture"}
			}
		},
		{
			"name": "Cube2",
			"from": [6.5, -0.08, 0],
			"to": [9.5, 5, 6],
			"faces": {
				"north": {"uv": [13, 9, 16, 13], "texture": "#texture"},
				"east": {"uv": [10, 9, 16, 13], "texture": "#texture"},
				"south": {"uv": [13, 9, 16, 13], "texture": "#texture"},
				"west": {"uv": [0, 9, 6, 13], "texture": "#texture"},
				"up": {"uv": [10, 0, 13, 6], "texture": "#texture"},
				"down": {"uv": [10, 10, 13, 16], "texture": "#texture"}
			}
		},
		{
			"name": "Cube1",
			"from": [6.5, 5, 0],
			"to": [9.5, 15.92, 6],
			"faces": {
				"north": {"uv": [13, 0, 16, 11], "texture": "#texture"},
				"east": {"uv": [10, 0, 16, 11], "texture": "#texture"},
				"south": {"uv": [13, 0, 16, 11], "texture": "#texture"},
				"west": {"uv": [0, 0, 6, 11], "texture": "#texture"},
				"up": {"uv": [10, 0, 13, 6], "texture": "#texture"},
				"down": {"uv": [10, 10, 13, 16], "texture": "#texture"}
			}
		},
		{
			"name": "Cube1",
			"from": [11.96, 5, 8.54],
			"to": [13.96, 16, 10.54],
			"faces": {
				"north": {"uv": [16, 0, 14, 11], "texture": "#texture"},
				"east": {"uv": [16, 0, 14, 11], "texture": "#texture"},
				"south": {"uv": [16, 0, 14, 11], "texture": "#texture"},
				"west": {"uv": [16, 0, 14, 11], "texture": "#texture"},
				"up": {"uv": [13, 0, 10, 6], "rotation": 270, "texture": "#texture"},
				"down": {"uv": [16, 14, 14, 16], "rotation": 90, "texture": "#texture"}
			}
		},
		{
			"name": "Cube2",
			"from": [11.96, 0, 8.54],
			"to": [13.96, 5, 10.54],
			"faces": {
				"north": {"uv": [16, 9.05, 14, 13.05], "texture": "#texture"},
				"east": {"uv": [16, 9.05, 14, 13.05], "texture": "#texture"},
				"south": {"uv": [16, 9.05, 14, 13.05], "texture": "#texture"},
				"west": {"uv": [16, 9.05, 14, 13.05], "texture": "#texture"},
				"up": {"uv": [12.95, 8.55, 10.95, 10.45], "rotation": 270, "texture": "#texture"},
				"down": {"uv": [12, 8.55, 10, 13.55], "rotation": 90, "texture": "#texture"}
			}
		},
		{
			"name": "Cube1",
			"from": [11.96, 5, 5.54],
			"to": [13.96, 16, 7.54],
			"faces": {
				"north": {"uv": [14, 0, 16, 11], "texture": "#texture"},
				"east": {"uv": [14, 0, 16, 11], "texture": "#texture"},
				"south": {"uv": [14, 0, 16, 11], "texture": "#texture"},
				"west": {"uv": [14, 0, 16, 11], "texture": "#texture"},
				"up": {"uv": [10, 0, 13, 6], "rotation": 270, "texture": "#texture"},
				"down": {"uv": [14, 14, 16, 16], "rotation": 90, "texture": "#texture"}
			}
		},
		{
			"name": "Cube2",
			"from": [11.96, 0, 5.54],
			"to": [13.96, 5, 7.54],
			"faces": {
				"north": {"uv": [14, 9.05, 16, 13.05], "texture": "#texture"},
				"east": {"uv": [14, 9.05, 16, 13.05], "texture": "#texture"},
				"south": {"uv": [14, 9.05, 16, 13.05], "texture": "#texture"},
				"west": {"uv": [14, 9.05, 16, 13.05], "texture": "#texture"},
				"up": {"uv": [10.95, 8.55, 12.95, 10.45], "rotation": 270, "texture": "#texture"},
				"down": {"uv": [10, 8.55, 12, 13.55], "rotation": 90, "texture": "#texture"}
			}
		},
		{
			"name": "Cube2",
			"from": [9.96, -0.08, 6.54],
			"to": [15.96, 5, 9.54],
			"faces": {
				"north": {"uv": [10, 9, 16, 13], "texture": "#texture"},
				"east": {"uv": [13, 9, 16, 13], "texture": "#texture"},
				"south": {"uv": [0, 9, 6, 13], "texture": "#texture"},
				"west": {"uv": [13, 9, 16, 13], "texture": "#texture"},
				"up": {"uv": [10, 0, 13, 6], "rotation": 270, "texture": "#texture"},
				"down": {"uv": [10, 10, 13, 16], "rotation": 90, "texture": "#texture"}
			}
		},
		{
			"name": "Cube1",
			"from": [9.96, 5, 6.54],
			"to": [15.96, 15.92, 9.54],
			"faces": {
				"north": {"uv": [10, 0, 16, 11], "texture": "#texture"},
				"east": {"uv": [13, 0, 16, 11], "texture": "#texture"},
				"south": {"uv": [0, 0, 6, 11], "texture": "#texture"},
				"west": {"uv": [13, 0, 16, 11], "texture": "#texture"},
				"up": {"uv": [10, 0, 13, 6], "rotation": 270, "texture": "#texture"},
				"down": {"uv": [10, 10, 13, 16], "rotation": 90, "texture": "#texture"}
			}
		}
	],
	"groups": [0,
		{
			"name": "group-east",
			"children": [1, 2, 3, 4, 5, 6]
		},
		{
			"name": "group-prostredny",
			"children": [7, 8]
		},
		{
			"name": "group-south",
			"children": [9, 10, 11, 12, 13, 14]
		},
		{
			"name": "group-north",
			"children": [15, 16, 17, 18, 19, 20]
		},
		{
			"name": "group-west",
			"children": [21, 22, 23, 24, 25, 26]
		}
	]
}