{
	"credit": "Made by 0ptima, totally cool guy from Frostburn",
	"textures": {
		"0": "models/opt/fawkes_head",
		"particle": "models/opt/fawkes_head"
	},
	"elements": [
		{
			"from": [5, 0, 4],
			"to": [11, 1, 5],
			"rotation": {"angle": 0, "axis": "y", "origin": [15, 8, 15]},
			"faces": {
				"north": {"uv": [14.25, 4, 15.747, 4.249], "rotation": 180, "texture": "#0"},
				"east": {"uv": [14, 4, 14.247, 4.248], "rotation": 180, "texture": "#0"},
				"west": {"uv": [15.75, 4, 15.997, 4.248], "rotation": 180, "texture": "#0"},
				"up": {"uv": [1.25, 3.75, 2.747, 3.999], "texture": "#0"},
				"down": {"uv": [14.25, 0.375, 15.747, 0.624], "rotation": 180, "texture": "#0"}
			}
		},
		{
			"from": [4.5, 1, 4.5],
			"to": [11.5, 2, 8],
			"rotation": {"angle": 0, "axis": "y", "origin": [15, 9, 15]},
			"faces": {
				"north": {"uv": [3.75, 3.25, 6.997, 3.999], "texture": "#0"},
				"east": {"uv": [4.5, 4.25, 6.247, 4.999], "rotation": 180, "texture": "#0"},
				"south": {"uv": [0, 0, 8, 8], "texture": "#missing"},
				"west": {"uv": [4.5, 4.25, 6.247, 4.999], "texture": "#0"},
				"up": {"uv": [0, 0, 8, 8], "texture": "#missing"},
				"down": {"uv": [3.75, 4.25, 6.997, 4.999], "texture": "#0"}
			}
		},
		{
			"from": [4.5, 2, 7],
			"to": [11.5, 3, 11.5],
			"rotation": {"angle": 0, "axis": "y", "origin": [15, 10, 17.5]},
			"faces": {
				"north": {"uv": [3.75, 3.25, 5.497, 3.999], "texture": "#0"},
				"east": {"uv": [4.75, 5.25, 6.997, 5.998], "texture": "#0"},
				"west": {"uv": [3.75, 5.25, 5.997, 5.998], "texture": "#0"},
				"up": {"uv": [0, 0, 8, 8], "texture": "#missing"},
				"down": {"uv": [2.25, 3.75, 2.748, 3.999], "texture": "#0"}
			}
		},
		{
			"from": [9, 0, 5],
			"to": [12, 1, 12],
			"rotation": {"angle": 0, "axis": "y", "origin": [15, 8, 15]},
			"faces": {
				"north": {"uv": [14, 4, 14.748, 4.249], "texture": "#0"},
				"east": {"uv": [14, 4, 15.748, 4.25], "texture": "#0"},
				"south": {"uv": [14, 4, 14.748, 4.249], "texture": "#0"},
				"west": {"uv": [4.5, 2.25, 5, 2.75], "texture": "#0"},
				"up": {"uv": [2.25, 2, 2.998, 3.749], "texture": "#0"},
				"down": {"uv": [14, 0.625, 14.748, 2.374], "texture": "#0"}
			}
		},
		{
			"from": [7, 0, 5],
			"to": [9, 2, 12],
			"rotation": {"angle": 0, "axis": "y", "origin": [15, 8, 15]},
			"faces": {
				"north": {"uv": [4.5, 2.25, 5, 2.75], "texture": "#0"},
				"east": {"uv": [0, 0, 8, 8], "texture": "#missing"},
				"south": {"uv": [0, 0, 8, 8], "texture": "#missing"},
				"west": {"uv": [0, 0, 8, 8], "texture": "#missing"},
				"down": {"uv": [14.75, 0.625, 15.248, 2.374], "texture": "#0"}
			}
		},
		{
			"from": [4, 0, 5],
			"to": [7, 1, 12],
			"rotation": {"angle": 0, "axis": "y", "origin": [15, 8, 15]},
			"faces": {
				"north": {"uv": [15.25, 4, 15.998, 4.249], "texture": "#0"},
				"east": {"uv": [4.5, 2.25, 5, 2.75], "texture": "#0"},
				"south": {"uv": [15.25, 4, 15.998, 4.249], "texture": "#0"},
				"west": {"uv": [14, 4, 15.748, 4.25], "texture": "#0"},
				"up": {"uv": [1, 2, 1.748, 3.749], "texture": "#0"},
				"down": {"uv": [15.25, 0.625, 15.998, 2.374], "texture": "#0"}
			}
		},
		{
			"from": [4, 1, 8],
			"to": [12, 2, 12],
			"rotation": {"angle": 0, "axis": "y", "origin": [15, 9, 15]},
			"faces": {
				"north": {"uv": [14, 4, 15.997, 4.25], "texture": "#0"},
				"east": {"uv": [14, 3.75, 14.998, 4], "texture": "#0"},
				"south": {"uv": [14, 4, 15.997, 4.25], "texture": "#0"},
				"west": {"uv": [14, 3.75, 14.998, 4], "texture": "#0"},
				"up": {"uv": [1, 2, 2.998, 2.999], "rotation": 180, "texture": "#0"}
			}
		},
		{
			"from": [3.96875, 3, 7],
			"to": [12.03125, 6, 12],
			"rotation": {"angle": 0, "axis": "y", "origin": [15, 8, 15]},
			"faces": {
				"north": {"uv": [3, 0.5, 4.998, 1.499], "texture": "#0"},
				"east": {"uv": [14.375, 0.875, 15.622, 1.624], "texture": "#0"},
				"west": {"uv": [14.375, 0.875, 15.622, 1.624], "texture": "#0"},
				"down": {"uv": [1, 2, 2.998, 3.999], "texture": "#0"}
			}
		},
		{
			"from": [3.96875, 2, 4],
			"to": [12.03125, 6, 7],
			"rotation": {"angle": 0, "axis": "y", "origin": [15, 8, 15]},
			"faces": {
				"north": {"uv": [14, 3.25, 15.998, 4.249], "texture": "#0"},
				"east": {"uv": [14, 3.25, 14.623, 4.249], "texture": "#0"},
				"south": {"uv": [14, 3.25, 15.998, 4.249], "texture": "#0"},
				"west": {"uv": [15.375, 3.25, 15.998, 4.249], "texture": "#0"},
				"down": {"uv": [1, 2, 2.998, 3.999], "texture": "#0"}
			}
		},
		{
			"from": [4.96875, 3, 3],
			"to": [11.03125, 6, 6],
			"rotation": {"angle": 0, "axis": "y", "origin": [15, 8, 14]},
			"faces": {
				"north": {"uv": [6, 0.5, 7.496, 1.248], "texture": "#0"},
				"east": {"uv": [6, 0.5, 6.25, 1.248], "texture": "#0"},
				"south": {"uv": [3, 0.5, 4.998, 1.499], "texture": "#0"},
				"west": {"uv": [7.246, 0.5, 7.496, 1.248], "texture": "#0"},
				"up": {"uv": [6, 0.5, 7.496, 0.748], "rotation": 180, "texture": "#0"},
				"down": {"uv": [6, 1, 7.496, 1.248], "rotation": 180, "texture": "#0"}
			}
		},
		{
			"from": [6.96875, 4, 2.875],
			"to": [9.03125, 5, 5],
			"rotation": {"angle": 0, "axis": "y", "origin": [15, 8, 13]},
			"faces": {
				"north": {"uv": [6.5, 0.75, 6.996, 0.998], "texture": "#0"},
				"east": {"uv": [6.5, 0.75, 6.625, 0.998], "texture": "#0"},
				"west": {"uv": [6.875, 0.75, 7, 0.998], "texture": "#0"},
				"up": {"uv": [6.5, 0.75, 6.996, 0.875], "rotation": 180, "texture": "#0"},
				"down": {"uv": [6.5, 0.875, 6.996, 1], "rotation": 180, "texture": "#0"}
			}
		},
		{
			"from": [5.46875, 4.25, 2.875],
			"to": [6.53125, 4.75, 5],
			"rotation": {"angle": 0, "axis": "y", "origin": [13, 8, 13]},
			"faces": {
				"north": {"uv": [6.75, 0.75, 6.996, 0.875], "texture": "#0"},
				"east": {"uv": [6.75, 0.75, 6.875, 0.875], "rotation": 180, "texture": "#0"},
				"west": {"uv": [6.875, 0.75, 7, 0.875], "rotation": 180, "texture": "#0"},
				"up": {"uv": [6.75, 0.75, 6.996, 0.875], "rotation": 180, "texture": "#0"},
				"down": {"uv": [6.75, 0.75, 6.996, 0.875], "rotation": 180, "texture": "#0"}
			}
		},
		{
			"from": [5.84375, 5.375, 2.875],
			"to": [6.65625, 5.625, 5],
			"rotation": {"angle": 0, "axis": "y", "origin": [13.25, 9, 13]},
			"faces": {
				"north": {"uv": [6.75, 0.75, 6.996, 0.875], "texture": "#0"},
				"east": {"uv": [6.75, 0.75, 6.875, 0.875], "rotation": 180, "texture": "#0"},
				"west": {"uv": [6.875, 0.75, 7, 0.875], "rotation": 180, "texture": "#0"},
				"up": {"uv": [6.75, 0.75, 6.996, 0.875], "rotation": 180, "texture": "#0"},
				"down": {"uv": [6.75, 0.75, 6.996, 0.875], "rotation": 180, "texture": "#0"}
			}
		},
		{
			"from": [5.84375, 3.375, 2.875],
			"to": [6.65625, 3.625, 5],
			"rotation": {"angle": 0, "axis": "y", "origin": [13.25, 7, 13]},
			"faces": {
				"north": {"uv": [6.75, 0.875, 6.996, 1], "texture": "#0"},
				"east": {"uv": [6.75, 0.875, 6.875, 1], "rotation": 180, "texture": "#0"},
				"west": {"uv": [6.875, 0.875, 7, 1], "rotation": 180, "texture": "#0"},
				"up": {"uv": [6.75, 0.875, 6.996, 1], "rotation": 180, "texture": "#0"},
				"down": {"uv": [6.75, 0.875, 6.996, 1], "rotation": 180, "texture": "#0"}
			}
		},
		{
			"from": [9.46875, 4.25, 2.875],
			"to": [10.53125, 4.75, 5],
			"rotation": {"angle": 0, "axis": "y", "origin": [17, 8, 13]},
			"faces": {
				"north": {"uv": [6.5, 0.75, 6.746, 0.875], "texture": "#0"},
				"east": {"uv": [6.5, 0.75, 6.625, 0.875], "texture": "#0"},
				"west": {"uv": [6.625, 0.75, 6.75, 0.875], "texture": "#0"},
				"up": {"uv": [6.5, 0.75, 6.746, 0.875], "rotation": 180, "texture": "#0"},
				"down": {"uv": [6.5, 0.75, 6.746, 0.875], "rotation": 180, "texture": "#0"}
			}
		},
		{
			"from": [9.34375, 5.375, 2.875],
			"to": [10.15625, 5.625, 5],
			"rotation": {"angle": 0, "axis": "y", "origin": [16.75, 9, 13]},
			"faces": {
				"north": {"uv": [6.5, 0.75, 6.746, 0.875], "texture": "#0"},
				"east": {"uv": [6.5, 0.75, 6.625, 0.875], "texture": "#0"},
				"west": {"uv": [6.625, 0.75, 6.75, 0.875], "texture": "#0"},
				"up": {"uv": [6.5, 0.75, 6.746, 0.875], "rotation": 180, "texture": "#0"},
				"down": {"uv": [6.5, 0.75, 6.746, 0.875], "rotation": 180, "texture": "#0"}
			}
		},
		{
			"from": [9.34375, 3.375, 2.875],
			"to": [10.15625, 3.625, 5],
			"rotation": {"angle": 0, "axis": "y", "origin": [16.75, 7, 13]},
			"faces": {
				"north": {"uv": [6.5, 0.875, 6.746, 1], "texture": "#0"},
				"east": {"uv": [6.5, 0.875, 6.625, 1], "texture": "#0"},
				"west": {"uv": [6.625, 0.875, 6.75, 1], "texture": "#0"},
				"up": {"uv": [6.5, 0.875, 6.746, 1], "rotation": 180, "texture": "#0"},
				"down": {"uv": [6.5, 0.875, 6.746, 1], "rotation": 180, "texture": "#0"}
			}
		},
		{
			"from": [3.71875, 4, 3],
			"to": [4.96875, 5, 6],
			"rotation": {"angle": 0, "axis": "y", "origin": [14, 8, 14]},
			"faces": {
				"north": {"uv": [7.5, 0.75, 7.746, 0.998], "texture": "#0"},
				"south": {"uv": [7.5, 0.75, 7.746, 0.998], "texture": "#0"},
				"west": {"uv": [7.5, 0.75, 8.245, 0.997], "texture": "#0"},
				"up": {"uv": [7.5, 0.75, 8.245, 0.997], "rotation": 90, "texture": "#0"},
				"down": {"uv": [7.5, 0.75, 8.245, 0.997], "rotation": 90, "texture": "#0"}
			}
		},
		{
			"from": [11.03125, 4, 3],
			"to": [12.28125, 5, 6],
			"rotation": {"angle": 0, "axis": "y", "origin": [21.3125, 8, 14]},
			"faces": {
				"north": {"uv": [5.75, 0.75, 5.996, 0.998], "texture": "#0"},
				"east": {"uv": [5.25, 0.75, 5.996, 0.998], "texture": "#0"},
				"south": {"uv": [5.75, 0.75, 5.996, 0.998], "texture": "#0"},
				"up": {"uv": [5.25, 0.75, 5.996, 0.998], "rotation": 90, "texture": "#0"},
				"down": {"uv": [5.25, 0.75, 5.996, 0.998], "rotation": 90, "texture": "#0"}
			}
		},
		{
			"from": [3.96875, 6, 6],
			"to": [12.03125, 8, 12],
			"rotation": {"angle": 0, "axis": "y", "origin": [15, 12, 15]},
			"faces": {
				"north": {"uv": [3, 0.5, 4.998, 1.499], "texture": "#0"},
				"east": {"uv": [15.497, 0.375, 14, 0.874], "texture": "#0"},
				"west": {"uv": [15.497, 0.375, 14, 0.874], "texture": "#0"},
				"down": {"uv": [1, 2, 2.998, 3.999], "texture": "#0"}
			}
		},
		{
			"from": [3.96875, 7.98053, 9.41234],
			"to": [12.03125, 10.24285, 11.58021],
			"rotation": {"angle": 0, "axis": "y", "origin": [14.99992, 9.04303, 15.00008]},
			"faces": {
				"east": {"uv": [14, 0.375, 14.498, 0.874], "texture": "#0"},
				"west": {"uv": [15.5, 0.375, 15.998, 0.874], "texture": "#0"},
				"up": {"uv": [14, 0.875, 15.998, 1.374], "rotation": 180, "texture": "#0"}
			}
		},
		{
			"from": [4, 2.68775, 9.95553],
			"to": [12, 8.77962, 11.93958],
			"rotation": {"angle": -22.5, "axis": "x", "origin": [7.99908, 8.60791, 8.08181]},
			"faces": {
				"east": {"uv": [15.998, 0.375, 15.5, 1.874], "texture": "#0"},
				"south": {"uv": [15.998, 0.375, 14, 1.874], "texture": "#0"},
				"west": {"uv": [14.498, 0.375, 14, 1.874], "texture": "#0"}
			}
		},
		{
			"from": [4, 7.48989, 5.16235],
			"to": [12, 9.6102, 9.93673],
			"rotation": {"angle": -22.5, "axis": "x", "origin": [7.99908, 8.60791, 8.08181]},
			"faces": {
				"east": {"uv": [14, 2.372, 14.497, 0.875], "rotation": 90, "texture": "#0"},
				"west": {"uv": [15.5, 2.498, 15.997, 1], "rotation": 90, "texture": "#0"},
				"up": {"uv": [14, 2.498, 15.997, 1], "texture": "#0"}
			}
		},
		{
			"from": [4.03125, 5.58019, 4.3808],
			"to": [11.96875, 8.19598, 6.36369],
			"rotation": {"angle": 22.5, "axis": "x", "origin": [7.99908, 6.74731, 5.24567]},
			"faces": {
				"north": {"uv": [14, 2.5, 15.997, 3.248], "texture": "#0"},
				"east": {"uv": [14, 2.5, 14.497, 3.248], "texture": "#0"},
				"west": {"uv": [15.5, 2.5, 15.997, 3.248], "texture": "#0"}
			}
		},
		{
			"from": [4.03125, 1.07458, 12.47006],
			"to": [11.96875, 6.0695, 14.5959],
			"rotation": {"angle": 22.5, "axis": "x", "origin": [8.01232, 7.06252, 10.5968]},
			"faces": {
				"north": {"uv": [15.998, 1.875, 14, 3.124], "texture": "#0"},
				"east": {"uv": [15.998, 1.875, 15.5, 3.124], "texture": "#0"},
				"south": {"uv": [15.998, 1.875, 14, 3.124], "texture": "#0"},
				"west": {"uv": [14.498, 1.875, 14, 3.124], "texture": "#0"},
				"down": {"uv": [0, 0, 8, 8], "texture": "#missing"}
			}
		}
	],
	"display": {
		"head": {
			"translation": [0, 4.66, 0],
			"scale": [1.38, 1.38, 1.38]
		}
	}
}