{
    "parent": "block/cube",
    "textures": {
        "particle": "models/opt/cabinet_up",
        "down": "models/opt/cabinet_up",
        "up": "models/opt/cabinet_up",
        "north": "models/opt/cabinet_up",
        "east": "models/opt/cabinet_up",
        "south": "models/opt/cabinet_bottom",
        "west": "models/opt/cabinet_up"
    }
}
