{
	"credit": "Made with Blockbench",
	"textures": {
		"0": "models/mordobi pipes/hardened_clay_stained_red",
		"1": "models/mordobi pipes/hay_block_side",
		"2": "models/mordobi pipes/brick",
		"5": "models/mordobi pipes/piston_bottom",
		"6": "models/mordobi pipes/glazed_terracotta_white",
		"particle": "models/mordobi pipes/hardened_clay_stained_red"
	},
	"elements": [
		{
			"from": [13, 1, 1],
			"to": [15, 12, 3],
			"rotation": {"angle": 22.5, "axis": "y", "origin": [8, 5.5, 8]},
			"faces": {
				"north": {"uv": [2, 0, 4, 11], "texture": "#1"},
				"east": {"uv": [2, 0, 4, 11], "texture": "#1"},
				"south": {"uv": [2, 0, 4, 11], "texture": "#1"},
				"west": {"uv": [2, 0, 4, 11], "texture": "#1"},
				"up": {"uv": [2, 0, 4, 11], "texture": "#1"},
				"down": {"uv": [2, 0, 4, 11], "texture": "#1"}
			}
		},
		{
			"from": [13, 1, 13],
			"to": [15, 12, 15],
			"rotation": {"angle": 22.5, "axis": "y", "origin": [8, 5.5, 8]},
			"faces": {
				"north": {"uv": [2, 0, 4, 11], "texture": "#1"},
				"east": {"uv": [2, 0, 4, 11], "texture": "#1"},
				"south": {"uv": [2, 0, 4, 11], "texture": "#1"},
				"west": {"uv": [2, 0, 4, 11], "texture": "#1"},
				"up": {"uv": [2, 0, 4, 11], "texture": "#1"},
				"down": {"uv": [2, 0, 4, 11], "texture": "#1"}
			}
		},
		{
			"from": [1, 1, 1],
			"to": [3, 12, 3],
			"rotation": {"angle": 22.5, "axis": "y", "origin": [8, 5.5, 8]},
			"faces": {
				"north": {"uv": [2, 0, 4, 11], "texture": "#1"},
				"east": {"uv": [2, 0, 4, 11], "texture": "#1"},
				"south": {"uv": [2, 0, 4, 11], "texture": "#1"},
				"west": {"uv": [2, 0, 4, 11], "texture": "#1"},
				"up": {"uv": [2, 0, 4, 11], "texture": "#1"},
				"down": {"uv": [2, 0, 4, 11], "texture": "#1"}
			}
		},
		{
			"from": [1, 0, 1],
			"to": [15, 1, 15],
			"rotation": {"angle": 22.5, "axis": "y", "origin": [8, 5.5, 8]},
			"faces": {
				"north": {"uv": [1, 1, 15, 2], "texture": "#2"},
				"east": {"uv": [1, 1, 15, 2], "texture": "#2"},
				"south": {"uv": [1, 1, 15, 2], "texture": "#2"},
				"west": {"uv": [1, 1, 15, 2], "texture": "#2"},
				"up": {"uv": [1, 1, 15, 15], "texture": "#2"},
				"down": {"uv": [1, 1, 15, 15], "texture": "#2"}
			}
		},
		{
			"from": [1, 1, 13],
			"to": [3, 12, 15],
			"rotation": {"angle": 22.5, "axis": "y", "origin": [8, 5.5, 8]},
			"faces": {
				"north": {"uv": [2, 0, 4, 16], "texture": "#1"},
				"east": {"uv": [2, 0, 4, 16], "texture": "#1"},
				"south": {"uv": [2, 0, 4, 16], "texture": "#1"},
				"west": {"uv": [2, 0, 4, 16], "texture": "#1"},
				"up": {"uv": [2, 0, 4, 16], "texture": "#1"},
				"down": {"uv": [2, 0, 4, 16], "texture": "#1"}
			}
		},
		{
			"from": [3, 10, 1.25],
			"to": [13, 11, 1.75],
			"rotation": {"angle": 22.5, "axis": "y", "origin": [8, 5.5, 8]},
			"faces": {
				"north": {"uv": [3, 2, 13, 3], "texture": "#0"},
				"east": {"uv": [3, 2, 13, 3], "texture": "#0"},
				"south": {"uv": [3, 2, 13, 3], "texture": "#0"},
				"west": {"uv": [3, 2, 13, 3], "texture": "#0"},
				"up": {"uv": [3, 2, 13, 3], "texture": "#0"},
				"down": {"uv": [3, 2, 13, 3], "texture": "#0"}
			}
		},
		{
			"from": [3, 10, 14.25],
			"to": [13, 11, 14.75],
			"rotation": {"angle": 22.5, "axis": "y", "origin": [8, 5.5, 8]},
			"faces": {
				"north": {"uv": [3, 4, 13, 5], "texture": "#0"},
				"east": {"uv": [3, 4, 13, 5], "texture": "#0"},
				"south": {"uv": [3, 4, 13, 5], "texture": "#0"},
				"west": {"uv": [3, 4, 13, 5], "texture": "#0"},
				"up": {"uv": [3, 4, 13, 5], "texture": "#0"},
				"down": {"uv": [3, 4, 13, 5], "texture": "#0"}
			}
		},
		{
			"from": [1.25, 10, 3],
			"to": [1.75, 11, 13],
			"rotation": {"angle": 22.5, "axis": "y", "origin": [8, 5.5, 8]},
			"faces": {
				"north": {"uv": [3, 2, 13, 3], "texture": "#0"},
				"east": {"uv": [3, 2, 13, 3], "texture": "#0"},
				"south": {"uv": [3, 2, 13, 3], "texture": "#0"},
				"west": {"uv": [3, 2, 13, 3], "texture": "#0"},
				"up": {"uv": [3, 2, 13, 3], "texture": "#0"},
				"down": {"uv": [3, 2, 13, 3], "texture": "#0"}
			}
		},
		{
			"from": [14.25, 10, 3],
			"to": [14.75, 11, 13],
			"rotation": {"angle": 22.5, "axis": "y", "origin": [8, 5.5, 8]},
			"faces": {
				"north": {"uv": [2, 8, 12, 9], "texture": "#0"},
				"east": {"uv": [2, 8, 12, 9], "texture": "#0"},
				"south": {"uv": [2, 8, 12, 9], "texture": "#0"},
				"west": {"uv": [2, 8, 12, 9], "texture": "#0"},
				"up": {"uv": [2, 8, 12, 9], "texture": "#0"},
				"down": {"uv": [2, 8, 12, 9], "texture": "#0"}
			}
		},
		{
			"from": [3, 8, 14.25],
			"to": [13, 9, 14.75],
			"rotation": {"angle": 22.5, "axis": "y", "origin": [8, 5.5, 8]},
			"faces": {
				"north": {"uv": [3, 11, 13, 12], "texture": "#0"},
				"east": {"uv": [3, 11, 13, 12], "texture": "#0"},
				"south": {"uv": [3, 11, 13, 12], "texture": "#0"},
				"west": {"uv": [3, 11, 13, 12], "texture": "#0"},
				"up": {"uv": [3, 11, 13, 12], "texture": "#0"},
				"down": {"uv": [3, 11, 13, 12], "texture": "#0"}
			}
		},
		{
			"from": [3, 6, 14.25],
			"to": [13, 7, 14.75],
			"rotation": {"angle": 22.5, "axis": "y", "origin": [8, 5.5, 8]},
			"faces": {
				"north": {"uv": [3, 2, 13, 3], "texture": "#0"},
				"east": {"uv": [3, 2, 13, 3], "texture": "#0"},
				"south": {"uv": [3, 2, 13, 3], "texture": "#0"},
				"west": {"uv": [3, 2, 13, 3], "texture": "#0"},
				"up": {"uv": [3, 2, 13, 3], "texture": "#0"},
				"down": {"uv": [3, 2, 13, 3], "texture": "#0"}
			}
		},
		{
			"from": [3, 4, 14.25],
			"to": [13, 5, 14.75],
			"rotation": {"angle": 22.5, "axis": "y", "origin": [8, 5.5, 8]},
			"faces": {
				"north": {"uv": [3, 9, 13, 10], "texture": "#0"},
				"east": {"uv": [3, 9, 13, 10], "texture": "#0"},
				"south": {"uv": [3, 9, 13, 10], "texture": "#0"},
				"west": {"uv": [3, 9, 13, 10], "texture": "#0"},
				"up": {"uv": [3, 9, 13, 10], "texture": "#0"},
				"down": {"uv": [3, 9, 13, 10], "texture": "#0"}
			}
		},
		{
			"from": [3, 2, 14.25],
			"to": [13, 3, 14.75],
			"rotation": {"angle": 22.5, "axis": "y", "origin": [8, 5.5, 8]},
			"faces": {
				"north": {"uv": [4, 9, 14, 10], "texture": "#0"},
				"east": {"uv": [4, 9, 14, 10], "texture": "#0"},
				"south": {"uv": [4, 9, 14, 10], "texture": "#0"},
				"west": {"uv": [4, 9, 14, 10], "texture": "#0"},
				"up": {"uv": [4, 9, 14, 10], "texture": "#0"},
				"down": {"uv": [4, 9, 14, 10], "texture": "#0"}
			}
		},
		{
			"from": [3, 6, 1.25],
			"to": [13, 7, 1.75],
			"rotation": {"angle": 22.5, "axis": "y", "origin": [8, 5.5, 8]},
			"faces": {
				"north": {"uv": [3, 11, 13, 12], "texture": "#0"},
				"east": {"uv": [3, 11, 13, 12], "texture": "#0"},
				"south": {"uv": [3, 11, 13, 12], "texture": "#0"},
				"west": {"uv": [3, 11, 13, 12], "texture": "#0"},
				"up": {"uv": [3, 11, 13, 12], "texture": "#0"},
				"down": {"uv": [3, 11, 13, 12], "texture": "#0"}
			}
		},
		{
			"from": [3, 2, 1.25],
			"to": [13, 3, 1.75],
			"rotation": {"angle": 22.5, "axis": "y", "origin": [8, 5.5, 8]},
			"faces": {
				"north": {"uv": [2, 11, 12, 12], "texture": "#0"},
				"east": {"uv": [2, 11, 12, 12], "texture": "#0"},
				"south": {"uv": [2, 11, 12, 12], "texture": "#0"},
				"west": {"uv": [2, 11, 12, 12], "texture": "#0"},
				"up": {"uv": [2, 11, 12, 12], "texture": "#0"},
				"down": {"uv": [2, 11, 12, 12], "texture": "#0"}
			}
		},
		{
			"from": [14.25, 8, 3],
			"to": [14.75, 9, 13],
			"rotation": {"angle": 22.5, "axis": "y", "origin": [8, 5.5, 8]},
			"faces": {
				"north": {"uv": [4, 9, 14, 10], "texture": "#0"},
				"east": {"uv": [4, 9, 14, 10], "texture": "#0"},
				"south": {"uv": [4, 9, 14, 10], "texture": "#0"},
				"west": {"uv": [4, 9, 14, 10], "texture": "#0"},
				"up": {"uv": [4, 9, 14, 10], "texture": "#0"},
				"down": {"uv": [4, 9, 14, 10], "texture": "#0"}
			}
		},
		{
			"from": [3, 4, 1.25],
			"to": [13, 5, 1.75],
			"rotation": {"angle": 22.5, "axis": "y", "origin": [8, 5.5, 8]},
			"faces": {
				"north": {"uv": [2, 8, 12, 9], "texture": "#0"},
				"east": {"uv": [2, 8, 12, 9], "texture": "#0"},
				"south": {"uv": [2, 8, 12, 9], "texture": "#0"},
				"west": {"uv": [2, 8, 12, 9], "texture": "#0"},
				"up": {"uv": [2, 8, 12, 9], "texture": "#0"},
				"down": {"uv": [2, 8, 12, 9], "texture": "#0"}
			}
		},
		{
			"from": [14.25, 6, 3],
			"to": [14.75, 7, 13],
			"rotation": {"angle": 22.5, "axis": "y", "origin": [8, 5.5, 8]},
			"faces": {
				"north": {"uv": [3, 11, 13, 12], "texture": "#0"},
				"east": {"uv": [3, 11, 13, 12], "texture": "#0"},
				"south": {"uv": [3, 11, 13, 12], "texture": "#0"},
				"west": {"uv": [3, 11, 13, 12], "texture": "#0"},
				"up": {"uv": [3, 11, 13, 12], "texture": "#0"},
				"down": {"uv": [3, 11, 13, 12], "texture": "#0"}
			}
		},
		{
			"from": [14.25, 2, 3],
			"to": [14.75, 3, 13],
			"rotation": {"angle": 22.5, "axis": "y", "origin": [8, 5.5, 8]},
			"faces": {
				"north": {"uv": [3, 12, 13, 13], "texture": "#0"},
				"east": {"uv": [3, 12, 13, 13], "texture": "#0"},
				"south": {"uv": [3, 12, 13, 13], "texture": "#0"},
				"west": {"uv": [3, 12, 13, 13], "texture": "#0"},
				"up": {"uv": [3, 12, 13, 13], "texture": "#0"},
				"down": {"uv": [3, 12, 13, 13], "texture": "#0"}
			}
		},
		{
			"from": [14.25, 4, 3],
			"to": [14.75, 5, 13],
			"rotation": {"angle": 22.5, "axis": "y", "origin": [8, 5.5, 8]},
			"faces": {
				"north": {"uv": [3, 13, 13, 14], "texture": "#0"},
				"east": {"uv": [3, 13, 13, 14], "texture": "#0"},
				"south": {"uv": [3, 13, 13, 14], "texture": "#0"},
				"west": {"uv": [3, 13, 13, 14], "texture": "#0"},
				"up": {"uv": [3, 13, 13, 14], "texture": "#0"},
				"down": {"uv": [3, 13, 13, 14], "texture": "#0"}
			}
		},
		{
			"from": [1.25, 6, 3],
			"to": [1.75, 7, 13],
			"rotation": {"angle": 22.5, "axis": "y", "origin": [8, 5.5, 8]},
			"faces": {
				"north": {"uv": [3, 7, 13, 8], "texture": "#0"},
				"east": {"uv": [3, 7, 13, 8], "texture": "#0"},
				"south": {"uv": [3, 7, 13, 8], "texture": "#0"},
				"west": {"uv": [3, 7, 13, 8], "texture": "#0"},
				"up": {"uv": [3, 7, 13, 8], "texture": "#0"},
				"down": {"uv": [3, 7, 13, 8], "texture": "#0"}
			}
		},
		{
			"from": [1.25, 4, 3],
			"to": [1.75, 5, 13],
			"rotation": {"angle": 22.5, "axis": "y", "origin": [8, 5.5, 8]},
			"faces": {
				"north": {"uv": [3, 9, 13, 10], "texture": "#0"},
				"east": {"uv": [3, 9, 13, 10], "texture": "#0"},
				"south": {"uv": [3, 9, 13, 10], "texture": "#0"},
				"west": {"uv": [3, 9, 13, 10], "texture": "#0"},
				"up": {"uv": [3, 9, 13, 10], "texture": "#0"},
				"down": {"uv": [3, 9, 13, 10], "texture": "#0"}
			}
		},
		{
			"from": [1.25, 8, 3],
			"to": [1.75, 9, 13],
			"rotation": {"angle": 22.5, "axis": "y", "origin": [8, 5.5, 8]},
			"faces": {
				"north": {"uv": [3, 6, 13, 7], "texture": "#0"},
				"east": {"uv": [3, 6, 13, 7], "texture": "#0"},
				"south": {"uv": [3, 6, 13, 7], "texture": "#0"},
				"west": {"uv": [3, 6, 13, 7], "texture": "#0"},
				"up": {"uv": [3, 6, 13, 7], "texture": "#0"},
				"down": {"uv": [3, 6, 13, 7], "texture": "#0"}
			}
		},
		{
			"from": [1.25, 2, 3],
			"to": [1.75, 3, 13],
			"rotation": {"angle": 22.5, "axis": "y", "origin": [8, 5.5, 8]},
			"faces": {
				"north": {"uv": [3, 8, 13, 9], "texture": "#0"},
				"east": {"uv": [3, 8, 13, 9], "texture": "#0"},
				"south": {"uv": [3, 8, 13, 9], "texture": "#0"},
				"west": {"uv": [3, 8, 13, 9], "texture": "#0"},
				"up": {"uv": [3, 8, 13, 9], "texture": "#0"},
				"down": {"uv": [3, 8, 13, 9], "texture": "#0"}
			}
		},
		{
			"from": [3, 8, 1.25],
			"to": [13, 9, 1.75],
			"rotation": {"angle": 22.5, "axis": "y", "origin": [8, 5.5, 8]},
			"faces": {
				"north": {"uv": [4, 8, 14, 9], "texture": "#0"},
				"east": {"uv": [4, 8, 14, 9], "texture": "#0"},
				"south": {"uv": [4, 8, 14, 9], "texture": "#0"},
				"west": {"uv": [4, 8, 14, 9], "texture": "#0"},
				"up": {"uv": [4, 8, 14, 9], "texture": "#0"},
				"down": {"uv": [4, 8, 14, 9], "texture": "#0"}
			}
		},
		{
			"from": [8, 1, 5],
			"to": [10, 4, 14],
			"rotation": {"angle": 22.5, "axis": "y", "origin": [8, 5.5, 8]},
			"faces": {
				"north": {"uv": [0, 0, 16, 15], "texture": "#6"},
				"east": {"uv": [0, 0, 16, 15], "texture": "#6"},
				"south": {"uv": [0, 0, 16, 15], "texture": "#6"},
				"west": {"uv": [0, 0, 16, 15], "texture": "#6"},
				"up": {"uv": [0, 0, 16, 15], "texture": "#6"},
				"down": {"uv": [0, 0, 16, 15], "texture": "#6"}
			}
		},
		{
			"from": [3, 1, 5],
			"to": [5, 4, 14],
			"rotation": {"angle": 22.5, "axis": "y", "origin": [8, 5.5, 8]},
			"faces": {
				"north": {"uv": [0, 0, 16, 16], "texture": "#2"},
				"east": {"uv": [0, 0, 16, 16], "texture": "#2"},
				"south": {"uv": [0, 0, 16, 16], "texture": "#2"},
				"west": {"uv": [0, 0, 16, 16], "texture": "#2"},
				"up": {"uv": [0, 0, 16, 16], "texture": "#2"},
				"down": {"uv": [0, 0, 16, 16], "texture": "#2"}
			}
		},
		{
			"from": [11, 1, 5],
			"to": [13, 4, 14],
			"rotation": {"angle": 22.5, "axis": "y", "origin": [8, 5.5, 8]},
			"faces": {
				"north": {"uv": [0, 0, 16, 16], "texture": "#5"},
				"east": {"uv": [0, 0, 16, 16], "texture": "#5"},
				"south": {"uv": [0, 0, 16, 16], "texture": "#5"},
				"west": {"uv": [0, 0, 16, 16], "texture": "#5"},
				"up": {"uv": [0, 0, 16, 16], "texture": "#5"},
				"down": {"uv": [0, 0, 16, 16], "texture": "#5"}
			}
		},
		{
			"from": [3.5, 1, 2.5],
			"to": [12.5, 4, 4.5],
			"rotation": {"angle": 22.5, "axis": "y", "origin": [8, 5.5, 8]},
			"faces": {
				"north": {"uv": [0, 0, 16, 16], "texture": "#5"},
				"east": {"uv": [0, 0, 16, 16], "texture": "#5"},
				"south": {"uv": [0, 0, 16, 16], "texture": "#5"},
				"west": {"uv": [0, 0, 16, 16], "texture": "#5"},
				"up": {"uv": [0, 0, 16, 16], "rotation": 270, "texture": "#5"},
				"down": {"uv": [0, 0, 16, 16], "rotation": 90, "texture": "#5"}
			}
		},
		{
			"from": [-2, -5.5, 6],
			"to": [-1.5, -4.5, 10],
			"rotation": {"angle": -22.5, "axis": "z", "origin": [8, 9, 8]},
			"faces": {
				"north": {"uv": [2, 0, 3, 4], "rotation": 90, "texture": "#1"},
				"east": {"uv": [2, 0, 3, 4], "rotation": 270, "texture": "#1"},
				"south": {"uv": [2, 0, 3, 4], "rotation": 270, "texture": "#1"},
				"west": {"uv": [2, 0, 3, 4], "rotation": 90, "texture": "#1"},
				"up": {"uv": [2, 0, 3, 4], "rotation": 270, "texture": "#1"},
				"down": {"uv": [2, 0, 3, 4], "rotation": 270, "texture": "#1"}
			}
		},
		{
			"from": [-2.7, -2.5, 2.5],
			"to": [-2.5, 8.5, 13.5],
			"rotation": {"angle": -22.5, "axis": "z", "origin": [8, 9, 8]},
			"faces": {
				"north": {"uv": [2, 13, 14, 14], "rotation": 90, "texture": "#2"},
				"east": {"uv": [2, 13, 14, 14], "rotation": 270, "texture": "#2"},
				"south": {"uv": [2, 13, 14, 14], "rotation": 270, "texture": "#2"},
				"west": {"uv": [2, 2, 14, 14], "rotation": 90, "texture": "#2"},
				"up": {"uv": [2, 13, 14, 14], "rotation": 270, "texture": "#2"},
				"down": {"uv": [2, 13, 14, 14], "rotation": 270, "texture": "#2"}
			}
		},
		{
			"from": [-2.5, -4.5, 0.5],
			"to": [-1, 10.5, 15.5],
			"rotation": {"angle": -22.5, "axis": "z", "origin": [8, 9, 8]},
			"faces": {
				"north": {"uv": [0, 10, 16, 11.5], "rotation": 90, "texture": "#0"},
				"east": {"uv": [0, 0, 16, 16], "rotation": 270, "texture": "#0"},
				"south": {"uv": [0, 7, 16, 8.5], "rotation": 270, "texture": "#0"},
				"west": {"uv": [0, 0, 16, 16], "rotation": 90, "texture": "#0"},
				"up": {"uv": [0, 6, 16, 7.5], "rotation": 270, "texture": "#0"},
				"down": {"uv": [0, 7, 16, 8.5], "rotation": 270, "texture": "#0"}
			}
		},
		{
			"from": [-2, 10.5, 6],
			"to": [-1.5, 11.5, 10],
			"rotation": {"angle": -22.5, "axis": "z", "origin": [8, 9, 8]},
			"faces": {
				"north": {"uv": [2, 2, 3, 6], "rotation": 90, "texture": "#1"},
				"east": {"uv": [2, 2, 3, 6], "rotation": 270, "texture": "#1"},
				"south": {"uv": [2, 2, 3, 6], "rotation": 270, "texture": "#1"},
				"west": {"uv": [2, 2, 3, 6], "rotation": 90, "texture": "#1"},
				"up": {"uv": [2, 2, 3, 6], "rotation": 270, "texture": "#1"},
				"down": {"uv": [2, 2, 3, 6], "rotation": 270, "texture": "#1"}
			}
		}
	],
	"display": {
		"fixed": {
			"translation": [0, 0, 16],
			"scale": [2, 2, 2]
		}
	},
	"groups": [
		{
			"name": "group",
			"children": [0, 1, 2, 3, 4, 5, 6, 7, 8, 9, 10, 11, 12, 13, 14, 15, 16, 17, 18, 19, 20, 21, 22, 23, 24, 25, 26, 27, 28]
		},
		{
			"name": "víko",
			"children": [29, 30, 31, 32]
		}
	]
}