{
	"credit": "Made by 0ptima, totally cool guy from FrostBurn",
	"textures": {
		"1": "cem/body2"
	},
	"elements": [
		{
			"from": [-4, 12, -2],
			"to": [4, 19, 2],
			"faces": {
				"north": {"uv": [4, 0, 12, 7], "texture": "#1"},
				"east": {"uv": [0, 0, 4, 7], "texture": "#1"},
				"west": {"uv": [12, 0, 16, 7], "texture": "#1"}
			}
		}
	]
}