{
	"credit": "Made by 0ptima, totally cool guy from Frostburn",
	"ambientocclusion": false,
	"textures": {
		"bottom": "blocks/door_jungle_lower",
		"particle": "blocks/door_jungle_lower",
		"texture": "blocks/m_jungle_door_lower_sides",
		"1_bottom": "blocks/door_jungle_upper",
		"1_texture": "blocks/m_jungle_door_upper_sides"
	},
	"elements": [
		{
			"from": [7, 9, 9],
			"to": [8, 11, 15.5],
			"faces": {
				"north": {"uv": [12, 5, 13, 7], "texture": "#texture"},
				"east": {"uv": [6, 5, 13, 7], "texture": "#texture"},
				"south": {"uv": [15, 5, 14, 7], "texture": "#texture"},
				"west": {"uv": [13, 5, 6, 7], "texture": "#texture"},
				"up": {"uv": [13, 3, 6, 4], "rotation": 90, "texture": "#texture"},
				"down": {"uv": [13, 8, 6, 9], "rotation": 270, "texture": "#texture"}
			}
		},
		{
			"from": [1, 0, 0],
			"to": [7, 16, 16],
			"faces": {
				"north": {"uv": [0, 0, 6, 16], "texture": "#texture"},
				"east": {"uv": [0, 0, 16, 16], "texture": "#bottom"},
				"south": {"uv": [6, 0, 0, 16], "texture": "#texture"},
				"west": {"uv": [16, 0, 0, 16], "texture": "#bottom"},
				"up": {"uv": [0, 16, 6, 0], "rotation": 180, "texture": "#texture"},
				"down": {"uv": [13, 16, 16, 0], "rotation": 180, "texture": "#texture"}
			}
		},
		{
			"from": [3, 4, -2],
			"to": [5, 6, 4.5],
			"faces": {
				"north": {"uv": [12, 11, 14, 13], "texture": "#texture"},
				"east": {"uv": [6, 11, 12, 13], "texture": "#texture"},
				"south": {"uv": [14, 11, 12, 13], "texture": "#texture"},
				"west": {"uv": [12, 13, 6, 15], "texture": "#texture"},
				"up": {"uv": [12, 11, 6, 13], "rotation": 90, "texture": "#texture"},
				"down": {"uv": [12, 11, 6, 13], "rotation": 270, "texture": "#texture"}
			}
		},
		{
			"from": [3, 11, -2],
			"to": [5, 13, 4.5],
			"faces": {
				"north": {"uv": [12, 11, 14, 13], "texture": "#texture"},
				"east": {"uv": [6, 11, 12, 13], "texture": "#texture"},
				"south": {"uv": [14, 11, 12, 13], "texture": "#texture"},
				"west": {"uv": [12, 13, 6, 15], "texture": "#texture"},
				"up": {"uv": [12, 11, 6, 13], "rotation": 90, "texture": "#texture"},
				"down": {"uv": [12, 11, 6, 13], "rotation": 270, "texture": "#texture"}
			}
		},
		{
			"from": [0, 9, 9],
			"to": [1, 11, 15.5],
			"faces": {
				"north": {"uv": [12, 5, 13, 7], "texture": "#texture"},
				"east": {"uv": [14, 5, 15, 7], "texture": "#texture"},
				"south": {"uv": [15, 5, 14, 7], "texture": "#texture"},
				"west": {"uv": [13, 5, 6, 7], "texture": "#texture"},
				"up": {"uv": [13, 3, 6, 4], "rotation": 90, "texture": "#texture"},
				"down": {"uv": [13, 8, 6, 9], "rotation": 270, "texture": "#texture"}
			}
		},
		{
			"name": "PlaneX6",
			"from": [2, 0, 0],
			"to": [2.001, 16, 16],
			"faces": {
				"east": {"uv": [0, 0, 16, 16], "texture": "#bottom"},
				"west": {"uv": [16, 0, 0, 16], "texture": "#bottom"}
			}
		},
		{
			"from": [7, 23, 9],
			"to": [8, 25, 15.5],
			"faces": {
				"north": {"uv": [12, 2, 13, 4], "texture": "#1_texture"},
				"east": {"uv": [6, 2, 13, 4], "texture": "#1_texture"},
				"south": {"uv": [13, 2, 12, 4], "texture": "#1_texture"},
				"west": {"uv": [13, 2, 6, 4], "texture": "#1_texture"},
				"up": {"uv": [13, 0, 6, 1], "rotation": 90, "texture": "#1_texture"},
				"down": {"uv": [13, 5, 6, 6], "rotation": 270, "texture": "#1_texture"}
			}
		},
		{
			"from": [1, 16, 0],
			"to": [7, 32, 16],
			"faces": {
				"north": {"uv": [0, 0, 6, 16], "texture": "#1_texture"},
				"east": {"uv": [0, 0, 16, 16], "texture": "#1_bottom"},
				"south": {"uv": [6, 0, 0, 16], "texture": "#1_texture"},
				"west": {"uv": [16, 0, 0, 16], "texture": "#1_bottom"},
				"up": {"uv": [0, 16, 6, 0], "rotation": 180, "texture": "#1_texture"},
				"down": {"uv": [13, 16, 16, 0], "rotation": 180, "texture": "#1_texture"}
			}
		},
		{
			"from": [3, 19, -2],
			"to": [5, 21, 4.5],
			"faces": {
				"north": {"uv": [12, 11, 14, 13], "texture": "#1_texture"},
				"east": {"uv": [6, 11, 12, 13], "texture": "#1_texture"},
				"south": {"uv": [14, 11, 12, 13], "texture": "#1_texture"},
				"west": {"uv": [6, 11, 12, 13], "rotation": 180, "texture": "#1_texture"},
				"up": {"uv": [12, 11, 6, 13], "rotation": 90, "texture": "#1_texture"},
				"down": {"uv": [12, 11, 6, 13], "rotation": 270, "texture": "#1_texture"}
			}
		},
		{
			"from": [3, 26, -2],
			"to": [5, 28, 4.5],
			"faces": {
				"north": {"uv": [12, 11, 14, 13], "texture": "#1_texture"},
				"east": {"uv": [6, 11, 12, 13], "texture": "#1_texture"},
				"south": {"uv": [14, 11, 12, 13], "texture": "#1_texture"},
				"west": {"uv": [6, 11, 12, 13], "rotation": 180, "texture": "#1_texture"},
				"up": {"uv": [12, 11, 6, 13], "rotation": 90, "texture": "#1_texture"},
				"down": {"uv": [12, 11, 6, 13], "rotation": 270, "texture": "#1_texture"}
			}
		},
		{
			"from": [0, 23, 9],
			"to": [1, 25, 15.5],
			"faces": {
				"north": {"uv": [12, 2, 13, 4], "texture": "#1_texture"},
				"east": {"uv": [13, 2, 6, 4], "texture": "#1_texture"},
				"south": {"uv": [13, 2, 12, 4], "texture": "#1_texture"},
				"west": {"uv": [13, 2, 6, 4], "texture": "#1_texture"},
				"up": {"uv": [13, 0, 6, 1], "rotation": 90, "texture": "#1_texture"},
				"down": {"uv": [13, 5, 6, 6], "rotation": 270, "texture": "#1_texture"}
			}
		},
		{
			"name": "PlaneX6",
			"from": [2, 15.5, 0],
			"to": [2.001, 31.5, 16],
			"faces": {
				"east": {"uv": [0, 0, 16, 16], "texture": "#1_bottom"},
				"west": {"uv": [16, 0, 0, 16], "texture": "#1_bottom"}
			}
		}
	],
	"display": {
		"thirdperson_righthand": {
			"translation": [0.5, 0, 0],
			"scale": [0.3, 0.3, 0.3]
		},
		"thirdperson_lefthand": {
			"translation": [-2, 0, 0],
			"scale": [0.3, 0.3, 0.3]
		},
		"firstperson_righthand": {
			"scale": [0.25, 0.25, 0.25]
		},
		"firstperson_lefthand": {
			"scale": [0.25, 0.25, 0.25]
		},
		"ground": {
			"rotation": [0, 0, -90],
			"translation": [-3.75, -3.25, 0],
			"scale": [0.5, 0.5, 0.5]
		},
		"gui": {
			"rotation": [0, 90, 0],
			"translation": [0, -4, 0],
			"scale": [0.5, 0.5, 0.5]
		},
		"fixed": {
			"translation": [0.25, -32, 12],
			"scale": [2, 2, 2]
		}
	},
	"groups": [0, 1, 2, 3, 4, 5,
		{
			"name": "jungle_door_top",
			"origin": [8, 8, 8],
			"children": [6, 7, 8, 9, 10, 11]
		}
	]
}