{
	"credit": "Made by JoubaMety with Blockbench",
	"ambientocclusion": false,
	"textures": {
		"bottom": "blocks/door_iron_lower",
		"texture": "blocks/m_jungle_door_upper_sides"
	},
	"elements": [
		{
			"from": [0, 0, 3],
			"to": [2, 2, 16],
			"faces": {
				"north": {"uv": [15, 14, 16, 16], "texture": "#bottom", "cullface": "south"},
				"east": {"uv": [3, 14, 16, 16], "texture": "#bottom", "cullface": "west"},
				"south": {"uv": [16, 14, 15, 16], "texture": "#bottom", "cullface": "north"},
				"west": {"uv": [3, 14, 16, 16], "texture": "#bottom"},
				"up": {"uv": [3, 14, 16, 15], "rotation": 90, "texture": "#bottom"},
				"down": {"uv": [3, 14, 16, 15], "rotation": 90, "texture": "#bottom", "cullface": "down"}
			}
		},
		{
			"from": [0, 0, 0],
			"to": [2, 16, 3],
			"faces": {
				"north": {"uv": [0, 0, 1, 16], "texture": "#bottom", "cullface": "south"},
				"east": {"uv": [0, 0, 3, 16], "texture": "#bottom", "cullface": "west"},
				"south": {"uv": [0, 0, 1, 16], "texture": "#bottom", "cullface": "north"},
				"west": {"uv": [0, 0, 3, 16], "texture": "#bottom"},
				"up": {"uv": [0, 0, 3, 1], "rotation": 270, "texture": "#bottom"},
				"down": {"uv": [0, 0, 3, 1], "rotation": 270, "texture": "#bottom", "cullface": "down"}
			}
		},
		{
			"from": [6, 0, 0],
			"to": [8, 16, 3],
			"faces": {
				"north": {"uv": [0, 0, 1, 16], "texture": "#bottom", "cullface": "south"},
				"east": {"uv": [0, 0, 3, 16], "texture": "#bottom", "cullface": "west"},
				"south": {"uv": [0, 0, 1, 16], "texture": "#bottom", "cullface": "north"},
				"west": {"uv": [0, 0, 3, 16], "texture": "#bottom"},
				"up": {"uv": [0, 0, 3, 1], "rotation": 270, "texture": "#bottom"},
				"down": {"uv": [0, 0, 3, 1], "rotation": 270, "texture": "#bottom", "cullface": "down"}
			}
		},
		{
			"from": [6, 0, 3],
			"to": [8, 2, 16],
			"faces": {
				"north": {"uv": [15, 14, 16, 16], "texture": "#bottom", "cullface": "south"},
				"east": {"uv": [3, 14, 16, 16], "texture": "#bottom", "cullface": "west"},
				"south": {"uv": [16, 14, 15, 16], "texture": "#bottom", "cullface": "north"},
				"west": {"uv": [3, 14, 16, 16], "texture": "#bottom"},
				"up": {"uv": [3, 14, 16, 15], "rotation": 90, "texture": "#bottom"},
				"down": {"uv": [3, 14, 16, 15], "rotation": 90, "texture": "#bottom", "cullface": "down"}
			}
		},
		{
			"from": [1, 11, -6],
			"to": [2, 16, -5],
			"faces": {
				"north": {"uv": [0, 0, 1, 16], "texture": "#bottom", "cullface": "south"},
				"east": {"uv": [4, 0, 5, 5], "texture": "#bottom", "cullface": "west"},
				"south": {"uv": [0, 0, 1, 16], "texture": "#bottom", "cullface": "north"},
				"west": {"uv": [4, 0, 5, 5], "texture": "#bottom"},
				"up": {"uv": [13, 12, 16, 13], "rotation": 270, "texture": "#bottom"},
				"down": {"uv": [13, 12, 16, 13], "rotation": 270, "texture": "#bottom", "cullface": "down"}
			}
		},
		{
			"from": [2, 0, -10],
			"to": [6, 16, 6],
			"faces": {
				"north": {"uv": [0, 0, 6, 16], "texture": "#texture", "cullface": "south"},
				"east": {"uv": [16, 0, 0, 16], "texture": "#bottom", "cullface": "west"},
				"south": {"uv": [6, 0, 0, 16], "texture": "#texture", "cullface": "north"},
				"west": {"uv": [0, 0, 16, 16], "texture": "#bottom"},
				"up": {"uv": [0, 0, 6, 16], "rotation": 180, "texture": "#texture"},
				"down": {"uv": [13, 0, 16, 16], "rotation": 180, "texture": "#texture", "cullface": "down"}
			}
		},
		{
			"from": [0.5, 15, -3],
			"to": [2, 16, -2],
			"faces": {
				"north": {"uv": [3, 1, 6, 2], "rotation": 270, "texture": "#bottom", "cullface": "south"},
				"east": {"uv": [3, 1, 6, 2], "rotation": 270, "texture": "#bottom", "cullface": "west"},
				"south": {"uv": [3, 1, 6, 2], "rotation": 270, "texture": "#bottom", "cullface": "north"},
				"west": {"uv": [3, 1, 6, 2], "rotation": 270, "texture": "#bottom"},
				"up": {"uv": [3, 1, 7, 2], "rotation": 270, "texture": "#bottom"},
				"down": {"uv": [0, 0, 3, 1], "rotation": 270, "texture": "#bottom", "cullface": "down"}
			}
		},
		{
			"from": [1, 13, 2],
			"to": [2, 16, 3],
			"faces": {
				"north": {"uv": [0, 0, 1, 16], "texture": "#bottom", "cullface": "south"},
				"east": {"uv": [12, 0, 13, 4], "texture": "#bottom", "cullface": "west"},
				"south": {"uv": [0, 0, 1, 16], "texture": "#bottom", "cullface": "north"},
				"west": {"uv": [12, 0, 13, 4], "texture": "#bottom"},
				"up": {"uv": [13, 12, 16, 13], "rotation": 270, "texture": "#bottom"},
				"down": {"uv": [0, 0, 3, 1], "rotation": 270, "texture": "#bottom", "cullface": "down"}
			}
		},
		{
			"from": [1, 4, 0],
			"to": [2, 16, 2],
			"faces": {
				"north": {"uv": [0, 0, 1, 16], "texture": "#bottom", "cullface": "south"},
				"east": {"uv": [12, 0, 10, 12], "texture": "#bottom", "cullface": "west"},
				"south": {"uv": [0, 0, 1, 16], "texture": "#bottom", "cullface": "north"},
				"west": {"uv": [10, 0, 12, 12], "texture": "#bottom"},
				"up": {"uv": [13, 12, 16, 13], "rotation": 270, "texture": "#bottom"},
				"down": {"uv": [13, 12, 16, 13], "rotation": 270, "texture": "#bottom", "cullface": "down"}
			}
		},
		{
			"from": [1, 5, -2],
			"to": [2, 16, 0],
			"faces": {
				"north": {"uv": [0, 0, 1, 16], "texture": "#bottom", "cullface": "south"},
				"east": {"uv": [10, 0, 8, 11], "texture": "#bottom", "cullface": "west"},
				"south": {"uv": [0, 0, 1, 16], "texture": "#bottom", "cullface": "north"},
				"west": {"uv": [8, 0, 10, 11], "texture": "#bottom"},
				"up": {"uv": [13, 12, 16, 13], "rotation": 270, "texture": "#bottom"},
				"down": {"uv": [13, 12, 16, 13], "rotation": 270, "texture": "#bottom", "cullface": "down"}
			}
		},
		{
			"from": [1, 6, -3],
			"to": [2, 16, -2],
			"faces": {
				"north": {"uv": [0, 0, 1, 16], "texture": "#bottom", "cullface": "south"},
				"east": {"uv": [7, 0, 8, 10], "texture": "#bottom", "cullface": "west"},
				"south": {"uv": [0, 0, 1, 16], "texture": "#bottom", "cullface": "north"},
				"west": {"uv": [7, 0, 8, 10], "texture": "#bottom"},
				"up": {"uv": [13, 12, 16, 13], "rotation": 270, "texture": "#bottom"},
				"down": {"uv": [13, 12, 16, 13], "rotation": 270, "texture": "#bottom", "cullface": "down"}
			}
		},
		{
			"from": [1, 7, -4],
			"to": [2, 16, -3],
			"faces": {
				"north": {"uv": [0, 0, 1, 16], "texture": "#bottom", "cullface": "south"},
				"east": {"uv": [6, 0, 7, 9], "texture": "#bottom", "cullface": "west"},
				"south": {"uv": [0, 0, 1, 16], "texture": "#bottom", "cullface": "north"},
				"west": {"uv": [6, 0, 7, 9], "texture": "#bottom"},
				"up": {"uv": [13, 12, 16, 13], "rotation": 270, "texture": "#bottom"},
				"down": {"uv": [13, 12, 16, 13], "rotation": 270, "texture": "#bottom", "cullface": "down"}
			}
		},
		{
			"from": [1, 9, -5],
			"to": [2, 16, -4],
			"faces": {
				"north": {"uv": [0, 0, 1, 16], "texture": "#bottom", "cullface": "south"},
				"east": {"uv": [5, 0, 6, 7], "texture": "#bottom", "cullface": "west"},
				"south": {"uv": [0, 0, 1, 16], "texture": "#bottom", "cullface": "north"},
				"west": {"uv": [5, 0, 6, 7], "texture": "#bottom"},
				"up": {"uv": [13, 12, 16, 13], "rotation": 270, "texture": "#bottom"},
				"down": {"uv": [13, 12, 16, 13], "rotation": 270, "texture": "#bottom", "cullface": "down"}
			}
		},
		{
			"from": [1, 3, 2],
			"to": [2, 13, 6],
			"faces": {
				"north": {"uv": [0, 0, 1, 16], "texture": "#bottom", "cullface": "south"},
				"east": {"uv": [16, 3, 12, 13], "texture": "#bottom", "cullface": "west"},
				"south": {"uv": [0, 0, 1, 16], "texture": "#bottom", "cullface": "north"},
				"west": {"uv": [12, 3, 16, 13], "texture": "#bottom"},
				"up": {"uv": [13, 12, 16, 13], "rotation": 270, "texture": "#bottom"},
				"down": {"uv": [13, 12, 16, 13], "rotation": 270, "texture": "#bottom", "cullface": "down"}
			}
		},
		{
			"from": [0.5, 14, -7],
			"to": [2, 16, -3],
			"faces": {
				"north": {"uv": [3, 1, 6, 2], "rotation": 270, "texture": "#bottom", "cullface": "south"},
				"east": {"uv": [3, 0, 7, 2], "texture": "#bottom", "cullface": "west"},
				"south": {"uv": [3, 1, 6, 2], "rotation": 270, "texture": "#bottom", "cullface": "north"},
				"west": {"uv": [3, 0, 7, 2], "texture": "#bottom"},
				"up": {"uv": [3, 1, 6, 2], "rotation": 270, "texture": "#bottom"},
				"down": {"uv": [3, 1, 7, 2], "rotation": 270, "texture": "#bottom", "cullface": "down"}
			}
		},
		{
			"from": [6, 14, -7],
			"to": [7.5, 16, -3],
			"faces": {
				"north": {"uv": [3, 1, 6, 2], "rotation": 270, "texture": "#bottom", "cullface": "south"},
				"east": {"uv": [3, 0, 7, 2], "texture": "#bottom", "cullface": "west"},
				"south": {"uv": [3, 1, 6, 2], "rotation": 270, "texture": "#bottom", "cullface": "north"},
				"west": {"uv": [3, 0, 7, 2], "texture": "#bottom"},
				"up": {"uv": [3, 1, 6, 2], "rotation": 270, "texture": "#bottom"},
				"down": {"uv": [3, 1, 7, 2], "rotation": 270, "texture": "#bottom", "cullface": "down"}
			}
		},
		{
			"from": [6, 15, -3],
			"to": [7.5, 16, -2],
			"faces": {
				"north": {"uv": [3, 1, 6, 2], "rotation": 270, "texture": "#bottom", "cullface": "south"},
				"east": {"uv": [3, 1, 6, 2], "rotation": 270, "texture": "#bottom", "cullface": "west"},
				"south": {"uv": [3, 1, 6, 2], "rotation": 270, "texture": "#bottom", "cullface": "north"},
				"west": {"uv": [3, 1, 6, 2], "rotation": 270, "texture": "#bottom"},
				"up": {"uv": [3, 1, 7, 2], "rotation": 270, "texture": "#bottom"},
				"down": {"uv": [0, 0, 3, 1], "rotation": 270, "texture": "#bottom", "cullface": "down"}
			}
		},
		{
			"from": [6, 5, -2],
			"to": [7, 16, 0],
			"faces": {
				"north": {"uv": [0, 0, 1, 16], "texture": "#bottom", "cullface": "south"},
				"east": {"uv": [10, 0, 8, 11], "texture": "#bottom", "cullface": "west"},
				"south": {"uv": [0, 0, 1, 16], "texture": "#bottom", "cullface": "north"},
				"west": {"uv": [0, 0, 3, 16], "texture": "#bottom"},
				"up": {"uv": [13, 12, 16, 13], "rotation": 270, "texture": "#bottom"},
				"down": {"uv": [13, 12, 16, 13], "rotation": 270, "texture": "#bottom", "cullface": "down"}
			}
		},
		{
			"from": [6, 4, 0],
			"to": [7, 16, 2],
			"faces": {
				"north": {"uv": [0, 0, 1, 16], "texture": "#bottom", "cullface": "south"},
				"east": {"uv": [12, 0, 10, 12], "texture": "#bottom", "cullface": "west"},
				"south": {"uv": [0, 0, 1, 16], "texture": "#bottom", "cullface": "north"},
				"west": {"uv": [0, 0, 3, 16], "texture": "#bottom"},
				"up": {"uv": [13, 12, 16, 13], "rotation": 270, "texture": "#bottom"},
				"down": {"uv": [13, 12, 16, 13], "rotation": 270, "texture": "#bottom", "cullface": "down"}
			}
		},
		{
			"from": [6, 13, 2],
			"to": [7, 16, 3],
			"faces": {
				"north": {"uv": [0, 0, 1, 16], "texture": "#bottom", "cullface": "south"},
				"east": {"uv": [12, 0, 13, 4], "texture": "#bottom", "cullface": "west"},
				"south": {"uv": [0, 0, 1, 16], "texture": "#bottom", "cullface": "north"},
				"west": {"uv": [0, 0, 3, 16], "texture": "#bottom"},
				"up": {"uv": [13, 12, 16, 13], "rotation": 270, "texture": "#bottom"},
				"down": {"uv": [0, 0, 3, 1], "rotation": 270, "texture": "#bottom", "cullface": "down"}
			}
		},
		{
			"from": [6, 3, 2],
			"to": [7, 13, 6],
			"faces": {
				"north": {"uv": [0, 0, 1, 16], "texture": "#bottom", "cullface": "south"},
				"east": {"uv": [16, 3, 12, 13], "texture": "#bottom", "cullface": "west"},
				"south": {"uv": [0, 0, 1, 16], "texture": "#bottom", "cullface": "north"},
				"west": {"uv": [3, 0, 0, 16], "texture": "#bottom"},
				"up": {"uv": [13, 12, 16, 13], "rotation": 270, "texture": "#bottom"},
				"down": {"uv": [13, 12, 16, 13], "rotation": 270, "texture": "#bottom", "cullface": "down"}
			}
		},
		{
			"from": [6, 6, -3],
			"to": [7, 16, -2],
			"faces": {
				"north": {"uv": [0, 0, 1, 16], "texture": "#bottom", "cullface": "south"},
				"east": {"uv": [7, 0, 8, 10], "texture": "#bottom", "cullface": "west"},
				"south": {"uv": [0, 0, 1, 16], "texture": "#bottom", "cullface": "north"},
				"west": {"uv": [0, 0, 3, 16], "texture": "#bottom"},
				"up": {"uv": [13, 12, 16, 13], "rotation": 270, "texture": "#bottom"},
				"down": {"uv": [13, 12, 16, 13], "rotation": 270, "texture": "#bottom", "cullface": "down"}
			}
		},
		{
			"from": [6, 7, -4],
			"to": [7, 16, -3],
			"faces": {
				"north": {"uv": [0, 0, 1, 16], "texture": "#bottom", "cullface": "south"},
				"east": {"uv": [6, 0, 7, 9], "texture": "#bottom", "cullface": "west"},
				"south": {"uv": [0, 0, 1, 16], "texture": "#bottom", "cullface": "north"},
				"west": {"uv": [0, 0, 3, 16], "texture": "#bottom"},
				"up": {"uv": [13, 12, 16, 13], "rotation": 270, "texture": "#bottom"},
				"down": {"uv": [13, 12, 16, 13], "rotation": 270, "texture": "#bottom", "cullface": "down"}
			}
		},
		{
			"from": [6, 9, -5],
			"to": [7, 16, -4],
			"faces": {
				"north": {"uv": [0, 0, 1, 16], "texture": "#bottom", "cullface": "south"},
				"east": {"uv": [5, 0, 6, 7], "texture": "#bottom", "cullface": "west"},
				"south": {"uv": [0, 0, 1, 16], "texture": "#bottom", "cullface": "north"},
				"west": {"uv": [0, 0, 3, 16], "texture": "#bottom"},
				"up": {"uv": [13, 12, 16, 13], "rotation": 270, "texture": "#bottom"},
				"down": {"uv": [13, 12, 16, 13], "rotation": 270, "texture": "#bottom", "cullface": "down"}
			}
		},
		{
			"from": [6, 11, -6],
			"to": [7, 16, -5],
			"faces": {
				"north": {"uv": [0, 0, 1, 16], "texture": "#bottom", "cullface": "south"},
				"east": {"uv": [4, 0, 5, 5], "texture": "#bottom", "cullface": "west"},
				"south": {"uv": [0, 0, 1, 16], "texture": "#bottom", "cullface": "north"},
				"west": {"uv": [0, 0, 3, 16], "texture": "#bottom"},
				"up": {"uv": [13, 12, 16, 13], "rotation": 270, "texture": "#bottom"},
				"down": {"uv": [13, 12, 16, 13], "rotation": 270, "texture": "#bottom", "cullface": "down"}
			}
		}
	],
	"groups": [0, 1, 2, 3,
		{
			"name": "group",
			"children": [4, 5, 6, 7, 8, 9, 10, 11, 12, 13, 14, 15, 16, 17, 18, 19, 20, 21, 22, 23, 24]
		}
	]
}