{
	"credit": "Made by 0ptima, totally cool guy from Frostburn",
	"textures": {
		"0": "models/charles_cryob/down",
		"1": "models/charles_cryob/up",
		"2": "blocks/cryoinfo_l3",
		"1_0": "models/charles_cryob/cryoinfo_l1",
		"particle": "models/charles_cryob/cryoinfo_l1",
		"1_1": "blocks/cryoinfo_l2"
	},
	"elements": [
		{
			"from": [-0.4, 5.9, 16.4],
			"to": [16.4, 10.1, -0.4],
			"faces": {
				"south": {"uv": [0, 0, 16, 4], "texture": "#2"}
			}
		},
		{
			"from": [-0.4, 5.9, -0.4],
			"to": [16.4, 10.1, 16.4],
			"faces": {
				"north": {"uv": [0, 4, 16, 8], "texture": "#1_0"}
			}
		},
		{
			"from": [4.85, 6.95, -0.53125],
			"to": [8, 9.05, -0.53125],
			"faces": {
				"north": {"uv": [0, 2, 12, 10], "texture": "#1_1"}
			}
		},
		{
			"from": [8.7875, 9.05, -0.53125],
			"to": [12.4625, 9.3125, -0.53125],
			"faces": {
				"north": {"uv": [0, 0, 5, 1], "texture": "#1_1"}
			}
		},
		{
			"from": [8.7875, 5.9, -0.53125],
			"to": [9.05, 9.05, -0.53125],
			"faces": {
				"north": {"uv": [5, 0, 8, 1], "rotation": 90, "texture": "#1_1"}
			}
		},
		{
			"from": [8.7875, 5.6375, -0.53125],
			"to": [12.4625, 5.9, -0.53125],
			"faces": {
				"north": {"uv": [8, 0, 13, 1], "rotation": 180, "texture": "#1_1"}
			}
		},
		{
			"from": [12.2, 5.9, -0.53125],
			"to": [12.4625, 9.05, -0.53125],
			"faces": {
				"north": {"uv": [13, 0, 16, 1], "rotation": 270, "texture": "#1_1"}
			}
		},
		{
			"from": [14.825, 6.95, -0.925],
			"to": [15.875, 9.05, -0.4],
			"faces": {
				"north": {"uv": [0, 11, 1, 13], "texture": "#1_1"},
				"east": {"uv": [0, 11, 1, 13], "texture": "#1_1"},
				"west": {"uv": [0, 11, 1, 13], "texture": "#1_1"},
				"up": {"uv": [0, 11, 1, 12], "texture": "#1_1"},
				"down": {"uv": [0, 12, 1, 13], "texture": "#1_1"}
			}
		},
		{
			"from": [15.0875, 7.34375, -1.1875],
			"to": [15.6125, 8.65625, -0.925],
			"faces": {
				"north": {"uv": [0, 15, 1, 16], "texture": "#1_1"},
				"east": {"uv": [0, 15, 1, 16], "texture": "#1_1"},
				"west": {"uv": [0, 15, 1, 16], "texture": "#1_1"},
				"up": {"uv": [0, 15, 1, 16], "texture": "#1_1"},
				"down": {"uv": [0, 15, 1, 16], "texture": "#1_1"}
			}
		},
		{
			"from": [12.9875, 7.34375, -1.1875],
			"to": [13.5125, 8.65625, -0.925],
			"faces": {
				"north": {"uv": [1, 15, 2, 16], "texture": "#1_1"},
				"east": {"uv": [1, 15, 2, 16], "texture": "#1_1"},
				"south": {"uv": [1, 15, 2, 16], "texture": "#1_1"},
				"west": {"uv": [1, 15, 2, 16], "texture": "#1_1"},
				"up": {"uv": [1, 15, 2, 16], "texture": "#1_1"},
				"down": {"uv": [1, 15, 2, 16], "texture": "#1_1"}
			}
		},
		{
			"from": [12.725, 6.95, -0.925],
			"to": [13.775, 9.05, -0.4],
			"faces": {
				"north": {"uv": [0, 11, 1, 13], "texture": "#1_1"},
				"east": {"uv": [0, 11, 1, 13], "texture": "#1_1"},
				"west": {"uv": [0, 11, 1, 13], "texture": "#1_1"},
				"up": {"uv": [0, 11, 1, 12], "texture": "#1_1"},
				"down": {"uv": [0, 12, 1, 13], "texture": "#1_1"}
			}
		},
		{
			"from": [2.4875, 7.34375, -1.1875],
			"to": [3.0125, 8.65625, -0.925],
			"faces": {
				"north": {"uv": [2, 15, 3, 16], "texture": "#1_1"},
				"east": {"uv": [2, 15, 3, 16], "texture": "#1_1"},
				"south": {"uv": [2, 15, 3, 16], "texture": "#1_1"},
				"west": {"uv": [2, 15, 3, 16], "texture": "#1_1"},
				"up": {"uv": [2, 15, 3, 16], "texture": "#1_1"},
				"down": {"uv": [2, 15, 3, 16], "texture": "#1_1"}
			}
		},
		{
			"from": [2.225, 6.95, -0.925],
			"to": [3.275, 9.05, -0.4],
			"faces": {
				"north": {"uv": [0, 11, 1, 13], "texture": "#1_1"},
				"east": {"uv": [0, 11, 1, 13], "texture": "#1_1"},
				"west": {"uv": [0, 11, 1, 13], "texture": "#1_1"},
				"up": {"uv": [0, 11, 1, 12], "texture": "#1_1"},
				"down": {"uv": [0, 12, 1, 13], "texture": "#1_1"}
			}
		},
		{
			"from": [0.3875, 7.34375, -1.1875],
			"to": [0.9125, 8.65625, -0.925],
			"faces": {
				"north": {"uv": [3, 15, 4, 16], "texture": "#1_1"},
				"east": {"uv": [3, 15, 4, 16], "texture": "#1_1"},
				"south": {"uv": [3, 15, 4, 16], "texture": "#1_1"},
				"west": {"uv": [3, 15, 4, 16], "texture": "#1_1"},
				"up": {"uv": [3, 15, 4, 16], "texture": "#1_1"},
				"down": {"uv": [3, 15, 4, 16], "texture": "#1_1"}
			}
		},
		{
			"from": [0.125, 6.95, -0.925],
			"to": [1.175, 9.05, -0.4],
			"faces": {
				"north": {"uv": [0, 11, 1, 13], "texture": "#1_1"},
				"east": {"uv": [0, 11, 1, 13], "texture": "#1_1"},
				"west": {"uv": [0, 11, 1, 13], "texture": "#1_1"},
				"up": {"uv": [0, 11, 1, 12], "texture": "#1_1"},
				"down": {"uv": [0, 12, 1, 13], "texture": "#1_1"}
			}
		},
		{
			"from": [0, 0, 0],
			"to": [16, 16, 0],
			"faces": {
				"north": {"uv": [0, 0, 16, 16], "texture": "#0"},
				"south": {"uv": [0, 0, 16, 16], "texture": "#0"}
			}
		},
		{
			"from": [0, 16, 0],
			"to": [16, 32, 0],
			"faces": {
				"north": {"uv": [0, 0, 16, 16], "texture": "#1"},
				"south": {"uv": [0, 0, 16, 16], "texture": "#1"}
			}
		}
	],
	"display": {
		"thirdperson_righthand": {
			"rotation": [22, -53, 0],
			"scale": [0.14, 0.14, 0.14]
		},
		"thirdperson_lefthand": {
			"rotation": [22, -53, 0],
			"scale": [0.14, 0.14, 0.14]
		},
		"firstperson_righthand": {
			"rotation": [0, 160, 0],
			"translation": [7.5, -4.25, -11.5],
			"scale": [0.53, 0.53, 0.53]
		},
		"firstperson_lefthand": {
			"rotation": [0, 160, 0],
			"translation": [7.5, -4.25, -11.5],
			"scale": [0.53, 0.53, 0.53]
		},
		"ground": {
			"scale": [0.44, 0.44, 0.44]
		},
		"gui": {
			"rotation": [35, 45, 0],
			"translation": [0, -3.25, 0],
			"scale": [0.42, 0.42, 0.42]
		},
		"fixed": {
			"rotation": [0, -157.5, 0],
			"translation": [-6.25, 0, -6.75],
			"scale": [2, 2, 2]
		}
	},
	"groups": [
		{
			"name": "wooden_shovel2",
			"children": [0, 1, 2, 3, 4, 5, 6, 7, 8, 9, 10, 11, 12, 13, 14]
		},
		{
			"name": "cryo_sides",
			"children": [15, 16]
		}
	]
}