{
	"credit": "Made by 0ptima, totally cool guy from Frostburn",
	"textures": {
		"0": "models/p90",
		"particle": "models/p90"
	},
	"elements": [
		{
			"from": [7, 5, 11],
			"to": [9, 8.5, 15.984],
			"faces": {
				"north": {"uv": [3.75, 1.5, 5, 3.5], "texture": "#0"},
				"east": {"uv": [0, 1.5, 3.75, 3.75], "texture": "#0"},
				"south": {"uv": [3.75, 1.5, 5, 3.5], "texture": "#0"},
				"west": {"uv": [3.75, 1.5, 0, 3.75], "texture": "#0"}
			}
		},
		{
			"from": [7.25, 4.75, 11],
			"to": [8.75, 8.75, 16],
			"faces": {
				"north": {"uv": [4, 1.25, 4.75, 3.75], "texture": "#0"},
				"south": {"uv": [4, 1.25, 4.75, 3.75], "texture": "#0"},
				"up": {"uv": [0, 0, 3.75, 1.25], "rotation": 270, "texture": "#0"},
				"down": {"uv": [0, 0, 3.75, 1.25], "rotation": 90, "texture": "#0"}
			}
		},
		{
			"from": [8.75, 8.5, 11],
			"to": [9, 8.75, 15.968],
			"rotation": {"angle": -45, "axis": "z", "origin": [8.75, 8.75, 13.5], "rescale": true},
			"faces": {
				"north": {"uv": [4.75, 1.25, 5, 1.5], "texture": "#0"},
				"south": {"uv": [4.75, 1.25, 5, 1.5], "texture": "#0"},
				"up": {"uv": [0, 1.25, 3.75, 1.5], "rotation": 270, "texture": "#0"}
			}
		},
		{
			"from": [7, 4.75, 11],
			"to": [7.25, 5, 15.984],
			"rotation": {"angle": -45, "axis": "z", "origin": [7.25, 4.75, 13.5], "rescale": true},
			"faces": {
				"north": {"uv": [3.75, 3.5, 4, 3.75], "texture": "#0"},
				"south": {"uv": [3.75, 3.5, 4, 3.75], "texture": "#0"},
				"down": {"uv": [0, 1.25, 3.75, 1.5], "rotation": 90, "texture": "#0"}
			}
		},
		{
			"from": [7.25, 8.5, 11],
			"to": [7.5, 8.75, 15.984],
			"rotation": {"angle": -45, "axis": "z", "origin": [7.25, 8.75, 13.5], "rescale": true},
			"faces": {
				"north": {"uv": [3.75, 1.25, 4, 1.5], "texture": "#0"},
				"south": {"uv": [3.75, 1.25, 4, 1.5], "texture": "#0"},
				"west": {"uv": [0, 1.25, 3.75, 1.5], "rotation": 180, "texture": "#0"}
			}
		},
		{
			"from": [8.5, 4.75, 11],
			"to": [8.75, 5, 15.984],
			"rotation": {"angle": -45, "axis": "z", "origin": [8.75, 4.75, 13.5], "rescale": true},
			"faces": {
				"north": {"uv": [4.75, 3.5, 5, 3.75], "texture": "#0"},
				"east": {"uv": [0, 1.25, 3.75, 1.5], "texture": "#0"},
				"south": {"uv": [4.75, 3.5, 5, 3.75], "texture": "#0"}
			}
		},
		{
			"from": [7, 6.625, 5.125],
			"to": [9, 8, 11],
			"faces": {
				"north": {"uv": [5.25, 0, 6.5, 1], "texture": "#0"},
				"east": {"uv": [5.25, 1.25, 8.5, 2.25], "texture": "#0"},
				"west": {"uv": [8.5, 1.25, 5.25, 2.25], "texture": "#0"},
				"up": {"uv": [5.25, 2.5, 8.5, 3.75], "rotation": 90, "texture": "#0"},
				"down": {"uv": [5.25, 2.5, 8.5, 3.75], "rotation": 90, "texture": "#0"}
			}
		},
		{
			"from": [7.125, 5, 8.875],
			"to": [8.875, 6.625, 11],
			"faces": {
				"north": {"uv": [0.25, 4, 1.5, 5.25], "texture": "#0"},
				"east": {"uv": [0.25, 4, 1.5, 5.25], "texture": "#0"},
				"west": {"uv": [0.25, 4, 1.5, 5.25], "texture": "#0"}
			}
		},
		{
			"from": [7.125, 5, 8.75],
			"to": [8.875, 6.625, 11],
			"rotation": {"angle": -22.5, "axis": "x", "origin": [8, 5, 11]},
			"faces": {
				"east": {"uv": [0.25, 4, 1.5, 5.25], "texture": "#0"},
				"west": {"uv": [0.25, 4, 1.5, 5.25], "texture": "#0"},
				"up": {"uv": [0.25, 4, 1.5, 5.25], "texture": "#0"},
				"down": {"uv": [0.25, 4, 1.5, 5.25], "texture": "#0"}
			}
		},
		{
			"from": [7.125, 4, 7],
			"to": [8.875, 5.625, 9],
			"faces": {
				"north": {"uv": [0.25, 4, 1.5, 5.25], "texture": "#0"},
				"east": {"uv": [0.25, 4, 1.5, 5.25], "texture": "#0"},
				"south": {"uv": [0.25, 4, 1.5, 5.25], "texture": "#0"},
				"west": {"uv": [0.25, 4, 1.5, 5.25], "texture": "#0"},
				"up": {"uv": [0.25, 4, 1.5, 5.25], "texture": "#0"},
				"down": {"uv": [0.25, 4, 1.5, 5.25], "texture": "#0"}
			}
		},
		{
			"from": [7.125, 4, 5],
			"to": [8.875, 5.625, 7],
			"rotation": {"angle": 45, "axis": "x", "origin": [8, 4, 7]},
			"faces": {
				"east": {"uv": [0.25, 4, 1.5, 5.25], "texture": "#0"},
				"south": {"uv": [0.25, 4, 1.5, 5.25], "texture": "#0"},
				"west": {"uv": [0.25, 4, 1.5, 5.25], "texture": "#0"},
				"up": {"uv": [0.25, 4, 1.5, 5.25], "texture": "#0"},
				"down": {"uv": [0.25, 4, 1.5, 5.25], "texture": "#0"}
			}
		},
		{
			"from": [7.125, 5.375, 4.549],
			"to": [8.875, 6.625, 7],
			"faces": {
				"north": {"uv": [0.25, 4, 1.5, 5.25], "texture": "#0"},
				"east": {"uv": [0.25, 4, 1.5, 5.25], "texture": "#0"},
				"south": {"uv": [0.25, 4, 1.5, 5.25], "texture": "#0"},
				"west": {"uv": [0.25, 4, 1.5, 5.25], "texture": "#0"},
				"down": {"uv": [0.25, 4, 1.5, 5.25], "texture": "#0"}
			}
		},
		{
			"from": [7.25, 4.75, 10],
			"to": [8.75, 5.125, 11],
			"faces": {
				"north": {"uv": [0.25, 4, 1.5, 5.25], "texture": "#0"},
				"east": {"uv": [0.25, 4, 1.5, 5.25], "texture": "#0"},
				"west": {"uv": [0.25, 4, 1.5, 5.25], "texture": "#0"},
				"down": {"uv": [0.25, 4, 1.5, 5.25], "texture": "#0"}
			}
		},
		{
			"from": [7.125, 7.25, 1],
			"to": [8.875, 7.875, 5.125],
			"faces": {
				"north": {"uv": [12, 3.25, 13.5, 4.5], "texture": "#0"},
				"east": {"uv": [10.5, 6.25, 14, 7], "texture": "#0"},
				"west": {"uv": [10.5, 6.25, 14, 7], "texture": "#0"},
				"up": {"uv": [10.5, 4.75, 14, 6], "texture": "#0"}
			}
		},
		{
			"from": [7.016, 6.25, 1],
			"to": [8.984, 7.25, 5.125],
			"faces": {
				"north": {"uv": [12, 3.25, 13.5, 4.5], "texture": "#0"},
				"east": {"uv": [10.5, 4.75, 14, 6], "texture": "#0"},
				"west": {"uv": [10.5, 4.75, 14, 6], "texture": "#0"},
				"up": {"uv": [10.5, 4.75, 14, 6], "texture": "#0"},
				"down": {"uv": [10.5, 4.75, 14, 6], "texture": "#0"}
			}
		},
		{
			"from": [7, 6.234, 2.375],
			"to": [9, 6.875, 5.141],
			"faces": {
				"north": {"uv": [0.25, 4, 1.5, 5.25], "texture": "#0"},
				"east": {"uv": [0.25, 4, 1.5, 5.25], "texture": "#0"},
				"south": {"uv": [0.25, 4, 1.5, 5.25], "texture": "#0"},
				"west": {"uv": [0.25, 4, 1.5, 5.25], "texture": "#0"},
				"up": {"uv": [0.25, 4, 1.5, 5.25], "texture": "#0"},
				"down": {"uv": [0.25, 4, 1.5, 5.25], "texture": "#0"}
			}
		},
		{
			"from": [7.125, 3.875, 4.5],
			"to": [8.875, 5.375, 5.125],
			"rotation": {"angle": 22.5, "axis": "x", "origin": [8, 5.375, 5.125]},
			"faces": {
				"north": {"uv": [0.25, 4, 1.5, 5.25], "texture": "#0"},
				"east": {"uv": [0.25, 4, 1.5, 5.25], "texture": "#0"},
				"south": {"uv": [0.25, 4, 1.5, 5.25], "texture": "#0"},
				"west": {"uv": [0.25, 4, 1.5, 5.25], "texture": "#0"},
				"down": {"uv": [0.25, 4, 1.5, 5.25], "texture": "#0"}
			}
		},
		{
			"from": [7.125, 3.984, 3.048],
			"to": [8.875, 4.609, 4.548],
			"faces": {
				"east": {"uv": [0.25, 4, 1.5, 5.25], "texture": "#0"},
				"west": {"uv": [0.25, 4, 1.5, 5.25], "texture": "#0"},
				"up": {"uv": [0.25, 4, 1.5, 5.25], "texture": "#0"}
			}
		},
		{
			"from": [7.125, 3.984, 2.423],
			"to": [8.875, 4.609, 4.048],
			"rotation": {"angle": 22.5, "axis": "x", "origin": [8, 3.984, 3.048]},
			"faces": {
				"north": {"uv": [0.25, 4, 1.5, 5.25], "texture": "#0"},
				"east": {"uv": [0.25, 4, 1.5, 5.25], "texture": "#0"},
				"west": {"uv": [0.25, 4, 1.5, 5.25], "texture": "#0"},
				"up": {"uv": [0.25, 4, 1.5, 5.25], "texture": "#0"},
				"down": {"uv": [0.25, 4, 1.5, 5.25], "texture": "#0"}
			}
		},
		{
			"from": [7.125, 4.234, 2.471],
			"to": [8.875, 6.859, 3.096],
			"rotation": {"angle": -22.5, "axis": "x", "origin": [8, 4.234, 2.471]},
			"faces": {
				"north": {"uv": [0.25, 4, 1.5, 5.25], "texture": "#0"},
				"east": {"uv": [0.25, 4, 1.5, 5.25], "texture": "#0"},
				"south": {"uv": [0.25, 4, 1.5, 5.25], "texture": "#0"},
				"west": {"uv": [0.25, 4, 1.5, 5.25], "texture": "#0"}
			}
		},
		{
			"from": [7.125, 5.484, 1.971],
			"to": [8.875, 6.609, 2.596],
			"rotation": {"angle": 22.5, "axis": "x", "origin": [8, 5.484, 1.971]},
			"faces": {
				"east": {"uv": [0.25, 4, 1.5, 5.25], "texture": "#0"},
				"south": {"uv": [0.25, 4, 1.5, 5.25], "texture": "#0"},
				"west": {"uv": [0.25, 4, 1.5, 5.25], "texture": "#0"}
			}
		},
		{
			"from": [7.125, 5.859, 3.721],
			"to": [8.875, 6.484, 4.721],
			"rotation": {"angle": 22.5, "axis": "x", "origin": [8, 5.859, 4.721]},
			"faces": {
				"east": {"uv": [0.25, 4, 1.5, 5.25], "texture": "#0"},
				"west": {"uv": [0.25, 4, 1.5, 5.25], "texture": "#0"},
				"down": {"uv": [0.25, 4, 1.5, 5.25], "texture": "#0"}
			}
		},
		{
			"from": [7.125, 3.593, 3.959],
			"to": [8.875, 4.01, 4.544],
			"faces": {
				"north": {"uv": [0.25, 4, 1.5, 5.25], "texture": "#0"},
				"east": {"uv": [0.25, 4, 1.5, 5.25], "texture": "#0"},
				"south": {"uv": [0.25, 4, 1.5, 5.25], "texture": "#0"},
				"west": {"uv": [0.25, 4, 1.5, 5.25], "texture": "#0"},
				"up": {"uv": [0.25, 4, 1.5, 5.25], "texture": "#0"},
				"down": {"uv": [0.25, 4, 1.5, 5.25], "texture": "#0"}
			}
		},
		{
			"from": [7.25, 8, 2.125],
			"to": [8.75, 8.75, 11],
			"faces": {
				"east": {"uv": [1.75, 5, 5.25, 5.5], "texture": "#0"},
				"west": {"uv": [1.75, 5, 5.25, 5.5], "texture": "#0"},
				"up": {"uv": [1.75, 4, 5.25, 4.75], "rotation": 90, "texture": "#0"},
				"down": {"uv": [1.75, 4, 5.25, 4.75], "rotation": 90, "texture": "#0"}
			}
		},
		{
			"from": [6.875, 8, 5.125],
			"to": [7.125, 9.346, 6],
			"rotation": {"angle": -22.5, "axis": "x", "origin": [11, 8, 6]},
			"faces": {
				"north": {"uv": [9.75, 1, 10, 2.25], "texture": "#0"},
				"east": {"uv": [8.75, 1, 9.5, 2.25], "texture": "#0"},
				"south": {"uv": [9.75, 1, 10, 2.25], "texture": "#0"},
				"west": {"uv": [8.75, 1, 9.5, 2.25], "texture": "#0"},
				"up": {"uv": [9.75, 1, 10, 2.25], "texture": "#0"},
				"down": {"uv": [9.75, 1, 10, 2.25], "texture": "#0"}
			}
		},
		{
			"from": [7.125, 7.875, 0.875],
			"to": [8.875, 9.125, 2],
			"faces": {
				"north": {"uv": [12, 3.25, 13.5, 4.5], "texture": "#0"},
				"east": {"uv": [10.5, 3.25, 11.75, 4.5], "texture": "#0"},
				"south": {"uv": [12, 3.25, 13.5, 4.5], "texture": "#0"},
				"west": {"uv": [10.5, 3.25, 11.75, 4.5], "texture": "#0"},
				"down": {"uv": [10.5, 3.25, 11.75, 4.5], "texture": "#0"}
			}
		},
		{
			"from": [7.125, 9.125, 0.875],
			"to": [8.875, 9.234, 4.723],
			"faces": {
				"north": {"uv": [14, 0.25, 14.5, 0.75], "texture": "#0"},
				"east": {"uv": [14, 0.25, 14.5, 0.75], "texture": "#0"},
				"south": {"uv": [14, 0.25, 14.5, 0.75], "rotation": 270, "texture": "#0"},
				"west": {"uv": [14, 0.25, 14.5, 0.75], "texture": "#0"},
				"up": {"uv": [11, 0.25, 13.75, 2], "rotation": 90, "texture": "#0"},
				"down": {"uv": [11, 0.25, 13.75, 2], "rotation": 90, "texture": "#0"}
			}
		},
		{
			"from": [7.125, 5.657, 1.375],
			"to": [8.875, 6.25, 2.125],
			"faces": {
				"east": {"uv": [0.25, 4, 1.5, 5.25], "texture": "#0"},
				"west": {"uv": [0.25, 4, 1.5, 5.25], "texture": "#0"},
				"down": {"uv": [0.25, 4, 1.5, 5.25], "texture": "#0"}
			}
		},
		{
			"from": [7.125, 5.875, 1],
			"to": [8.875, 6.5, 1.574],
			"rotation": {"angle": 22.5, "axis": "x", "origin": [8, 6.25, 1]},
			"faces": {
				"north": {"uv": [0.25, 4, 1.5, 5.25], "texture": "#0"},
				"east": {"uv": [0.25, 4, 1.5, 5.25], "texture": "#0"},
				"west": {"uv": [0.25, 4, 1.5, 5.25], "texture": "#0"},
				"down": {"uv": [0.25, 4, 1.5, 5.25], "texture": "#0"}
			}
		},
		{
			"from": [7.125, 5.647, 0.862],
			"to": [8.875, 5.913, 1.548],
			"faces": {
				"north": {"uv": [0.25, 4, 1.5, 5.25], "texture": "#0"},
				"east": {"uv": [0.25, 4, 1.5, 5.25], "texture": "#0"},
				"south": {"uv": [0.25, 4, 1.5, 5.25], "texture": "#0"},
				"west": {"uv": [0.25, 4, 1.5, 5.25], "texture": "#0"},
				"down": {"uv": [0, 0, 1.75, 0.686], "texture": "#missing"}
			}
		},
		{
			"from": [6.968, 7.375, 5.141],
			"to": [9.032, 8, 6],
			"faces": {
				"north": {"uv": [8.75, 0.25, 9.5, 0.75], "texture": "#0"},
				"east": {"uv": [8.75, 0.25, 9.5, 0.75], "texture": "#0"},
				"south": {"uv": [8.75, 0.25, 9.5, 0.75], "texture": "#0"},
				"west": {"uv": [8.75, 0.25, 9.5, 0.75], "texture": "#0"},
				"up": {"uv": [8.75, 0.25, 9.5, 0.75], "texture": "#0"},
				"down": {"uv": [8.75, 0.25, 9.5, 0.75], "texture": "#0"}
			}
		},
		{
			"from": [6.875, 8.887, 4.689],
			"to": [7.125, 9.241, 5.484],
			"faces": {
				"north": {"uv": [9.75, 0.25, 10.25, 0.75], "texture": "#0"},
				"east": {"uv": [9.75, 0.25, 10.25, 0.75], "texture": "#0"},
				"south": {"uv": [9.75, 0.25, 10.25, 0.75], "texture": "#0"},
				"west": {"uv": [9.75, 0.25, 10.25, 0.75], "texture": "#0"},
				"up": {"uv": [9.75, 0.25, 10.25, 0.75], "texture": "#0"},
				"down": {"uv": [9.75, 0.25, 10.25, 0.75], "texture": "#0"}
			}
		},
		{
			"from": [8.875, 8, 5.125],
			"to": [9.125, 9.346, 6],
			"rotation": {"angle": -22.5, "axis": "x", "origin": [11, 8, 6]},
			"faces": {
				"north": {"uv": [9.75, 1, 10, 2.25], "texture": "#0"},
				"east": {"uv": [8.75, 1, 9.5, 2.25], "texture": "#0"},
				"south": {"uv": [9.75, 1, 10, 2.25], "texture": "#0"},
				"west": {"uv": [8.75, 1, 9.5, 2.25], "texture": "#0"},
				"up": {"uv": [9.75, 0.25, 10.25, 0.75], "texture": "#0"},
				"down": {"uv": [9.75, 1, 10, 2.25], "texture": "#0"}
			}
		},
		{
			"from": [8.875, 8.887, 4.689],
			"to": [9.125, 9.241, 5.484],
			"faces": {
				"north": {"uv": [9.75, 0.25, 10.25, 0.75], "texture": "#0"},
				"east": {"uv": [9.75, 0.25, 10.25, 0.75], "texture": "#0"},
				"south": {"uv": [9.75, 0.25, 10.25, 0.75], "texture": "#0"},
				"west": {"uv": [9.75, 0.25, 10.25, 0.75], "texture": "#0"},
				"up": {"uv": [9.75, 0.25, 10.25, 0.75], "texture": "#0"},
				"down": {"uv": [9.75, 0.25, 10.25, 0.75], "texture": "#0"}
			}
		},
		{
			"from": [7.125, 9.137, 4.689],
			"to": [8.875, 9.241, 5.484],
			"faces": {
				"north": {"uv": [14, 0.25, 14.5, 0.75], "rotation": 270, "texture": "#0"},
				"south": {"uv": [14, 0.25, 14.5, 0.75], "texture": "#0"},
				"up": {"uv": [10.5, 0.25, 11, 2], "rotation": 90, "texture": "#0"},
				"down": {"uv": [10.5, 0.25, 11, 2], "rotation": 90, "texture": "#0"}
			}
		},
		{
			"from": [8.739, 9.23, 4.689],
			"to": [8.875, 9.98, 5.484],
			"rotation": {"angle": 45, "axis": "z", "origin": [8.875, 9.23, 5.468]},
			"faces": {
				"north": {"uv": [14, 0.25, 14.5, 0.75], "rotation": 90, "texture": "#0"},
				"east": {"uv": [14, 1, 15, 2], "texture": "#0"},
				"south": {"uv": [14, 0.25, 14.5, 0.75], "rotation": 270, "texture": "#0"},
				"west": {"uv": [14, 0.25, 14.5, 0.75], "rotation": 270, "texture": "#0"},
				"up": {"uv": [14, 0.25, 14.5, 0.75], "rotation": 270, "texture": "#0"},
				"down": {"uv": [14, 0.25, 14.5, 0.75], "rotation": 270, "texture": "#0"}
			}
		},
		{
			"from": [7.125, 9.115, 4.689],
			"to": [7.875, 9.24, 5.484],
			"rotation": {"angle": 45, "axis": "z", "origin": [7.125, 9.224, 5.468]},
			"faces": {
				"north": {"uv": [14, 0.25, 14.5, 0.75], "texture": "#0"},
				"east": {"uv": [14, 0.25, 14.5, 0.75], "texture": "#0"},
				"south": {"uv": [14, 0.25, 14.5, 0.75], "texture": "#0"},
				"west": {"uv": [14, 0.25, 14.5, 0.75], "texture": "#0"},
				"up": {"uv": [14, 1, 15, 2], "texture": "#0"},
				"down": {"uv": [14, 0.25, 14.5, 0.75], "texture": "#0"}
			}
		},
		{
			"from": [7.637, 9.665, 0.891],
			"to": [8.347, 9.769, 5.484],
			"faces": {
				"north": {"uv": [14, 0.25, 14.5, 0.75], "rotation": 270, "texture": "#0"},
				"east": {"uv": [14, 0.25, 14.5, 0.75], "rotation": 270, "texture": "#0"},
				"south": {"uv": [14, 0.25, 14.5, 0.75], "rotation": 270, "texture": "#0"},
				"west": {"uv": [14, 0.25, 14.5, 0.75], "rotation": 270, "texture": "#0"},
				"up": {"uv": [14, 0.25, 14.5, 0.75], "rotation": 270, "texture": "#0"},
				"down": {"uv": [14, 0.25, 14.5, 0.75], "rotation": 270, "texture": "#0"}
			}
		},
		{
			"from": [8.739, 9.23, 0.881],
			"to": [8.875, 9.98, 1.676],
			"rotation": {"angle": 45, "axis": "z", "origin": [8.875, 9.23, 1.66]},
			"faces": {
				"north": {"uv": [14, 0.25, 14.5, 0.75], "rotation": 90, "texture": "#0"},
				"east": {"uv": [14, 1, 15, 2], "texture": "#0"},
				"south": {"uv": [14, 0.25, 14.5, 0.75], "rotation": 270, "texture": "#0"},
				"west": {"uv": [14, 0.25, 14.5, 0.75], "rotation": 270, "texture": "#0"},
				"up": {"uv": [14, 0.25, 14.5, 0.75], "rotation": 270, "texture": "#0"},
				"down": {"uv": [14, 0.25, 14.5, 0.75], "rotation": 270, "texture": "#0"}
			}
		},
		{
			"from": [7.125, 9.115, 0.881],
			"to": [7.875, 9.24, 1.676],
			"rotation": {"angle": 45, "axis": "z", "origin": [7.125, 9.224, 1.66]},
			"faces": {
				"north": {"uv": [14, 0.25, 14.5, 0.75], "texture": "#0"},
				"east": {"uv": [14, 0.25, 14.5, 0.75], "texture": "#0"},
				"south": {"uv": [14, 0.25, 14.5, 0.75], "texture": "#0"},
				"west": {"uv": [14, 0.25, 14.5, 0.75], "texture": "#0"},
				"up": {"uv": [14, 1, 15, 2], "texture": "#0"},
				"down": {"uv": [14, 0.25, 14.5, 0.75], "texture": "#0"}
			}
		},
		{
			"from": [7.762, 9.226, 0.891],
			"to": [8.222, 9.673, 5.484],
			"faces": {
				"north": {"uv": [14, 2.25, 14.75, 3], "texture": "#0"},
				"east": {"uv": [10.5, 2.25, 13.75, 2.75], "texture": "#0"},
				"south": {"uv": [14, 2.25, 14.75, 3], "texture": "#0"},
				"west": {"uv": [10.5, 2.25, 13.75, 2.75], "texture": "#0"}
			}
		},
		{
			"from": [7.262, 9.194, 1.891],
			"to": [8.722, 9.673, 2.351],
			"faces": {
				"north": {"uv": [9, 4.75, 9.75, 5.5], "texture": "#0"},
				"east": {"uv": [9, 4.75, 9.75, 5.5], "texture": "#0"},
				"south": {"uv": [9, 4.75, 9.75, 5.5], "texture": "#0"},
				"west": {"uv": [9, 4.75, 9.75, 5.5], "texture": "#0"},
				"up": {"uv": [9, 4.75, 9.75, 5.5], "texture": "#0"},
				"down": {"uv": [9, 4.75, 9.75, 5.5], "texture": "#0"}
			}
		},
		{
			"from": [7.246, 9.146, 1.843],
			"to": [7.456, 9.721, 2.399],
			"faces": {
				"north": {"uv": [7.75, 5.75, 8.25, 7.25], "texture": "#0"},
				"east": {"uv": [8.5, 5.75, 10, 7.25], "texture": "#0"},
				"south": {"uv": [7.75, 5.75, 8.25, 7.25], "texture": "#0"},
				"west": {"uv": [8.5, 5.75, 10, 7.25], "texture": "#0"},
				"up": {"uv": [7.75, 5.75, 8.25, 7.25], "texture": "#0"}
			}
		},
		{
			"from": [8.528, 9.146, 1.843],
			"to": [8.738, 9.721, 2.399],
			"faces": {
				"north": {"uv": [7.75, 5.75, 8.25, 7.25], "texture": "#0"},
				"east": {"uv": [8.5, 5.75, 10, 7.25], "texture": "#0"},
				"south": {"uv": [7.75, 5.75, 8.25, 7.25], "texture": "#0"},
				"west": {"uv": [8.5, 5.75, 10, 7.25], "texture": "#0"},
				"up": {"uv": [7.75, 5.75, 8.25, 7.25], "texture": "#0"}
			}
		},
		{
			"from": [7.202, 7.952, 2.061],
			"to": [8.798, 8.798, 2.344],
			"faces": {
				"north": {"uv": [5.5, 4, 6, 4.75], "texture": "#0"},
				"east": {"uv": [5.5, 4, 6, 4.75], "texture": "#0"},
				"south": {"uv": [5.5, 4, 6, 4.75], "texture": "#0"},
				"west": {"uv": [5.5, 4, 6, 4.75], "texture": "#0"},
				"up": {"uv": [5.5, 4, 6, 4.75], "texture": "#0"},
				"down": {"uv": [5.5, 4, 6, 4.75], "texture": "#0"}
			}
		},
		{
			"from": [7.637, 9.761, 5.291],
			"to": [7.847, 9.833, 5.484],
			"faces": {
				"north": {"uv": [9, 4.75, 9.75, 5.5], "rotation": 90, "texture": "#0"},
				"east": {"uv": [9, 4.75, 9.75, 5.5], "rotation": 90, "texture": "#0"},
				"south": {"uv": [9, 4.75, 9.75, 5.5], "rotation": 90, "texture": "#0"},
				"west": {"uv": [9, 4.75, 9.75, 5.5], "rotation": 90, "texture": "#0"},
				"up": {"uv": [9, 4.75, 9.75, 5.5], "rotation": 90, "texture": "#0"},
				"down": {"uv": [9, 4.75, 9.75, 5.5], "rotation": 90, "texture": "#0"}
			}
		},
		{
			"from": [8.137, 9.761, 5.291],
			"to": [8.347, 9.833, 5.484],
			"faces": {
				"north": {"uv": [9, 4.75, 9.75, 5.5], "rotation": 90, "texture": "#0"},
				"east": {"uv": [9, 4.75, 9.75, 5.5], "rotation": 90, "texture": "#0"},
				"south": {"uv": [9, 4.75, 9.75, 5.5], "rotation": 90, "texture": "#0"},
				"west": {"uv": [9, 4.75, 9.75, 5.5], "rotation": 90, "texture": "#0"},
				"up": {"uv": [9, 4.75, 9.75, 5.5], "rotation": 90, "texture": "#0"},
				"down": {"uv": [9, 4.75, 9.75, 5.5], "rotation": 90, "texture": "#0"}
			}
		},
		{
			"from": [7.637, 9.761, 4.849],
			"to": [7.847, 9.833, 5.042],
			"faces": {
				"north": {"uv": [9, 4.75, 9.75, 5.5], "rotation": 90, "texture": "#0"},
				"east": {"uv": [9, 4.75, 9.75, 5.5], "rotation": 90, "texture": "#0"},
				"south": {"uv": [9, 4.75, 9.75, 5.5], "rotation": 90, "texture": "#0"},
				"west": {"uv": [9, 4.75, 9.75, 5.5], "rotation": 90, "texture": "#0"},
				"up": {"uv": [9, 4.75, 9.75, 5.5], "rotation": 90, "texture": "#0"},
				"down": {"uv": [9, 4.75, 9.75, 5.5], "rotation": 90, "texture": "#0"}
			}
		},
		{
			"from": [8.137, 9.761, 4.849],
			"to": [8.347, 9.833, 5.042],
			"faces": {
				"north": {"uv": [9, 4.75, 9.75, 5.5], "rotation": 90, "texture": "#0"},
				"east": {"uv": [9, 4.75, 9.75, 5.5], "rotation": 90, "texture": "#0"},
				"south": {"uv": [9, 4.75, 9.75, 5.5], "rotation": 90, "texture": "#0"},
				"west": {"uv": [9, 4.75, 9.75, 5.5], "rotation": 90, "texture": "#0"},
				"up": {"uv": [9, 4.75, 9.75, 5.5], "rotation": 90, "texture": "#0"},
				"down": {"uv": [9, 4.75, 9.75, 5.5], "rotation": 90, "texture": "#0"}
			}
		},
		{
			"from": [7.637, 9.761, 4.349],
			"to": [7.847, 9.833, 4.542],
			"faces": {
				"north": {"uv": [9, 4.75, 9.75, 5.5], "rotation": 90, "texture": "#0"},
				"east": {"uv": [9, 4.75, 9.75, 5.5], "rotation": 90, "texture": "#0"},
				"south": {"uv": [9, 4.75, 9.75, 5.5], "rotation": 90, "texture": "#0"},
				"west": {"uv": [9, 4.75, 9.75, 5.5], "rotation": 90, "texture": "#0"},
				"up": {"uv": [9, 4.75, 9.75, 5.5], "rotation": 90, "texture": "#0"},
				"down": {"uv": [9, 4.75, 9.75, 5.5], "rotation": 90, "texture": "#0"}
			}
		},
		{
			"from": [8.137, 9.761, 4.349],
			"to": [8.347, 9.833, 4.542],
			"faces": {
				"north": {"uv": [9, 4.75, 9.75, 5.5], "rotation": 90, "texture": "#0"},
				"east": {"uv": [9, 4.75, 9.75, 5.5], "rotation": 90, "texture": "#0"},
				"south": {"uv": [9, 4.75, 9.75, 5.5], "rotation": 90, "texture": "#0"},
				"west": {"uv": [9, 4.75, 9.75, 5.5], "rotation": 90, "texture": "#0"},
				"up": {"uv": [9, 4.75, 9.75, 5.5], "rotation": 90, "texture": "#0"},
				"down": {"uv": [9, 4.75, 9.75, 5.5], "rotation": 90, "texture": "#0"}
			}
		},
		{
			"from": [7.637, 9.761, 3.849],
			"to": [7.847, 9.833, 4.042],
			"faces": {
				"north": {"uv": [9, 4.75, 9.75, 5.5], "rotation": 90, "texture": "#0"},
				"east": {"uv": [9, 4.75, 9.75, 5.5], "rotation": 90, "texture": "#0"},
				"south": {"uv": [9, 4.75, 9.75, 5.5], "rotation": 90, "texture": "#0"},
				"west": {"uv": [9, 4.75, 9.75, 5.5], "rotation": 90, "texture": "#0"},
				"up": {"uv": [9, 4.75, 9.75, 5.5], "rotation": 90, "texture": "#0"},
				"down": {"uv": [9, 4.75, 9.75, 5.5], "rotation": 90, "texture": "#0"}
			}
		},
		{
			"from": [8.137, 9.761, 3.849],
			"to": [8.347, 9.833, 4.042],
			"faces": {
				"north": {"uv": [9, 4.75, 9.75, 5.5], "rotation": 90, "texture": "#0"},
				"east": {"uv": [9, 4.75, 9.75, 5.5], "rotation": 90, "texture": "#0"},
				"south": {"uv": [9, 4.75, 9.75, 5.5], "rotation": 90, "texture": "#0"},
				"west": {"uv": [9, 4.75, 9.75, 5.5], "rotation": 90, "texture": "#0"},
				"up": {"uv": [9, 4.75, 9.75, 5.5], "rotation": 90, "texture": "#0"},
				"down": {"uv": [9, 4.75, 9.75, 5.5], "rotation": 90, "texture": "#0"}
			}
		},
		{
			"from": [7.637, 9.761, 3.349],
			"to": [7.847, 9.833, 3.542],
			"faces": {
				"north": {"uv": [9, 4.75, 9.75, 5.5], "rotation": 90, "texture": "#0"},
				"east": {"uv": [9, 4.75, 9.75, 5.5], "rotation": 90, "texture": "#0"},
				"south": {"uv": [9, 4.75, 9.75, 5.5], "rotation": 90, "texture": "#0"},
				"west": {"uv": [9, 4.75, 9.75, 5.5], "rotation": 90, "texture": "#0"},
				"up": {"uv": [9, 4.75, 9.75, 5.5], "rotation": 90, "texture": "#0"},
				"down": {"uv": [9, 4.75, 9.75, 5.5], "rotation": 90, "texture": "#0"}
			}
		},
		{
			"from": [8.137, 9.761, 3.349],
			"to": [8.347, 9.833, 3.542],
			"faces": {
				"north": {"uv": [9, 4.75, 9.75, 5.5], "rotation": 90, "texture": "#0"},
				"east": {"uv": [9, 4.75, 9.75, 5.5], "rotation": 90, "texture": "#0"},
				"south": {"uv": [9, 4.75, 9.75, 5.5], "rotation": 90, "texture": "#0"},
				"west": {"uv": [9, 4.75, 9.75, 5.5], "rotation": 90, "texture": "#0"},
				"up": {"uv": [9, 4.75, 9.75, 5.5], "rotation": 90, "texture": "#0"},
				"down": {"uv": [9, 4.75, 9.75, 5.5], "rotation": 90, "texture": "#0"}
			}
		},
		{
			"from": [7.637, 9.761, 2.849],
			"to": [7.847, 9.833, 3.042],
			"faces": {
				"north": {"uv": [9, 4.75, 9.75, 5.5], "rotation": 90, "texture": "#0"},
				"east": {"uv": [9, 4.75, 9.75, 5.5], "rotation": 90, "texture": "#0"},
				"south": {"uv": [9, 4.75, 9.75, 5.5], "rotation": 90, "texture": "#0"},
				"west": {"uv": [9, 4.75, 9.75, 5.5], "rotation": 90, "texture": "#0"},
				"up": {"uv": [9, 4.75, 9.75, 5.5], "rotation": 90, "texture": "#0"},
				"down": {"uv": [9, 4.75, 9.75, 5.5], "rotation": 90, "texture": "#0"}
			}
		},
		{
			"from": [8.137, 9.761, 2.849],
			"to": [8.347, 9.833, 3.042],
			"faces": {
				"north": {"uv": [9, 4.75, 9.75, 5.5], "rotation": 90, "texture": "#0"},
				"east": {"uv": [9, 4.75, 9.75, 5.5], "rotation": 90, "texture": "#0"},
				"south": {"uv": [9, 4.75, 9.75, 5.5], "rotation": 90, "texture": "#0"},
				"west": {"uv": [9, 4.75, 9.75, 5.5], "rotation": 90, "texture": "#0"},
				"up": {"uv": [9, 4.75, 9.75, 5.5], "rotation": 90, "texture": "#0"},
				"down": {"uv": [9, 4.75, 9.75, 5.5], "rotation": 90, "texture": "#0"}
			}
		},
		{
			"from": [7.637, 9.761, 2.349],
			"to": [7.847, 9.833, 2.542],
			"faces": {
				"north": {"uv": [9, 4.75, 9.75, 5.5], "rotation": 90, "texture": "#0"},
				"east": {"uv": [9, 4.75, 9.75, 5.5], "rotation": 90, "texture": "#0"},
				"south": {"uv": [9, 4.75, 9.75, 5.5], "rotation": 90, "texture": "#0"},
				"west": {"uv": [9, 4.75, 9.75, 5.5], "rotation": 90, "texture": "#0"},
				"up": {"uv": [9, 4.75, 9.75, 5.5], "rotation": 90, "texture": "#0"},
				"down": {"uv": [9, 4.75, 9.75, 5.5], "rotation": 90, "texture": "#0"}
			}
		},
		{
			"from": [8.137, 9.761, 2.349],
			"to": [8.347, 9.833, 2.542],
			"faces": {
				"north": {"uv": [9, 4.75, 9.75, 5.5], "rotation": 90, "texture": "#0"},
				"east": {"uv": [9, 4.75, 9.75, 5.5], "rotation": 90, "texture": "#0"},
				"south": {"uv": [9, 4.75, 9.75, 5.5], "rotation": 90, "texture": "#0"},
				"west": {"uv": [9, 4.75, 9.75, 5.5], "rotation": 90, "texture": "#0"},
				"up": {"uv": [9, 4.75, 9.75, 5.5], "rotation": 90, "texture": "#0"},
				"down": {"uv": [9, 4.75, 9.75, 5.5], "rotation": 90, "texture": "#0"}
			}
		},
		{
			"from": [7.637, 9.761, 1.849],
			"to": [7.847, 9.833, 2.042],
			"faces": {
				"north": {"uv": [9, 4.75, 9.75, 5.5], "rotation": 90, "texture": "#0"},
				"east": {"uv": [9, 4.75, 9.75, 5.5], "rotation": 90, "texture": "#0"},
				"south": {"uv": [9, 4.75, 9.75, 5.5], "rotation": 90, "texture": "#0"},
				"west": {"uv": [9, 4.75, 9.75, 5.5], "rotation": 90, "texture": "#0"},
				"up": {"uv": [9, 4.75, 9.75, 5.5], "rotation": 90, "texture": "#0"},
				"down": {"uv": [9, 4.75, 9.75, 5.5], "rotation": 90, "texture": "#0"}
			}
		},
		{
			"from": [8.137, 9.761, 1.849],
			"to": [8.347, 9.833, 2.042],
			"faces": {
				"north": {"uv": [9, 4.75, 9.75, 5.5], "rotation": 90, "texture": "#0"},
				"east": {"uv": [9, 4.75, 9.75, 5.5], "rotation": 90, "texture": "#0"},
				"south": {"uv": [9, 4.75, 9.75, 5.5], "rotation": 90, "texture": "#0"},
				"west": {"uv": [9, 4.75, 9.75, 5.5], "rotation": 90, "texture": "#0"},
				"up": {"uv": [9, 4.75, 9.75, 5.5], "rotation": 90, "texture": "#0"},
				"down": {"uv": [9, 4.75, 9.75, 5.5], "rotation": 90, "texture": "#0"}
			}
		},
		{
			"from": [7.637, 9.761, 1.349],
			"to": [7.847, 9.833, 1.542],
			"faces": {
				"north": {"uv": [9, 4.75, 9.75, 5.5], "rotation": 90, "texture": "#0"},
				"east": {"uv": [9, 4.75, 9.75, 5.5], "rotation": 90, "texture": "#0"},
				"south": {"uv": [9, 4.75, 9.75, 5.5], "rotation": 90, "texture": "#0"},
				"west": {"uv": [9, 4.75, 9.75, 5.5], "rotation": 90, "texture": "#0"},
				"up": {"uv": [9, 4.75, 9.75, 5.5], "rotation": 90, "texture": "#0"},
				"down": {"uv": [9, 4.75, 9.75, 5.5], "rotation": 90, "texture": "#0"}
			}
		},
		{
			"from": [8.137, 9.761, 1.349],
			"to": [8.347, 9.833, 1.542],
			"faces": {
				"north": {"uv": [9, 4.75, 9.75, 5.5], "rotation": 90, "texture": "#0"},
				"east": {"uv": [9, 4.75, 9.75, 5.5], "rotation": 90, "texture": "#0"},
				"south": {"uv": [9, 4.75, 9.75, 5.5], "rotation": 90, "texture": "#0"},
				"west": {"uv": [9, 4.75, 9.75, 5.5], "rotation": 90, "texture": "#0"},
				"up": {"uv": [9, 4.75, 9.75, 5.5], "rotation": 90, "texture": "#0"},
				"down": {"uv": [9, 4.75, 9.75, 5.5], "rotation": 90, "texture": "#0"}
			}
		},
		{
			"from": [7.637, 9.761, 0.897],
			"to": [7.847, 9.833, 1.058],
			"faces": {
				"north": {"uv": [9, 4.75, 9.75, 5.5], "rotation": 90, "texture": "#0"},
				"east": {"uv": [9, 4.75, 9.75, 5.5], "rotation": 90, "texture": "#0"},
				"south": {"uv": [9, 4.75, 9.75, 5.5], "rotation": 90, "texture": "#0"},
				"west": {"uv": [9, 4.75, 9.75, 5.5], "rotation": 90, "texture": "#0"},
				"up": {"uv": [9, 4.75, 9.75, 5.5], "rotation": 90, "texture": "#0"},
				"down": {"uv": [9, 4.75, 9.75, 5.5], "rotation": 90, "texture": "#0"}
			}
		},
		{
			"from": [8.137, 9.761, 0.897],
			"to": [8.347, 9.833, 1.058],
			"faces": {
				"north": {"uv": [9, 4.75, 9.75, 5.5], "rotation": 90, "texture": "#0"},
				"east": {"uv": [9, 4.75, 9.75, 5.5], "rotation": 90, "texture": "#0"},
				"south": {"uv": [9, 4.75, 9.75, 5.5], "rotation": 90, "texture": "#0"},
				"west": {"uv": [9, 4.75, 9.75, 5.5], "rotation": 90, "texture": "#0"},
				"up": {"uv": [9, 4.75, 9.75, 5.5], "rotation": 90, "texture": "#0"},
				"down": {"uv": [9, 4.75, 9.75, 5.5], "rotation": 90, "texture": "#0"}
			}
		},
		{
			"from": [7.701, 9.777, 5.467],
			"to": [7.783, 9.849, 5.5],
			"faces": {
				"north": {"uv": [14.25, 3.5, 14.75, 4], "rotation": 90, "texture": "#0"},
				"east": {"uv": [14.25, 3.5, 14.75, 4], "rotation": 90, "texture": "#0"},
				"south": {"uv": [14.25, 3.5, 14.75, 4], "rotation": 90, "texture": "#0"},
				"west": {"uv": [14.25, 3.5, 14.75, 4], "rotation": 90, "texture": "#0"},
				"up": {"uv": [14.25, 3.5, 14.75, 4], "rotation": 90, "texture": "#0"},
				"down": {"uv": [14.25, 3.5, 14.75, 4], "rotation": 90, "texture": "#0"}
			}
		},
		{
			"from": [8.201, 9.777, 5.467],
			"to": [8.283, 9.849, 5.5],
			"faces": {
				"north": {"uv": [14.25, 3.5, 14.75, 4], "rotation": 90, "texture": "#0"},
				"east": {"uv": [14.25, 3.5, 14.75, 4], "rotation": 90, "texture": "#0"},
				"south": {"uv": [14.25, 3.5, 14.75, 4], "rotation": 90, "texture": "#0"},
				"west": {"uv": [14.25, 3.5, 14.75, 4], "rotation": 90, "texture": "#0"},
				"up": {"uv": [14.25, 3.5, 14.75, 4], "rotation": 90, "texture": "#0"},
				"down": {"uv": [14.25, 3.5, 14.75, 4], "rotation": 90, "texture": "#0"}
			}
		},
		{
			"from": [8.25, 8, 10.375],
			"to": [8.75, 8.73438, 11],
			"rotation": {"angle": -22.5, "axis": "y", "origin": [8.766, 16.375, 10.9825]},
			"faces": {
				"east": {"uv": [5.5, 5, 6, 5.5], "texture": "#0"},
				"up": {"uv": [5.5, 5, 6, 5.5], "texture": "#0"}
			}
		},
		{
			"from": [7.25, 8, 10.375],
			"to": [7.75, 8.73438, 11],
			"rotation": {"angle": 22.5, "axis": "y", "origin": [7.266, 16.375, 10.9825]},
			"faces": {
				"west": {"uv": [5.5, 5, 6, 5.5], "texture": "#0"},
				"up": {"uv": [5.5, 5, 6, 5.5], "texture": "#0"}
			}
		},
		{
			"from": [7.026, 8, 9.815],
			"to": [7.526, 8.73438, 10.44],
			"rotation": {"angle": -22.5, "axis": "y", "origin": [7.042, 16.375, 10.4225]},
			"faces": {
				"west": {"uv": [5.5, 5, 6, 5.5], "texture": "#0"},
				"up": {"uv": [5.5, 5, 6, 5.5], "texture": "#0"}
			}
		},
		{
			"from": [8.474, 8, 9.783],
			"to": [8.974, 8.73438, 10.408],
			"rotation": {"angle": 22.5, "axis": "y", "origin": [8.99, 16.375, 10.3905]},
			"faces": {
				"east": {"uv": [5.5, 5, 6, 5.5], "texture": "#0"},
				"up": {"uv": [5.5, 5, 6, 5.5], "texture": "#0"}
			}
		},
		{
			"from": [7.125, 4.929, 0.862],
			"to": [7.375, 5.663, 1.548],
			"rotation": {"angle": 22.5, "axis": "z", "origin": [7.125, 5.647, -0.138]},
			"faces": {
				"north": {"uv": [0.25, 4, 1.5, 5.25], "texture": "#0"},
				"south": {"uv": [0.25, 4, 1.5, 5.25], "texture": "#0"},
				"west": {"uv": [0.25, 4, 1.5, 5.25], "texture": "#0"},
				"up": {"uv": [0.25, 4, 1.5, 5.25], "texture": "#0"},
				"down": {"uv": [0, 0, 0.25, 0.686], "texture": "#missing"}
			}
		},
		{
			"from": [8.625, 4.929, 0.862],
			"to": [8.875, 5.663, 1.548],
			"rotation": {"angle": -22.5, "axis": "z", "origin": [8.875, 5.647, -0.138]},
			"faces": {
				"north": {"uv": [0.25, 4, 1.5, 5.25], "texture": "#0"},
				"east": {"uv": [0.25, 4, 1.5, 5.25], "texture": "#0"},
				"south": {"uv": [0.25, 4, 1.5, 5.25], "texture": "#0"},
				"up": {"uv": [0.25, 4, 1.5, 5.25], "texture": "#0"},
				"down": {"uv": [0, 0, 0.25, 0.686], "texture": "#missing"}
			}
		},
		{
			"from": [7.391, 4.975, 0.862],
			"to": [8.609, 5.725, 1.548],
			"faces": {
				"north": {"uv": [0.25, 4, 1.5, 5.25], "texture": "#0"},
				"east": {"uv": [0.25, 4, 1.5, 5.25], "texture": "#0"},
				"south": {"uv": [0.25, 4, 1.5, 5.25], "texture": "#0"},
				"west": {"uv": [0.25, 4, 1.5, 5.25], "texture": "#0"},
				"down": {"uv": [0.25, 4, 1.5, 5.25], "texture": "#0"}
			}
		},
		{
			"from": [8.296, 6.9, 0.6],
			"to": [8.496, 7.3, 1.1],
			"faces": {
				"north": {"uv": [2, 8, 3.5, 9.5], "rotation": 90, "texture": "#0"},
				"east": {"uv": [2, 8, 3.5, 9.5], "rotation": 90, "texture": "#0"}
			}
		},
		{
			"from": [8.296, 6.9, 0.6],
			"to": [8.496, 7.3, 1.1],
			"rotation": {"angle": 45, "axis": "z", "origin": [8.012, 7.1, 1]},
			"faces": {
				"north": {"uv": [2, 8, 3.5, 9.5], "rotation": 90, "texture": "#0"},
				"east": {"uv": [2, 8, 3.5, 9.5], "rotation": 90, "texture": "#0"}
			}
		},
		{
			"from": [7.812, 7.384, 0.6],
			"to": [8.212, 7.584, 1.1],
			"faces": {
				"north": {"uv": [2, 8, 3.5, 9.5], "rotation": 90, "texture": "#0"},
				"up": {"uv": [2, 8, 3.5, 9.5], "rotation": 90, "texture": "#0"}
			}
		},
		{
			"from": [7.812, 7.384, 0.6],
			"to": [8.212, 7.584, 1.1],
			"rotation": {"angle": 45, "axis": "z", "origin": [8.012, 7.1, 1]},
			"faces": {
				"north": {"uv": [2, 8, 3.5, 9.5], "rotation": 90, "texture": "#0"},
				"up": {"uv": [2, 8, 3.5, 9.5], "rotation": 90, "texture": "#0"}
			}
		},
		{
			"from": [7.528, 6.9, 0.6],
			"to": [7.728, 7.3, 1.1],
			"faces": {
				"north": {"uv": [2, 8, 3.5, 9.5], "rotation": 90, "texture": "#0"},
				"west": {"uv": [2, 8, 3.5, 9.5], "rotation": 90, "texture": "#0"}
			}
		},
		{
			"from": [7.528, 6.9, 0.6],
			"to": [7.728, 7.3, 1.1],
			"rotation": {"angle": 45, "axis": "z", "origin": [8.012, 7.1, 1]},
			"faces": {
				"north": {"uv": [2, 8, 3.5, 9.5], "rotation": 90, "texture": "#0"},
				"west": {"uv": [2, 8, 3.5, 9.5], "rotation": 90, "texture": "#0"}
			}
		},
		{
			"from": [7.812, 6.616, 0.6],
			"to": [8.212, 6.816, 1.1],
			"faces": {
				"north": {"uv": [2, 8, 3.5, 9.5], "rotation": 90, "texture": "#0"},
				"down": {"uv": [2, 8, 3.5, 9.5], "rotation": 90, "texture": "#0"}
			}
		},
		{
			"from": [7.812, 6.616, 0.6],
			"to": [8.212, 6.816, 1.1],
			"rotation": {"angle": 45, "axis": "z", "origin": [8.012, 7.1, 1]},
			"faces": {
				"north": {"uv": [2, 8, 3.5, 9.5], "rotation": 90, "texture": "#0"},
				"down": {"uv": [2, 8, 3.5, 9.5], "rotation": 90, "texture": "#0"}
			}
		},
		{
			"from": [8.2072, 6.98, 0.27],
			"to": [8.3472, 7.26, 0.595],
			"faces": {
				"north": {"uv": [0.75, 8, 1.75, 9], "rotation": 90, "texture": "#0"},
				"east": {"uv": [0.75, 8, 1.75, 9], "rotation": 90, "texture": "#0"},
				"west": {"uv": [0.75, 8, 1.75, 9], "rotation": 90, "texture": "#0"}
			}
		},
		{
			"from": [8.2072, 6.98, 0.27],
			"to": [8.3472, 7.26, 0.595],
			"rotation": {"angle": 45, "axis": "z", "origin": [8.0084, 7.12, 0.775]},
			"faces": {
				"north": {"uv": [0.75, 8, 1.75, 9], "rotation": 90, "texture": "#0"},
				"east": {"uv": [0.75, 8, 1.75, 9], "rotation": 90, "texture": "#0"},
				"west": {"uv": [0.75, 8, 1.75, 9], "rotation": 90, "texture": "#0"}
			}
		},
		{
			"from": [7.8684, 7.3188, 0.27],
			"to": [8.1484, 7.4588, 0.595],
			"faces": {
				"north": {"uv": [0.75, 8, 1.75, 9], "rotation": 90, "texture": "#0"},
				"up": {"uv": [0.75, 8, 1.75, 9], "rotation": 90, "texture": "#0"},
				"down": {"uv": [0.75, 8, 1.75, 9], "rotation": 90, "texture": "#0"}
			}
		},
		{
			"from": [7.8684, 7.3188, 0.27],
			"to": [8.1484, 7.4588, 0.595],
			"rotation": {"angle": 45, "axis": "z", "origin": [8.0084, 7.12, 0.775]},
			"faces": {
				"north": {"uv": [0.75, 8, 1.75, 9], "rotation": 90, "texture": "#0"},
				"up": {"uv": [0.75, 8, 1.75, 9], "rotation": 90, "texture": "#0"},
				"down": {"uv": [0.75, 8, 1.75, 9], "rotation": 90, "texture": "#0"}
			}
		},
		{
			"from": [7.6696, 6.98, 0.27],
			"to": [7.8096, 7.26, 0.595],
			"faces": {
				"north": {"uv": [0.75, 8, 1.75, 9], "rotation": 90, "texture": "#0"},
				"east": {"uv": [0.75, 8, 1.75, 9], "rotation": 90, "texture": "#0"},
				"west": {"uv": [0.75, 8, 1.75, 9], "rotation": 90, "texture": "#0"}
			}
		},
		{
			"from": [7.6696, 6.98, 0.27],
			"to": [7.8096, 7.26, 0.595],
			"rotation": {"angle": 45, "axis": "z", "origin": [8.0084, 7.12, 0.775]},
			"faces": {
				"north": {"uv": [0.75, 8, 1.75, 9], "rotation": 90, "texture": "#0"},
				"east": {"uv": [0.75, 8, 1.75, 9], "rotation": 90, "texture": "#0"},
				"west": {"uv": [0.75, 8, 1.75, 9], "rotation": 90, "texture": "#0"}
			}
		},
		{
			"from": [7.8684, 6.7812, 0.27],
			"to": [8.1484, 6.9212, 0.595],
			"faces": {
				"north": {"uv": [0.75, 8, 1.75, 9], "rotation": 90, "texture": "#0"},
				"up": {"uv": [0.75, 8, 1.75, 9], "rotation": 90, "texture": "#0"},
				"down": {"uv": [0.75, 8, 1.75, 9], "rotation": 90, "texture": "#0"}
			}
		},
		{
			"from": [7.8684, 6.7812, 0.27],
			"to": [8.1484, 6.9212, 0.595],
			"rotation": {"angle": 45, "axis": "z", "origin": [8.0084, 7.12, 0.775]},
			"faces": {
				"north": {"uv": [0.75, 8, 1.75, 9], "rotation": 90, "texture": "#0"},
				"up": {"uv": [0.75, 8, 1.75, 9], "rotation": 90, "texture": "#0"},
				"down": {"uv": [0.75, 8, 1.75, 9], "rotation": 90, "texture": "#0"}
			}
		},
		{
			"from": [8.296, 6.9, -1.464],
			"to": [8.496, 7.3, 0.286],
			"faces": {
				"north": {"uv": [0.75, 5.75, 1.5, 7.75], "rotation": 90, "texture": "#0"},
				"east": {"uv": [1.75, 5.75, 7, 7.75], "texture": "#0"},
				"south": {"uv": [0.75, 8, 1.75, 9], "rotation": 90, "texture": "#0"},
				"west": {"uv": [0.75, 8, 1.75, 9], "rotation": 90, "texture": "#0"}
			}
		},
		{
			"from": [8.296, 6.9, -1.464],
			"to": [8.496, 7.3, 0.286],
			"rotation": {"angle": 45, "axis": "z", "origin": [8.012, 7.1, 0.186]},
			"faces": {
				"north": {"uv": [0.75, 5.75, 1.5, 7.75], "rotation": 90, "texture": "#0"},
				"east": {"uv": [1.75, 5.75, 7, 7.75], "texture": "#0"},
				"south": {"uv": [0.75, 8, 1.75, 9], "rotation": 90, "texture": "#0"},
				"west": {"uv": [0.75, 8, 1.75, 9], "rotation": 90, "texture": "#0"}
			}
		},
		{
			"from": [7.812, 7.384, -1.464],
			"to": [8.212, 7.584, 0.286],
			"faces": {
				"north": {"uv": [0.75, 5.75, 1.5, 7.75], "rotation": 90, "texture": "#0"},
				"south": {"uv": [0.75, 8, 1.75, 9], "rotation": 90, "texture": "#0"},
				"up": {"uv": [1.75, 5.75, 7, 7.75], "rotation": 270, "texture": "#0"},
				"down": {"uv": [0.75, 8, 1.75, 9], "rotation": 90, "texture": "#0"}
			}
		},
		{
			"from": [7.812, 7.384, -1.464],
			"to": [8.212, 7.584, 0.286],
			"rotation": {"angle": 45, "axis": "z", "origin": [8.012, 7.1, 0.186]},
			"faces": {
				"north": {"uv": [0.75, 5.75, 1.5, 7.75], "rotation": 90, "texture": "#0"},
				"south": {"uv": [0.75, 8, 1.75, 9], "rotation": 90, "texture": "#0"},
				"up": {"uv": [1.75, 5.75, 7, 7.75], "rotation": 270, "texture": "#0"},
				"down": {"uv": [0.75, 8, 1.75, 9], "rotation": 90, "texture": "#0"}
			}
		},
		{
			"from": [7.528, 6.9, -1.464],
			"to": [7.728, 7.3, 0.286],
			"faces": {
				"north": {"uv": [0.75, 5.75, 1.5, 7.75], "rotation": 90, "texture": "#0"},
				"east": {"uv": [0.75, 8, 1.75, 9], "rotation": 90, "texture": "#0"},
				"south": {"uv": [0.75, 8, 1.75, 9], "rotation": 90, "texture": "#0"},
				"west": {"uv": [1.75, 5.75, 7, 7.75], "rotation": 180, "texture": "#0"}
			}
		},
		{
			"from": [7.528, 6.9, -1.464],
			"to": [7.728, 7.3, 0.286],
			"rotation": {"angle": 45, "axis": "z", "origin": [8.012, 7.1, 0.186]},
			"faces": {
				"north": {"uv": [0.75, 5.75, 1.5, 7.75], "rotation": 90, "texture": "#0"},
				"east": {"uv": [0.75, 8, 1.75, 9], "rotation": 90, "texture": "#0"},
				"south": {"uv": [0.75, 8, 1.75, 9], "rotation": 90, "texture": "#0"},
				"west": {"uv": [1.75, 5.75, 7, 7.75], "rotation": 180, "texture": "#0"}
			}
		},
		{
			"from": [7.812, 6.616, -1.464],
			"to": [8.212, 6.816, 0.286],
			"faces": {
				"north": {"uv": [0.75, 5.75, 1.5, 7.75], "rotation": 90, "texture": "#0"},
				"south": {"uv": [0.75, 8, 1.75, 9], "rotation": 90, "texture": "#0"},
				"up": {"uv": [0.75, 8, 1.75, 9], "rotation": 90, "texture": "#0"},
				"down": {"uv": [1.75, 5.75, 7, 7.75], "rotation": 90, "texture": "#0"}
			}
		},
		{
			"from": [7.812, 6.616, -1.464],
			"to": [8.212, 6.816, 0.286],
			"rotation": {"angle": 45, "axis": "z", "origin": [8.012, 7.1, 0.186]},
			"faces": {
				"north": {"uv": [0.75, 5.75, 1.5, 7.75], "rotation": 90, "texture": "#0"},
				"south": {"uv": [0.75, 8, 1.75, 9], "rotation": 90, "texture": "#0"},
				"up": {"uv": [0.75, 8, 1.75, 9], "rotation": 90, "texture": "#0"},
				"down": {"uv": [1.75, 5.75, 7, 7.75], "rotation": 90, "texture": "#0"}
			}
		}
	],
	"display": {
		"thirdperson_righthand": {
			"translation": [0, 1.25, 3],
			"scale": [0.9, 0.9, 0.9]
		},
		"thirdperson_lefthand": {
			"translation": [0, 1.25, 3],
			"scale": [0.9, 0.9, 0.9]
		},
		"firstperson_righthand": {
			"translation": [-3, 5, 7.5]
		},
		"firstperson_lefthand": {
			"translation": [-3, 5, 7.5]
		},
		"ground": {
			"scale": [0.9, 0.9, 0.9]
		},
		"gui": {
			"rotation": [35, -35, 0],
			"scale": [1.2, 1.2, 1.2]
		},
		"fixed": {
			"rotation": [0, -90, 0],
			"translation": [0, 1.5, -3],
			"scale": [2, 2, 2]
		}
	}
}