{
	"credit": "Made by 0ptima, totally cool guy from Frostburn",
	"textures": {
		"0": "models/9mm",
		"particle": "models/9mm"
	},
	"elements": [
		{
			"from": [0, 0, 0],
			"to": [14, 5, 4],
			"faces": {
				"north": {"uv": [0.57143, 1.57143, 2.57143, 2.28571], "texture": "#0"},
				"east": {"uv": [0, 1.57143, 0.57143, 2.28571], "texture": "#0"},
				"south": {"uv": [3.14286, 1.57143, 5.14286, 2.28571], "texture": "#0"},
				"west": {"uv": [2.57143, 1.57143, 3.14286, 2.28571], "texture": "#0"},
				"up": {"uv": [2.57143, 1.57143, 0.57143, 1], "texture": "#0"},
				"down": {"uv": [4.57143, 1, 2.57143, 1.57143], "texture": "#0"}
			}
		},
		{
			"from": [1.125, 1, -1],
			"to": [13, 2, 0],
			"faces": {
				"north": {"uv": [8.14286, 2.57143, 9.85714, 2.71429], "texture": "#0"},
				"east": {"uv": [8, 2.57143, 8.14286, 2.71429], "texture": "#0"},
				"south": {"uv": [10, 2.57143, 11.71429, 2.71429], "texture": "#0"},
				"west": {"uv": [9.85714, 2.57143, 10, 2.71429], "texture": "#0"},
				"up": {"uv": [9.85714, 2.57143, 8.14286, 2.42857], "texture": "#0"},
				"down": {"uv": [11.57143, 2.42857, 9.85714, 2.57143], "texture": "#0"}
			}
		},
		{
			"from": [1.125, 3, -1],
			"to": [13, 4, 0],
			"faces": {
				"north": {"uv": [4.42857, 2.57143, 6.14286, 2.71429], "texture": "#0"},
				"east": {"uv": [4.28571, 2.57143, 4.42857, 2.71429], "texture": "#0"},
				"south": {"uv": [6.28571, 2.57143, 8, 2.71429], "texture": "#0"},
				"west": {"uv": [6.14286, 2.57143, 6.28571, 2.71429], "texture": "#0"},
				"up": {"uv": [6.14286, 2.57143, 4.42857, 2.42857], "texture": "#0"},
				"down": {"uv": [7.85714, 2.42857, 6.14286, 2.57143], "texture": "#0"}
			}
		},
		{
			"from": [3.77778, 8, -1],
			"to": [4.77778, 9, 0],
			"rotation": {"angle": 45, "axis": "z", "origin": [8, 8, 8]},
			"faces": {
				"north": {"uv": [7, 9, 7.14286, 9.14286], "texture": "#0"},
				"east": {"uv": [6.85714, 9, 7, 9.14286], "texture": "#0"},
				"south": {"uv": [7.28571, 9, 7.42857, 9.14286], "texture": "#0"},
				"west": {"uv": [7.14286, 9, 7.28571, 9.14286], "texture": "#0"},
				"up": {"uv": [7.14286, 9, 7, 8.85714], "texture": "#0"},
				"down": {"uv": [7.28571, 8.85714, 7.14286, 9], "texture": "#0"}
			}
		},
		{
			"from": [-1, 5, 1],
			"to": [1, 7, 3],
			"faces": {
				"north": {"uv": [6, 8.42857, 6.28571, 8.71429], "texture": "#0"},
				"east": {"uv": [5.71429, 8.42857, 6, 8.71429], "texture": "#0"},
				"south": {"uv": [6.57143, 8.42857, 6.85714, 8.71429], "texture": "#0"},
				"west": {"uv": [6.28571, 8.42857, 6.57143, 8.71429], "texture": "#0"},
				"up": {"uv": [6.28571, 8.42857, 6, 8.14286], "texture": "#0"},
				"down": {"uv": [6.57143, 8.14286, 6.28571, 8.42857], "texture": "#0"}
			}
		},
		{
			"from": [0, 5, 0],
			"to": [0.5, 7, 4],
			"faces": {
				"north": {"uv": [9.14286, 7.57143, 9.14286, 7.85714], "texture": "#0"},
				"east": {"uv": [8.57143, 7.57143, 9.14286, 7.85714], "texture": "#0"},
				"south": {"uv": [9.71429, 7.57143, 9.71429, 7.85714], "texture": "#0"},
				"west": {"uv": [9.14286, 7.57143, 9.71429, 7.85714], "texture": "#0"},
				"up": {"uv": [9.14286, 7.57143, 9.14286, 7], "texture": "#0"},
				"down": {"uv": [9.14286, 7, 9.14286, 7.57143], "texture": "#0"}
			}
		},
		{
			"from": [0, 7, 0],
			"to": [1, 8, 4],
			"faces": {
				"north": {"uv": [7.71429, 7.57143, 7.85714, 7.71429], "texture": "#0"},
				"east": {"uv": [7.14286, 7.57143, 7.71429, 7.71429], "texture": "#0"},
				"south": {"uv": [8.42857, 7.57143, 8.57143, 7.71429], "texture": "#0"},
				"west": {"uv": [7.85714, 7.57143, 8.42857, 7.71429], "texture": "#0"},
				"up": {"uv": [7.85714, 7.57143, 7.71429, 7], "texture": "#0"},
				"down": {"uv": [8, 7, 7.85714, 7.57143], "texture": "#0"}
			}
		},
		{
			"from": [1, 5, 0],
			"to": [19, 8, 4],
			"faces": {
				"north": {"uv": [7.71429, 0.57143, 10.28571, 1], "texture": "#0"},
				"east": {"uv": [7.14286, 0.57143, 7.71429, 1], "texture": "#0"},
				"south": {"uv": [10.85714, 0.57143, 13.42857, 1], "texture": "#0"},
				"west": {"uv": [10.28571, 0.57143, 10.85714, 1], "texture": "#0"},
				"up": {"uv": [10.28571, 0.57143, 7.71429, 0], "texture": "#0"},
				"down": {"uv": [12.85714, 0, 10.28571, 0.57143], "texture": "#0"}
			}
		},
		{
			"from": [-0.44444, 8, -1],
			"to": [19, 9, 5],
			"faces": {
				"north": {"uv": [0.85714, 0.85714, 3.57143, 1], "texture": "#0"},
				"east": {"uv": [0, 0.85714, 0.85714, 1], "texture": "#0"},
				"south": {"uv": [4.42857, 0.85714, 7.14286, 1], "texture": "#0"},
				"west": {"uv": [3.57143, 0.85714, 4.42857, 1], "texture": "#0"},
				"up": {"uv": [3.57143, 0.85714, 0.85714, 0], "texture": "#0"},
				"down": {"uv": [6.28571, 0, 3.57143, 0.85714], "texture": "#0"}
			}
		},
		{
			"from": [14, 0, 0.22222],
			"to": [18, 5, 3.77778],
			"faces": {
				"north": {"uv": [0.42857, 5, 1, 5.71429], "texture": "#0"},
				"east": {"uv": [0, 5, 0.42857, 5.71429], "texture": "#0"},
				"south": {"uv": [1.42857, 5, 2, 5.71429], "texture": "#0"},
				"west": {"uv": [1, 5, 1.42857, 5.71429], "texture": "#0"},
				"up": {"uv": [1, 5, 0.42857, 4.57143], "texture": "#0"},
				"down": {"uv": [1.57143, 4.57143, 1, 5], "texture": "#0"}
			}
		},
		{
			"from": [19.8125, 0, 0.1441],
			"to": [22, 0.33333, 3.82466],
			"faces": {
				"north": {"uv": [3.28571, 8.57143, 3.57143, 8.57143], "texture": "#0"},
				"east": {"uv": [2.85714, 8.57143, 3.28571, 8.57143], "texture": "#0"},
				"south": {"uv": [4, 8.57143, 4.28571, 8.57143], "texture": "#0"},
				"west": {"uv": [3.57143, 8.57143, 4, 8.57143], "texture": "#0"},
				"up": {"uv": [3.57143, 8.57143, 3.28571, 8.14286], "texture": "#0"},
				"down": {"uv": [3.85714, 8.14286, 3.57143, 8.57143], "texture": "#0"}
			}
		},
		{
			"from": [18, 4, 0.22222],
			"to": [22, 5, 3.77778],
			"faces": {
				"north": {"uv": [5.57143, 6.14286, 6.14286, 6.28571], "texture": "#0"},
				"east": {"uv": [5.14286, 6.14286, 5.57143, 6.28571], "texture": "#0"},
				"south": {"uv": [6.57143, 6.14286, 7.14286, 6.28571], "texture": "#0"},
				"west": {"uv": [6.14286, 6.14286, 6.57143, 6.28571], "texture": "#0"},
				"up": {"uv": [6.14286, 6.14286, 5.57143, 5.71429], "texture": "#0"},
				"down": {"uv": [6.71429, 5.71429, 6.14286, 6.14286], "texture": "#0"}
			}
		},
		{
			"from": [20.33333, 2.11111, 1],
			"to": [21.33333, 4, 3],
			"faces": {
				"north": {"uv": [0.28571, 9.14286, 0.42857, 9.28571], "texture": "#0"},
				"east": {"uv": [0, 9.14286, 0.28571, 9.28571], "texture": "#0"},
				"south": {"uv": [0.71429, 9.14286, 0.85714, 9.28571], "texture": "#0"},
				"west": {"uv": [0.42857, 9.14286, 0.71429, 9.28571], "texture": "#0"},
				"up": {"uv": [0.42857, 9.14286, 0.28571, 8.85714], "texture": "#0"},
				"down": {"uv": [0.57143, 8.85714, 0.42857, 9.14286], "texture": "#0"}
			}
		},
		{
			"from": [22, 0, 0.22222],
			"to": [26.55556, 5, 3.77778],
			"faces": {
				"north": {"uv": [0.42857, 3.85714, 1, 4.57143], "texture": "#0"},
				"east": {"uv": [0, 3.85714, 0.42857, 4.57143], "texture": "#0"},
				"south": {"uv": [1.42857, 3.85714, 2, 4.57143], "texture": "#0"},
				"west": {"uv": [1, 3.85714, 1.42857, 4.57143], "texture": "#0"},
				"up": {"uv": [1, 3.85714, 0.42857, 3.42857], "texture": "#0"},
				"down": {"uv": [1.57143, 3.42857, 1, 3.85714], "texture": "#0"}
			}
		},
		{
			"from": [19, 5, -1],
			"to": [26, 9, 5],
			"faces": {
				"north": {"uv": [6, 1.85714, 7, 2.42857], "texture": "#0"},
				"east": {"uv": [5.14286, 1.85714, 6, 2.42857], "texture": "#0"},
				"south": {"uv": [7.85714, 1.85714, 8.85714, 2.42857], "texture": "#0"},
				"west": {"uv": [7, 1.85714, 7.85714, 2.42857], "texture": "#0"},
				"up": {"uv": [7, 1.85714, 6, 1], "texture": "#0"},
				"down": {"uv": [8, 1, 7, 1.85714], "texture": "#0"}
			}
		},
		{
			"from": [10, -3, 0],
			"to": [13, 0, 4],
			"faces": {
				"north": {"uv": [6.85714, 5.14286, 7.28571, 5.57143], "texture": "#0"},
				"east": {"uv": [6.28571, 5.14286, 6.85714, 5.57143], "texture": "#0"},
				"south": {"uv": [7.85714, 5.14286, 8.28571, 5.57143], "texture": "#0"},
				"west": {"uv": [7.28571, 5.14286, 7.85714, 5.57143], "texture": "#0"},
				"up": {"uv": [7.28571, 5.14286, 6.85714, 4.57143], "texture": "#0"},
				"down": {"uv": [7.71429, 4.57143, 7.28571, 5.14286], "texture": "#0"}
			}
		},
		{
			"from": [0, -3, 0],
			"to": [3, 0, 4],
			"faces": {
				"north": {"uv": [2.57143, 5.14286, 3, 5.57143], "texture": "#0"},
				"east": {"uv": [2, 5.14286, 2.57143, 5.57143], "texture": "#0"},
				"south": {"uv": [3.57143, 5.14286, 4, 5.57143], "texture": "#0"},
				"west": {"uv": [3, 5.14286, 3.57143, 5.57143], "texture": "#0"},
				"up": {"uv": [3, 5.14286, 2.57143, 4.57143], "texture": "#0"},
				"down": {"uv": [3.42857, 4.57143, 3, 5.14286], "texture": "#0"}
			}
		},
		{
			"name": "octagon",
			"from": [3.00801, -2.50591, 0.25199],
			"to": [10.05259, -1.11187, 3.61749],
			"faces": {
				"north": {"uv": [4.14286, 3.14286, 5.14286, 3.28571], "rotation": 90, "texture": "#0"},
				"east": {"uv": [3.71429, 3.14286, 4.14286, 3.28571], "rotation": 270, "texture": "#0"},
				"south": {"uv": [5.57143, 3.14286, 6.57143, 3.28571], "rotation": 270, "texture": "#0"},
				"west": {"uv": [5.14286, 3.14286, 5.57143, 3.28571], "rotation": 90, "texture": "#0"},
				"up": {"uv": [5.14286, 3.14286, 4.14286, 2.71429], "rotation": 270, "texture": "#0"},
				"down": {"uv": [6.14286, 2.71429, 5.14286, 3.14286], "rotation": 270, "texture": "#0"}
			}
		},
		{
			"name": "octagon",
			"from": [3.00801, -2.50591, 0.25199],
			"to": [10.05259, -1.11187, 3.61749],
			"rotation": {"angle": 45, "axis": "x", "origin": [8, -1.80889, 1.93474]},
			"faces": {
				"north": {"uv": [7, 3.14286, 8, 3.28571], "rotation": 90, "texture": "#0"},
				"east": {"uv": [6.57143, 3.14286, 7, 3.28571], "rotation": 90, "texture": "#0"},
				"south": {"uv": [8.42857, 3.14286, 9.42857, 3.28571], "rotation": 270, "texture": "#0"},
				"west": {"uv": [8, 3.14286, 8.42857, 3.28571], "rotation": 270, "texture": "#0"},
				"up": {"uv": [8, 3.14286, 7, 2.71429], "rotation": 270, "texture": "#0"},
				"down": {"uv": [9, 2.71429, 8, 3.14286], "rotation": 270, "texture": "#0"}
			}
		},
		{
			"name": "octagon",
			"from": [3.00801, -3.49164, 1.23772],
			"to": [10.05259, -0.12614, 2.63176],
			"faces": {
				"north": {"uv": [0.14286, 6.42857, 1.14286, 6.85714], "rotation": 90, "texture": "#0"},
				"east": {"uv": [0, 6.42857, 0.14286, 6.85714], "rotation": 270, "texture": "#0"},
				"south": {"uv": [1.28571, 6.42857, 2.28571, 6.85714], "rotation": 270, "texture": "#0"},
				"west": {"uv": [1.14286, 6.42857, 1.28571, 6.85714], "rotation": 90, "texture": "#0"},
				"up": {"uv": [1.14286, 6.42857, 0.14286, 6.28571], "rotation": 270, "texture": "#0"},
				"down": {"uv": [2.14286, 6.28571, 1.14286, 6.42857], "rotation": 270, "texture": "#0"}
			}
		},
		{
			"name": "octagon",
			"from": [3.00801, -3.49164, 1.23772],
			"to": [10.05259, -0.12614, 2.63176],
			"rotation": {"angle": 45, "axis": "x", "origin": [8, -1.80889, 1.93474]},
			"faces": {
				"north": {"uv": [0.14286, 5.85714, 1.14286, 6.28571], "rotation": 90, "texture": "#0"},
				"east": {"uv": [0, 5.85714, 0.14286, 6.28571], "rotation": 270, "texture": "#0"},
				"south": {"uv": [1.28571, 5.85714, 2.28571, 6.28571], "rotation": 270, "texture": "#0"},
				"west": {"uv": [1.14286, 5.85714, 1.28571, 6.28571], "rotation": 90, "texture": "#0"},
				"up": {"uv": [1.14286, 5.85714, 0.14286, 5.71429], "rotation": 270, "texture": "#0"},
				"down": {"uv": [2.14286, 5.71429, 1.14286, 5.85714], "rotation": 270, "texture": "#0"}
			}
		},
		{
			"from": [0, 9, 0],
			"to": [4, 10, 4],
			"faces": {
				"north": {"uv": [4.57143, 5.14286, 5.14286, 5.28571], "texture": "#0"},
				"east": {"uv": [4, 5.14286, 4.57143, 5.28571], "texture": "#0"},
				"south": {"uv": [5.71429, 5.14286, 6.28571, 5.28571], "texture": "#0"},
				"west": {"uv": [5.14286, 5.14286, 5.71429, 5.28571], "texture": "#0"},
				"up": {"uv": [5.14286, 5.14286, 4.57143, 4.57143], "texture": "#0"},
				"down": {"uv": [5.71429, 4.57143, 5.14286, 5.14286], "texture": "#0"}
			}
		},
		{
			"from": [22.11111, 9, 0],
			"to": [26.11111, 9.33333, 4],
			"faces": {
				"north": {"uv": [8.85714, 5.14286, 9.42857, 5.14286], "texture": "#0"},
				"east": {"uv": [8.28571, 5.14286, 8.85714, 5.14286], "texture": "#0"},
				"south": {"uv": [10, 5.14286, 10.57143, 5.14286], "texture": "#0"},
				"west": {"uv": [9.42857, 5.14286, 10, 5.14286], "texture": "#0"},
				"up": {"uv": [9.42857, 5.14286, 8.85714, 4.57143], "texture": "#0"},
				"down": {"uv": [10, 4.57143, 9.42857, 5.14286], "texture": "#0"}
			}
		},
		{
			"from": [23.55556, 9.32, 0],
			"to": [26.88889, 10.09778, 4],
			"faces": {
				"north": {"uv": [4, 7.57143, 4.42857, 7.57143], "texture": "#0"},
				"east": {"uv": [3.42857, 7.57143, 4, 7.57143], "texture": "#0"},
				"south": {"uv": [5, 7.57143, 5.42857, 7.57143], "texture": "#0"},
				"west": {"uv": [4.42857, 7.57143, 5, 7.57143], "texture": "#0"},
				"up": {"uv": [4.42857, 7.57143, 4, 7], "texture": "#0"},
				"down": {"uv": [4.85714, 7, 4.42857, 7.57143], "texture": "#0"}
			}
		},
		{
			"from": [25.11111, 10, 0],
			"to": [27.55556, 10.77778, 4],
			"faces": {
				"north": {"uv": [6, 7.57143, 6.28571, 7.57143], "texture": "#0"},
				"east": {"uv": [5.42857, 7.57143, 6, 7.57143], "texture": "#0"},
				"south": {"uv": [6.85714, 7.57143, 7.14286, 7.57143], "texture": "#0"},
				"west": {"uv": [6.28571, 7.57143, 6.85714, 7.57143], "texture": "#0"},
				"up": {"uv": [6.28571, 7.57143, 6, 7], "texture": "#0"},
				"down": {"uv": [6.57143, 7, 6.28571, 7.57143], "texture": "#0"}
			}
		},
		{
			"from": [25.11111, 10.77778, 0],
			"to": [27.11111, 11.55556, 0.77778],
			"faces": {
				"north": {"uv": [4.85714, 9.42857, 5.14286, 9.42857], "texture": "#0"},
				"east": {"uv": [4.85714, 9.42857, 4.85714, 9.42857], "texture": "#0"},
				"south": {"uv": [5.14286, 9.42857, 5.42857, 9.42857], "texture": "#0"},
				"west": {"uv": [5.14286, 9.42857, 5.14286, 9.42857], "texture": "#0"},
				"up": {"uv": [5.14286, 9.42857, 4.85714, 9.42857], "texture": "#0"},
				"down": {"uv": [5.42857, 9.42857, 5.14286, 9.42857], "texture": "#0"}
			}
		},
		{
			"from": [25.11111, 10.78, 3.22],
			"to": [27.11111, 11.55778, 3.99778],
			"faces": {
				"north": {"uv": [4, 9.42857, 4.28571, 9.42857], "texture": "#0"},
				"east": {"uv": [4, 9.42857, 4, 9.42857], "texture": "#0"},
				"south": {"uv": [4.28571, 9.42857, 4.57143, 9.42857], "texture": "#0"},
				"west": {"uv": [4.28571, 9.42857, 4.28571, 9.42857], "texture": "#0"},
				"up": {"uv": [4.28571, 9.42857, 4, 9.42857], "texture": "#0"},
				"down": {"uv": [4.57143, 9.42857, 4.28571, 9.42857], "texture": "#0"}
			}
		},
		{
			"from": [20.8125, 11.8, 1],
			"to": [21.6, 13.26, 3],
			"rotation": {"angle": -45, "axis": "z", "origin": [8, 8, 8]},
			"faces": {
				"north": {"uv": [3.14286, 9.14286, 3.14286, 9.28571], "texture": "#0"},
				"east": {"uv": [2.85714, 9.14286, 3.14286, 9.28571], "texture": "#0"},
				"south": {"uv": [3.42857, 9.14286, 3.42857, 9.28571], "texture": "#0"},
				"west": {"uv": [3.14286, 9.14286, 3.42857, 9.28571], "texture": "#0"},
				"up": {"uv": [3.14286, 9.14286, 3.14286, 8.85714], "texture": "#0"},
				"down": {"uv": [3.14286, 8.85714, 3.14286, 9.14286], "texture": "#0"}
			}
		},
		{
			"from": [26.18868, 4.69858, 0.22222],
			"to": [29.13868, 5.47635, 3.77778],
			"rotation": {"angle": 22.5, "axis": "z", "origin": [28.99702, 4.19858, 2]},
			"faces": {
				"north": {"uv": [1.85714, 8.57143, 2.14286, 8.57143], "texture": "#0"},
				"east": {"uv": [1.42857, 8.57143, 1.85714, 8.57143], "texture": "#0"},
				"south": {"uv": [2.57143, 8.57143, 2.85714, 8.57143], "texture": "#0"},
				"west": {"uv": [2.14286, 8.57143, 2.57143, 8.57143], "texture": "#0"},
				"up": {"uv": [2.14286, 8.57143, 1.85714, 8.14286], "texture": "#0"},
				"down": {"uv": [2.42857, 8.14286, 2.14286, 8.57143], "texture": "#0"}
			}
		},
		{
			"from": [21.77778, 0.22222, 1.22222],
			"to": [23.99556, 1.55556, 2.77778],
			"rotation": {"angle": 22.5, "axis": "z", "origin": [8, 13, 8]},
			"faces": {
				"north": {"uv": [2.14286, 9, 2.42857, 9.14286], "texture": "#0"},
				"east": {"uv": [2, 9, 2.14286, 9.14286], "texture": "#0"},
				"south": {"uv": [2.57143, 9, 2.85714, 9.14286], "texture": "#0"},
				"west": {"uv": [2.42857, 9, 2.57143, 9.14286], "texture": "#0"},
				"up": {"uv": [2.42857, 9, 2.14286, 8.85714], "texture": "#0"},
				"down": {"uv": [2.71429, 8.85714, 2.42857, 9], "texture": "#0"}
			}
		},
		{
			"from": [23.5, -1.88889, 0.22222],
			"to": [24.16222, -1.22222, 3.77778],
			"rotation": {"angle": 22.5, "axis": "z", "origin": [8, 13, 8]},
			"faces": {
				"north": {"uv": [1.28571, 9.28571, 1.28571, 9.28571], "texture": "#0"},
				"east": {"uv": [0.85714, 9.28571, 1.28571, 9.28571], "texture": "#0"},
				"south": {"uv": [1.71429, 9.28571, 1.71429, 9.28571], "texture": "#0"},
				"west": {"uv": [1.28571, 9.28571, 1.71429, 9.28571], "texture": "#0"},
				"up": {"uv": [1.28571, 9.28571, 1.28571, 8.85714], "texture": "#0"},
				"down": {"uv": [1.28571, 8.85714, 1.28571, 9.28571], "texture": "#0"}
			}
		},
		{
			"from": [19.55556, -6.5, 0],
			"to": [22.55556, -5.72222, 4],
			"rotation": {"angle": 45, "axis": "z", "origin": [5.11111, 8, 8]},
			"faces": {
				"north": {"uv": [2, 7.57143, 2.42857, 7.57143], "texture": "#0"},
				"east": {"uv": [1.42857, 7.57143, 2, 7.57143], "texture": "#0"},
				"south": {"uv": [3, 7.57143, 3.42857, 7.57143], "texture": "#0"},
				"west": {"uv": [2.42857, 7.57143, 3, 7.57143], "texture": "#0"},
				"up": {"uv": [2.42857, 7.57143, 2, 7], "texture": "#0"},
				"down": {"uv": [2.85714, 7, 2.42857, 7.57143], "texture": "#0"}
			}
		},
		{
			"from": [27.44444, 10.08, 0],
			"to": [27.70444, 10.78, 4],
			"faces": {
				"north": {"uv": [7.42857, 8.71429, 7.42857, 8.71429], "texture": "#0"},
				"east": {"uv": [6.85714, 8.71429, 7.42857, 8.71429], "texture": "#0"},
				"south": {"uv": [8, 8.71429, 8, 8.71429], "texture": "#0"},
				"west": {"uv": [7.42857, 8.71429, 8, 8.71429], "texture": "#0"},
				"up": {"uv": [7.42857, 8.71429, 7.42857, 8.14286], "texture": "#0"},
				"down": {"uv": [7.42857, 8.14286, 7.42857, 8.71429], "texture": "#0"}
			}
		},
		{
			"from": [8.10104, 2.99993, -3.29121],
			"to": [9.54548, 3.99993, -2.29121],
			"rotation": {"angle": 45, "axis": "y", "origin": [8.10104, 7.99993, 8.01879]},
			"faces": {
				"north": {"uv": [5.28571, 9, 5.42857, 9.14286], "texture": "#0"},
				"east": {"uv": [5.14286, 9, 5.28571, 9.14286], "texture": "#0"},
				"south": {"uv": [5.57143, 9, 5.71429, 9.14286], "texture": "#0"},
				"west": {"uv": [5.42857, 9, 5.57143, 9.14286], "texture": "#0"},
				"up": {"uv": [5.42857, 9, 5.28571, 8.85714], "texture": "#0"},
				"down": {"uv": [5.57143, 8.85714, 5.42857, 9], "texture": "#0"}
			}
		},
		{
			"from": [8.10104, 0.99993, -3.29121],
			"to": [9.54548, 1.99993, -2.29121],
			"rotation": {"angle": 45, "axis": "y", "origin": [8.10104, 7.99993, 8.01879]},
			"faces": {
				"north": {"uv": [4.71429, 9.28571, 4.85714, 9.42857], "texture": "#0"},
				"east": {"uv": [4.57143, 9.28571, 4.71429, 9.42857], "texture": "#0"},
				"south": {"uv": [5, 9.28571, 5.14286, 9.42857], "texture": "#0"},
				"west": {"uv": [4.85714, 9.28571, 5, 9.42857], "texture": "#0"},
				"up": {"uv": [4.85714, 9.28571, 4.71429, 9.14286], "texture": "#0"},
				"down": {"uv": [5, 9.14286, 4.85714, 9.28571], "texture": "#0"}
			}
		},
		{
			"from": [5.2104, 1, -1.92537],
			"to": [6.62012, 2, -0.92537],
			"rotation": {"angle": -45, "axis": "y", "origin": [7.98818, 8, 7.94019]},
			"faces": {
				"north": {"uv": [1.28571, 9.57143, 1.42857, 9.71429], "texture": "#0"},
				"east": {"uv": [1.14286, 9.57143, 1.28571, 9.71429], "texture": "#0"},
				"south": {"uv": [1.57143, 9.57143, 1.71429, 9.71429], "texture": "#0"},
				"west": {"uv": [1.42857, 9.57143, 1.57143, 9.71429], "texture": "#0"},
				"up": {"uv": [1.42857, 9.57143, 1.28571, 9.42857], "texture": "#0"},
				"down": {"uv": [1.57143, 9.42857, 1.42857, 9.57143], "texture": "#0"}
			}
		},
		{
			"from": [5.2104, 3, -1.92537],
			"to": [6.62012, 4, -0.92537],
			"rotation": {"angle": -45, "axis": "y", "origin": [7.98818, 8, 7.94019]},
			"faces": {
				"north": {"uv": [0.71429, 9.57143, 0.85714, 9.71429], "texture": "#0"},
				"east": {"uv": [0.57143, 9.57143, 0.71429, 9.71429], "texture": "#0"},
				"south": {"uv": [1, 9.57143, 1.14286, 9.71429], "texture": "#0"},
				"west": {"uv": [0.85714, 9.57143, 1, 9.71429], "texture": "#0"},
				"up": {"uv": [0.85714, 9.57143, 0.71429, 9.42857], "texture": "#0"},
				"down": {"uv": [1, 9.42857, 0.85714, 9.57143], "texture": "#0"}
			}
		},
		{
			"from": [-0.4, -2, 1.35556],
			"to": [0.2, -0.8, 2.55556],
			"faces": {
				"north": {"uv": [5.85714, 9.57143, 5.85714, 9.71429], "texture": "#0"},
				"east": {"uv": [5.71429, 9.57143, 5.85714, 9.71429], "texture": "#0"},
				"south": {"uv": [6, 9.57143, 6, 9.71429], "texture": "#0"},
				"west": {"uv": [5.85714, 9.57143, 6, 9.71429], "texture": "#0"},
				"up": {"uv": [5.85714, 9.57143, 5.85714, 9.42857], "texture": "#0"},
				"down": {"uv": [5.85714, 9.42857, 5.85714, 9.57143], "texture": "#0"}
			}
		},
		{
			"from": [5, 5, -1],
			"to": [19, 6.98, 0],
			"faces": {
				"north": {"uv": [0.14286, 2.57143, 2.14286, 2.71429], "texture": "#0"},
				"east": {"uv": [0, 2.57143, 0.14286, 2.71429], "texture": "#0"},
				"south": {"uv": [2.28571, 2.57143, 4.28571, 2.71429], "texture": "#0"},
				"west": {"uv": [2.14286, 2.57143, 2.28571, 2.71429], "texture": "#0"},
				"up": {"uv": [2.14286, 2.57143, 0.14286, 2.42857], "texture": "#0"},
				"down": {"uv": [4.14286, 2.42857, 2.14286, 2.57143], "texture": "#0"}
			}
		},
		{
			"from": [3.78, 8.4, -1],
			"to": [4.78, 9.4, 0],
			"rotation": {"angle": 45, "axis": "z", "origin": [8, 8, 8]},
			"faces": {
				"north": {"uv": [5.28571, 9.28571, 5.42857, 9.42857], "texture": "#0"},
				"east": {"uv": [5.14286, 9.28571, 5.28571, 9.42857], "texture": "#0"},
				"south": {"uv": [5.57143, 9.28571, 5.71429, 9.42857], "texture": "#0"},
				"west": {"uv": [5.42857, 9.28571, 5.57143, 9.42857], "texture": "#0"},
				"up": {"uv": [5.42857, 9.28571, 5.28571, 9.14286], "texture": "#0"},
				"down": {"uv": [5.57143, 9.14286, 5.42857, 9.28571], "texture": "#0"}
			}
		},
		{
			"from": [4.16, 8.4, -1],
			"to": [5.16, 9.4, 0],
			"rotation": {"angle": 45, "axis": "z", "origin": [8, 8, 8]},
			"faces": {
				"north": {"uv": [6.42857, 9, 6.57143, 9.14286], "texture": "#0"},
				"east": {"uv": [6.28571, 9, 6.42857, 9.14286], "texture": "#0"},
				"south": {"uv": [6.71429, 9, 6.85714, 9.14286], "texture": "#0"},
				"west": {"uv": [6.57143, 9, 6.71429, 9.14286], "texture": "#0"},
				"up": {"uv": [6.57143, 9, 6.42857, 8.85714], "texture": "#0"},
				"down": {"uv": [6.71429, 8.85714, 6.57143, 9], "texture": "#0"}
			}
		},
		{
			"from": [26, 4.44444, 3.77778],
			"to": [28.21778, 5.77778, 3.77878],
			"faces": {
				"north": {"uv": [3.14286, 9.42857, 3.42857, 9.57143], "texture": "#0"},
				"east": {"uv": [3.14286, 9.42857, 3.14286, 9.57143], "texture": "#0"},
				"south": {"uv": [3.42857, 9.42857, 3.71429, 9.57143], "texture": "#0"},
				"west": {"uv": [3.42857, 9.42857, 3.42857, 9.57143], "texture": "#0"},
				"up": {"uv": [3.42857, 9.42857, 3.14286, 9.42857], "texture": "#0"},
				"down": {"uv": [3.71429, 9.42857, 3.42857, 9.42857], "texture": "#0"}
			}
		},
		{
			"from": [26, 5.77777, 0.22222],
			"to": [28.2178, 5.78777, 3.77878],
			"faces": {
				"north": {"uv": [4.71429, 8.57143, 5, 8.57143], "texture": "#0"},
				"east": {"uv": [4.28571, 8.57143, 4.71429, 8.57143], "texture": "#0"},
				"south": {"uv": [5.42857, 8.57143, 5.71429, 8.57143], "texture": "#0"},
				"west": {"uv": [5, 8.57143, 5.42857, 8.57143], "texture": "#0"},
				"up": {"uv": [5, 8.57143, 4.71429, 8.14286], "texture": "#0"},
				"down": {"uv": [5.28571, 8.14286, 5, 8.57143], "texture": "#0"}
			}
		},
		{
			"from": [26, 4.44444, 0.21],
			"to": [28.21778, 5.77778, 0.211],
			"faces": {
				"north": {"uv": [2.28571, 9.42857, 2.57143, 9.57143], "texture": "#0"},
				"east": {"uv": [2.28571, 9.42857, 2.28571, 9.57143], "texture": "#0"},
				"south": {"uv": [2.57143, 9.42857, 2.85714, 9.57143], "texture": "#0"},
				"west": {"uv": [2.57143, 9.42857, 2.57143, 9.57143], "texture": "#0"},
				"up": {"uv": [2.57143, 9.42857, 2.28571, 9.42857], "texture": "#0"},
				"down": {"uv": [2.85714, 9.42857, 2.57143, 9.42857], "texture": "#0"}
			}
		},
		{
			"from": [1.125, 1, 4],
			"to": [13, 2, 5],
			"faces": {
				"north": {"uv": [11.85714, 2.57143, 13.57143, 2.71429], "texture": "#0"},
				"east": {"uv": [11.71429, 2.57143, 11.85714, 2.71429], "texture": "#0"},
				"south": {"uv": [13.71429, 2.57143, 15.42857, 2.71429], "texture": "#0"},
				"west": {"uv": [13.57143, 2.57143, 13.71429, 2.71429], "texture": "#0"},
				"up": {"uv": [13.57143, 2.57143, 11.85714, 2.42857], "texture": "#0"},
				"down": {"uv": [15.28571, 2.42857, 13.57143, 2.57143], "texture": "#0"}
			}
		},
		{
			"from": [1.125, 3, 4],
			"to": [13, 4, 5],
			"faces": {
				"north": {"uv": [0.14286, 2.85714, 1.85714, 3], "texture": "#0"},
				"east": {"uv": [0, 2.85714, 0.14286, 3], "texture": "#0"},
				"south": {"uv": [2, 2.85714, 3.71429, 3], "texture": "#0"},
				"west": {"uv": [1.85714, 2.85714, 2, 3], "texture": "#0"},
				"up": {"uv": [1.85714, 2.85714, 0.14286, 2.71429], "texture": "#0"},
				"down": {"uv": [3.57143, 2.71429, 1.85714, 2.85714], "texture": "#0"}
			}
		},
		{
			"from": [3.77778, 8, 4],
			"to": [4.77778, 9, 5],
			"rotation": {"angle": 45, "axis": "z", "origin": [8, 8, -4]},
			"faces": {
				"north": {"uv": [4.71429, 9, 4.85714, 9.14286], "texture": "#0"},
				"east": {"uv": [4.57143, 9, 4.71429, 9.14286], "texture": "#0"},
				"south": {"uv": [5, 9, 5.14286, 9.14286], "texture": "#0"},
				"west": {"uv": [4.85714, 9, 5, 9.14286], "texture": "#0"},
				"up": {"uv": [4.85714, 9, 4.71429, 8.85714], "texture": "#0"},
				"down": {"uv": [5, 8.85714, 4.85714, 9], "texture": "#0"}
			}
		},
		{
			"from": [24, 4.9375, -1.0625],
			"to": [25, 7, 5.11111],
			"faces": {
				"north": {"uv": [8.85714, 4.28571, 9, 4.57143], "texture": "#0"},
				"east": {"uv": [8, 4.28571, 8.85714, 4.57143], "texture": "#0"},
				"south": {"uv": [9.85714, 4.28571, 10, 4.57143], "texture": "#0"},
				"west": {"uv": [9, 4.28571, 9.85714, 4.57143], "texture": "#0"},
				"up": {"uv": [9, 4.28571, 8.85714, 3.42857], "texture": "#0"},
				"down": {"uv": [9.14286, 3.42857, 9, 4.28571], "texture": "#0"}
			}
		},
		{
			"from": [22, 4.9375, -1.0625],
			"to": [23, 7, 5.11111],
			"faces": {
				"north": {"uv": [4.85714, 4.28571, 5, 4.57143], "texture": "#0"},
				"east": {"uv": [4, 4.28571, 4.85714, 4.57143], "texture": "#0"},
				"south": {"uv": [5.85714, 4.28571, 6, 4.57143], "texture": "#0"},
				"west": {"uv": [5, 4.28571, 5.85714, 4.57143], "texture": "#0"},
				"up": {"uv": [5, 4.28571, 4.85714, 3.42857], "texture": "#0"},
				"down": {"uv": [5.14286, 3.42857, 5, 4.28571], "texture": "#0"}
			}
		},
		{
			"from": [20, 4.9375, -1.0625],
			"to": [21, 7, 5.11111],
			"faces": {
				"north": {"uv": [2.85714, 4.28571, 3, 4.57143], "texture": "#0"},
				"east": {"uv": [2, 4.28571, 2.85714, 4.57143], "texture": "#0"},
				"south": {"uv": [3.85714, 4.28571, 4, 4.57143], "texture": "#0"},
				"west": {"uv": [3, 4.28571, 3.85714, 4.57143], "texture": "#0"},
				"up": {"uv": [3, 4.28571, 2.85714, 3.42857], "texture": "#0"},
				"down": {"uv": [3.14286, 3.42857, 3, 4.28571], "texture": "#0"}
			}
		},
		{
			"from": [8.10097, 2.99999, 6.29129],
			"to": [9.54541, 3.99999, 7.29129],
			"rotation": {"angle": -45, "axis": "y", "origin": [8.10097, 7.99999, -4.01871]},
			"faces": {
				"north": {"uv": [5.85714, 9, 6, 9.14286], "texture": "#0"},
				"east": {"uv": [5.71429, 9, 5.85714, 9.14286], "texture": "#0"},
				"south": {"uv": [6.14286, 9, 6.28571, 9.14286], "texture": "#0"},
				"west": {"uv": [6, 9, 6.14286, 9.14286], "texture": "#0"},
				"up": {"uv": [6, 9, 5.85714, 8.85714], "texture": "#0"},
				"down": {"uv": [6.14286, 8.85714, 6, 9], "texture": "#0"}
			}
		},
		{
			"from": [8.10097, 0.99999, 6.29129],
			"to": [9.54541, 1.99999, 7.29129],
			"rotation": {"angle": -45, "axis": "y", "origin": [8.10097, 7.99999, -4.01871]},
			"faces": {
				"north": {"uv": [5.85714, 9.28571, 6, 9.42857], "texture": "#0"},
				"east": {"uv": [5.71429, 9.28571, 5.85714, 9.42857], "texture": "#0"},
				"south": {"uv": [6.14286, 9.28571, 6.28571, 9.42857], "texture": "#0"},
				"west": {"uv": [6, 9.28571, 6.14286, 9.42857], "texture": "#0"},
				"up": {"uv": [6, 9.28571, 5.85714, 9.14286], "texture": "#0"},
				"down": {"uv": [6.14286, 9.14286, 6, 9.28571], "texture": "#0"}
			}
		},
		{
			"from": [5.21051, 0.99987, 4.92539],
			"to": [6.62023, 1.99987, 5.92539],
			"rotation": {"angle": 45, "axis": "y", "origin": [7.98829, 7.99987, -3.94017]},
			"faces": {
				"north": {"uv": [1.85714, 9.57143, 2, 9.71429], "texture": "#0"},
				"east": {"uv": [1.71429, 9.57143, 1.85714, 9.71429], "texture": "#0"},
				"south": {"uv": [2.14286, 9.57143, 2.28571, 9.71429], "texture": "#0"},
				"west": {"uv": [2, 9.57143, 2.14286, 9.71429], "texture": "#0"},
				"up": {"uv": [2, 9.57143, 1.85714, 9.42857], "texture": "#0"},
				"down": {"uv": [2.14286, 9.42857, 2, 9.57143], "texture": "#0"}
			}
		},
		{
			"from": [5.21051, 2.99987, 4.92539],
			"to": [6.62023, 3.99987, 5.92539],
			"rotation": {"angle": 45, "axis": "y", "origin": [7.98829, 7.99987, -3.94017]},
			"faces": {
				"north": {"uv": [6.42857, 9.28571, 6.57143, 9.42857], "texture": "#0"},
				"east": {"uv": [6.28571, 9.28571, 6.42857, 9.42857], "texture": "#0"},
				"south": {"uv": [6.71429, 9.28571, 6.85714, 9.42857], "texture": "#0"},
				"west": {"uv": [6.57143, 9.28571, 6.71429, 9.42857], "texture": "#0"},
				"up": {"uv": [6.57143, 9.28571, 6.42857, 9.14286], "texture": "#0"},
				"down": {"uv": [6.71429, 9.14286, 6.57143, 9.28571], "texture": "#0"}
			}
		},
		{
			"from": [5, 5, 4],
			"to": [19, 6.98, 5],
			"faces": {
				"north": {"uv": [9, 1.14286, 11, 1.28571], "texture": "#0"},
				"east": {"uv": [8.85714, 1.14286, 9, 1.28571], "texture": "#0"},
				"south": {"uv": [11.14286, 1.14286, 13.14286, 1.28571], "texture": "#0"},
				"west": {"uv": [11, 1.14286, 11.14286, 1.28571], "texture": "#0"},
				"up": {"uv": [11, 1.14286, 9, 1], "texture": "#0"},
				"down": {"uv": [13, 1, 11, 1.14286], "texture": "#0"}
			}
		},
		{
			"from": [3.78, 8.4, 4],
			"to": [4.78, 9.4, 5],
			"rotation": {"angle": 45, "axis": "z", "origin": [8, 8, -4]},
			"faces": {
				"north": {"uv": [7, 9.28571, 7.14286, 9.42857], "texture": "#0"},
				"east": {"uv": [6.85714, 9.28571, 7, 9.42857], "texture": "#0"},
				"south": {"uv": [7.28571, 9.28571, 7.42857, 9.42857], "texture": "#0"},
				"west": {"uv": [7.14286, 9.28571, 7.28571, 9.42857], "texture": "#0"},
				"up": {"uv": [7.14286, 9.28571, 7, 9.14286], "texture": "#0"},
				"down": {"uv": [7.28571, 9.14286, 7.14286, 9.28571], "texture": "#0"}
			}
		},
		{
			"from": [4.16, 8.4, 4],
			"to": [5.16, 9.4, 5],
			"rotation": {"angle": 45, "axis": "z", "origin": [8, 8, -4]},
			"faces": {
				"north": {"uv": [0.14286, 9.57143, 0.28571, 9.71429], "texture": "#0"},
				"east": {"uv": [0, 9.57143, 0.14286, 9.71429], "texture": "#0"},
				"south": {"uv": [0.42857, 9.57143, 0.57143, 9.71429], "texture": "#0"},
				"west": {"uv": [0.28571, 9.57143, 0.42857, 9.71429], "texture": "#0"},
				"up": {"uv": [0.28571, 9.57143, 0.14286, 9.42857], "texture": "#0"},
				"down": {"uv": [0.42857, 9.42857, 0.28571, 9.57143], "texture": "#0"}
			}
		},
		{
			"from": [0.11111, 10.89111, 1.66444],
			"to": [1.44444, 11.66889, 2.44222],
			"faces": {
				"north": {"uv": [6.28571, 9.42857, 6.42857, 9.42857], "texture": "#0"},
				"east": {"uv": [6.28571, 9.42857, 6.28571, 9.42857], "texture": "#0"},
				"south": {"uv": [6.42857, 9.42857, 6.57143, 9.42857], "texture": "#0"},
				"west": {"uv": [6.42857, 9.42857, 6.42857, 9.42857], "texture": "#0"},
				"up": {"uv": [6.42857, 9.42857, 6.28571, 9.42857], "texture": "#0"},
				"down": {"uv": [6.57143, 9.42857, 6.42857, 9.42857], "texture": "#0"}
			}
		},
		{
			"from": [0, 10, 1],
			"to": [2, 11, 3],
			"faces": {
				"north": {"uv": [9.71429, 8.42857, 10, 8.57143], "texture": "#0"},
				"east": {"uv": [9.42857, 8.42857, 9.71429, 8.57143], "texture": "#0"},
				"south": {"uv": [10.28571, 8.42857, 10.57143, 8.57143], "texture": "#0"},
				"west": {"uv": [10, 8.42857, 10.28571, 8.57143], "texture": "#0"},
				"up": {"uv": [10, 8.42857, 9.71429, 8.14286], "texture": "#0"},
				"down": {"uv": [10.28571, 8.14286, 10, 8.42857], "texture": "#0"}
			}
		},
		{
			"from": [20.05202, -12.19649, 0.1598],
			"to": [22.18702, -6.12066, 3.8148],
			"rotation": {"angle": 22.5, "axis": "z", "origin": [8.07702, 8.1224, 8.00008]},
			"faces": {
				"north": {"uv": [4.14286, 6.14286, 4.42857, 7], "texture": "#0"},
				"east": {"uv": [3.71429, 6.14286, 4.14286, 7], "texture": "#0"},
				"south": {"uv": [4.85714, 6.14286, 5.14286, 7], "texture": "#0"},
				"west": {"uv": [4.42857, 6.14286, 4.85714, 7], "texture": "#0"},
				"up": {"uv": [4.42857, 6.14286, 4.14286, 5.71429], "texture": "#0"},
				"down": {"uv": [4.71429, 5.71429, 4.42857, 6.14286], "texture": "#0"}
			}
		},
		{
			"from": [21.78299, -5.26028, 0.24222],
			"to": [26.55555, 0.09778, 3.75222],
			"faces": {
				"north": {"uv": [6.42857, 3.85714, 7, 4.57143], "texture": "#0"},
				"east": {"uv": [6, 3.85714, 6.42857, 4.57143], "texture": "#0"},
				"south": {"uv": [7.42857, 3.85714, 8, 4.57143], "texture": "#0"},
				"west": {"uv": [7, 3.85714, 7.42857, 4.57143], "texture": "#0"},
				"up": {"uv": [7, 3.85714, 6.42857, 3.42857], "texture": "#0"},
				"down": {"uv": [7.57143, 3.42857, 7, 3.85714], "texture": "#0"}
			}
		},
		{
			"from": [22.15555, -7.44778, 0.15972],
			"to": [28.88888, -5.25028, 3.8191],
			"faces": {
				"north": {"uv": [9.85714, 3.14286, 10.71429, 3.42857], "texture": "#0"},
				"east": {"uv": [9.42857, 3.14286, 9.85714, 3.42857], "texture": "#0"},
				"south": {"uv": [11.14286, 3.14286, 12, 3.42857], "texture": "#0"},
				"west": {"uv": [10.71429, 3.14286, 11.14286, 3.42857], "texture": "#0"},
				"up": {"uv": [10.71429, 3.14286, 9.85714, 2.71429], "texture": "#0"},
				"down": {"uv": [11.57143, 2.71429, 10.71429, 3.14286], "texture": "#0"}
			}
		},
		{
			"from": [15.2938, -13.57493, 0.15515],
			"to": [17.4288, -7.4991, 3.81015],
			"rotation": {"angle": 22.5, "axis": "z", "origin": [3.3188, 6.74396, 7.99543]},
			"faces": {
				"north": {"uv": [2.71429, 6.14286, 3, 7], "texture": "#0"},
				"east": {"uv": [2.28571, 6.14286, 2.71429, 7], "texture": "#0"},
				"south": {"uv": [3.42857, 6.14286, 3.71429, 7], "texture": "#0"},
				"west": {"uv": [3, 6.14286, 3.42857, 7], "texture": "#0"},
				"up": {"uv": [3, 6.14286, 2.71429, 5.71429], "texture": "#0"},
				"down": {"uv": [3.28571, 5.71429, 3, 6.14286], "texture": "#0"}
			}
		},
		{
			"from": [19.82628, -1.82085, 0.1503],
			"to": [21.96128, 0.00498, 3.8053],
			"faces": {
				"north": {"uv": [0.42857, 8.57143, 0.71429, 8.71429], "texture": "#0"},
				"east": {"uv": [0, 8.57143, 0.42857, 8.71429], "texture": "#0"},
				"south": {"uv": [1.14286, 8.57143, 1.42857, 8.71429], "texture": "#0"},
				"west": {"uv": [0.71429, 8.57143, 1.14286, 8.71429], "texture": "#0"},
				"up": {"uv": [0.71429, 8.57143, 0.42857, 8.14286], "texture": "#0"},
				"down": {"uv": [1, 8.14286, 0.71429, 8.57143], "texture": "#0"}
			}
		},
		{
			"from": [24.58804, -0.46164, 0.17062],
			"to": [26.59804, 4.98919, 3.82562],
			"faces": {
				"north": {"uv": [0.42857, 7.42857, 0.71429, 8.14286], "texture": "#0"},
				"east": {"uv": [0, 7.42857, 0.42857, 8.14286], "texture": "#0"},
				"south": {"uv": [1.14286, 7.42857, 1.42857, 8.14286], "texture": "#0"},
				"west": {"uv": [0.71429, 7.42857, 1.14286, 8.14286], "texture": "#0"},
				"up": {"uv": [0.71429, 7.42857, 0.42857, 7], "texture": "#0"},
				"down": {"uv": [1, 7, 0.71429, 7.42857], "texture": "#0"}
			}
		},
		{
			"from": [18, 0, 0.22222],
			"to": [19.8125, 0.33333, 3.76216],
			"faces": {
				"north": {"uv": [8.71429, 8.57143, 8.85714, 8.57143], "texture": "#0"},
				"east": {"uv": [8.28571, 8.57143, 8.71429, 8.57143], "texture": "#0"},
				"south": {"uv": [9.28571, 8.57143, 9.42857, 8.57143], "texture": "#0"},
				"west": {"uv": [8.85714, 8.57143, 9.28571, 8.57143], "texture": "#0"},
				"up": {"uv": [8.85714, 8.57143, 8.71429, 8.14286], "texture": "#0"},
				"down": {"uv": [9, 8.14286, 8.85714, 8.57143], "texture": "#0"}
			}
		}
	],
	"display": {
		"thirdperson_righthand": {
			"rotation": [0, -90, 0],
			"translation": [-1.5, 1.25, -3.5],
			"scale": [0.3, 0.3, 0.3]
		},
		"thirdperson_lefthand": {
			"rotation": [0, 90, 0],
			"translation": [3, 2.25, -6],
			"scale": [0.5, 0.5, 0.5]
		},
		"firstperson_righthand": {
			"rotation": [8, -90, 8],
			"translation": [-5.25, 3.5, -19.75]
		},
		"firstperson_lefthand": {
			"rotation": [8, 90, -4.75],
			"translation": [10.5, 3.5, -22]
		},
		"ground": {
			"rotation": [0, 0, -30],
			"translation": [-4.75, 12.75, 0],
			"scale": [0.7, 0.7, 0.7]
		},
		"gui": {
			"rotation": [0, 0, -24],
			"translation": [-1.75, 4.5, 0],
			"scale": [0.5, 0.5, 0.5]
		},
		"head": {
			"rotation": [0, 0, -26],
			"translation": [0, 18.75, 3.25],
			"scale": [0.5, 0.5, 0.5]
		},
		"fixed": {
			"rotation": [0, 0, -30.25],
			"translation": [-1.5, 5.75, 0],
			"scale": [0.7, 0.7, 0.7]
		}
	},
	"groups": [0, 1, 2, 3, 4, 5, 6, 7, 8, 9, 10, 11, 12, 13, 14, 15, 16,
		{
			"name": "octagon",
			"children": [17, 18, 19, 20]
		}, 21, 22, 23, 24, 25, 26, 27, 28, 29, 30, 31, 32, 33, 34, 35, 36, 37, 38, 39, 40, 41, 42, 43, 44, 45, 46, 47, 48, 49, 50, 51, 52, 53, 54, 55, 56, 57, 58, 59, 60, 61, 62, 63, 64, 65]
}