{
	"credit": "Made by 0ptima, totally cool guy from Frostburn",
	"textures": {
		"0": "models/book",
		"particle": "models/book"
	},
	"elements": [
		{
			"from": [4.25, 0.375, 2.1875],
			"to": [11.6875, 1.625, 13.8125],
			"faces": {
				"north": {"uv": [0, 11.125, 0.62028, 12.88532], "texture": "#0"},
				"south": {"uv": [0, 11.125, 0.62028, 12.88532], "texture": "#0"},
				"west": {"uv": [0, 11.125, 0.62028, 12.88532], "texture": "#0"}
			}
		},
		{
			"from": [4, 1.625, 2],
			"to": [12, 2, 14],
			"faces": {
				"north": {"uv": [0, 0, 7.06663, 0.1], "rotation": 180, "texture": "#0"},
				"east": {"uv": [7.15537, 0, 7.42158, 10.66657], "texture": "#0"},
				"south": {"uv": [0, 10.5, 7.06663, 10.6], "texture": "#0"},
				"west": {"uv": [0, 0, 0.1, 10.66657], "rotation": 270, "texture": "#0"},
				"up": {"uv": [0, 0, 7.06663, 10.66657], "texture": "#0"},
				"down": {"uv": [8.93308, 0, 15.99971, 10.66657], "rotation": 180, "texture": "#0"}
			}
		},
		{
			"from": [4, 0, 2],
			"to": [12, 0.375, 14],
			"faces": {
				"north": {"uv": [0, 0, 7.06663, 0.1], "rotation": 180, "texture": "#0"},
				"east": {"uv": [8.4885, 0, 8.84375, 10.66657], "rotation": 90, "texture": "#0"},
				"south": {"uv": [0, 10.5, 7.06663, 10.6], "texture": "#0"},
				"west": {"uv": [0, 0, 0.1, 10.66657], "rotation": 270, "texture": "#0"},
				"up": {"uv": [0, 0, 7.06663, 10.66657], "texture": "#0"},
				"down": {"uv": [8.93308, 0, 15.99971, 10.66657], "rotation": 180, "texture": "#0"}
			}
		},
		{
			"from": [11.6875, 0.375, 2],
			"to": [12, 1.625, 14],
			"faces": {
				"north": {"uv": [7.51091, 0, 8.44369, 0.41657], "rotation": 90, "texture": "#0"},
				"east": {"uv": [7.51091, 0, 8.44369, 10.66657], "rotation": 90, "texture": "#0"},
				"south": {"uv": [7.51091, 10.25, 8.44369, 10.66657], "rotation": 90, "texture": "#0"},
				"west": {"uv": [7.51091, 0, 8.44369, 10.66657], "rotation": 180, "texture": "#0"}
			}
		}
	],
	"display": {
		"thirdperson_righthand": {
			"rotation": [78, 4, 13],
			"translation": [-2, 2.5, 4.5],
			"scale": [0.7, 0.7, 0.7]
		},
		"thirdperson_lefthand": {
			"rotation": [78, 4, 13],
			"translation": [-2, 2.5, 4.5],
			"scale": [0.7, 0.7, 0.7]
		},
		"firstperson_righthand": {
			"rotation": [113, 6, -16],
			"translation": [-2, 2.5, 7]
		},
		"firstperson_lefthand": {
			"rotation": [113, 6, -16],
			"translation": [-2, 2.5, 7]
		},
		"ground": {
			"translation": [0, 4, 0]
		},
		"gui": {
			"rotation": [90, 0, 0],
			"scale": [1.2, 1.2, 1.2]
		},
		"fixed": {
			"rotation": [90, 0, 180],
			"translation": [0, 0, -16],
			"scale": [2, 2, 2]
		}
	}
}