{
	"credit": "by mordobi27",
	"ambientocclusion": false,
	"textures": {
		"0": "models/green_blood",
		"particle": "models/green_blood"
	},
	"elements": [
		{
			"from": [4, 0.1, 4],
			"to": [12, 0.1, 12],
			"faces": {
				"up": {"uv": [0, 0, 16, 16], "texture": "#0"}
			}
		},
		{
			"from": [6.2, 0.175, 5.9],
			"to": [10.2, 0.175, 9.9],
			"faces": {
				"up": {"uv": [0, 0, 16, 16], "texture": "#0"}
			}
		}
	],
	"display": {
		"gui": {
			"rotation": [90, 0, 0],
			"scale": [1.5, 1.5, 1.5]
		},
		"fixed": {
			"rotation": [0, 38.5, 0],
			"translation": [0, 0, -17],
			"scale": [2, 2, 2]
		}
	}
}