{
	"credit": "Made with Blockbench",
	"textures": {
		"0": "models/syringe/door_jungle_upper",
		"1": "models/syringe/concrete_white",
		"2": "models/syringe/glass",
		"particle": "models/syringe/door_jungle_upper"
	},
	"elements": [
		{
			"from": [7.5, 10, 7.5],
			"to": [8.5, 14, 8.5],
			"faces": {
				"north": {"uv": [13, 1, 13.999, 13.997], "texture": "#0"},
				"east": {"uv": [13, 1, 13.999, 13.997], "texture": "#0"},
				"south": {"uv": [13, 1, 13.999, 13.997], "texture": "#0"},
				"west": {"uv": [13, 1, 13.999, 13.997], "texture": "#0"}
			}
		},
		{
			"from": [7, 14, 7],
			"to": [9, 14.2, 9],
			"faces": {
				"north": {"uv": [8, 2, 10, 3.999], "texture": "#0"},
				"east": {"uv": [8, 2, 10, 3.999], "texture": "#0"},
				"south": {"uv": [8, 2, 10, 3.999], "texture": "#0"},
				"west": {"uv": [8, 2, 10, 3.999], "texture": "#0"},
				"up": {"uv": [8, 2, 10, 3.999], "texture": "#0"},
				"down": {"uv": [8, 2, 10, 3.999], "texture": "#0"}
			}
		},
		{
			"from": [7, 11.9, 7],
			"to": [9, 12.1, 9],
			"faces": {
				"north": {"uv": [4.999, 1, 9.999, 4.997], "texture": "#0"},
				"east": {"uv": [4.999, 1, 9.999, 4.997], "texture": "#0"},
				"south": {"uv": [4.999, 1, 9.999, 4.997], "texture": "#0"},
				"west": {"uv": [4.999, 1, 9.999, 4.997], "texture": "#0"},
				"up": {"uv": [4.999, 1, 9.999, 4.997], "texture": "#0"},
				"down": {"uv": [4.999, 1, 9.999, 4.997], "texture": "#0"}
			}
		},
		{
			"from": [7.35, 5.8, 7.35],
			"to": [8.6, 7, 8.6],
			"faces": {
				"north": {"uv": [0, 0, 1, 1], "texture": "#0"},
				"east": {"uv": [0, 0, 1, 1], "texture": "#0"},
				"south": {"uv": [0, 0, 1, 1], "texture": "#0"},
				"west": {"uv": [0, 0, 1, 1], "texture": "#0"},
				"down": {"uv": [0, 0, 1, 1], "texture": "#0"}
			}
		},
		{
			"from": [7.75, 5.3, 7.75],
			"to": [8.25, 5.8, 8.25],
			"faces": {
				"north": {"uv": [0, 0, 0.5, 0.5], "texture": "#0"},
				"east": {"uv": [0, 0, 0.5, 0.5], "texture": "#0"},
				"south": {"uv": [0, 0, 0.5, 0.5], "texture": "#0"},
				"west": {"uv": [0, 0, 0.5, 0.5], "texture": "#0"},
				"down": {"uv": [0, 0, 0.5, 0.5], "texture": "#0"}
			}
		},
		{
			"from": [7.95, 3.3, 7.95],
			"to": [8.05, 5.3, 8.05],
			"faces": {
				"north": {"uv": [13, 1, 13.999, 15.999], "texture": "#0"},
				"east": {"uv": [13, 1, 13.999, 15.999], "texture": "#0"},
				"south": {"uv": [13, 1, 13.999, 15.999], "texture": "#0"},
				"west": {"uv": [13, 1, 13.999, 15.999], "texture": "#0"},
				"down": {"uv": [13, 1, 13.999, 1.998], "texture": "#0"}
			}
		},
		{
			"from": [7, 6.8, 7],
			"to": [9, 7, 9],
			"faces": {
				"north": {"uv": [8, 2, 10.999, 5.198], "texture": "#0"},
				"east": {"uv": [8, 2, 10.999, 5.198], "texture": "#0"},
				"south": {"uv": [8, 2, 10.999, 5.198], "texture": "#0"},
				"west": {"uv": [8, 2, 10.999, 5.198], "texture": "#0"},
				"up": {"uv": [8, 2, 10.999, 5.198], "texture": "#0"},
				"down": {"uv": [8, 2, 10.999, 5.198], "texture": "#0"}
			}
		},
		{
			"from": [7.5, 6.8, 7.5],
			"to": [8.5, 9.8, 8.5],
			"faces": {
				"north": {"uv": [0, 0, 16, 16], "texture": "#1"},
				"east": {"uv": [0, 0, 16, 16], "texture": "#1"},
				"south": {"uv": [0, 0, 16, 16], "texture": "#1"},
				"west": {"uv": [0, 0, 16, 16], "texture": "#1"}
			}
		},
		{
			"from": [7.4, 9.8, 7.4],
			"to": [8.6, 10, 8.6],
			"faces": {
				"north": {"uv": [13, 1, 13.999, 13.997], "texture": "#0"},
				"east": {"uv": [13, 1, 13.999, 13.997], "texture": "#0"},
				"south": {"uv": [13, 1, 13.999, 13.997], "texture": "#0"},
				"west": {"uv": [13, 1, 13.999, 13.997], "texture": "#0"},
				"up": {"uv": [13, 1, 13.999, 13.997], "texture": "#0"},
				"down": {"uv": [13, 1, 13.999, 13.997], "texture": "#0"}
			}
		},
		{
			"from": [7.25, 7, 7.25],
			"to": [8.75, 12, 8.75],
			"faces": {
				"north": {"uv": [2, 2, 13.997, 13.995], "texture": "#2"},
				"east": {"uv": [2, 2, 13.997, 13.995], "texture": "#2"},
				"south": {"uv": [2, 2, 13.997, 13.995], "texture": "#2"},
				"west": {"uv": [2, 2, 13.997, 13.995], "texture": "#2"}
			}
		}
	],
	"display": {
		"thirdperson_righthand": {
			"rotation": [142.75, 0, 0],
			"translation": [0.25, -0.75, -0.75],
			"scale": [0.75, 0.75, 0.75]
		},
		"thirdperson_lefthand": {
			"rotation": [-142.25, 0, 0],
			"translation": [0, 0, 1.25],
			"scale": [0.75, 0.75, 0.75]
		},
		"firstperson_righthand": {
			"rotation": [0, 0, 178],
			"translation": [2.5, 2.75, 0]
		},
		"firstperson_lefthand": {
			"rotation": [0, 0, -182.5],
			"translation": [2.5, 2.5, 0]
		},
		"gui": {
			"rotation": [0, 0, -34],
			"translation": [-0.75, -1.75, 0],
			"scale": [1.87, 1.87, 1.87]
		},
		"head": {
			"rotation": [-93.25, 0, 0],
			"translation": [-2.5, -0.5, -10]
		}
	},
	"groups": [
		{
			"name": "group",
			"origin": [8, 8, 8],
			"children": [0, 1, 2, 3, 4, 5, 6, 7, 8]
		}, 9]
}