{
	"credit": "by mordobi27",
	"textures": {
		"0": "models/cards/suzie_card",
		"particle": "models/cards/suzie_card"
	},
	"elements": [
		{
			"from": [5, 0, 7],
			"to": [10, 0.2, 10],
			"faces": {
				"north": {"uv": [0, 0, 10.248, 0.246], "rotation": 180, "texture": "#0"},
				"east": {"uv": [10, 0, 10.246, 6.247], "rotation": 270, "texture": "#0"},
				"south": {"uv": [0, 6, 10.248, 6.246], "texture": "#0"},
				"west": {"uv": [0, 0, 0.247, 6.247], "rotation": 270, "texture": "#0"},
				"up": {"uv": [0, 0, 10.248, 6.247], "texture": "#0"},
				"down": {"uv": [0, 12.997, 10.248, 6.75], "texture": "#0"}
			}
		}
	],
	"display": {
		"thirdperson_righthand": {
			"rotation": [72, -52, 0],
			"translation": [1, 4, 7.75]
		},
		"thirdperson_lefthand": {
			"rotation": [72, -52, 0],
			"translation": [-0.25, 4.5, 7.75]
		},
		"firstperson_righthand": {
			"rotation": [70, 0, 0],
			"translation": [0, 7.5, 9.5]
		},
		"firstperson_lefthand": {
			"rotation": [70, 0, 0],
			"translation": [-1.5, 7.5, 9.5]
		},
		"ground": {
			"translation": [0, 5.5, 0]
		},
		"gui": {
			"rotation": [90, -45, 0],
			"translation": [1.75, 0, 0],
			"scale": [2.8, 2.8, 2.8]
		},
		"fixed": {
			"rotation": [0, 42, 0],
			"translation": [2.5, 6, -10],
			"scale": [2, 2, 2]
		}
	}
}