{
	"credit": "by mordobi27",
	"ambientocclusion": false,
	"textures": {
		"0": "models/obrazy_velin/2x1_sinus/sinus",
		"particle": "models/obrazy_velin/2x1_sinus/sinus"
	},
	"elements": [
		{
			"from": [-16, 0, 0],
			"to": [16, 16, 0],
			"faces": {
				"north": {"uv": [0, 0, 16, 8], "texture": "#0"}
			}
		}
	],
	"display": {
		"fixed": {
			"translation": [32, 0, 16.25],
			"scale": [2, 2, 2]
		}
	}
}