{
	"parent": "item/handheld",

	"textures": {
		"layer0": "items/gold_shovel"
	},

	"overrides": [
		{ "predicate": {"damaged": 0, "damage": 0}, "model": "item/golden_shovel1"},

		{ "predicate": {"damaged": 1, "damage": 0.03125}, "model": "item/golden_shovel2"},
		
		{ "predicate": {"damaged": 1, "damage": 0.0625}, "model": "item/golden_shovel3"},
		
		{ "predicate": {"damaged": 1, "damage": 0.09375}, "model": "item/golden_shovel4"},
		
		{ "predicate": {"damaged": 1, "damage": 0.125}, "model": "item/golden_shovel5"},
		
		{ "predicate": {"damaged": 1, "damage": 0.15625}, "model": "item/golden_shovel6"},
		
		{ "predicate": {"damaged": 1, "damage": 0.1875}, "model": "item/golden_shovel7"},
		
		{ "predicate": {"damaged": 1, "damage": 0.21875}, "model": "item/golden_shovel8"},
		
		{ "predicate": {"damaged": 1, "damage": 0.25}, "model": "item/golden_shovel9"},
		
		{ "predicate": {"damaged": 1, "damage": 0.28125}, "model": "item/golden_shovel10"},
		
		{ "predicate": {"damaged": 1, "damage": 0.3125}, "model": "item/golden_shovel11"},
		
		{ "predicate": {"damaged": 1, "damage": 0.34375}, "model": "item/golden_shovel12"},
		
		{ "predicate": {"damaged": 1, "damage": 0.375}, "model": "item/golden_shovel13"},
		
		{ "predicate": {"damaged": 1, "damage": 0.40625}, "model": "item/golden_shovel14"},
		
		{ "predicate": {"damaged": 1, "damage": 0.4375}, "model": "item/golden_shovel15"},
		
		{ "predicate": {"damaged": 1, "damage": 0.46875}, "model": "item/golden_shovel16"},
		
		{ "predicate": {"damaged": 1, "damage": 0.5}, "model": "item/golden_shovel17"},
		
		{ "predicate": {"damaged": 1, "damage": 0.53125}, "model": "item/golden_shovel18"},
		
		{ "predicate": {"damaged": 1, "damage": 0.5625}, "model": "item/golden_shovel19"},
		
		{ "predicate": {"damaged": 1, "damage": 0.59375}, "model": "item/golden_shovel20"},
		
		{ "predicate": {"damaged": 1, "damage": 0.625}, "model": "item/golden_shovel21"},
		
		{ "predicate": {"damaged": 1, "damage": 0.65625}, "model": "item/golden_shovel22"},
		
		{ "predicate": {"damaged": 1, "damage": 0.6875}, "model": "item/golden_shovel23"},
		
		{ "predicate": {"damaged": 1, "damage": 0.71875}, "model": "item/golden_shovel24"},
		
		{ "predicate": {"damaged": 1, "damage": 0.75}, "model": "item/golden_shovel25"},
		
		{ "predicate": {"damaged": 1, "damage": 0.78125}, "model": "item/golden_shovel26"},
		
		{ "predicate": {"damaged": 1, "damage": 0.8125}, "model": "item/golden_shovel27"},
		
		{ "predicate": {"damaged": 1, "damage": 0.84375}, "model": "item/golden_shovel28"},
		
		{ "predicate": {"damaged": 1, "damage": 0.875}, "model": "item/golden_shovel29"},
		
		{ "predicate": {"damaged": 1, "damage": 0.90625}, "model": "item/golden_shovel30"}
	]
}

