{
	"credit": "Made by 0ptima, totally cool guy from Frostburn",
	"textures": {
		"0": "blocks/billboard3_d",
		"1": "blocks/billboard3_u",
		"particle": "blocks/billboard3_d"
	},
	"elements": [
		{
			"from": [0, 0, 16],
			"to": [16, 16, 16],
			"faces": {
				"north": {"uv": [0, 0, 16, 16], "texture": "#0"}
			}
		},
		{
			"from": [0, 16, 16],
			"to": [16, 32, 16],
			"faces": {
				"north": {"uv": [0, 0, 16, 16], "texture": "#1"}
			}
		}
	],
	"display": {
		"thirdperson_righthand": {
			"rotation": [4, 162, -1],
			"translation": [-2.5, -0.5, 4],
			"scale": [0.5, 0.5, 0.5]
		},
		"thirdperson_lefthand": {
			"rotation": [4, 162, -1],
			"translation": [-2.5, -0.5, 4],
			"scale": [0.5, 0.5, 0.5]
		},
		"firstperson_righthand": {
			"rotation": [-35, 180, 0],
			"translation": [8, -4.5, 0]
		},
		"firstperson_lefthand": {
			"rotation": [-35, 180, 0],
			"translation": [8, -4.5, 0]
		},
		"ground": {
			"rotation": [90, 0, 0],
			"translation": [0, 2.5, -6],
			"scale": [0.7, 0.7, 0.7]
		},
		"gui": {
			"rotation": [0, 180, 0],
			"translation": [0, -3.5, 0],
			"scale": [0.5, 0.5, 0.5]
		},
		"fixed": {
			"translation": [0, 0.5, -14.1],
			"scale": [1.8, 1.9, 2]
		}
	}
}