{
	"credit": "Made by 0ptima, totally cool guy from Frostburn",
	"textures": {
		"0": "blocks/billboard_hd_big",
		"particle": "blocks/billboard_hd_big"
	},
	"elements": [
		{
			"from": [-16, 0, 16],
			"to": [32, 32, 16],
			"faces": {
				"north": {"uv": [0, 0, 15.99914, 10.66529], "texture": "#0"}
			}
		}
	],
	"display": {
		"thirdperson_righthand": {
			"rotation": [-8, -19, 0],
			"translation": [0, 0, -2],
			"scale": [0.35, 0.35, 0.35]
		},
		"thirdperson_lefthand": {
			"rotation": [-8, -19, 0],
			"translation": [0, 0, -2],
			"scale": [0.35, 0.35, 0.35]
		},
		"firstperson_righthand": {
			"translation": [0, 1.5, 0],
			"scale": [0.1, 0.1, 0.1]
		},
		"firstperson_lefthand": {
			"translation": [0, 1.5, 0],
			"scale": [0.1, 0.1, 0.1]
		},
		"ground": {
			"translation": [0, 3.25, -8.25],
			"scale": [0.54, 0.54, 0.54]
		},
		"gui": {
			"translation": [0, -3, 0],
			"scale": [0.33, 0.33, 0.33]
		},
		"head": {
			"translation": [0, -8, -17.25]
		},
		"fixed": {
			"translation": [0, 0, -15.1],
			"scale": [2, 2, 2]
		}
	}
}