{
	"credit": "Made by 0ptima, totally cool guy from FrostBurn",
	"textures": {
		"0": "blocks/holo1",
		"particle": "blocks/holo1"
	},
	"elements": [
		{
			"from": [-8, -8, 8],
			"to": [24, 24, 8],
			"faces": {
				"north": {"uv": [0, 0, 16, 16], "texture": "#0"},
				"south": {"uv": [16, 0, 0, 16], "texture": "#0"}
			}
		}
	],
	"display": {
		"thirdperson_righthand": {
			"scale": [0.2, 0.2, 0.2],
			"translation": [0, 0, -3],
			"rotation": [-15, -16, 0]
		},
		"thirdperson_lefthand": {
			"scale": [0.2, 0.2, 0.2],
			"rotation": [-15, -16, 0],
			"translation": [0, 0, -3]
		},
		"firstperson_righthand": {
			"scale": [0.2, 0.2, 0.2],
			"translation": [-1.5, 3.5, 4],
			"rotation": [-37, 146, 0]
		},
		"firstperson_lefthand": {
			"scale": [0.2, 0.2, 0.2],
			"rotation": [-37, 146, 0],
			"translation": [-1.5, 3.5, 4]
		},
		"ground": {
			"scale": [0.3, 0.3, 0.3],
			"rotation": [90, 0, 0],
			"translation": [0, -0.5, 0]
		},
		"fixed": {
			"scale": [3, 3, 3],
			"translation": [0, 0, 18]
		},
		"gui": {
			"scale": [0.45, 0.45, 0.5]
		}
	}
}