{
    "credit": "Made by 0ptima,  totally cool guy from FrostBurn", 
    "textures": {
        "main": "blocks/dna"
    }, 
    "elements": [
        {
            "from": [ 0, 0, 8 ], 
            "to":   [ 16, 16, 8 ], 
            "faces": {
                "north": { "uv": [ 0, 2, 2, 4 ], "texture": "#main" }, 
                "south": { "uv": [ 2, 2, 0, 4 ], "texture": "#main" }
            }
        }, 
        {
            "from": [ 0, 16, 8 ], 
            "to":   [ 16, 32, 8 ], 
            "faces": {
                "north": { "uv": [ 0, 0, 2, 2 ], "texture": "#main" }, 
                "south": { "uv": [ 2, 0, 0, 2 ], "texture": "#main" }
            }
        }, 
        {
            "from": [ 0, 16, 7.5 ], 
            "to":   [ 16, 32, 7.5 ], 
            "faces": {
                "north": { "uv": [ 2, 0, 4, 2 ], "texture": "#main" }, 
                "south": { "uv": [ 2, 0, 0, 2 ], "texture": "#main" }
            }
        }, 
        {
            "from": [ 0, 0, 7.5 ], 
            "to":   [ 16, 16, 7.5 ], 
            "faces": {
                "north": { "uv": [ 2, 2, 4, 4 ], "texture": "#main" }, 
                "south": { "uv": [ 2, 2, 0, 4 ], "texture": "#main" }
            }
        }, 
        {
            "from": [ 0, 16, 8.5 ], 
            "to":   [ 16, 32, 8.5 ], 
            "faces": {
                "north": { "uv": [ 0, 0, 2, 2 ], "texture": "#main" }, 
                "south": { "uv": [ 4, 0, 2, 2 ], "texture": "#main" }
            }
        }, 
        {
            "from": [ 0, 0, 8.5 ], 
            "to":   [ 16, 16, 8.5 ], 
            "faces": {
                "north": { "uv": [ 0, 2, 2, 4 ], "texture": "#main" }, 
                "south": { "uv": [ 4, 2, 2, 4 ], "texture": "#main" }
            }
        }, 
        {
            "from": [ 0, 0, 8 ], 
            "to":   [ 16, 16, 8 ], 
            "rotation": { "angle": 22.5, "axis": "y", "origin": [8, 16, 8] }, 
            "faces": {
                "north": { "uv": [ 4, 2, 6, 4 ], "texture": "#main" }, 
                "south": { "uv": [ 6, 2, 4, 4 ], "texture": "#main" }
            }
        }, 
        {
            "from": [ 0, 16, 8 ], 
            "to":   [ 16, 32, 8 ], 
            "rotation": { "angle": 22.5, "axis": "y", "origin": [8, 16, 8] }, 
            "faces": {
                "north": { "uv": [ 4, 0, 6, 2 ], "texture": "#main" }, 
                "south": { "uv": [ 6, 0, 4, 2 ], "texture": "#main" }
            }
        }, 
        {
            "from": [ 0, 16, 7.5 ], 
            "to":   [ 16, 32, 7.5 ], 
            "rotation": { "angle": 22.5, "axis": "y", "origin": [8, 16, 8] }, 
            "faces": {
                "north": { "uv": [ 6, 0, 8, 2 ], "texture": "#main" }, 
                "south": { "uv": [ 6, 0, 4, 2 ], "texture": "#main" }
            }
        }, 
        {
            "from": [ 0, 0, 7.5 ], 
            "to":   [ 16, 16, 7.5 ], 
            "rotation": { "angle": 22.5, "axis": "y", "origin": [8, 16, 8] }, 
            "faces": {
                "north": { "uv": [ 6, 2, 8, 4 ], "texture": "#main" }, 
                "south": { "uv": [ 6, 2, 4, 4 ], "texture": "#main" }
            }
        }, 
        {
            "from": [ 0, 16, 8.5 ], 
            "to":   [ 16, 32, 8.5 ], 
            "rotation": { "angle": 22.5, "axis": "y", "origin": [8, 16, 8] }, 
            "faces": {
                "north": { "uv": [ 4, 0, 6, 2 ], "texture": "#main" }, 
                "south": { "uv": [ 8, 0, 6, 2 ], "texture": "#main" }
            }
        }, 
        {
            "from": [ 0, 0, 8.5 ], 
            "to":   [ 16, 16, 8.5 ], 
            "rotation": { "angle": 22.5, "axis": "y", "origin": [8, 16, 8] }, 
            "faces": {
                "north": { "uv": [ 4, 2, 6, 4 ], "texture": "#main" }, 
                "south": { "uv": [ 8, 2, 6, 4 ], "texture": "#main" }
            }
        }, 
        {
            "from": [ 0, 0, 8 ], 
            "to":   [ 16, 16, 8 ], 
            "rotation": { "angle": 45, "axis": "y", "origin": [8, 16, 8] }, 
            "faces": {
                "north": { "uv": [ 8, 2, 10, 4 ], "texture": "#main" }, 
                "south": { "uv": [ 10, 2, 8, 4 ], "texture": "#main" }
            }
        }, 
        {
            "from": [ 0, 16, 8 ], 
            "to":   [ 16, 32, 8 ], 
            "rotation": { "angle": 45, "axis": "y", "origin": [8, 16, 8] }, 
            "faces": {
                "north": { "uv": [ 8, 0, 10, 2 ], "texture": "#main" }, 
                "south": { "uv": [ 10, 0, 8, 2 ], "texture": "#main" }
            }
        }, 
        {
            "from": [ 0, 16, 7.5 ], 
            "to":   [ 16, 32, 7.5 ], 
            "rotation": { "angle": 45, "axis": "y", "origin": [8, 16, 8] }, 
            "faces": {
                "north": { "uv": [ 10, 0, 12, 2 ], "texture": "#main" }, 
                "south": { "uv": [ 10, 0, 8, 2 ], "texture": "#main" }
            }
        }, 
        {
            "from": [ 0, 0, 7.5 ], 
            "to":   [ 16, 16, 7.5 ], 
            "rotation": { "angle": 45, "axis": "y", "origin": [8, 16, 8] }, 
            "faces": {
                "north": { "uv": [ 10, 2, 12, 4 ], "texture": "#main" }, 
                "south": { "uv": [ 10, 2, 8, 4 ], "texture": "#main" }
            }
        }, 
        {
            "from": [ 0, 16, 8.5 ], 
            "to":   [ 16, 32, 8.5 ], 
            "rotation": { "angle": 45, "axis": "y", "origin": [8, 16, 8] }, 
            "faces": {
                "north": { "uv": [ 8, 0, 10, 2 ], "texture": "#main" }, 
                "south": { "uv": [ 12, 0, 10, 2 ], "texture": "#main" }
            }
        }, 
        {
            "from": [ 0, 0, 8.5 ], 
            "to":   [ 16, 16, 8.5 ], 
            "rotation": { "angle": 45, "axis": "y", "origin": [8, 16, 8] }, 
            "faces": {
                "north": { "uv": [ 8, 2, 10, 4 ], "texture": "#main" }, 
                "south": { "uv": [ 12, 2, 10, 4 ], "texture": "#main" }
            }
        }, 
        {
            "from": [ 8, 0, 0 ], 
            "to":   [ 8, 16, 16 ], 
            "rotation": { "angle": -22.5, "axis": "y", "origin": [8, 16, 8] }, 
            "faces": {
                "east":  { "uv": [ 14, 2, 12, 4 ], "texture": "#main" }, 
                "west":  { "uv": [ 12, 2, 14, 4 ], "texture": "#main" }
            }
        }, 
        {
            "from": [ 8, 16, 0 ], 
            "to":   [ 8, 32, 16 ], 
            "rotation": { "angle": -22.5, "axis": "y", "origin": [8, 16, 8] }, 
            "faces": {
                "east":  { "uv": [ 14, 0, 12, 2 ], "texture": "#main" }, 
                "west":  { "uv": [ 12, 0, 14, 2 ], "texture": "#main" }
            }
        }, 
        {
            "from": [ 7.5, 16, 0 ], 
            "to":   [ 7.5, 32, 16 ], 
            "rotation": { "angle": -22.5, "axis": "y", "origin": [8, 16, 8] }, 
            "faces": {
                "east":  { "uv": [ 14, 0, 12, 2 ], "texture": "#main" }, 
                "west":  { "uv": [ 14, 0, 16, 2 ], "texture": "#main" }
            }
        }, 
        {
            "from": [ 7.5, 0, 0 ], 
            "to":   [ 7.5, 16, 16 ], 
            "rotation": { "angle": -22.5, "axis": "y", "origin": [8, 16, 8] }, 
            "faces": {
                "east":  { "uv": [ 14, 2, 12, 4 ], "texture": "#main" }, 
                "west":  { "uv": [ 14, 2, 16, 4 ], "texture": "#main" }
            }
        }, 
        {
            "from": [ 8.5, 16, 0 ], 
            "to":   [ 8.5, 32, 16 ], 
            "rotation": { "angle": -22.5, "axis": "y", "origin": [8, 16, 8] }, 
            "faces": {
                "east":  { "uv": [ 16, 0, 14, 2 ], "texture": "#main" }, 
                "west":  { "uv": [ 12, 0, 14, 2 ], "texture": "#main" }
            }
        }, 
        {
            "from": [ 8.5, 0, 0 ], 
            "to":   [ 8.5, 16, 16 ], 
            "rotation": { "angle": -22.5, "axis": "y", "origin": [8, 16, 8] }, 
            "faces": {
                "east":  { "uv": [ 16, 2, 14, 4 ], "texture": "#main" }, 
                "west":  { "uv": [ 12, 2, 14, 4 ], "texture": "#main" }
            }
        }, 
        {
            "from": [ 8, 0, 0 ], 
            "to":   [ 8, 16, 16 ], 
            "rotation": { "angle": 0, "axis": "y", "origin": [8, 16, 8] }, 
            "faces": {
                "east":  { "uv": [ 2, 6, 0, 8 ], "texture": "#main" }, 
                "west":  { "uv": [ 0, 6, 2, 8 ], "texture": "#main" }
            }
        }, 
        {
            "from": [ 8, 16, 0 ], 
            "to":   [ 8, 32, 16 ], 
            "rotation": { "angle": 0, "axis": "y", "origin": [8, 16, 8] }, 
            "faces": {
                "east":  { "uv": [ 2, 4, 0, 6 ], "texture": "#main" }, 
                "west":  { "uv": [ 0, 4, 2, 6 ], "texture": "#main" }
            }
        }, 
        {
            "from": [ 7.5, 16, 0 ], 
            "to":   [ 7.5, 32, 16 ], 
            "rotation": { "angle": 0, "axis": "y", "origin": [8, 16, 8] }, 
            "faces": {
                "east":  { "uv": [ 2, 4, 0, 6 ], "texture": "#main" }, 
                "west":  { "uv": [ 2, 4, 4, 6 ], "texture": "#main" }
            }
        }, 
        {
            "from": [ 7.5, 0, 0 ], 
            "to":   [ 7.5, 16, 16 ], 
            "rotation": { "angle": 0, "axis": "y", "origin": [8, 16, 8] }, 
            "faces": {
                "east":  { "uv": [ 2, 6, 0, 8 ], "texture": "#main" }, 
                "west":  { "uv": [ 2, 6, 4, 8 ], "texture": "#main" }
            }
        }, 
        {
            "from": [ 8.5, 16, 0 ], 
            "to":   [ 8.5, 32, 16 ], 
            "rotation": { "angle": 0, "axis": "y", "origin": [8, 16, 8] }, 
            "faces": {
                "east":  { "uv": [ 4, 4, 2, 6 ], "texture": "#main" }, 
                "west":  { "uv": [ 0, 4, 2, 6 ], "texture": "#main" }
            }
        }, 
        {
            "from": [ 8.5, 0, 0 ], 
            "to":   [ 8.5, 16, 16 ], 
            "rotation": { "angle": 0, "axis": "y", "origin": [8, 16, 8] }, 
            "faces": {
                "east":  { "uv": [ 4, 6, 2, 8 ], "texture": "#main" }, 
                "west":  { "uv": [ 0, 6, 2, 8 ], "texture": "#main" }
            }
        }, 
        {
            "from": [ 8, 0, 0 ], 
            "to":   [ 8, 16, 16 ], 
            "rotation": { "angle": 22.5, "axis": "y", "origin": [8, 16, 8] }, 
            "faces": {
                "east":  { "uv": [ 6, 6, 4, 8 ], "texture": "#main" }, 
                "west":  { "uv": [ 4, 6, 6, 8 ], "texture": "#main" }
            }
        }, 
        {
            "from": [ 8, 16, 0 ], 
            "to":   [ 8, 32, 16 ], 
            "rotation": { "angle": 22.5, "axis": "y", "origin": [8, 16, 8] }, 
            "faces": {
                "east":  { "uv": [ 6, 4, 4, 6 ], "texture": "#main" }, 
                "west":  { "uv": [ 4, 4, 6, 6 ], "texture": "#main" }
            }
        }, 
        {
            "from": [ 7.5, 16, 0 ], 
            "to":   [ 7.5, 32, 16 ], 
            "rotation": { "angle": 22.5, "axis": "y", "origin": [8, 16, 8] }, 
            "faces": {
                "east":  { "uv": [ 6, 4, 4, 6 ], "texture": "#main" }, 
                "west":  { "uv": [ 6, 4, 8, 6 ], "texture": "#main" }
            }
        }, 
        {
            "from": [ 7.5, 0, 0 ], 
            "to":   [ 7.5, 16, 16 ], 
            "rotation": { "angle": 22.5, "axis": "y", "origin": [8, 16, 8] }, 
            "faces": {
                "east":  { "uv": [ 6, 6, 4, 8 ], "texture": "#main" }, 
                "west":  { "uv": [ 6, 6, 8, 8 ], "texture": "#main" }
            }
        }, 
        {
            "from": [ 8.5, 16, 0 ], 
            "to":   [ 8.5, 32, 16 ], 
            "rotation": { "angle": 22.5, "axis": "y", "origin": [8, 16, 8] }, 
            "faces": {
                "east":  { "uv": [ 8, 4, 6, 6 ], "texture": "#main" }, 
                "west":  { "uv": [ 4, 4, 6, 6 ], "texture": "#main" }
            }
        }, 
        {
            "from": [ 8.5, 0, 0 ], 
            "to":   [ 8.5, 16, 16 ], 
            "rotation": { "angle": 22.5, "axis": "y", "origin": [8, 16, 8] }, 
            "faces": {
                "east":  { "uv": [ 8, 6, 6, 8 ], "texture": "#main" }, 
                "west":  { "uv": [ 4, 6, 6, 8 ], "texture": "#main" }
            }
        }, 
        {
            "from": [ 8, 0, 0 ], 
            "to":   [ 8, 16, 16 ], 
            "rotation": { "angle": 45, "axis": "y", "origin": [8, 16, 8] }, 
            "faces": {
                "east":  { "uv": [ 10, 6, 8, 8 ], "texture": "#main" }, 
                "west":  { "uv": [ 8, 6, 10, 8 ], "texture": "#main" }
            }
        }, 
        {
            "from": [ 8, 16, 0 ], 
            "to":   [ 8, 32, 16 ], 
            "rotation": { "angle": 45, "axis": "y", "origin": [8, 16, 8] }, 
            "faces": {
                "east":  { "uv": [ 10, 4, 8, 6 ], "texture": "#main" }, 
                "west":  { "uv": [ 8, 4, 10, 6 ], "texture": "#main" }
            }
        }, 
        {
            "from": [ 7.5, 16, 0 ], 
            "to":   [ 7.5, 32, 16 ], 
            "rotation": { "angle": 45, "axis": "y", "origin": [8, 16, 8] }, 
            "faces": {
                "east":  { "uv": [ 10, 4, 8, 6 ], "texture": "#main" }, 
                "west":  { "uv": [ 10, 4, 12, 6 ], "texture": "#main" }
            }
        }, 
        {
            "from": [ 7.5, 0, 0 ], 
            "to":   [ 7.5, 16, 16 ], 
            "rotation": { "angle": 45, "axis": "y", "origin": [8, 16, 8] }, 
            "faces": {
                "east":  { "uv": [ 10, 6, 8, 8 ], "texture": "#main" }, 
                "west":  { "uv": [ 10, 6, 12, 8 ], "texture": "#main" }
            }
        }, 
        {
            "from": [ 8.5, 16, 0 ], 
            "to":   [ 8.5, 32, 16 ], 
            "rotation": { "angle": 45, "axis": "y", "origin": [8, 16, 8] }, 
            "faces": {
                "east":  { "uv": [ 12, 4, 10, 6 ], "texture": "#main" }, 
                "west":  { "uv": [ 8, 4, 10, 6 ], "texture": "#main" }
            }
        }, 
        {
            "from": [ 8.5, 0, 0 ], 
            "to":   [ 8.5, 16, 16 ], 
            "rotation": { "angle": 45, "axis": "y", "origin": [8, 16, 8] }, 
            "faces": {
                "east":  { "uv": [ 12, 6, 10, 8 ], "texture": "#main" }, 
                "west":  { "uv": [ 8, 6, 10, 8 ], "texture": "#main" }
            }
        }, 
        {
            "from": [ 0, 0, 8 ], 
            "to":   [ 16, 16, 8 ], 
            "rotation": { "angle": -22.5, "axis": "y", "origin": [8, 16, 8] }, 
            "faces": {
                "north": { "uv": [ 14, 6, 12, 8 ], "texture": "#main" }, 
                "south": { "uv": [ 12, 6, 14, 8 ], "texture": "#main" }
            }
        }, 
        {
            "from": [ 0, 16, 8 ], 
            "to":   [ 16, 32, 8 ], 
            "rotation": { "angle": -22.5, "axis": "y", "origin": [8, 16, 8] }, 
            "faces": {
                "north": { "uv": [ 14, 4, 12, 6 ], "texture": "#main" }, 
                "south": { "uv": [ 12, 4, 14, 6 ], "texture": "#main" }
            }
        }, 
        {
            "from": [ 0, 16, 8.5 ], 
            "to":   [ 16, 32, 8.5 ], 
            "rotation": { "angle": -22.5, "axis": "y", "origin": [8, 16, 8] }, 
            "faces": {
                "north": { "uv": [ 14, 4, 12, 6 ], "texture": "#main" }, 
                "south": { "uv": [ 14, 4, 16, 6 ], "texture": "#main" }
            }
        }, 
        {
            "from": [ 0, 0, 8.5 ], 
            "to":   [ 16, 16, 8.5 ], 
            "rotation": { "angle": -22.5, "axis": "y", "origin": [8, 16, 8] }, 
            "faces": {
                "north": { "uv": [ 14, 6, 12, 8 ], "texture": "#main" }, 
                "south": { "uv": [ 14, 6, 16, 8 ], "texture": "#main" }
            }
        }, 
        {
            "from": [ 0, 16, 7.5 ], 
            "to":   [ 16, 32, 7.5 ], 
            "rotation": { "angle": -22.5, "axis": "y", "origin": [8, 16, 8] }, 
            "faces": {
                "north": { "uv": [ 16, 4, 14, 6 ], "texture": "#main" }, 
                "south": { "uv": [ 12, 4, 14, 6 ], "texture": "#main" }
            }
        }, 
        {
            "from": [ 0, 0, 7.5 ], 
            "to":   [ 16, 16, 7.5 ], 
            "rotation": { "angle": -22.5, "axis": "y", "origin": [8, 16, 8] }, 
            "faces": {
                "north": { "uv": [ 16, 6, 14, 8 ], "texture": "#main" }, 
                "south": { "uv": [ 12, 6, 14, 8 ], "texture": "#main" }
            }
        }
    ], 
    "display": {
        "thirdperson_righthand": {
            "scale": [ 0.3, 0.3, 0.3 ]
        }, 
        "thirdperson_lefthand": {
            "scale": [ 0.3, 0.3, 0.3 ]
        }, 
        "firstperson_righthand": {
            "scale": [ 0.7, 0.7, 0.7 ], 
            "rotation": [ -45, 0, 0 ], 
            "translation": [ 3, -3, 0 ]
        }, 
        "firstperson_lefthand": {
            "scale": [ 0.7, 0.7, 0.7 ], 
            "rotation": [ -45, 0, 0 ], 
            "translation": [ 3, -3, 0 ]
        }, 
        "ground": {
            "scale": [ 0.5, 0.5, 0.5 ], 
            "rotation": [ 90, 0, 0 ], 
            "translation": [ 0, -2.5, -4 ]
        }, 
        "fixed": {
            "scale": [ 2, 2, 2 ], 
            "translation": [ 0, 0, 18 ]
        }, 
        "gui": {
            "scale": [ 0.5, 0.5, 0.5 ], 
            "translation": [ 0, -4, 0 ], 
            "rotation": [ 0, 0, 0 ]
        }
    }, 
    "__comment": "Model animated using Fizzy's model animator - http://fizzy81.github.io/animated-models/"
}