{
	"credit": "Made by 0ptima, totally cool guy from Frostburn",
	"textures": {
		"texture": "blocks/m_lightn",
		"particle": "blocks/m_lightn"
	},
	"elements": [
		{
			"name": "Box2",
			"from": [4, 6.5, 0],
			"to": [12, 9.5, 2],
			"faces": {
				"north": {"uv": [8, 0, 11, 8], "rotation": 270, "texture": "#texture"},
				"east": {"uv": [2, 16, 0, 13], "texture": "#texture"},
				"south": {"uv": [8, 0, 11, 8], "rotation": 270, "texture": "#texture"},
				"west": {"uv": [0, 16, 2, 13], "texture": "#texture"},
				"up": {"uv": [8, 0, 10, 8], "rotation": 270, "texture": "#texture"},
				"down": {"uv": [8, 0, 10, 8], "rotation": 90, "texture": "#texture"}
			}
		}
	],
	"display": {
		"thirdperson_righthand": {
			"rotation": [90, 0, 0],
			"translation": [-0.4346, -5.8044, 0],
			"scale": [0.85, 0.85, 0.85]
		},
		"thirdperson_lefthand": {
			"rotation": [90, 0, 0],
			"translation": [-0.4346, -5.8044, 0],
			"scale": [0.85, 0.85, 0.85]
		},
		"firstperson_righthand": {
			"rotation": [-24, 15, 0],
			"translation": [13, 0, 1.13],
			"scale": [1.5, 1.5, 1.5]
		},
		"firstperson_lefthand": {
			"rotation": [-24, 15, 0],
			"translation": [13, 0, 1.13],
			"scale": [1.5, 1.5, 1.5]
		},
		"ground": {
			"rotation": [-90, 0, 0],
			"translation": [0, 2.5, 0],
			"scale": [0.75, 0.75, 0.75]
		},
		"gui": {
			"rotation": [30, 225, 0],
			"translation": [-9.815, 5.077, 0],
			"scale": [2, 2, 2]
		},
		"head": {
			"translation": [0, 4.5, 0]
		},
		"fixed": {
			"rotation": [0, -180, 0],
			"translation": [0, 0, -14],
			"scale": [2, 2, 2]
		}
	}
}