{
	"credit": "by mordobi27",
	"textures": {
		"2": "models/obrazy_velin/4x2_spaceship/paint_ship2",
		"particle": "models/obrazy_velin/4x2_spaceship/paint_ship2"
	},
	"elements": [
		{
			"from": [0, 0, 16],
			"to": [32, 32, 16],
			"rotation": {"angle": 0, "axis": "y", "origin": [24, 8, 8]},
			"faces": {
				"north": {"uv": [0, 0, 16, 16], "texture": "#2"}
			}
		}
	],
	"display": {
		"gui": {
			"rotation": [45, 35, 0],
			"translation": [0, -3.5, 0],
			"scale": [0.67, 0.67, 0.67]
		},
		"fixed": {
			"translation": [-32, 0, -15.5],
			"scale": [2, 2, 2]
		}
	}
}