{
	"credit": "Made by 0ptima. Check TwinsProductionMC & Aurora Entertainment!",
	"ambientocclusion": false,
	"textures": {
		"particle": "models/opt/flower_pot",
		"flowerpot": "models/opt/flower_pot",
		"dirt": "blocks/water_still"
	},
	"elements": [
		{
			"from": [5, 0, 0],
			"to": [6, 6, 6],
			"faces": {
				"north": {"uv": [5, 5, 6, 11], "rotation": 180, "texture": "#flowerpot", "cullface": "down"},
				"east": {"uv": [5, 10, 11, 16], "rotation": 270, "texture": "#flowerpot"},
				"south": {"uv": [5, 5, 6, 11], "texture": "#flowerpot"},
				"west": {"uv": [5, 10, 11, 16], "rotation": 90, "texture": "#flowerpot"},
				"up": {"uv": [10, 10, 11, 16], "rotation": 180, "texture": "#flowerpot"},
				"down": {"uv": [5, 10, 6, 16], "texture": "#flowerpot"}
			}
		},
		{
			"from": [11, 2, 1],
			"to": [12, 4, 2],
			"faces": {
				"north": {"uv": [7, 13, 8, 14], "rotation": 180, "texture": "#flowerpot", "cullface": "down"},
				"east": {"uv": [7, 11, 8, 12], "rotation": 270, "texture": "#flowerpot"},
				"south": {"uv": [6, 10, 7, 11], "texture": "#flowerpot"},
				"west": {"uv": [5, 7, 6, 8], "rotation": 90, "texture": "#flowerpot"},
				"up": {"uv": [7, 11, 8, 12], "rotation": 180, "texture": "#flowerpot"},
				"down": {"uv": [8, 11, 9, 12], "texture": "#flowerpot"}
			}
		},
		{
			"from": [6, 5, 0],
			"to": [10, 6, 6],
			"faces": {
				"north": {"uv": [6, 10, 10, 11], "rotation": 180, "texture": "#flowerpot", "cullface": "down"},
				"south": {"uv": [6, 5, 10, 6], "texture": "#flowerpot"},
				"up": {"uv": [6, 10, 10, 16], "rotation": 180, "texture": "#flowerpot"},
				"down": {"uv": [6, 10, 10, 16], "texture": "#flowerpot"}
			}
		},
		{
			"from": [6, 0, 0],
			"to": [10, 1, 6],
			"faces": {
				"north": {"uv": [6, 5, 10, 6], "rotation": 180, "texture": "#flowerpot", "cullface": "down"},
				"south": {"uv": [6, 10, 10, 11], "texture": "#flowerpot"},
				"up": {"uv": [6, 10, 10, 16], "rotation": 180, "texture": "#flowerpot"},
				"down": {"uv": [6, 10, 10, 16], "texture": "#flowerpot"}
			}
		},
		{
			"from": [6, 1, 0],
			"to": [10, 5, 1],
			"faces": {
				"north": {"uv": [6, 11, 10, 15], "rotation": 180, "texture": "#flowerpot", "cullface": "down"},
				"south": {"uv": [6, 10, 10, 11], "texture": "#flowerpot"},
				"up": {"uv": [6, 10, 10, 16], "rotation": 180, "texture": "#flowerpot"},
				"down": {"uv": [6, 10, 10, 16], "texture": "#flowerpot"}
			}
		},
		{
			"from": [8, -3.75, 5],
			"to": [12, 0.25, 10],
			"faces": {
				"up": {"uv": [8, 5, 12, 10], "texture": "#dirt"},
				"down": {"uv": [8, 6, 12, 11], "texture": "#flowerpot", "cullface": "down"}
			}
		},
		{
			"from": [12, -3.75, 6],
			"to": [13, 0.25, 11],
			"faces": {
				"up": {"uv": [12, 6, 13, 11], "texture": "#dirt"},
				"down": {"uv": [12, 5, 13, 10], "texture": "#flowerpot", "cullface": "down"}
			}
		},
		{
			"from": [9, -3.75, 10],
			"to": [12, 0.25, 12],
			"faces": {
				"up": {"uv": [9, 10, 12, 12], "texture": "#dirt"},
				"down": {"uv": [9, 4, 12, 6], "texture": "#flowerpot", "cullface": "down"}
			}
		},
		{
			"from": [10, 0, 0],
			"to": [11, 6, 6],
			"faces": {
				"north": {"uv": [10, 5, 11, 11], "rotation": 180, "texture": "#flowerpot", "cullface": "down"},
				"east": {"uv": [5, 10, 11, 16], "rotation": 270, "texture": "#flowerpot"},
				"south": {"uv": [10, 5, 11, 11], "texture": "#flowerpot"},
				"west": {"uv": [5, 10, 11, 16], "rotation": 90, "texture": "#flowerpot"},
				"up": {"uv": [5, 10, 6, 16], "rotation": 180, "texture": "#flowerpot"},
				"down": {"uv": [10, 10, 11, 16], "texture": "#flowerpot"}
			}
		},
		{
			"from": [12, 2, 1],
			"to": [13, 4, 5],
			"faces": {
				"north": {"uv": [10, 7, 11, 9], "rotation": 180, "texture": "#flowerpot", "cullface": "down"},
				"east": {"uv": [7, 11, 8, 15], "rotation": 270, "texture": "#flowerpot"},
				"south": {"uv": [10, 7, 11, 9], "texture": "#flowerpot"},
				"west": {"uv": [8, 11, 9, 15], "rotation": 90, "texture": "#flowerpot"},
				"up": {"uv": [7, 11, 8, 15], "rotation": 180, "texture": "#flowerpot"},
				"down": {"uv": [8, 11, 9, 15], "texture": "#flowerpot"}
			}
		},
		{
			"from": [11, 2, 4],
			"to": [12, 4, 5],
			"faces": {
				"north": {"uv": [7, 13, 8, 14], "rotation": 180, "texture": "#flowerpot", "cullface": "down"},
				"east": {"uv": [7, 11, 8, 12], "rotation": 270, "texture": "#flowerpot"},
				"south": {"uv": [6, 10, 7, 11], "texture": "#flowerpot"},
				"west": {"uv": [5, 7, 6, 8], "rotation": 90, "texture": "#flowerpot"},
				"up": {"uv": [7, 11, 8, 12], "rotation": 180, "texture": "#flowerpot"},
				"down": {"uv": [8, 11, 9, 12], "texture": "#flowerpot"}
			}
		}
	],
	"display": {
		"fixed": {
			"rotation": [0, -139, 0],
			"translation": [0, 0, -21.75],
			"scale": [2, 2, 2]
		}
	}
}