{
	"credit": "Made with Blockbench",
	"textures": {
		"0": "models/cryosleepers/calthrop_cryo",
		"particle": "models/cryosleepers/calthrop_cryo"
	},
	"elements": [
		{
			"from": [4, 0, 6],
			"to": [8, 12, 10],
			"faces": {
				"north": {"uv": [5, 13, 6, 16], "texture": "#0"},
				"south": {"uv": [7, 13, 8, 15.999], "texture": "#0"},
				"west": {"uv": [6, 13, 6.999, 16], "texture": "#0"}
			}
		},
		{
			"from": [8, 0, 6],
			"to": [12, 12, 10],
			"faces": {
				"north": {"uv": [1, 5, 1.999, 7.999], "texture": "#0"},
				"east": {"uv": [0, 5, 1, 7.999], "texture": "#0"},
				"south": {"uv": [3, 5, 3.999, 8], "texture": "#0"}
			}
		},
		{
			"from": [4, 12, 6],
			"to": [12, 24, 10],
			"faces": {
				"north": {"uv": [5, 5, 6.998, 7.997], "texture": "#0"},
				"east": {"uv": [7, 5, 7.999, 7.999], "texture": "#0"},
				"south": {"uv": [8, 4.999, 9.999, 7.996], "texture": "#0"},
				"west": {"uv": [4, 5, 4.999, 7.998], "texture": "#0"},
				"up": {"uv": [5, 4, 6.999, 5], "texture": "#0"}
			}
		},
		{
			"from": [0, 12, 6],
			"to": [4, 24, 10],
			"faces": {
				"north": {"uv": [9, 13, 9.998, 16], "texture": "#0"},
				"south": {"uv": [11, 13, 11.998, 16], "texture": "#0"},
				"west": {"uv": [10, 13, 10.998, 16], "texture": "#0"},
				"up": {"uv": [9, 12, 9.997, 13], "texture": "#0"},
				"down": {"uv": [10, 12, 10.997, 13], "texture": "#0"}
			}
		},
		{
			"from": [12, 12, 6],
			"to": [16, 24, 10],
			"faces": {
				"north": {"uv": [11, 5, 11.998, 7.999], "texture": "#0"},
				"east": {"uv": [10, 5, 10.998, 7.999], "texture": "#0"},
				"south": {"uv": [13, 5, 13.998, 7.999], "texture": "#0"},
				"up": {"uv": [11, 4, 11.997, 4.999], "texture": "#0"},
				"down": {"uv": [12, 4, 12.998, 4.999], "texture": "#0"}
			}
		},
		{
			"from": [3.5, 23.45, 2.2],
			"to": [12.5, 31.7, 11.2],
			"rotation": {"angle": -22.5, "axis": "x", "origin": [8, 27, 7]},
			"faces": {
				"north": {"uv": [10, 2, 12, 4], "texture": "#0"},
				"east": {"uv": [8, 2, 10, 4], "texture": "#0"},
				"south": {"uv": [14, 2, 16, 4], "texture": "#0"},
				"west": {"uv": [12, 2, 14, 4], "texture": "#0"},
				"up": {"uv": [10, 0, 12, 2], "rotation": 180, "texture": "#0"}
			}
		},
		{
			"from": [4, 23.4588, 2.69344],
			"to": [12, 31.4588, 10.69344],
			"rotation": {"angle": -22.5, "axis": "x", "origin": [8, 27, 7]},
			"faces": {
				"north": {"uv": [2, 2, 3.998, 3.998], "texture": "#0"},
				"east": {"uv": [0, 2, 2, 3.998], "texture": "#0"},
				"south": {"uv": [6, 2, 7.999, 3.998], "texture": "#0"},
				"west": {"uv": [4, 2, 6, 3.999], "texture": "#0"},
				"up": {"uv": [2, 0, 3.998, 1.999], "rotation": 180, "texture": "#0"},
				"down": {"uv": [4, 0, 5.999, 1.999], "texture": "#0"}
			}
		}
	],
	"display": {
		"thirdperson_righthand": {
			"rotation": [8.75, -89, 0],
			"translation": [-0.5, -12.25, 0.75]
		},
		"thirdperson_lefthand": {
			"rotation": [8.75, -89, 0],
			"translation": [-0.5, -12.25, 0.75]
		},
		"firstperson_righthand": {
			"translation": [4.25, 0, 0],
			"scale": [0.1, 0.1, 0.1]
		},
		"firstperson_lefthand": {
			"translation": [4.25, 0, 0],
			"scale": [0.1, 0.1, 0.1]
		},
		"gui": {
			"rotation": [30, 154, 0],
			"translation": [0, -4, 0],
			"scale": [0.5, 0.5, 0.5]
		},
		"fixed": {
			"translation": [0, -32, 17],
			"scale": [1.99, 2, 2]
		}
	},
	"groups": [0, 1, 2, 3, 4,
		{
			"name": "group",
			"origin": [8, 27, 8],
			"children": [5, 6]
		}
	]
}