{
	"credit": "by mordobi27",
	"textures": {
		"0": "models/cryosleepers/t8(oliver)cryo",
		"particle": "models/cryosleepers/t8(oliver)cryo"
	},
	"elements": [
		{
			"from": [3.775, -0.25, 5.75],
			"to": [8.275, 12.25, 10.25],
			"rotation": {"angle": 0, "axis": "y", "origin": [11.775, -4.25, 7.75]},
			"faces": {
				"north": {"uv": [1, 13, 1.998, 16], "texture": "#0"},
				"east": {"uv": [0, 13, 0.998, 16], "texture": "#0"},
				"south": {"uv": [3, 13, 3.998, 16], "texture": "#0"},
				"west": {"uv": [2, 13, 2.998, 16], "texture": "#0"},
				"up": {"uv": [1, 12, 1.997, 13], "texture": "#0"},
				"down": {"uv": [2, 12, 2.997, 13], "texture": "#0"}
			}
		},
		{
			"from": [4, 0, 6],
			"to": [8, 12, 10],
			"faces": {
				"north": {"uv": [5, 13, 6, 16], "texture": "#0"},
				"east": {"uv": [4, 13, 5, 16], "texture": "#0"},
				"south": {"uv": [7, 13, 8, 15.999], "texture": "#0"},
				"west": {"uv": [6, 13, 6.999, 16], "texture": "#0"},
				"up": {"uv": [5, 12, 6, 13], "texture": "#0"},
				"down": {"uv": [6, 12, 6.999, 12.999], "texture": "#0"}
			}
		},
		{
			"from": [7.775, -0.25, 5.75],
			"to": [12.275, 12.25, 10.25],
			"rotation": {"angle": 0, "axis": "y", "origin": [15.775, -4.25, 7.75]},
			"faces": {
				"north": {"uv": [1, 9, 1.998, 12], "texture": "#0"},
				"east": {"uv": [0, 9, 0.998, 12], "texture": "#0"},
				"south": {"uv": [3, 9, 3.998, 12], "texture": "#0"},
				"west": {"uv": [2, 9, 2.998, 12], "texture": "#0"},
				"up": {"uv": [1, 8, 1.997, 9], "texture": "#0"},
				"down": {"uv": [2, 8, 2.997, 9], "texture": "#0"}
			}
		},
		{
			"from": [8, 0, 6],
			"to": [12, 12, 10],
			"faces": {
				"north": {"uv": [1, 5, 1.999, 7.999], "texture": "#0"},
				"east": {"uv": [0, 5, 1, 7.999], "texture": "#0"},
				"south": {"uv": [3, 5, 3.999, 8], "texture": "#0"},
				"west": {"uv": [2, 5, 2.999, 7.999], "texture": "#0"},
				"up": {"uv": [1, 4, 2, 5], "texture": "#0"},
				"down": {"uv": [2, 4, 3, 5], "texture": "#0"}
			}
		},
		{
			"from": [0, 12, 6],
			"to": [4, 24, 10],
			"faces": {
				"north": {"uv": [9, 13, 9.998, 16], "texture": "#0"},
				"east": {"uv": [8, 13, 8.998, 16], "texture": "#0"},
				"south": {"uv": [11, 13, 11.998, 16], "texture": "#0"},
				"west": {"uv": [10, 13, 10.998, 16], "texture": "#0"},
				"up": {"uv": [9, 12, 9.997, 13], "texture": "#0"},
				"down": {"uv": [10, 12, 10.997, 13], "texture": "#0"}
			}
		},
		{
			"from": [-0.225, 11.75, 5.75],
			"to": [4.275, 24.25, 10.25],
			"rotation": {"angle": 0, "axis": "y", "origin": [7.775, 7.75, 7.75]},
			"faces": {
				"north": {"uv": [13, 13, 13.998, 16], "texture": "#0"},
				"east": {"uv": [12, 13, 12.998, 16], "texture": "#0"},
				"south": {"uv": [15, 13, 15.998, 16], "texture": "#0"},
				"west": {"uv": [14, 13, 14.998, 16], "texture": "#0"},
				"up": {"uv": [13, 12, 13.997, 13], "texture": "#0"},
				"down": {"uv": [14, 12, 14.997, 13], "texture": "#0"}
			}
		},
		{
			"from": [4, 23.4588, 4.69344],
			"to": [12, 31.4588, 12.69344],
			"rotation": {"angle": 0, "axis": "x", "origin": [8, 27, 9]},
			"faces": {
				"north": {"uv": [2, 2, 3.998, 3.998], "texture": "#0"},
				"east": {"uv": [0, 2, 2, 3.998], "texture": "#0"},
				"south": {"uv": [6, 2, 7.999, 3.998], "texture": "#0"},
				"west": {"uv": [4, 2, 6, 3.999], "texture": "#0"},
				"up": {"uv": [2, 0, 3.998, 1.999], "rotation": 180, "texture": "#0"},
				"down": {"uv": [4, 0, 5.999, 1.999], "texture": "#0"}
			}
		},
		{
			"from": [3.525, 23.0088, 4.21844],
			"to": [12.525, 32, 13.21844],
			"rotation": {"angle": 0, "axis": "x", "origin": [7.525, 26.55, 8.525]},
			"faces": {
				"north": {"uv": [10, 2, 11.997, 3.997], "texture": "#0"},
				"east": {"uv": [8, 2, 10, 3.998], "texture": "#0"},
				"south": {"uv": [14, 2, 15.999, 3.998], "texture": "#0"},
				"west": {"uv": [12, 2, 14, 3.999], "texture": "#0"},
				"up": {"uv": [10, 0, 11.998, 1.999], "rotation": 180, "texture": "#0"},
				"down": {"uv": [12, 0, 13.999, 1.999], "texture": "#0"}
			}
		},
		{
			"from": [3.75, 11.75, 5.6],
			"to": [12.25, 24.25, 10.1],
			"rotation": {"angle": 0, "axis": "y", "origin": [7.75, 7.75, 7.6]},
			"faces": {
				"north": {"uv": [5, 9, 6.998, 11.997], "texture": "#0"},
				"east": {"uv": [4, 9, 4.999, 11.999], "texture": "#0"},
				"south": {"uv": [8, 9, 9.999, 11.997], "texture": "#0"},
				"west": {"uv": [7, 9, 7.999, 11.999], "texture": "#0"},
				"up": {"uv": [5, 8, 6.999, 9], "texture": "#0"},
				"down": {"uv": [7, 8, 8.998, 8.999], "texture": "#0"}
			}
		},
		{
			"from": [4, 12, 6],
			"to": [12, 24, 10],
			"faces": {
				"north": {"uv": [5, 5, 6.998, 7.997], "texture": "#0"},
				"east": {"uv": [4, 5, 4.999, 7.999], "texture": "#0"},
				"south": {"uv": [8, 4.999, 9.999, 7.996], "texture": "#0"},
				"west": {"uv": [7, 5, 7.999, 7.999], "texture": "#0"},
				"up": {"uv": [5, 4, 6.999, 5], "texture": "#0"},
				"down": {"uv": [7, 4, 8.998, 4.999], "texture": "#0"}
			}
		},
		{
			"from": [12, 12, 6],
			"to": [16, 24, 10],
			"faces": {
				"north": {"uv": [11, 5, 11.998, 7.999], "texture": "#0"},
				"east": {"uv": [10, 5, 10.998, 7.999], "texture": "#0"},
				"south": {"uv": [13, 5, 13.998, 7.999], "texture": "#0"},
				"west": {"uv": [12, 5, 12.998, 7.999], "texture": "#0"},
				"up": {"uv": [11, 4, 11.997, 4.999], "texture": "#0"},
				"down": {"uv": [12, 4, 12.998, 4.999], "texture": "#0"}
			}
		},
		{
			"from": [11.775, 11.75, 5.75],
			"to": [16.275, 24.25, 10.25],
			"rotation": {"angle": 0, "axis": "y", "origin": [19.775, 7.75, 7.75]},
			"faces": {
				"north": {"uv": [11, 9, 11.998, 12], "texture": "#0"},
				"east": {"uv": [10, 9, 10.998, 12], "texture": "#0"},
				"south": {"uv": [13, 9, 13.998, 12], "texture": "#0"},
				"west": {"uv": [12, 9, 12.998, 12], "texture": "#0"},
				"up": {"uv": [11, 8, 11.997, 9], "texture": "#0"},
				"down": {"uv": [12, 8, 12.997, 9], "texture": "#0"}
			}
		}
	],
	"display": {
		"thirdperson_righthand": {
			"rotation": [-2.5, -86.5, 0],
			"translation": [-0.75, -12.25, 1]
		},
		"thirdperson_lefthand": {
			"rotation": [-2.5, -86.5, 0],
			"translation": [-0.75, -12.25, 1]
		},
		"firstperson_righthand": {
			"scale": [0.1, 0.1, 0.1]
		},
		"firstperson_lefthand": {
			"scale": [0.1, 0.1, 0.1]
		},
		"gui": {
			"rotation": [32, 160, 0],
			"translation": [0, -3.75, 0],
			"scale": [0.5, 0.5, 0.5]
		},
		"fixed": {
			"translation": [0, -32, 17],
			"scale": [1.9, 2, 2]
		}
	}
}