{
	"credit": "Made with Blockbench",
	"textures": {
		"a1_keyboard_up": "models/klavesnice/klavesnice",
		"a1_keyboard_bottom": "models/klavesnice/m_a1_keyboard_bottom"
	},
	"elements": [
		{
			"name": "Cube1",
			"from": [4, 0, 0],
			"to": [10, 0.5, 16],
			"faces": {
				"north": {"uv": [6, 1, 12, 2], "texture": "#a1_keyboard_bottom", "cullface": "west"},
				"east": {"uv": [0, 0, 16, 1], "texture": "#a1_keyboard_bottom"},
				"south": {"uv": [4, 1, 10, 2], "texture": "#a1_keyboard_bottom", "cullface": "east"},
				"west": {"uv": [0, 0, 16, 1], "texture": "#a1_keyboard_bottom"},
				"up": {"uv": [0, 10, 16, 16], "rotation": 90, "texture": "#a1_keyboard_up"}
			}
		}
	],
	"display": {
		"thirdperson_righthand": {
			"translation": [0, 4.75, 0],
			"scale": [0.6, 0.6, 0.6]
		},
		"thirdperson_lefthand": {
			"translation": [0, 4.75, 0],
			"scale": [0.6, 0.6, 0.6]
		},
		"firstperson_righthand": {
			"scale": [0.6, 0.6, 0.6]
		},
		"firstperson_lefthand": {
			"rotation": [0, 180, 0],
			"scale": [0.6, 0.6, 0.6]
		},
		"ground": {
			"translation": [0, 6.2608, 0],
			"scale": [0.6, 0.6, 0.6]
		},
		"gui": {
			"rotation": [20, 66, 39.75],
			"translation": [-1, 1.75, 0],
			"scale": [0.6, 0.6, 0.6]
		},
		"fixed": {
			"rotation": [0, -90, 0],
			"translation": [0, 0.1429, 13.043],
			"scale": [2, 2, 2]
		}
	}
}