{
	"credit": "by mordobi27",
	"textures": {
		"0": "models/mrtvoly/mrtvola_archiv",
		"1": "models/morrow/blood",
		"2": "models/morrow/armor",
		"particle": "models/mrtvoly/mrtvola_archiv"
	},
	"elements": [
		{
			"from": [3.25, 0.375, 5.65],
			"to": [7.75, 12.875, 10.15],
			"rotation": {"angle": -22.5, "axis": "z", "origin": [5.4875, 10.625, 7.9]},
			"faces": {
				"north": {"uv": [1, 13, 1.998, 16], "texture": "#0"},
				"east": {"uv": [0, 13, 0.998, 16], "texture": "#0"},
				"south": {"uv": [3, 13, 3.998, 16], "texture": "#0"},
				"west": {"uv": [2, 13, 2.998, 16], "texture": "#0"},
				"up": {"uv": [1, 12, 1.997, 13], "texture": "#0"},
				"down": {"uv": [2, 12, 2.997, 13], "texture": "#0"}
			}
		},
		{
			"from": [3.475, 0.625, 5.9],
			"to": [7.475, 12.625, 9.9],
			"rotation": {"angle": -22.5, "axis": "z", "origin": [5.4875, 10.625, 7.9]},
			"faces": {
				"north": {"uv": [5, 13, 6, 16], "texture": "#0"},
				"east": {"uv": [4, 13, 5, 16], "texture": "#0"},
				"south": {"uv": [7, 13, 8, 15.999], "texture": "#0"},
				"west": {"uv": [6, 13, 6.999, 16], "texture": "#0"},
				"up": {"uv": [5, 12, 6, 13], "texture": "#0"},
				"down": {"uv": [6, 12, 6.999, 12.999], "texture": "#0"}
			}
		},
		{
			"from": [7.775, -0.25, 5.75],
			"to": [12.275, 12.25, 10.25],
			"rotation": {"angle": 0, "axis": "z", "origin": [10.0125, 10, 8]},
			"faces": {
				"north": {"uv": [1, 9, 1.998, 12], "texture": "#0"},
				"east": {"uv": [0, 9, 0.998, 12], "texture": "#0"},
				"south": {"uv": [3, 9, 3.998, 12], "texture": "#0"},
				"west": {"uv": [2, 9, 2.998, 12], "texture": "#0"},
				"up": {"uv": [1, 8, 1.997, 9], "texture": "#0"},
				"down": {"uv": [2, 8, 2.997, 9], "texture": "#0"}
			}
		},
		{
			"from": [8, 0, 6],
			"to": [12, 12, 10],
			"rotation": {"angle": 0, "axis": "z", "origin": [10.0125, 10, 8]},
			"faces": {
				"north": {"uv": [1, 5, 1.999, 7.999], "texture": "#0"},
				"east": {"uv": [0, 5, 1, 7.999], "texture": "#0"},
				"south": {"uv": [3, 5, 3.999, 8], "texture": "#0"},
				"west": {"uv": [2, 5, 2.999, 7.999], "texture": "#0"},
				"up": {"uv": [1, 4, 2, 5], "texture": "#0"},
				"down": {"uv": [2, 4, 3, 5], "texture": "#0"}
			}
		},
		{
			"from": [0, 12, 6],
			"to": [4, 24, 10],
			"rotation": {"angle": -22.5, "axis": "z", "origin": [2.0125, 22, 8]},
			"faces": {
				"north": {"uv": [9, 13, 9.998, 16], "texture": "#0"},
				"east": {"uv": [8, 13, 8.998, 16], "texture": "#0"},
				"south": {"uv": [11, 13, 11.998, 16], "texture": "#0"},
				"west": {"uv": [10, 13, 10.998, 16], "texture": "#0"},
				"up": {"uv": [9, 12, 9.997, 13], "texture": "#0"},
				"down": {"uv": [10, 12, 10.997, 13], "texture": "#0"}
			}
		},
		{
			"from": [-0.225, 11.75, 5.75],
			"to": [4.275, 24.25, 10.25],
			"rotation": {"angle": -22.5, "axis": "z", "origin": [2.0125, 22, 8]},
			"faces": {
				"north": {"uv": [13, 13, 13.998, 16], "texture": "#0"},
				"east": {"uv": [12, 13, 12.998, 16], "texture": "#0"},
				"south": {"uv": [15, 13, 15.998, 16], "texture": "#0"},
				"west": {"uv": [14, 13, 14.998, 16], "texture": "#0"},
				"up": {"uv": [13, 12, 13.997, 13], "texture": "#0"},
				"down": {"uv": [14, 12, 14.997, 13], "texture": "#0"}
			}
		},
		{
			"from": [4, 23.4588, 4.69344],
			"to": [12, 31.4588, 12.69344],
			"rotation": {"angle": 22.5, "axis": "x", "origin": [8, 27, 9]},
			"faces": {
				"north": {"uv": [2, 2, 3.998, 3.998], "texture": "#0"},
				"east": {"uv": [0, 2, 2, 3.998], "texture": "#0"},
				"south": {"uv": [6, 2, 7.999, 3.998], "texture": "#0"},
				"west": {"uv": [4, 2, 6, 3.999], "texture": "#0"},
				"up": {"uv": [2, 0, 3.998, 1.999], "rotation": 180, "texture": "#0"},
				"down": {"uv": [4, 0, 5.999, 1.999], "texture": "#0"}
			}
		},
		{
			"from": [4, 23.4588, 4.66844],
			"to": [12, 29.4588, 4.67844],
			"rotation": {"angle": 22.5, "axis": "x", "origin": [8, 27, 9]},
			"faces": {
				"north": {"uv": [0.875, 0, 16, 6.375], "texture": "#1"}
			}
		},
		{
			"from": [4, 23.3588, 4.66844],
			"to": [12, 23.3588, 9.67844],
			"rotation": {"angle": 22.5, "axis": "x", "origin": [8, 27, 9]},
			"faces": {
				"down": {"uv": [2, 0, 15.25, 10], "texture": "#1"}
			}
		},
		{
			"from": [3.525, 23.0088, 4.21844],
			"to": [12.525, 32, 13.21844],
			"rotation": {"angle": 22.5, "axis": "x", "origin": [7.525, 26.55, 8.525]},
			"faces": {
				"north": {"uv": [10, 2, 11.997, 3.997], "texture": "#0"},
				"east": {"uv": [8, 2, 10, 3.998], "texture": "#0"},
				"south": {"uv": [14, 2, 15.999, 3.998], "texture": "#0"},
				"west": {"uv": [12, 2, 14, 3.999], "texture": "#0"},
				"up": {"uv": [10, 0, 11.998, 1.999], "rotation": 180, "texture": "#0"},
				"down": {"uv": [12, 0, 13.999, 1.999], "texture": "#0"}
			}
		},
		{
			"from": [3.75, 11.75, 5.6],
			"to": [12.25, 24.25, 10.1],
			"rotation": {"angle": 0, "axis": "y", "origin": [7.75, 7.75, 7.6]},
			"faces": {
				"north": {"uv": [5, 9, 6.998, 11.997], "texture": "#0"},
				"east": {"uv": [4, 9, 4.999, 11.999], "texture": "#0"},
				"south": {"uv": [8, 9, 9.999, 11.997], "texture": "#0"},
				"west": {"uv": [7, 9, 7.999, 11.999], "texture": "#0"},
				"up": {"uv": [5, 8, 6.999, 9], "texture": "#0"},
				"down": {"uv": [7, 8, 8.998, 8.999], "texture": "#0"}
			}
		},
		{
			"from": [3.55, 14.75, 5.35],
			"to": [12.3, 24.25, 10.35],
			"rotation": {"angle": 0, "axis": "y", "origin": [7.75, 7.75, 7.6]},
			"faces": {
				"north": {"uv": [5.125, 5.25, 6.875, 7.375], "texture": "#2"},
				"east": {"uv": [6.875, 5.25, 8.125, 7.375], "texture": "#2"},
				"south": {"uv": [8.125, 5.25, 9.875, 7.375], "texture": "#2"},
				"west": {"uv": [6.875, 5.25, 8.125, 7.375], "texture": "#2"},
				"up": {"uv": [5, 8, 6.999, 9], "texture": "#0"},
				"down": {"uv": [7, 8, 8.998, 8.999], "texture": "#0"}
			}
		},
		{
			"from": [3.75, 24.25, 5.725],
			"to": [12.25, 24.25, 10.225],
			"rotation": {"angle": 0, "axis": "y", "origin": [7.75, 20.25, 7.725]},
			"faces": {
				"up": {"uv": [0, 6.75, 16, 16], "texture": "#1"}
			}
		},
		{
			"from": [4.75, 15.75, 5.7],
			"to": [11.25, 24.25, 5.71],
			"rotation": {"angle": 0, "axis": "y", "origin": [7.75, 7.75, 7.3]},
			"faces": {
				"north": {"uv": [5, 10.875, 11.625, 16], "texture": "#1"},
				"east": {"uv": [4, 9, 4.999, 11.999], "texture": "#0"},
				"south": {"uv": [8, 9, 9.999, 11.997], "texture": "#0"},
				"west": {"uv": [7, 9, 7.999, 11.999], "texture": "#0"},
				"up": {"uv": [5, 8, 6.999, 9], "texture": "#0"},
				"down": {"uv": [7, 8, 8.998, 8.999], "texture": "#0"}
			}
		},
		{
			"from": [4.75, 17.775, 5.525],
			"to": [11.25, 24.275, 5.535],
			"rotation": {"angle": 0, "axis": "y", "origin": [7.75, 7.775, 7.125]},
			"faces": {
				"north": {"uv": [1.875, 0, 14.875, 7.25], "rotation": 180, "texture": "#1"}
			}
		},
		{
			"from": [4, 12, 6],
			"to": [12, 24, 10],
			"faces": {
				"north": {"uv": [5, 5, 6.998, 7.997], "texture": "#0"},
				"east": {"uv": [4, 5, 4.999, 7.999], "texture": "#0"},
				"south": {"uv": [8, 4.999, 9.999, 7.996], "texture": "#0"},
				"west": {"uv": [7, 5, 7.999, 7.999], "texture": "#0"},
				"up": {"uv": [5, 4, 6.999, 5], "texture": "#0"},
				"down": {"uv": [7, 4, 8.998, 4.999], "texture": "#0"}
			}
		},
		{
			"from": [12.025, 20, 6],
			"to": [16.025, 32, 10],
			"rotation": {"angle": -22.5, "axis": "z", "origin": [14.0125, 22, 8]},
			"faces": {
				"north": {"uv": [11, 5, 11.998, 7.999], "rotation": 180, "texture": "#0"},
				"east": {"uv": [12, 5, 12.998, 7.999], "rotation": 180, "texture": "#0"},
				"south": {"uv": [13, 5, 13.998, 7.999], "rotation": 180, "texture": "#0"},
				"west": {"uv": [10, 5, 10.998, 7.999], "rotation": 180, "texture": "#0"},
				"up": {"uv": [12, 4, 12.998, 4.999], "rotation": 180, "texture": "#0"},
				"down": {"uv": [11, 4, 11.997, 4.999], "rotation": 180, "texture": "#0"}
			}
		},
		{
			"from": [11.6, 19.475, 5.75],
			"to": [16.1, 31.975, 10.25],
			"rotation": {"angle": -22.5, "axis": "z", "origin": [13.8625, 21.725, 8]},
			"faces": {
				"north": {"uv": [11, 9, 11.998, 12], "rotation": 180, "texture": "#0"},
				"east": {"uv": [12, 9, 12.998, 12], "rotation": 180, "texture": "#0"},
				"south": {"uv": [13, 9, 13.998, 12], "rotation": 180, "texture": "#0"},
				"west": {"uv": [10, 9, 10.998, 12], "rotation": 180, "texture": "#0"},
				"up": {"uv": [12, 8, 12.997, 9], "rotation": 180, "texture": "#0"},
				"down": {"uv": [11, 8, 11.997, 9], "rotation": 180, "texture": "#0"}
			}
		}
	],
	"display": {
		"thirdperson_righthand": {
			"rotation": [-2.5, -86.5, 0],
			"translation": [-0.75, -12.25, 1]
		},
		"thirdperson_lefthand": {
			"rotation": [-2.5, -86.5, 0],
			"translation": [-0.75, -12.25, 1]
		},
		"firstperson_righthand": {
			"scale": [0.1, 0.1, 0.1]
		},
		"firstperson_lefthand": {
			"scale": [0.1, 0.1, 0.1]
		},
		"gui": {
			"rotation": [32, 160, 0],
			"translation": [0, -3.75, 0],
			"scale": [0.5, 0.5, 0.5]
		},
		"fixed": {
			"rotation": [90, 0, 0],
			"translation": [0, -12, -3.75],
			"scale": [2, 2, 2]
		}
	}
}