{
	"credit": "Made with Blockbench",
	"textures": {
		"0": "models/tech4/technik_platform",
		"1": "models/tech4/blood2",
		"2": "models/tech4/concrete_powder_blue",
		"3": "models/tech4/tnt_side",
		"particle": "models/tech4/technik_platform"
	},
	"elements": [
		{
			"from": [4, 0, 6],
			"to": [8, 12, 10],
			"faces": {
				"north": {"uv": [5, 13, 6, 16], "texture": "#0"},
				"east": {"uv": [4, 13, 5, 16], "texture": "#0"},
				"south": {"uv": [7, 13, 8, 15.999], "texture": "#0"},
				"west": {"uv": [6, 13, 6.999, 16], "texture": "#0"},
				"up": {"uv": [5, 12, 6, 13], "texture": "#0"},
				"down": {"uv": [6, 12, 6.999, 12.999], "texture": "#0"}
			}
		},
		{
			"from": [4, 4, 5.99],
			"to": [12, 12, 5.99],
			"faces": {
				"north": {"uv": [3.875, 9.375, 12.373, 15.997], "texture": "#1"}
			}
		},
		{
			"from": [8, 0, 6],
			"to": [12, 12, 10],
			"faces": {
				"north": {"uv": [1, 5, 1.999, 7.999], "texture": "#0"},
				"east": {"uv": [0, 5, 1, 7.999], "texture": "#0"},
				"south": {"uv": [3, 5, 3.999, 8], "texture": "#0"},
				"west": {"uv": [2, 5, 2.999, 7.999], "texture": "#0"},
				"up": {"uv": [1, 4, 2, 5], "texture": "#0"},
				"down": {"uv": [2, 4, 3, 5], "texture": "#0"}
			}
		},
		{
			"from": [4, 12, 6],
			"to": [6, 24, 10],
			"faces": {
				"north": {"uv": [6.5, 5, 6.998, 7.997], "texture": "#0"},
				"east": {"uv": [7, 5, 7.999, 7.999], "texture": "#0"},
				"south": {"uv": [8, 4.999, 8.499, 7.996], "texture": "#0"},
				"west": {"uv": [4, 5, 4.999, 7.998], "texture": "#0"},
				"up": {"uv": [6.75, 4, 7.25, 4.999], "texture": "#0"},
				"down": {"uv": [7, 4, 7.498, 4.999], "texture": "#0"}
			}
		},
		{
			"from": [6.01, 15, 6],
			"to": [6.01, 22, 10],
			"faces": {
				"north": {"uv": [5.5, 5, 8.122, 9.873], "rotation": 180, "texture": "#1"},
				"east": {"uv": [5.5, 5, 8.122, 9.873], "rotation": 180, "texture": "#1"},
				"south": {"uv": [5.5, 5, 8.122, 9.873], "rotation": 180, "texture": "#1"},
				"west": {"uv": [5.5, 5, 8.122, 9.873], "rotation": 180, "texture": "#1"},
				"up": {"uv": [5.5, 5, 8.122, 9.873], "rotation": 180, "texture": "#1"},
				"down": {"uv": [5.5, 5, 8.122, 9.873], "rotation": 180, "texture": "#1"}
			}
		},
		{
			"from": [0, 12, 6],
			"to": [4, 24, 10],
			"faces": {
				"north": {"uv": [9, 13, 9.998, 16], "texture": "#0"},
				"east": {"uv": [8.999, 13, 9.998, 15.999], "texture": "#0"},
				"south": {"uv": [8, 13, 8.999, 16], "texture": "#0"},
				"west": {"uv": [10, 13, 10.998, 15.998], "texture": "#0"},
				"up": {"uv": [9, 12, 9.999, 13], "rotation": 180, "texture": "#0"},
				"down": {"uv": [10, 12, 10.999, 12.999], "texture": "#0"}
			}
		},
		{
			"from": [0, 24.01, 6],
			"to": [4, 24.01, 10],
			"faces": {
				"north": {"uv": [9, 13, 9.998, 16], "texture": "#0"},
				"east": {"uv": [8.999, 13, 9.998, 15.999], "texture": "#0"},
				"south": {"uv": [8, 13, 8.999, 16], "texture": "#0"},
				"west": {"uv": [10, 13, 10.998, 15.998], "texture": "#0"},
				"up": {"uv": [5.625, 2.75, 8.373, 3.623], "rotation": 90, "texture": "#1"},
				"down": {"uv": [10, 12, 10.999, 12.999], "texture": "#0"}
			}
		},
		{
			"from": [-0.01, 12, 6],
			"to": [-0.01, 24, 10],
			"faces": {
				"north": {"uv": [9, 7.875, 10.372, 15.999], "texture": "#1"},
				"west": {"uv": [2.125, 8.25, 9.621, 14.871], "texture": "#1"}
			}
		},
		{
			"from": [12, 12, 6],
			"to": [16, 24, 10],
			"faces": {
				"north": {"uv": [13, 5, 13.998, 7.999], "texture": "#0"},
				"east": {"uv": [10, 4.999, 10.999, 7.998], "texture": "#0"},
				"south": {"uv": [13, 4.999, 13.998, 7.998], "texture": "#0"},
				"west": {"uv": [11, 4.999, 11.998, 7.997], "rotation": 180, "texture": "#0"},
				"up": {"uv": [11, 4, 11.999, 4.998], "rotation": 180, "texture": "#0"},
				"down": {"uv": [12, 4, 12.999, 4.998], "rotation": 180, "texture": "#0"}
			}
		},
		{
			"from": [4, 24, 4],
			"to": [12, 31.99, 12],
			"faces": {
				"north": {"uv": [2, 2, 3.998, 3.998], "texture": "#0"},
				"east": {"uv": [0, 2, 2, 3.998], "texture": "#0"},
				"south": {"uv": [5.75, 2, 7.999, 3.998], "texture": "#0"},
				"west": {"uv": [4, 2, 6, 3.999], "texture": "#0"},
				"up": {"uv": [2, 0, 3.998, 1.999], "texture": "#0"},
				"down": {"uv": [4, 0, 5.749, 1.999], "texture": "#0"}
			}
		},
		{
			"from": [4, 23.99, 4],
			"to": [12, 23.99, 12],
			"faces": {
				"north": {"uv": [2, 2, 3.998, 3.998], "texture": "#0"},
				"east": {"uv": [0, 2, 2, 3.998], "texture": "#0"},
				"south": {"uv": [5.75, 2, 7.999, 3.998], "texture": "#0"},
				"west": {"uv": [4, 2, 6, 3.999], "texture": "#0"},
				"up": {"uv": [2, 0, 3.998, 1.999], "texture": "#0"},
				"down": {"uv": [6.75, 13.125, 11.248, 15.998], "rotation": 180, "texture": "#1"}
			}
		},
		{
			"from": [4, 24, 3.99],
			"to": [12, 31.99, 3.99],
			"faces": {
				"north": {"uv": [8.625, 13.125, 10.872, 15.996], "rotation": 180, "texture": "#1"},
				"east": {"uv": [0, 2, 2, 3.998], "texture": "#0"},
				"south": {"uv": [5.75, 2, 7.999, 3.998], "texture": "#0"},
				"west": {"uv": [4, 2, 6, 3.999], "texture": "#0"},
				"up": {"uv": [2, 0, 3.998, 1.999], "texture": "#0"},
				"down": {"uv": [4, 0, 5.749, 1.999], "texture": "#0"}
			}
		},
		{
			"from": [10, 12, 6],
			"to": [12, 24, 10],
			"faces": {
				"north": {"uv": [5, 5, 5.498, 7.997], "texture": "#0"},
				"east": {"uv": [7, 5, 7.999, 7.999], "texture": "#0"},
				"south": {"uv": [9.5, 5, 9.999, 7.997], "texture": "#0"},
				"west": {"uv": [4, 5, 4.999, 7.998], "texture": "#0"},
				"up": {"uv": [5, 4, 5.499, 5], "texture": "#0"},
				"down": {"uv": [8.5, 4, 8.998, 4.999], "texture": "#0"}
			}
		},
		{
			"from": [9.9, 18, 5.8],
			"to": [10.9, 20, 6.8],
			"faces": {
				"north": {"uv": [5.125, 5.5, 8.122, 9.499], "texture": "#1"},
				"east": {"uv": [5.125, 5.5, 8.122, 9.499], "texture": "#1"},
				"south": {"uv": [5.125, 5.5, 8.122, 9.499], "texture": "#1"},
				"west": {"uv": [5.125, 5.5, 8.122, 9.499], "texture": "#1"},
				"up": {"uv": [5.125, 5.5, 8.122, 9.499], "texture": "#1"},
				"down": {"uv": [5.125, 5.5, 8.122, 9.499], "texture": "#1"}
			}
		},
		{
			"from": [7, 14, 5.8],
			"to": [8, 15, 8.8],
			"faces": {
				"north": {"uv": [7.75, 6.75, 9.873, 9.624], "texture": "#1"},
				"east": {"uv": [7.75, 6.75, 9.873, 9.624], "texture": "#1"},
				"south": {"uv": [7.75, 6.75, 9.873, 9.624], "texture": "#1"},
				"west": {"uv": [7.75, 6.75, 9.873, 9.624], "texture": "#1"},
				"up": {"uv": [7.75, 6.75, 9.873, 9.624], "texture": "#1"},
				"down": {"uv": [7.75, 6.75, 9.873, 9.624], "texture": "#1"}
			}
		},
		{
			"from": [7.9, 19.5, 5.8],
			"to": [9.9, 20.5, 6.8],
			"faces": {
				"north": {"uv": [5, 7.125, 7.499, 8.874], "texture": "#1"},
				"east": {"uv": [5, 7.125, 7.499, 8.874], "texture": "#1"},
				"south": {"uv": [5, 7.125, 7.499, 8.874], "texture": "#1"},
				"west": {"uv": [5, 7.125, 7.499, 8.874], "texture": "#1"},
				"up": {"uv": [5, 7.125, 7.499, 8.874], "texture": "#1"},
				"down": {"uv": [5, 7.125, 7.499, 8.874], "texture": "#1"}
			}
		},
		{
			"from": [9, 16, 5.8],
			"to": [10, 18, 6.8],
			"faces": {
				"north": {"uv": [6.875, 6.25, 10.499, 10.249], "texture": "#1"},
				"east": {"uv": [6.875, 6.25, 10.499, 10.249], "texture": "#1"},
				"south": {"uv": [6.875, 6.25, 10.499, 10.249], "texture": "#1"},
				"west": {"uv": [6.875, 6.25, 10.499, 10.249], "texture": "#1"},
				"up": {"uv": [6.875, 6.25, 10.499, 10.249], "texture": "#1"},
				"down": {"uv": [6.875, 6.25, 10.499, 10.249], "texture": "#1"}
			}
		},
		{
			"from": [8, 14.5, 5.8],
			"to": [9, 16.5, 6.8],
			"faces": {
				"north": {"uv": [6.125, 5.625, 9.749, 10.874], "texture": "#1"},
				"east": {"uv": [6.125, 5.625, 9.749, 10.874], "texture": "#1"},
				"south": {"uv": [6.125, 5.625, 9.749, 10.874], "texture": "#1"},
				"west": {"uv": [6.125, 5.625, 9.749, 10.874], "texture": "#1"},
				"up": {"uv": [6.125, 5.625, 9.749, 10.874], "texture": "#1"},
				"down": {"uv": [6.125, 5.625, 9.749, 10.874], "texture": "#1"}
			}
		},
		{
			"from": [6, 15, 6.8],
			"to": [7.25, 18.5, 7.8],
			"faces": {
				"north": {"uv": [5.375, 4, 10.624, 10.75], "texture": "#1"},
				"east": {"uv": [5.375, 4, 10.624, 10.75], "texture": "#1"},
				"south": {"uv": [5.375, 4, 10.624, 10.75], "texture": "#1"},
				"west": {"uv": [5.375, 4, 10.624, 10.75], "texture": "#1"},
				"up": {"uv": [5.375, 4, 10.624, 10.75], "texture": "#1"},
				"down": {"uv": [5.375, 4, 10.624, 10.75], "texture": "#1"}
			}
		},
		{
			"from": [5, 18.5, 6.8],
			"to": [6.5, 21, 8.8],
			"faces": {
				"north": {"uv": [8, 10, 9.5, 11.998], "texture": "#1"},
				"east": {"uv": [8, 10, 9.5, 11.998], "texture": "#1"},
				"south": {"uv": [8, 10, 9.5, 11.998], "texture": "#1"},
				"west": {"uv": [8, 10, 9.5, 11.998], "texture": "#1"},
				"up": {"uv": [8, 10, 9.5, 11.998], "texture": "#1"},
				"down": {"uv": [8, 10, 9.5, 11.998], "texture": "#1"}
			}
		},
		{
			"from": [9.8, 14.5, 6.8],
			"to": [10.8, 20.5, 7.8],
			"faces": {
				"north": {"uv": [7.375, 5.375, 9.373, 9.373], "texture": "#1"},
				"east": {"uv": [7.375, 5.375, 9.373, 9.373], "texture": "#1"},
				"south": {"uv": [7.375, 5.375, 9.373, 9.373], "texture": "#1"},
				"west": {"uv": [7.375, 5.375, 9.373, 9.373], "texture": "#1"},
				"up": {"uv": [7.375, 5.375, 9.373, 9.373], "texture": "#1"},
				"down": {"uv": [7.375, 5.375, 9.373, 9.373], "texture": "#1"}
			}
		},
		{
			"from": [7.5, 14.5, 6.8],
			"to": [8.5, 16.5, 8.8],
			"faces": {
				"north": {"uv": [10, 6, 10.999, 7.998], "texture": "#3"},
				"east": {"uv": [10, 6, 10.999, 7.998], "texture": "#3"},
				"south": {"uv": [10, 6, 10.999, 7.998], "texture": "#3"},
				"west": {"uv": [10, 6, 10.999, 7.998], "texture": "#3"},
				"up": {"uv": [10, 6, 10.999, 7.998], "texture": "#3"},
				"down": {"uv": [10, 6, 10.999, 7.998], "texture": "#3"}
			}
		},
		{
			"from": [7.5, 15, 7.5],
			"to": [8.5, 18, 7.75],
			"faces": {
				"north": {"uv": [0, 8.999, 1.999, 10.998], "texture": "#3"},
				"east": {"uv": [0, 8.999, 1.999, 10.998], "texture": "#3"},
				"south": {"uv": [0, 8.999, 1.999, 10.998], "texture": "#3"},
				"west": {"uv": [0, 8.999, 1.999, 10.998], "texture": "#3"},
				"up": {"uv": [0, 8.999, 1.999, 10.998], "texture": "#3"},
				"down": {"uv": [0, 8.999, 1.999, 10.998], "texture": "#3"}
			}
		},
		{
			"from": [8.5, 17.5, 7.5],
			"to": [9, 18, 7.75],
			"faces": {
				"north": {"uv": [0, 8.999, 1.999, 10.998], "texture": "#3"},
				"east": {"uv": [0, 8.999, 1.999, 10.998], "texture": "#3"},
				"south": {"uv": [0, 8.999, 1.999, 10.998], "texture": "#3"},
				"west": {"uv": [0, 8.999, 1.999, 10.998], "texture": "#3"},
				"up": {"uv": [0, 8.999, 1.999, 10.998], "texture": "#3"},
				"down": {"uv": [0, 8.999, 1.999, 10.998], "texture": "#3"}
			}
		},
		{
			"from": [9, 17.5, 7.75],
			"to": [10.5, 18, 8],
			"faces": {
				"north": {"uv": [0, 8.999, 1.999, 10.998], "texture": "#3"},
				"east": {"uv": [0, 8.999, 1.999, 10.998], "texture": "#3"},
				"south": {"uv": [0, 8.999, 1.999, 10.998], "texture": "#3"},
				"west": {"uv": [0, 8.999, 1.999, 10.998], "texture": "#3"},
				"up": {"uv": [0, 8.999, 1.999, 10.998], "texture": "#3"},
				"down": {"uv": [0, 8.999, 1.999, 10.998], "texture": "#3"}
			}
		},
		{
			"from": [7, 17.5, 7.5],
			"to": [7.5, 18, 7.75],
			"faces": {
				"north": {"uv": [0, 8.999, 1.999, 10.998], "texture": "#3"},
				"east": {"uv": [0, 8.999, 1.999, 10.998], "texture": "#3"},
				"south": {"uv": [0, 8.999, 1.999, 10.998], "texture": "#3"},
				"west": {"uv": [0, 8.999, 1.999, 10.998], "texture": "#3"},
				"up": {"uv": [0, 8.999, 1.999, 10.998], "texture": "#3"},
				"down": {"uv": [0, 8.999, 1.999, 10.998], "texture": "#3"}
			}
		},
		{
			"from": [8.5, 16.5, 7.5],
			"to": [9, 17, 7.75],
			"faces": {
				"north": {"uv": [0, 8.999, 1.999, 10.998], "texture": "#3"},
				"east": {"uv": [0, 8.999, 1.999, 10.998], "texture": "#3"},
				"south": {"uv": [0, 8.999, 1.999, 10.998], "texture": "#3"},
				"west": {"uv": [0, 8.999, 1.999, 10.998], "texture": "#3"},
				"up": {"uv": [0, 8.999, 1.999, 10.998], "texture": "#3"},
				"down": {"uv": [0, 8.999, 1.999, 10.998], "texture": "#3"}
			}
		},
		{
			"from": [9, 16.5, 7.75],
			"to": [10.5, 17, 8],
			"faces": {
				"north": {"uv": [0, 8.999, 1.999, 10.998], "texture": "#3"},
				"east": {"uv": [0, 8.999, 1.999, 10.998], "texture": "#3"},
				"south": {"uv": [0, 8.999, 1.999, 10.998], "texture": "#3"},
				"west": {"uv": [0, 8.999, 1.999, 10.998], "texture": "#3"},
				"up": {"uv": [0, 8.999, 1.999, 10.998], "texture": "#3"},
				"down": {"uv": [0, 8.999, 1.999, 10.998], "texture": "#3"}
			}
		},
		{
			"from": [7.5, 18, 7.75],
			"to": [8.5, 19, 8],
			"faces": {
				"north": {"uv": [0, 8.999, 1.999, 10.998], "texture": "#3"},
				"east": {"uv": [0, 8.999, 1.999, 10.998], "texture": "#3"},
				"south": {"uv": [0, 8.999, 1.999, 10.998], "texture": "#3"},
				"west": {"uv": [0, 8.999, 1.999, 10.998], "texture": "#3"},
				"up": {"uv": [0, 8.999, 1.999, 10.998], "texture": "#3"},
				"down": {"uv": [0, 8.999, 1.999, 10.998], "texture": "#3"}
			}
		},
		{
			"from": [8.5, 18.5, 7.75],
			"to": [9, 19, 8],
			"faces": {
				"north": {"uv": [10, 9, 11.999, 10.999], "texture": "#3"},
				"east": {"uv": [10, 9, 11.999, 10.999], "texture": "#3"},
				"south": {"uv": [10, 9, 11.999, 10.999], "texture": "#3"},
				"west": {"uv": [10, 9, 11.999, 10.999], "texture": "#3"},
				"up": {"uv": [10, 9, 11.999, 10.999], "texture": "#3"},
				"down": {"uv": [10, 9, 11.999, 10.999], "texture": "#3"}
			}
		},
		{
			"from": [7, 18.5, 7.75],
			"to": [7.5, 19, 8],
			"faces": {
				"north": {"uv": [0, 8.999, 1.999, 10.998], "texture": "#3"},
				"east": {"uv": [0, 8.999, 1.999, 10.998], "texture": "#3"},
				"south": {"uv": [0, 8.999, 1.999, 10.998], "texture": "#3"},
				"west": {"uv": [0, 8.999, 1.999, 10.998], "texture": "#3"},
				"up": {"uv": [0, 8.999, 1.999, 10.998], "texture": "#3"},
				"down": {"uv": [0, 8.999, 1.999, 10.998], "texture": "#3"}
			}
		},
		{
			"from": [9, 18.5, 8],
			"to": [10.5, 19, 8.25],
			"faces": {
				"north": {"uv": [0, 8.999, 1.999, 10.998], "texture": "#3"},
				"east": {"uv": [0, 8.999, 1.999, 10.998], "texture": "#3"},
				"south": {"uv": [0, 8.999, 1.999, 10.998], "texture": "#3"},
				"west": {"uv": [0, 8.999, 1.999, 10.998], "texture": "#3"},
				"up": {"uv": [0, 8.999, 1.999, 10.998], "texture": "#3"},
				"down": {"uv": [0, 8.999, 1.999, 10.998], "texture": "#3"}
			}
		},
		{
			"from": [5.5, 18.5, 8],
			"to": [7, 19, 8.25],
			"faces": {
				"north": {"uv": [0, 7, 1.999, 8.998], "texture": "#3"},
				"east": {"uv": [0, 7, 1.999, 8.998], "texture": "#3"},
				"south": {"uv": [0, 7, 1.999, 8.998], "texture": "#3"},
				"west": {"uv": [0, 7, 1.999, 8.998], "texture": "#3"},
				"up": {"uv": [0, 7, 1.999, 8.998], "texture": "#3"},
				"down": {"uv": [0, 7, 1.999, 8.998], "texture": "#3"}
			}
		},
		{
			"from": [6, 20.5, 6.7],
			"to": [8, 21.5, 7.7],
			"faces": {
				"north": {"uv": [5.875, 4.25, 9.249, 7.623], "rotation": 90, "texture": "#1"},
				"east": {"uv": [5.875, 4.25, 9.249, 7.623], "rotation": 90, "texture": "#1"},
				"south": {"uv": [5.875, 4.25, 9.249, 7.623], "rotation": 90, "texture": "#1"},
				"west": {"uv": [5.875, 4.25, 9.249, 7.623], "rotation": 90, "texture": "#1"},
				"up": {"uv": [5.875, 4.25, 9.249, 7.623], "rotation": 90, "texture": "#1"},
				"down": {"uv": [5.875, 4.25, 9.249, 7.623], "rotation": 90, "texture": "#1"}
			}
		},
		{
			"from": [6, 14, 8.5],
			"to": [10.25, 21.5, 9.5],
			"faces": {
				"north": {"uv": [8, 3.625, 8.998, 12.123], "texture": "#1"},
				"east": {"uv": [8, 3.625, 8.998, 12.123], "texture": "#1"},
				"south": {"uv": [8, 3.625, 8.998, 12.123], "texture": "#1"},
				"west": {"uv": [8, 3.625, 8.998, 12.123], "texture": "#1"},
				"up": {"uv": [8, 3.625, 8.998, 12.123], "texture": "#1"},
				"down": {"uv": [8, 3.625, 8.998, 12.123], "texture": "#1"}
			}
		},
		{
			"from": [9.8, 14.5, 7.8],
			"to": [10.8, 21.5, 8.8],
			"faces": {
				"north": {"uv": [6.875, 5.5, 7.874, 9.499], "texture": "#1"},
				"east": {"uv": [6.875, 5.5, 7.874, 9.499], "texture": "#1"},
				"south": {"uv": [6.875, 5.5, 7.874, 9.499], "texture": "#1"},
				"west": {"uv": [6.875, 5.5, 7.874, 9.499], "texture": "#1"},
				"up": {"uv": [6.875, 5.5, 7.874, 9.499], "texture": "#1"},
				"down": {"uv": [6.875, 5.5, 7.874, 9.499], "texture": "#1"}
			}
		},
		{
			"from": [6, 12, 9],
			"to": [10, 24, 10],
			"faces": {
				"south": {"uv": [8.5, 5, 9.499, 7.999], "texture": "#0"},
				"up": {"uv": [5.5, 4, 6.499, 4.25], "texture": "#0"},
				"down": {"uv": [7.5, 4.75, 8.5, 5], "texture": "#0"}
			}
		},
		{
			"from": [7.5, 19, 8],
			"to": [8.5, 21, 8.25],
			"faces": {
				"north": {"uv": [0, 8.999, 1.999, 10.998], "texture": "#3"},
				"east": {"uv": [0, 8.999, 1.999, 10.998], "texture": "#3"},
				"south": {"uv": [0, 8.999, 1.999, 10.998], "texture": "#3"},
				"west": {"uv": [0, 8.999, 1.999, 10.998], "texture": "#3"},
				"up": {"uv": [0, 8.999, 1.999, 10.998], "texture": "#3"},
				"down": {"uv": [0, 8.999, 1.999, 10.998], "texture": "#3"}
			}
		},
		{
			"from": [9, 14, 6],
			"to": [10, 16, 7],
			"faces": {
				"north": {"uv": [5.5, 7, 5.749, 7.5], "texture": "#0"}
			}
		},
		{
			"from": [8, 14, 6],
			"to": [9, 14.5, 7],
			"faces": {
				"north": {"uv": [5.75, 7, 5.998, 7.249], "texture": "#0"}
			}
		},
		{
			"from": [6, 14, 6],
			"to": [7, 14.5, 7],
			"faces": {
				"north": {"uv": [6.248, 7.249, 6.498, 7.499], "texture": "#0"}
			}
		},
		{
			"from": [6, 23, 7],
			"to": [10, 24, 9],
			"faces": {
				"up": {"uv": [5.5, 4.25, 6.499, 4.749], "texture": "#0"}
			}
		},
		{
			"from": [6, 22, 6],
			"to": [10, 24, 7],
			"faces": {
				"north": {"uv": [5.5, 5, 6.499, 5.5], "texture": "#0"},
				"up": {"uv": [5.5, 4.75, 6.5, 4.999], "texture": "#0"}
			}
		},
		{
			"from": [8, 20, 6],
			"to": [10, 22, 7],
			"faces": {
				"north": {"uv": [5.5, 5.5, 6, 6], "texture": "#0"},
				"west": {"uv": [7.625, 5.125, 8.624, 7.124], "texture": "#1"}
			}
		},
		{
			"from": [6, 21.5, 6],
			"to": [8, 22, 7],
			"faces": {
				"north": {"uv": [6, 5.5, 6.5, 5.75], "texture": "#0"},
				"down": {"uv": [7.5, 4.25, 9.5, 9.873], "texture": "#1"}
			}
		},
		{
			"from": [6, 12, 7],
			"to": [10, 13, 9],
			"faces": {
				"down": {"uv": [7.5, 4.25, 8.5, 4.749], "texture": "#0"}
			}
		},
		{
			"from": [8, 20.25, 6.7],
			"to": [10, 21.25, 7.7],
			"faces": {
				"north": {"uv": [7.5, 6.25, 10.498, 8.999], "rotation": 90, "texture": "#1"},
				"east": {"uv": [7.5, 6.25, 10.498, 8.999], "rotation": 90, "texture": "#1"},
				"south": {"uv": [7.5, 6.25, 10.498, 8.999], "rotation": 90, "texture": "#1"},
				"west": {"uv": [7.5, 6.25, 10.498, 8.999], "rotation": 90, "texture": "#1"},
				"up": {"uv": [7.5, 6.25, 10.498, 8.999], "rotation": 90, "texture": "#1"},
				"down": {"uv": [7.5, 6.25, 10.498, 8.999], "rotation": 90, "texture": "#1"}
			}
		},
		{
			"from": [6, 21, 7.5],
			"to": [10.25, 22, 9.5],
			"faces": {
				"down": {"uv": [8.5, 3.625, 9.497, 12.123], "texture": "#1"}
			}
		},
		{
			"from": [6, 12, 6],
			"to": [10, 14, 7],
			"faces": {
				"north": {"uv": [5.5, 7.5, 6.499, 8], "texture": "#0"},
				"down": {"uv": [7.5, 4, 8.5, 4.25], "texture": "#0"}
			}
		},
		{
			"from": [7.9, 14.5, 5.3],
			"to": [9.15, 15.75, 6.55],
			"faces": {
				"north": {"uv": [5.625, 5, 12.497, 9.999], "texture": "#1"},
				"east": {"uv": [5.625, 5, 12.497, 9.999], "texture": "#1"},
				"south": {"uv": [5.625, 5, 12.497, 9.999], "texture": "#1"},
				"west": {"uv": [5.625, 5, 12.497, 9.999], "texture": "#1"},
				"up": {"uv": [5.625, 5, 12.497, 9.999], "texture": "#1"},
				"down": {"uv": [5.625, 5, 12.497, 9.999], "texture": "#1"}
			}
		},
		{
			"from": [7.5, 11.25, 5],
			"to": [8.75, 12.5, 6.25],
			"faces": {
				"north": {"uv": [7, 5.625, 9.748, 10.622], "texture": "#1"},
				"east": {"uv": [7, 5.625, 9.748, 10.622], "texture": "#1"},
				"south": {"uv": [7, 5.625, 9.748, 10.622], "texture": "#1"},
				"west": {"uv": [7, 5.625, 9.748, 10.622], "texture": "#1"},
				"up": {"uv": [7, 5.625, 9.748, 10.622], "texture": "#1"},
				"down": {"uv": [7, 5.625, 9.748, 10.622], "texture": "#1"}
			}
		},
		{
			"from": [8.5, 12.25, 4.8],
			"to": [9.75, 14.5, 6.05],
			"faces": {
				"north": {"uv": [6.75, 7.125, 9.748, 11.122], "texture": "#1"},
				"east": {"uv": [6.75, 7.125, 9.748, 11.122], "texture": "#1"},
				"south": {"uv": [6.75, 7.125, 9.748, 11.122], "texture": "#1"},
				"west": {"uv": [6.75, 7.125, 9.748, 11.122], "texture": "#1"},
				"up": {"uv": [6.75, 7.125, 9.748, 11.122], "texture": "#1"},
				"down": {"uv": [6.75, 7.125, 9.748, 11.122], "texture": "#1"}
			}
		},
		{
			"from": [5.5, 11.25, 4.8],
			"to": [6.75, 14.5, 6.05],
			"faces": {
				"north": {"uv": [7.125, 9.5, 9.872, 11.37], "texture": "#1"},
				"east": {"uv": [7.125, 9.5, 9.872, 11.37], "texture": "#1"},
				"south": {"uv": [7.125, 9.5, 9.872, 11.37], "texture": "#1"},
				"west": {"uv": [7.125, 9.5, 9.872, 11.37], "texture": "#1"},
				"up": {"uv": [7.125, 9.5, 9.872, 11.37], "texture": "#1"},
				"down": {"uv": [7.125, 9.5, 9.872, 11.37], "texture": "#1"}
			}
		},
		{
			"from": [5.9, 14.5, 5.5],
			"to": [7.15, 15.75, 6.75],
			"faces": {
				"north": {"uv": [6.75, 8.499, 9.746, 11.497], "texture": "#1"},
				"east": {"uv": [6.75, 8.499, 9.746, 11.497], "texture": "#1"},
				"south": {"uv": [6.75, 8.499, 9.746, 11.497], "texture": "#1"},
				"west": {"uv": [6.75, 8.499, 9.746, 11.497], "texture": "#1"},
				"up": {"uv": [6.75, 8.499, 9.746, 11.497], "texture": "#1"},
				"down": {"uv": [6.75, 8.499, 9.746, 11.497], "texture": "#1"}
			}
		},
		{
			"from": [6, 10.25, 5.1],
			"to": [8.25, 11.5, 6.35],
			"faces": {
				"north": {"uv": [6.875, 6.625, 8.871, 7.623], "texture": "#1"},
				"east": {"uv": [6.875, 6.625, 8.871, 7.623], "texture": "#1"},
				"south": {"uv": [6.875, 6.625, 8.871, 7.623], "texture": "#1"},
				"west": {"uv": [6.875, 6.625, 8.871, 7.623], "texture": "#1"},
				"up": {"uv": [6.875, 6.625, 8.871, 7.623], "texture": "#1"},
				"down": {"uv": [6.875, 6.625, 8.871, 7.623], "texture": "#1"}
			}
		},
		{
			"from": [8.75, 11.75, 5],
			"to": [9.25, 12.25, 6],
			"faces": {
				"north": {"uv": [6.125, 6.5, 10.248, 11.497], "texture": "#1"},
				"east": {"uv": [6.125, 6.5, 10.248, 11.497], "texture": "#1"},
				"south": {"uv": [6.125, 6.5, 10.248, 11.497], "texture": "#1"},
				"west": {"uv": [6.125, 6.5, 10.248, 11.497], "texture": "#1"},
				"up": {"uv": [6.125, 6.5, 10.248, 11.497], "texture": "#1"},
				"down": {"uv": [6.125, 6.5, 10.248, 11.497], "texture": "#1"}
			}
		},
		{
			"from": [6.75, 9.75, 5.2],
			"to": [7.75, 10.25, 6.2],
			"faces": {
				"north": {"uv": [6.25, 9.375, 10.12, 11.371], "texture": "#1"},
				"east": {"uv": [6.25, 9.375, 10.12, 11.371], "texture": "#1"},
				"south": {"uv": [6.25, 9.375, 10.12, 11.371], "texture": "#1"},
				"west": {"uv": [6.25, 9.375, 10.12, 11.371], "texture": "#1"},
				"up": {"uv": [6.25, 9.375, 10.12, 11.371], "texture": "#1"},
				"down": {"uv": [6.25, 9.375, 10.12, 11.371], "texture": "#1"}
			}
		},
		{
			"from": [8, 12.5, 5],
			"to": [8.5, 13, 6],
			"faces": {
				"north": {"uv": [5.625, 6.125, 10.748, 10.747], "texture": "#1"},
				"east": {"uv": [5.625, 6.125, 10.748, 10.747], "texture": "#1"},
				"south": {"uv": [5.625, 6.125, 10.748, 10.747], "texture": "#1"},
				"west": {"uv": [5.625, 6.125, 10.748, 10.747], "texture": "#1"},
				"up": {"uv": [5.625, 6.125, 10.748, 10.747], "texture": "#1"},
				"down": {"uv": [5.625, 6.125, 10.748, 10.747], "texture": "#1"}
			}
		},
		{
			"from": [-0.25, 14, 5.75],
			"to": [4.25, 15.1, 10],
			"faces": {
				"north": {"uv": [15, 15.249, 15.999, 15.499], "texture": "#0"},
				"east": {"uv": [15, 15.249, 15.999, 15.499], "texture": "#0"},
				"south": {"uv": [15, 15.249, 15.999, 15.499], "texture": "#0"},
				"west": {"uv": [14, 15.25, 14.499, 15.5], "texture": "#0"},
				"up": {"uv": [15, 15.249, 15.999, 15.499], "texture": "#0"},
				"down": {"uv": [15, 15.249, 15.999, 15.499], "texture": "#0"}
			}
		},
		{
			"from": [-0.25, 15.01, 5.75],
			"to": [4.25, 15.11, 10],
			"faces": {
				"north": {"uv": [15, 15.249, 15.999, 15.499], "texture": "#0"},
				"east": {"uv": [15, 15.249, 15.999, 15.499], "texture": "#0"},
				"south": {"uv": [15, 15.249, 15.999, 15.499], "texture": "#0"},
				"west": {"uv": [14, 15.25, 14.499, 15.5], "texture": "#0"},
				"up": {"uv": [6.124, 10.625, 9.247, 13.874], "rotation": 180, "texture": "#1"},
				"down": {"uv": [15, 15.249, 15.999, 15.499], "texture": "#0"}
			}
		},
		{
			"from": [-0.26, 14, 5.75],
			"to": [-0.26, 15.1, 10],
			"faces": {
				"west": {"uv": [4.5, 12.5, 8.122, 14.249], "texture": "#1"}
			}
		},
		{
			"from": [-0.25, 16, 5.75],
			"to": [4.25, 17.1, 10],
			"faces": {
				"north": {"uv": [14, 14.75, 14.999, 15], "texture": "#0"},
				"east": {"uv": [15, 14.75, 15.999, 15], "texture": "#0"},
				"south": {"uv": [15, 14.75, 15.999, 15], "texture": "#0"},
				"west": {"uv": [15, 14.75, 15.999, 15], "texture": "#0"},
				"up": {"uv": [15, 14.75, 15.999, 15], "texture": "#0"},
				"down": {"uv": [15, 14.75, 15.999, 15], "texture": "#0"}
			}
		},
		{
			"from": [11.75, 15.1, 5.75],
			"to": [16.25, 16.2, 10],
			"faces": {
				"north": {"uv": [14, 14.75, 14.999, 15], "texture": "#0"},
				"east": {"uv": [15, 14.75, 15.999, 15], "texture": "#0"},
				"south": {"uv": [15, 14.75, 15.999, 15], "texture": "#0"},
				"west": {"uv": [15, 14.75, 15.999, 15], "texture": "#0"},
				"up": {"uv": [15, 14.75, 15.999, 15], "texture": "#0"},
				"down": {"uv": [15, 14.75, 15.999, 15], "texture": "#0"}
			}
		},
		{
			"from": [11.75, 14, 5.75],
			"to": [16.25, 15.1, 10],
			"faces": {
				"north": {"uv": [15, 15.249, 15.999, 15.499], "texture": "#0"},
				"east": {"uv": [15, 15.249, 15.999, 15.499], "texture": "#0"},
				"south": {"uv": [15, 15.249, 15.999, 15.499], "texture": "#0"},
				"west": {"uv": [14, 15.25, 14.999, 15.5], "texture": "#0"},
				"up": {"uv": [15, 15.249, 15.999, 15.499], "texture": "#0"},
				"down": {"uv": [15, 15.249, 15.999, 15.499], "texture": "#0"}
			}
		},
		{
			"from": [3.75, 11, 5.75],
			"to": [12.25, 12.1, 10.25],
			"faces": {
				"north": {"uv": [0.75, 13, 2.749, 13.247], "rotation": 180, "texture": "#0"},
				"east": {"uv": [2, 13, 3.999, 13.247], "texture": "#0"},
				"south": {"uv": [2, 13, 3.999, 13.247], "texture": "#0"},
				"west": {"uv": [2, 13, 3.999, 13.247], "texture": "#0"},
				"up": {"uv": [2, 13, 3.999, 13.247], "texture": "#0"},
				"down": {"uv": [2, 13, 3.999, 13.247], "texture": "#0"}
			}
		},
		{
			"from": [3.75, 11, 5.75],
			"to": [12.25, 12.1, 5.75],
			"faces": {
				"north": {"uv": [6, 11.5, 12.872, 12.745], "rotation": 180, "texture": "#1"},
				"east": {"uv": [2, 13, 3.999, 13.247], "texture": "#0"},
				"south": {"uv": [2, 13, 3.999, 13.247], "texture": "#0"},
				"west": {"uv": [2, 13, 3.999, 13.247], "texture": "#0"},
				"up": {"uv": [2, 13, 3.999, 13.247], "texture": "#0"},
				"down": {"uv": [2, 13, 3.999, 13.247], "texture": "#0"}
			}
		},
		{
			"from": [3.75, 3, 5.75],
			"to": [8, 4, 10.25],
			"faces": {
				"north": {"uv": [0, 11, 1, 11.249], "texture": "#0"},
				"east": {"uv": [3, 11, 4, 11.249], "texture": "#0"},
				"south": {"uv": [2, 11, 3, 11.249], "texture": "#0"},
				"west": {"uv": [1, 11, 2, 11.249], "texture": "#0"},
				"up": {"uv": [0, 11, 1, 11.249], "texture": "#0"},
				"down": {"uv": [0, 11, 1, 11.249], "texture": "#0"}
			}
		},
		{
			"from": [8, -0.1, 5.75],
			"to": [12, 0, 10.25],
			"faces": {
				"north": {"uv": [2, 8, 3, 8.999], "texture": "#0"},
				"east": {"uv": [2, 8, 3, 8.999], "texture": "#0"},
				"south": {"uv": [2, 8, 3, 8.999], "texture": "#0"},
				"west": {"uv": [2, 8, 3, 8.999], "texture": "#0"},
				"up": {"uv": [2, 8, 3, 8.999], "texture": "#0"},
				"down": {"uv": [2, 8, 3, 8.999], "texture": "#0"}
			}
		},
		{
			"from": [8, 0, 9.75],
			"to": [12, 3, 10.25],
			"faces": {
				"north": {"uv": [3, 15.25, 4, 15.999], "texture": "#0"},
				"east": {"uv": [3, 15.25, 4, 15.999], "texture": "#0"},
				"south": {"uv": [3, 15.25, 4, 15.999], "texture": "#0"},
				"west": {"uv": [3, 15.25, 4, 15.999], "texture": "#0"},
				"up": {"uv": [3, 15.25, 4, 15.999], "texture": "#0"},
				"down": {"uv": [3, 15.25, 4, 15.999], "texture": "#0"}
			}
		},
		{
			"from": [4, 0, 9.75],
			"to": [8, 3, 10.25],
			"faces": {
				"north": {"uv": [3, 11.25, 4, 11.999], "texture": "#0"},
				"east": {"uv": [3, 11.25, 4, 11.999], "texture": "#0"},
				"south": {"uv": [3, 11.25, 4, 11.999], "texture": "#0"},
				"west": {"uv": [3, 11.25, 4, 11.999], "texture": "#0"},
				"up": {"uv": [3, 11.25, 4, 11.999], "texture": "#0"},
				"down": {"uv": [3, 11.25, 4, 11.999], "texture": "#0"}
			}
		},
		{
			"from": [8, 0, 5.75],
			"to": [12, 1, 6.25],
			"faces": {
				"north": {"uv": [1, 11.75, 2, 11.999], "texture": "#0"},
				"east": {"uv": [1, 11.75, 2, 11.999], "texture": "#0"},
				"south": {"uv": [1, 11.75, 2, 11.999], "texture": "#0"},
				"west": {"uv": [1, 11.75, 2, 11.999], "texture": "#0"},
				"up": {"uv": [1, 11.75, 2, 11.999], "texture": "#0"},
				"down": {"uv": [1, 11.75, 2, 11.999], "texture": "#0"}
			}
		},
		{
			"from": [11, 1, 5.75],
			"to": [12, 2, 6.25],
			"faces": {
				"north": {"uv": [1, 11.5, 1.25, 11.749], "texture": "#0"},
				"east": {"uv": [2, 8, 3, 8.999], "texture": "#0"},
				"south": {"uv": [2, 8, 3, 8.999], "texture": "#0"},
				"west": {"uv": [2, 8, 3, 8.999], "texture": "#0"},
				"up": {"uv": [2, 8, 3, 8.999], "texture": "#0"},
				"down": {"uv": [2, 8, 3, 8.999], "texture": "#0"}
			}
		},
		{
			"from": [8, 1, 5.75],
			"to": [9, 2, 6.25],
			"faces": {
				"north": {"uv": [1.75, 11.5, 2, 11.749], "texture": "#0"},
				"east": {"uv": [2, 8, 3, 8.999], "texture": "#0"},
				"south": {"uv": [2, 8, 3, 8.999], "texture": "#0"},
				"west": {"uv": [2, 8, 3, 8.999], "texture": "#0"},
				"up": {"uv": [2, 8, 3, 8.999], "texture": "#0"},
				"down": {"uv": [2, 8, 3, 8.999], "texture": "#0"}
			}
		},
		{
			"from": [8, 3, 5.75],
			"to": [12.25, 4, 10.25],
			"faces": {
				"north": {"uv": [0.75, 15, 1.75, 15.249], "texture": "#0"},
				"east": {"uv": [0, 13, 1, 13.249], "texture": "#0"},
				"south": {"uv": [3, 13, 4, 13.249], "texture": "#0"},
				"west": {"uv": [2, 13, 3, 13.249], "texture": "#0"},
				"up": {"uv": [0, 13, 1, 13.249], "texture": "#0"},
				"down": {"uv": [0, 13, 1, 13.249], "texture": "#0"}
			}
		},
		{
			"from": [3.9, -0.1, 5.75],
			"to": [8, 0, 10.25],
			"faces": {
				"north": {"uv": [2, 8, 3, 8.999], "texture": "#0"},
				"east": {"uv": [2, 8, 3, 8.999], "texture": "#0"},
				"south": {"uv": [2, 8, 3, 8.999], "texture": "#0"},
				"west": {"uv": [2, 8, 3, 8.999], "texture": "#0"},
				"up": {"uv": [2, 8, 3, 8.999], "texture": "#0"},
				"down": {"uv": [2, 8, 3, 8.999], "texture": "#0"}
			}
		},
		{
			"from": [7, 1, 5.75],
			"to": [8, 2, 6.25],
			"faces": {
				"north": {"uv": [1, 15.5, 1.25, 15.749], "texture": "#0"},
				"east": {"uv": [2, 8, 3, 8.999], "texture": "#0"},
				"south": {"uv": [2, 8, 3, 8.999], "texture": "#0"},
				"west": {"uv": [2, 8, 3, 8.999], "texture": "#0"},
				"up": {"uv": [2, 8, 3, 8.999], "texture": "#0"},
				"down": {"uv": [2, 8, 3, 8.999], "texture": "#0"}
			}
		},
		{
			"from": [4, 1, 5.75],
			"to": [5, 2, 6.25],
			"faces": {
				"north": {"uv": [1.75, 15.5, 2, 15.749], "texture": "#0"},
				"east": {"uv": [2, 8, 3, 8.999], "texture": "#0"},
				"south": {"uv": [2, 8, 3, 8.999], "texture": "#0"},
				"west": {"uv": [2, 8, 3, 8.999], "texture": "#0"},
				"up": {"uv": [2, 8, 3, 8.999], "texture": "#0"},
				"down": {"uv": [2, 8, 3, 8.999], "texture": "#0"}
			}
		},
		{
			"from": [4, 0, 5.75],
			"to": [8, 1, 6.25],
			"faces": {
				"north": {"uv": [1, 15.75, 2, 15.999], "texture": "#0"},
				"east": {"uv": [2, 8, 3, 8.999], "texture": "#0"},
				"south": {"uv": [2, 8, 3, 8.999], "texture": "#0"},
				"west": {"uv": [2, 8, 3, 8.999], "texture": "#0"},
				"up": {"uv": [2, 8, 3, 8.999], "texture": "#0"},
				"down": {"uv": [2, 8, 3, 8.999], "texture": "#0"}
			}
		},
		{
			"from": [3.75, 0, 5.75],
			"to": [4, 2, 10.25],
			"faces": {
				"north": {"uv": [2, 11.5, 2.998, 12], "texture": "#0"},
				"east": {"uv": [2, 11.5, 2.998, 12], "texture": "#0"},
				"south": {"uv": [2, 11.5, 2.998, 12], "texture": "#0"},
				"west": {"uv": [2, 11.5, 2.998, 12], "texture": "#0"},
				"up": {"uv": [2, 11.5, 2.998, 12], "texture": "#0"},
				"down": {"uv": [2, 11.75, 2.998, 12], "texture": "#0"}
			}
		},
		{
			"from": [3.75, 2, 7.75],
			"to": [4, 3, 10.25],
			"faces": {
				"north": {"uv": [2, 11.5, 2.998, 12], "texture": "#0"},
				"east": {"uv": [2, 11.5, 2.998, 12], "texture": "#0"},
				"south": {"uv": [2, 11.5, 2.998, 12], "texture": "#0"},
				"west": {"uv": [2.5, 11.25, 2.998, 11.5], "texture": "#0"},
				"up": {"uv": [2, 11.5, 2.998, 12], "texture": "#0"},
				"down": {"uv": [2, 11.75, 2.998, 12], "texture": "#0"}
			}
		},
		{
			"from": [12, 2, 7.75],
			"to": [12.25, 3, 10.25],
			"faces": {
				"north": {"uv": [2, 11.5, 2.998, 12], "texture": "#0"},
				"east": {"uv": [2, 11.5, 2.998, 12], "texture": "#0"},
				"south": {"uv": [2, 11.5, 2.998, 12], "texture": "#0"},
				"west": {"uv": [2.5, 11.25, 2.998, 11.5], "texture": "#0"},
				"up": {"uv": [2, 11.5, 2.998, 12], "texture": "#0"},
				"down": {"uv": [2, 11.75, 2.998, 12], "texture": "#0"}
			}
		},
		{
			"from": [12, 0, 5.75],
			"to": [12.25, 2, 10.25],
			"faces": {
				"north": {"uv": [2, 11.5, 2.998, 12], "texture": "#0"},
				"east": {"uv": [2, 11.5, 2.998, 12], "texture": "#0"},
				"south": {"uv": [2, 11.5, 2.998, 12], "texture": "#0"},
				"west": {"uv": [2, 11.5, 2.998, 12], "texture": "#0"},
				"up": {"uv": [2, 11.5, 2.998, 12], "texture": "#0"},
				"down": {"uv": [2, 11.75, 2.998, 12], "texture": "#0"}
			}
		},
		{
			"from": [5, 27.5, 11.5],
			"to": [6, 30.5, 12.5],
			"faces": {
				"north": {"uv": [14.25, 2.25, 14.499, 2.999], "texture": "#0"},
				"east": {"uv": [14.25, 2.25, 14.499, 2.999], "texture": "#0"},
				"south": {"uv": [14.25, 2.25, 14.499, 2.999], "texture": "#0"},
				"west": {"uv": [14.25, 2.25, 14.499, 2.999], "texture": "#0"},
				"up": {"uv": [14.25, 2.25, 14.499, 2.999], "texture": "#0"},
				"down": {"uv": [14.25, 2.25, 14.499, 2.999], "texture": "#0"}
			}
		},
		{
			"from": [6, 26.5, 11.5],
			"to": [7, 30.5, 12.5],
			"faces": {
				"north": {"uv": [14.5, 2.25, 14.749, 3.249], "texture": "#0"},
				"east": {"uv": [14.5, 2.25, 14.749, 3.249], "texture": "#0"},
				"south": {"uv": [14.5, 2.25, 14.749, 3.249], "texture": "#0"},
				"west": {"uv": [14.5, 2.25, 14.749, 3.249], "texture": "#0"},
				"up": {"uv": [14.5, 2.25, 14.749, 3.249], "texture": "#0"},
				"down": {"uv": [14.5, 2.25, 14.749, 3.249], "texture": "#0"}
			}
		},
		{
			"from": [7, 25.5, 11.5],
			"to": [9, 29.5, 12.5],
			"faces": {
				"north": {"uv": [14.75, 2.5, 15.249, 3.499], "texture": "#0"},
				"east": {"uv": [14.75, 2.5, 15.249, 3.499], "texture": "#0"},
				"south": {"uv": [14.75, 2.5, 15.249, 3.499], "texture": "#0"},
				"west": {"uv": [14.75, 2.5, 15.249, 3.499], "texture": "#0"},
				"up": {"uv": [14.75, 2.5, 15.249, 3.499], "texture": "#0"},
				"down": {"uv": [14.75, 2.5, 15.249, 3.499], "texture": "#0"}
			}
		},
		{
			"from": [9, 26.5, 11.5],
			"to": [10, 30.5, 12.5],
			"faces": {
				"north": {"uv": [15.25, 2.25, 15.499, 3.249], "texture": "#0"},
				"east": {"uv": [15.25, 2.25, 15.499, 3.249], "texture": "#0"},
				"south": {"uv": [15.25, 2.25, 15.499, 3.249], "texture": "#0"},
				"west": {"uv": [15.25, 2.25, 15.499, 3.249], "texture": "#0"},
				"up": {"uv": [15.25, 2.25, 15.499, 3.249], "texture": "#0"},
				"down": {"uv": [15.25, 2.25, 15.499, 3.249], "texture": "#0"}
			}
		},
		{
			"from": [10, 27.5, 11.5],
			"to": [11, 30.5, 12.5],
			"faces": {
				"north": {"uv": [15.5, 2.25, 15.749, 2.999], "texture": "#0"},
				"east": {"uv": [15.5, 2.25, 15.749, 2.999], "texture": "#0"},
				"south": {"uv": [15.5, 2.25, 15.749, 2.999], "texture": "#0"},
				"west": {"uv": [15.5, 2.25, 15.749, 2.999], "texture": "#0"},
				"up": {"uv": [15.5, 2.25, 15.749, 2.999], "texture": "#0"},
				"down": {"uv": [15.5, 2.25, 15.749, 2.999], "texture": "#0"}
			}
		},
		{
			"from": [4.75, 31, 3.5],
			"to": [11.25, 32, 5.5],
			"faces": {
				"north": {"uv": [10.25, 2, 11.75, 2.25], "texture": "#0"},
				"east": {"uv": [10.25, 2, 11.75, 2.25], "texture": "#0"},
				"south": {"uv": [10.25, 2, 11.75, 2.25], "texture": "#0"},
				"west": {"uv": [10.25, 2, 11.75, 2.25], "texture": "#0"},
				"up": {"uv": [10.25, 1.5, 11.75, 2], "texture": "#0"},
				"down": {"uv": [10.25, 2, 11.75, 2.25], "texture": "#0"}
			}
		},
		{
			"from": [6.25, 30, 3.5],
			"to": [11.25, 31, 4.5],
			"faces": {
				"north": {"uv": [10.25, 2.25, 11.5, 2.5], "texture": "#0"},
				"east": {"uv": [10.25, 2.25, 11.5, 2.5], "texture": "#0"},
				"south": {"uv": [10.25, 2.25, 11.5, 2.5], "texture": "#0"},
				"west": {"uv": [10.25, 2.25, 11.5, 2.5], "texture": "#0"},
				"up": {"uv": [10.25, 2.25, 11.5, 2.5], "texture": "#0"},
				"down": {"uv": [10.25, 2.25, 11.5, 2.5], "texture": "#0"}
			}
		},
		{
			"from": [8.25, 29, 3.5],
			"to": [10.25, 30, 4.5],
			"faces": {
				"north": {"uv": [10.5, 2.5, 11, 2.75], "texture": "#0"},
				"east": {"uv": [10.5, 2.5, 11, 2.75], "texture": "#0"},
				"south": {"uv": [10.5, 2.5, 11, 2.75], "texture": "#0"},
				"west": {"uv": [10.5, 2.5, 11, 2.75], "texture": "#0"},
				"up": {"uv": [10.5, 2.5, 11, 2.75], "texture": "#0"},
				"down": {"uv": [10.5, 2.5, 11, 2.75], "texture": "#0"}
			}
		},
		{
			"from": [4.75, 31, 6.5],
			"to": [5.75, 32, 7.5],
			"faces": {
				"north": {"uv": [11.5, 1, 11.748, 1.248], "texture": "#0"},
				"east": {"uv": [11.5, 1, 11.748, 1.248], "texture": "#0"},
				"south": {"uv": [11.5, 1, 11.748, 1.248], "texture": "#0"},
				"west": {"uv": [11.5, 1, 11.748, 1.248], "texture": "#0"},
				"up": {"uv": [11.5, 1, 11.748, 1.248], "texture": "#0"},
				"down": {"uv": [11.5, 1, 11.748, 1.248], "texture": "#0"}
			}
		},
		{
			"from": [4.75, 31, 7.5],
			"to": [11.25, 32, 9.5],
			"faces": {
				"north": {"uv": [10.25, 0.5, 11.749, 0.999], "texture": "#0"},
				"east": {"uv": [10.25, 0.5, 11.749, 0.999], "texture": "#0"},
				"south": {"uv": [10.25, 0.5, 11.749, 0.999], "texture": "#0"},
				"west": {"uv": [10.25, 0.5, 11.749, 0.999], "texture": "#0"},
				"up": {"uv": [10.25, 0.5, 11.749, 0.999], "texture": "#0"},
				"down": {"uv": [10.25, 0.5, 11.749, 0.999], "texture": "#0"}
			}
		},
		{
			"from": [5.75, 31, 5.5],
			"to": [10.25, 32, 6.5],
			"faces": {
				"north": {"uv": [10.5, 1.25, 11.5, 1.5], "texture": "#0"},
				"east": {"uv": [10.5, 1.25, 11.5, 1.5], "texture": "#0"},
				"south": {"uv": [10.5, 1.25, 11.5, 1.5], "texture": "#0"},
				"west": {"uv": [10.5, 1.25, 11.5, 1.5], "texture": "#0"},
				"up": {"uv": [10.5, 1.25, 11.5, 1.5], "texture": "#0"},
				"down": {"uv": [10.5, 1.25, 11.5, 1.5], "texture": "#0"}
			}
		},
		{
			"from": [6.75, 31, 6.5],
			"to": [9.25, 32, 7.5],
			"faces": {
				"north": {"uv": [10.5, 1.25, 11.5, 1.5], "texture": "#0"},
				"east": {"uv": [10.5, 1.25, 11.5, 1.5], "texture": "#0"},
				"south": {"uv": [10.5, 1.25, 11.5, 1.5], "texture": "#0"},
				"west": {"uv": [10.5, 1.25, 11.5, 1.5], "texture": "#0"},
				"up": {"uv": [10.75, 1, 11.25, 1.25], "texture": "#0"},
				"down": {"uv": [10.5, 1.25, 11.5, 1.5], "texture": "#0"}
			}
		},
		{
			"from": [4.75, 31, 9.5],
			"to": [10.25, 32, 10.5],
			"faces": {
				"north": {"uv": [10.5, 0.249, 11.749, 0.499], "texture": "#0"},
				"east": {"uv": [10.5, 0.249, 11.749, 0.499], "texture": "#0"},
				"south": {"uv": [10.5, 0.249, 11.749, 0.499], "texture": "#0"},
				"west": {"uv": [10.5, 0.249, 11.749, 0.499], "texture": "#0"},
				"up": {"uv": [10.5, 0.249, 11.749, 0.499], "texture": "#0"},
				"down": {"uv": [10.5, 0.249, 11.749, 0.499], "texture": "#0"}
			}
		},
		{
			"from": [3.5, 30.5, 4.5],
			"to": [4.5, 31.5, 8.5],
			"faces": {
				"north": {"uv": [12.25, 2.25, 13.25, 2.5], "texture": "#0"},
				"east": {"uv": [12.25, 2.25, 13.25, 2.5], "texture": "#0"},
				"south": {"uv": [12.25, 2.25, 13.25, 2.5], "texture": "#0"},
				"west": {"uv": [12.25, 2.25, 13.25, 2.5], "texture": "#0"},
				"up": {"uv": [12.25, 2.25, 13.25, 2.5], "texture": "#0"},
				"down": {"uv": [12.25, 2.25, 13.25, 2.5], "texture": "#0"}
			}
		},
		{
			"from": [3.5, 29.5, 5.5],
			"to": [4.5, 30.5, 10.5],
			"faces": {
				"north": {"uv": [12.5, 2.5, 13.75, 2.75], "texture": "#0"},
				"east": {"uv": [12.5, 2.5, 13.75, 2.75], "texture": "#0"},
				"south": {"uv": [12.5, 2.5, 13.75, 2.75], "texture": "#0"},
				"west": {"uv": [12.5, 2.5, 13.75, 2.75], "texture": "#0"},
				"up": {"uv": [12.5, 2.5, 13.75, 2.75], "texture": "#0"},
				"down": {"uv": [12.5, 2.5, 13.75, 2.75], "texture": "#0"}
			}
		},
		{
			"from": [3.5, 28.5, 7.5],
			"to": [4.5, 29.5, 10.5],
			"faces": {
				"north": {"uv": [13, 2.75, 13.75, 3], "texture": "#0"},
				"east": {"uv": [13, 2.75, 13.75, 3], "texture": "#0"},
				"south": {"uv": [13, 2.75, 13.75, 3], "texture": "#0"},
				"west": {"uv": [13, 2.75, 13.75, 3], "texture": "#0"},
				"up": {"uv": [13, 2.75, 13.75, 3], "texture": "#0"},
				"down": {"uv": [13, 2.75, 13.75, 3], "texture": "#0"}
			}
		},
		{
			"from": [11.5, 30.5, 4.5],
			"to": [12.5, 31.5, 8.5],
			"faces": {
				"north": {"uv": [8.75, 2.25, 9.75, 2.5], "texture": "#0"},
				"east": {"uv": [8.75, 2.25, 9.75, 2.5], "texture": "#0"},
				"south": {"uv": [8.75, 2.25, 9.75, 2.5], "texture": "#0"},
				"west": {"uv": [8.75, 2.25, 9.75, 2.5], "texture": "#0"},
				"up": {"uv": [8.75, 2.25, 9.75, 2.5], "texture": "#0"},
				"down": {"uv": [8.75, 2.25, 9.75, 2.5], "texture": "#0"}
			}
		},
		{
			"from": [11.5, 29.5, 5.5],
			"to": [12.5, 30.5, 9.5],
			"faces": {
				"north": {"uv": [8.5, 2.5, 9.5, 2.75], "texture": "#0"},
				"east": {"uv": [8.5, 2.5, 9.5, 2.75], "texture": "#0"},
				"south": {"uv": [8.5, 2.5, 9.5, 2.75], "texture": "#0"},
				"west": {"uv": [8.5, 2.5, 9.5, 2.75], "texture": "#0"},
				"up": {"uv": [8.5, 2.5, 9.5, 2.75], "texture": "#0"},
				"down": {"uv": [8.5, 2.5, 9.5, 2.75], "texture": "#0"}
			}
		},
		{
			"from": [11.5, 28.5, 6.5],
			"to": [12.5, 29.5, 10.5],
			"faces": {
				"north": {"uv": [8.25, 2.75, 9.25, 3], "texture": "#0"},
				"east": {"uv": [8.25, 2.75, 9.25, 3], "texture": "#0"},
				"south": {"uv": [8.25, 2.75, 9.25, 3], "texture": "#0"},
				"west": {"uv": [8.25, 2.75, 9.25, 3], "texture": "#0"},
				"up": {"uv": [8.25, 2.75, 9.25, 3], "texture": "#0"},
				"down": {"uv": [8.25, 2.75, 9.25, 3], "texture": "#0"}
			}
		},
		{
			"from": [11.5, 27.5, 8.5],
			"to": [12.5, 28.5, 10.5],
			"faces": {
				"north": {"uv": [8.25, 3, 8.75, 3.25], "texture": "#0"},
				"east": {"uv": [8.25, 3, 8.75, 3.25], "texture": "#0"},
				"south": {"uv": [8.25, 3, 8.75, 3.25], "texture": "#0"},
				"west": {"uv": [8.25, 3, 8.75, 3.25], "texture": "#0"},
				"up": {"uv": [8.25, 3, 8.75, 3.25], "texture": "#0"},
				"down": {"uv": [8.25, 3, 8.75, 3.25], "texture": "#0"}
			}
		},
		{
			"from": [9.5, 17.5, 5.7],
			"to": [10, 18, 5.8],
			"faces": {
				"north": {"uv": [8.999, 10, 10.998, 11.998], "texture": "#2"},
				"east": {"uv": [8.999, 10, 10.998, 11.998], "texture": "#2"},
				"south": {"uv": [8.999, 10, 10.998, 11.998], "texture": "#2"},
				"west": {"uv": [8.999, 10, 10.998, 11.998], "texture": "#2"},
				"up": {"uv": [8.999, 10, 10.998, 11.998], "texture": "#2"},
				"down": {"uv": [8.999, 10, 10.998, 11.998], "texture": "#2"}
			}
		},
		{
			"from": [9, 17, 5.6],
			"to": [9.5, 18, 5.8],
			"faces": {
				"north": {"uv": [6, 11, 8.998, 13.998], "texture": "#2"},
				"east": {"uv": [6, 11, 8.998, 13.998], "texture": "#2"},
				"south": {"uv": [6, 11, 8.998, 13.998], "texture": "#2"},
				"west": {"uv": [6, 11, 8.998, 13.998], "texture": "#2"},
				"up": {"uv": [6, 11, 8.998, 13.998], "texture": "#2"},
				"down": {"uv": [6, 11, 8.998, 13.998], "texture": "#2"}
			}
		},
		{
			"from": [5, 19, 5.7],
			"to": [5.5, 19.5, 5.8],
			"faces": {
				"north": {"uv": [13, 2, 14.999, 3.997], "texture": "#2"},
				"east": {"uv": [13, 2, 14.999, 3.997], "texture": "#2"},
				"south": {"uv": [13, 2, 14.999, 3.997], "texture": "#2"},
				"west": {"uv": [13, 2, 14.999, 3.997], "texture": "#2"},
				"up": {"uv": [13, 2, 14.999, 3.997], "texture": "#2"},
				"down": {"uv": [13, 2, 14.999, 3.997], "texture": "#2"}
			}
		},
		{
			"from": [5.5, 18, 5.7],
			"to": [6, 19, 5.8],
			"faces": {
				"north": {"uv": [12, 9, 13.999, 12.996], "texture": "#2"},
				"east": {"uv": [12, 9, 13.999, 12.996], "texture": "#2"},
				"south": {"uv": [12, 9, 13.999, 12.996], "texture": "#2"},
				"west": {"uv": [12, 9, 13.999, 12.996], "texture": "#2"},
				"up": {"uv": [12, 9, 13.999, 12.996], "texture": "#2"},
				"down": {"uv": [12, 9, 13.999, 12.996], "texture": "#2"}
			}
		},
		{
			"from": [7, 15, 5.8],
			"to": [8.5, 15.2, 6.8],
			"faces": {
				"north": {"uv": [10, 10, 12.995, 12.997], "texture": "#2"},
				"east": {"uv": [10, 10, 12.995, 12.997], "texture": "#2"},
				"south": {"uv": [10, 10, 12.995, 12.997], "texture": "#2"},
				"west": {"uv": [10, 10, 12.995, 12.997], "texture": "#2"},
				"up": {"uv": [10, 10, 12.995, 12.997], "texture": "#2"},
				"down": {"uv": [10, 10, 12.995, 12.997], "texture": "#2"}
			}
		},
		{
			"from": [8, 20, 5.7],
			"to": [8.5, 20.5, 5.8],
			"faces": {
				"north": {"uv": [14, 0, 15.998, 1.997], "texture": "#2"},
				"east": {"uv": [14, 0, 15.998, 1.997], "texture": "#2"},
				"south": {"uv": [14, 0, 15.998, 1.997], "texture": "#2"},
				"west": {"uv": [14, 0, 15.998, 1.997], "texture": "#2"},
				"up": {"uv": [14, 0, 15.998, 1.997], "texture": "#2"},
				"down": {"uv": [14, 0, 15.998, 1.997], "texture": "#2"}
			}
		},
		{
			"from": [6, 18, 6.6],
			"to": [6.5, 19, 6.8],
			"faces": {
				"north": {"uv": [7.125, 5.625, 10.122, 8.623], "texture": "#1"},
				"east": {"uv": [7.125, 5.625, 10.122, 8.623], "texture": "#1"},
				"south": {"uv": [7.125, 5.625, 10.122, 8.623], "texture": "#1"},
				"west": {"uv": [7.125, 5.625, 10.122, 8.623], "texture": "#1"},
				"up": {"uv": [7.125, 5.625, 10.122, 8.623], "texture": "#1"},
				"down": {"uv": [7.125, 5.625, 10.122, 8.623], "texture": "#1"}
			}
		},
		{
			"from": [6.5, 18, 6.7],
			"to": [7, 18.5, 6.8],
			"faces": {
				"north": {"uv": [8.999, 10, 10.998, 11.998], "texture": "#2"},
				"east": {"uv": [8.999, 10, 10.998, 11.998], "texture": "#2"},
				"south": {"uv": [8.999, 10, 10.998, 11.998], "texture": "#2"},
				"west": {"uv": [8.999, 10, 10.998, 11.998], "texture": "#2"},
				"up": {"uv": [8.999, 10, 10.998, 11.998], "texture": "#2"},
				"down": {"uv": [8.999, 10, 10.998, 11.998], "texture": "#2"}
			}
		},
		{
			"from": [-6, 11, 10],
			"to": [11, 30, 10],
			"faces": {
				"north": {"uv": [6.375, 2.25, 14.498, 12.998], "texture": "#1"}
			}
		},
		{
			"from": [4, 12, 5.99],
			"to": [12, 16, 5.99],
			"faces": {
				"north": {"uv": [3.5, 9.125, 12.874, 15.248], "texture": "#1"}
			}
		},
		{
			"from": [4, 20, 5.99],
			"to": [12, 24, 5.99],
			"faces": {
				"north": {"uv": [3.5, 9.125, 12.874, 15.248], "rotation": 180, "texture": "#1"}
			}
		},
		{
			"from": [10, 14, 5.98],
			"to": [14, 22, 5.98],
			"faces": {
				"north": {"uv": [3.5, 9.125, 12.874, 15.248], "rotation": 90, "texture": "#1"}
			}
		},
		{
			"from": [2, 14, 5.98],
			"to": [6, 22, 5.98],
			"faces": {
				"north": {"uv": [3.5, 9.125, 12.874, 15.248], "rotation": 270, "texture": "#1"}
			}
		},
		{
			"from": [6, 13, 7],
			"to": [10, 21, 7],
			"faces": {
				"north": {"uv": [8.875, 11, 11.873, 14.872], "texture": "#1"},
				"down": {"uv": [0, 0, 4, 0], "texture": "#1"}
			}
		}
	],
	"display": {
		"thirdperson_righthand": {
			"rotation": [66.25, 0, 0],
			"translation": [-6, 9, -9.5]
		},
		"gui": {
			"rotation": [0, 180, -0.25],
			"translation": [0, -4, 0],
			"scale": [0.5, 0.5, 0.5]
		},
		"fixed": {
			"rotation": [90, 0, -7],
			"translation": [0, -11.85, -54],
			"scale": [2, 2, 2]
		}
	},
	"groups": [0, 1, 2, 3, 4, 5, 6, 7, 8, 9, 10, 11, 12, 13, 14, 15, 16, 17, 18, 19, 20, 21, 22, 23, 24, 25, 26, 27, 28, 29, 30, 31, 32, 33, 34, 35, 36, 37, 38, 39, 40, 41, 42, 43, 44, 45, 46, 47, 48, 49, 50, 51, 52, 53, 54, 55, 56, 57, 58, 59, 60, 61, 62, 63, 64, 65, 66, 67, 68, 69, 70, 71, 72, 73, 74, 75, 76, 77, 78, 79, 80, 81,
		{
			"name": "group",
			"origin": [8, 8, 8],
			"children": [82, 83, 84, 85, 86]
		},
		{
			"name": "group",
			"origin": [8, 8, 8],
			"children": [87, 88, 89, 90, 91, 92, 93, 94]
		}, 95, 96, 97, 98, 99, 100, 101, 102, 103, 104, 105, 106, 107, 108, 109, 110, 111, 112, 113, 114, 115]
}