{
	"credit": "by mordobi27",
	"textures": {
		"0": "models/oicw_base",
		"1": "models/oicw_base2",
		"2": "models/oicw_base3",
		"3": "models/leather",
		"4": "models/morrow/blood",
		"particle": "models/oicw_base"
	},
	"elements": [
		{
			"from": [7.0625, 4.5625, 2.125],
			"to": [7.1875, 4.75, 5.6875],
			"faces": {
				"west": {"uv": [2.99984, 2.49987, 3.99944, 3.49947], "texture": "#2"},
				"up": {"uv": [2.99984, 2.49987, 3.99944, 3.49947], "texture": "#2"},
				"down": {"uv": [2.99984, 2.49987, 3.99944, 3.49947], "texture": "#2"}
			}
		},
		{
			"from": [7, 4.5, 5.5],
			"to": [7.1875, 4.8125, 7.875],
			"faces": {
				"north": {"uv": [1.49992, 2.49987, 2.49987, 3.49981], "texture": "#2"},
				"west": {"uv": [10.49978, 0, 11.49978, 1], "texture": "#0"},
				"up": {"uv": [10.49978, 0, 11.49978, 1], "texture": "#0"},
				"down": {"uv": [10.49978, 0, 11.49978, 1], "texture": "#0"}
			}
		},
		{
			"from": [7, 4.5, 2.0625],
			"to": [7.1875, 4.8125, 2.25],
			"faces": {
				"north": {"uv": [1.49992, 2.49987, 2.49987, 3.49981], "texture": "#2"},
				"south": {"uv": [1.49992, 2.49987, 2.49987, 3.49981], "texture": "#2"},
				"west": {"uv": [1.49992, 2.49987, 2.49987, 3.49981], "texture": "#2"},
				"up": {"uv": [1.49992, 2.49987, 2.49987, 3.49981], "texture": "#2"},
				"down": {"uv": [1.49992, 2.49987, 2.49987, 3.49981], "texture": "#2"}
			}
		},
		{
			"from": [6.8125, 4.5, 3.0625],
			"to": [7.1875, 4.8125, 3.25],
			"faces": {
				"north": {"uv": [1.49992, 2.49987, 2.49987, 3.49981], "texture": "#2"},
				"south": {"uv": [1.49992, 2.49987, 2.49987, 3.49981], "texture": "#2"},
				"west": {"uv": [1.49992, 2.49987, 2.49987, 3.49981], "texture": "#2"},
				"up": {"uv": [1.49992, 2.49987, 2.49987, 3.49981], "texture": "#2"},
				"down": {"uv": [1.49992, 2.49987, 2.49987, 3.49981], "texture": "#2"}
			}
		},
		{
			"from": [7.6875, 5.00011, -3.18761],
			"to": [7.875, 5.12511, -3.06261],
			"rotation": {"angle": 45, "axis": "x", "origin": [7.78125, 5.06261, -3.12511], "rescale": true},
			"faces": {
				"north": {"uv": [6.125, 5.875, 9.499, 9.123], "texture": "#4"},
				"east": {"uv": [6.125, 5.875, 9.499, 9.123], "texture": "#4"},
				"south": {"uv": [6.125, 5.875, 9.499, 9.123], "texture": "#4"},
				"west": {"uv": [6.125, 5.875, 9.499, 9.123], "texture": "#4"},
				"up": {"uv": [6.125, 5.875, 9.499, 9.123], "texture": "#4"},
				"down": {"uv": [6.125, 5.875, 9.499, 9.123], "texture": "#4"}
			}
		},
		{
			"from": [8.125, 5.00011, -3.18761],
			"to": [8.3125, 5.12511, -3.06261],
			"rotation": {"angle": 45, "axis": "x", "origin": [8.21875, 5.06261, -3.12511], "rescale": true},
			"faces": {
				"north": {"uv": [7.375, 5.875, 10.624, 9.123], "texture": "#4"},
				"east": {"uv": [7.375, 5.875, 10.624, 9.123], "texture": "#4"},
				"south": {"uv": [7.375, 5.875, 10.624, 9.123], "texture": "#4"},
				"west": {"uv": [7.375, 5.875, 10.624, 9.123], "texture": "#4"},
				"up": {"uv": [7.375, 5.875, 10.624, 9.123], "texture": "#4"},
				"down": {"uv": [7.375, 5.875, 10.624, 9.123], "texture": "#4"}
			}
		},
		{
			"from": [7.6875, 4.37511, -3.18761],
			"to": [7.875, 4.50011, -3.06261],
			"rotation": {"angle": 45, "axis": "x", "origin": [7.78125, 4.43761, -3.12511], "rescale": true},
			"faces": {
				"north": {"uv": [6.875, 5.75, 10.123, 8.374], "texture": "#4"},
				"east": {"uv": [6.875, 5.75, 10.123, 8.374], "texture": "#4"},
				"south": {"uv": [6.875, 5.75, 10.123, 8.374], "texture": "#4"},
				"west": {"uv": [6.875, 5.75, 10.123, 8.374], "texture": "#4"},
				"up": {"uv": [6.875, 5.75, 10.123, 8.374], "texture": "#4"},
				"down": {"uv": [6.875, 5.75, 10.123, 8.374], "texture": "#4"}
			}
		},
		{
			"from": [8.125, 4.37511, -3.18761],
			"to": [8.3125, 4.50011, -3.06261],
			"rotation": {"angle": 45, "axis": "x", "origin": [8.21875, 4.43761, -3.12511], "rescale": true},
			"faces": {
				"north": {"uv": [6.625, 5.75, 8.623, 7.873], "texture": "#4"},
				"east": {"uv": [6.625, 5.75, 8.623, 7.873], "texture": "#4"},
				"south": {"uv": [6.625, 5.75, 8.623, 7.873], "texture": "#4"},
				"west": {"uv": [6.625, 5.75, 8.623, 7.873], "texture": "#4"},
				"up": {"uv": [6.625, 5.75, 8.623, 7.873], "texture": "#4"},
				"down": {"uv": [6.625, 5.75, 8.623, 7.873], "texture": "#4"}
			}
		},
		{
			"from": [7.62489, 4.87522, -3.18761],
			"to": [7.74989, 5.06272, -3.06261],
			"rotation": {"angle": 45, "axis": "y", "origin": [7.68739, 4.96897, -3.12511], "rescale": true},
			"faces": {
				"north": {"uv": [6.25, 5.625, 9.499, 6.373], "texture": "#4"},
				"east": {"uv": [6.25, 5.625, 9.499, 6.373], "texture": "#4"},
				"south": {"uv": [6.25, 5.625, 9.499, 6.373], "texture": "#4"},
				"west": {"uv": [6.25, 5.625, 9.499, 6.373], "texture": "#4"},
				"up": {"uv": [6.25, 5.625, 9.499, 6.373], "texture": "#4"},
				"down": {"uv": [6.25, 5.625, 9.499, 6.373], "texture": "#4"}
			}
		},
		{
			"from": [7.62489, 4.43772, -3.18761],
			"to": [7.74989, 4.62522, -3.06261],
			"rotation": {"angle": 45, "axis": "y", "origin": [7.68739, 4.53147, -3.12511], "rescale": true},
			"faces": {
				"north": {"uv": [7.375, 6.25, 9.374, 7.999], "texture": "#4"},
				"east": {"uv": [7.375, 6.25, 9.374, 7.999], "texture": "#4"},
				"south": {"uv": [7.375, 6.25, 9.374, 7.999], "texture": "#4"},
				"west": {"uv": [7.375, 6.25, 9.374, 7.999], "texture": "#4"},
				"up": {"uv": [7.375, 6.25, 9.374, 7.999], "texture": "#4"},
				"down": {"uv": [7.375, 6.25, 9.374, 7.999], "texture": "#4"}
			}
		},
		{
			"from": [8.24989, 4.43772, -3.18761],
			"to": [8.37489, 4.62522, -3.06261],
			"rotation": {"angle": 45, "axis": "y", "origin": [8.31239, 4.53147, -3.12511], "rescale": true},
			"faces": {
				"north": {"uv": [6.125, 6.125, 10.124, 9.249], "texture": "#4"},
				"east": {"uv": [6.125, 6.125, 10.124, 9.249], "texture": "#4"},
				"south": {"uv": [6.125, 6.125, 10.124, 9.249], "texture": "#4"},
				"west": {"uv": [6.125, 6.125, 10.124, 9.249], "texture": "#4"},
				"up": {"uv": [6.125, 6.125, 10.124, 9.249], "texture": "#4"},
				"down": {"uv": [6.125, 6.125, 10.124, 9.249], "texture": "#4"}
			}
		},
		{
			"from": [8.24989, 4.87522, -3.18761],
			"to": [8.37489, 5.06272, -3.06261],
			"rotation": {"angle": 45, "axis": "y", "origin": [8.31239, 4.96897, -3.12511], "rescale": true},
			"faces": {
				"north": {"uv": [5.999, 5.5, 9.373, 7.623], "texture": "#4"},
				"east": {"uv": [5.999, 5.5, 9.373, 7.623], "texture": "#4"},
				"south": {"uv": [5.999, 5.5, 9.373, 7.623], "texture": "#4"},
				"west": {"uv": [5.999, 5.5, 9.373, 7.623], "texture": "#4"},
				"up": {"uv": [5.999, 5.5, 9.373, 7.623], "texture": "#4"},
				"down": {"uv": [5.999, 5.5, 9.373, 7.623], "texture": "#4"}
			}
		},
		{
			"from": [7.6875, 4.4375, -3.125],
			"to": [8.3125, 5.0625, -3],
			"faces": {
				"north": {"uv": [5.999, 5.999, 8.873, 8.873], "texture": "#4"},
				"east": {"uv": [5.999, 5.999, 8.873, 8.873], "texture": "#4"},
				"south": {"uv": [5.999, 5.999, 8.873, 8.873], "texture": "#4"},
				"west": {"uv": [5.999, 5.999, 8.873, 8.873], "texture": "#4"},
				"up": {"uv": [5.999, 5.999, 8.873, 8.873], "texture": "#4"},
				"down": {"uv": [5.999, 5.999, 8.873, 8.873], "texture": "#4"}
			}
		},
		{
			"from": [7.5, 1.5625, 3.4375],
			"to": [8.5, 3.375, 5.1875],
			"faces": {
				"north": {"uv": [0, 2.49987, 1, 3.49987], "texture": "#2"},
				"east": {"uv": [0, 2.49987, 1, 3.49987], "texture": "#2"},
				"south": {"uv": [0, 2.49987, 1, 3.49987], "texture": "#2"},
				"west": {"uv": [0, 2.49987, 1, 3.49987], "texture": "#2"}
			}
		},
		{
			"from": [7.56188, -1.05343, 3.65214],
			"to": [8.43688, 1.19657, 5.21464],
			"rotation": {"angle": 22.5, "axis": "x", "origin": [7.99938, 1.60282, 4.40214]},
			"faces": {
				"north": {"uv": [10.49943, 0, 12.19943, 4.99836], "texture": "#1"},
				"east": {"uv": [7.24995, 0, 10.24979, 4.99938], "texture": "#1"},
				"south": {"uv": [10.49943, 0, 12.19943, 4.99836], "texture": "#1"},
				"west": {"uv": [10.24984, 0, 7.24984, 4.9995], "texture": "#1"},
				"down": {"uv": [10.24961, 0, 7.24961, 1.74922], "rotation": 270, "texture": "#1"}
			}
		},
		{
			"from": [7.49917, 0.67083, 5.59097],
			"to": [8.49917, 1.48333, 5.84097],
			"rotation": {"angle": 45, "axis": "x", "origin": [7.99917, 1.07708, 5.71597]},
			"faces": {
				"east": {"uv": [0, 2.49987, 1, 3.49987], "texture": "#2"},
				"south": {"uv": [0, 2.49987, 1, 3.49987], "texture": "#2"},
				"west": {"uv": [0, 2.49987, 1, 3.49987], "texture": "#2"}
			}
		},
		{
			"from": [7.5001, 1.26308, 5.74536],
			"to": [8.5001, 1.45058, 6.93286],
			"faces": {
				"east": {"uv": [0, 2.49987, 1, 3.49987], "texture": "#2"},
				"west": {"uv": [0, 2.49987, 1, 3.49987], "texture": "#2"},
				"up": {"uv": [0, 2.49987, 1, 3.49987], "texture": "#2"},
				"down": {"uv": [0, 2.49987, 1, 3.49987], "texture": "#2"}
			}
		},
		{
			"from": [7.5, 0.5, 7],
			"to": [8.5, 3.375, 8],
			"rotation": {"angle": -22.5, "axis": "x", "origin": [8, 2.34375, 7.5]},
			"faces": {
				"north": {"uv": [0, 2.49987, 1, 3.49987], "texture": "#2"},
				"east": {"uv": [0, 2.49987, 1, 3.49987], "texture": "#2"},
				"south": {"uv": [0, 2.49987, 1, 3.49987], "texture": "#2"},
				"west": {"uv": [0, 2.49987, 1, 3.49987], "texture": "#2"},
				"down": {"uv": [0, 2.49987, 1, 3.49987], "texture": "#2"}
			}
		},
		{
			"from": [7.50005, 0.56283, 7.51538],
			"to": [8.50005, 0.87533, 7.70288],
			"rotation": {"angle": 22.5, "axis": "x", "origin": [8.00005, 0.68783, 7.60913]},
			"faces": {
				"north": {"uv": [0, 2.49987, 1, 3.49987], "texture": "#2"},
				"east": {"uv": [0, 2.49987, 1, 3.49987], "texture": "#2"},
				"west": {"uv": [0, 2.49987, 1, 3.49987], "texture": "#2"}
			}
		},
		{
			"from": [7.6875, 3, 6.25],
			"to": [8.3125, 3.6875, 6.5625],
			"rotation": {"angle": -22.5, "axis": "x", "origin": [8, 2.65625, 7.625]},
			"faces": {
				"north": {"uv": [2.99984, 2.49987, 3.99944, 3.49947], "texture": "#2"},
				"east": {"uv": [2.99984, 2.49987, 3.99944, 3.49947], "texture": "#2"},
				"south": {"uv": [2.99984, 2.49987, 3.99944, 3.49947], "texture": "#2"},
				"west": {"uv": [2.99984, 2.49987, 3.99944, 3.49947], "texture": "#2"}
			}
		},
		{
			"from": [7.68751, 2.06732, 6.19923],
			"to": [8.31251, 2.56732, 6.51173],
			"faces": {
				"north": {"uv": [2.99984, 2.49987, 3.99944, 3.49947], "texture": "#2"},
				"east": {"uv": [2.99984, 2.49987, 3.99944, 3.49947], "texture": "#2"},
				"south": {"uv": [2.99984, 2.49987, 3.99944, 3.49947], "texture": "#2"},
				"west": {"uv": [2.99984, 2.49987, 3.99944, 3.49947], "texture": "#2"},
				"down": {"uv": [2.99984, 2.49987, 3.99944, 3.49947], "texture": "#2"}
			}
		},
		{
			"from": [7.1875, 3.375, 2.875],
			"to": [8.8125, 3.5, 7.375],
			"faces": {
				"east": {"uv": [0, 2.49987, 1, 3.49987], "texture": "#2"},
				"west": {"uv": [0, 2.49987, 1, 3.49987], "texture": "#2"},
				"down": {"uv": [0, 2.49987, 1, 3.49987], "texture": "#2"}
			}
		},
		{
			"from": [7.17188, 3.0625, 4.625],
			"to": [8.82813, 3.1875, 7.1875],
			"faces": {
				"north": {"uv": [10.49978, 0, 11.49978, 1], "texture": "#0"},
				"east": {"uv": [10.49978, 0, 11.49978, 1], "texture": "#0"},
				"west": {"uv": [10.49978, 0, 11.49978, 1], "texture": "#0"},
				"up": {"uv": [10.49978, 0, 11.49978, 1], "texture": "#0"},
				"down": {"uv": [10.49978, 0, 11.49978, 1], "texture": "#0"}
			}
		},
		{
			"from": [7.49938, 1.19657, 3.52714],
			"to": [8.49938, 2.00907, 5.77714],
			"rotation": {"angle": 22.5, "axis": "x", "origin": [7.99938, 1.60282, 4.40214]},
			"faces": {
				"east": {"uv": [0, 2.49987, 1, 3.49987], "texture": "#2"},
				"west": {"uv": [0, 2.49987, 1, 3.49987], "texture": "#2"},
				"up": {"uv": [0, 2.49987, 1, 3.49987], "texture": "#2"},
				"down": {"uv": [0, 2.49987, 1, 3.49987], "texture": "#2"}
			}
		},
		{
			"from": [7.5, 1.5625, 6.5625],
			"to": [8.5, 1.75, 7],
			"rotation": {"angle": -22.5, "axis": "x", "origin": [8, 2.34375, 7.5]},
			"faces": {
				"east": {"uv": [0, 2.49987, 1, 3.49987], "texture": "#2"},
				"west": {"uv": [0, 2.49987, 1, 3.49987], "texture": "#2"},
				"up": {"uv": [0, 2.49987, 1, 3.49987], "texture": "#2"},
				"down": {"uv": [0, 2.49987, 1, 3.49987], "texture": "#2"}
			}
		},
		{
			"from": [7.5, 0.5, 6.8125],
			"to": [8.5, 0.75, 7],
			"rotation": {"angle": -22.5, "axis": "x", "origin": [8, 2.34375, 7.5]},
			"faces": {
				"north": {"uv": [0, 2.49987, 1, 3.49987], "texture": "#2"},
				"east": {"uv": [0, 2.49987, 1, 3.49987], "texture": "#2"},
				"west": {"uv": [0, 2.49987, 1, 3.49987], "texture": "#2"},
				"down": {"uv": [0, 2.49987, 1, 3.49987], "texture": "#2"}
			}
		},
		{
			"from": [7.1875, 4, -1.4375],
			"to": [8.8125, 5.3125, 1.875],
			"faces": {
				"north": {"uv": [5.5, 5.125, 11.122, 10.624], "texture": "#4"},
				"east": {"uv": [5.5, 5.125, 11.122, 10.624], "texture": "#4"},
				"south": {"uv": [5.5, 5.125, 11.122, 10.624], "texture": "#4"},
				"west": {"uv": [5.5, 5.125, 11.122, 10.624], "texture": "#4"},
				"up": {"uv": [5.5, 5.125, 11.122, 10.624], "texture": "#4"},
				"down": {"uv": [5.5, 5.125, 11.122, 10.624], "texture": "#4"}
			}
		},
		{
			"from": [7.1875, 4.06366, -1.70767],
			"to": [8.8125, 5.26678, -1.20767],
			"rotation": {"angle": 22.5, "axis": "x", "origin": [8, 4.61053, -1.45767]},
			"faces": {
				"north": {"uv": [5.875, 4.25, 11.123, 10.874], "texture": "#4"},
				"east": {"uv": [5.875, 4.25, 11.123, 10.874], "texture": "#4"},
				"south": {"uv": [5.875, 4.25, 11.123, 10.874], "texture": "#4"},
				"west": {"uv": [5.875, 4.25, 11.123, 10.874], "texture": "#4"},
				"up": {"uv": [5.875, 4.25, 11.123, 10.874], "texture": "#4"},
				"down": {"uv": [5.875, 4.25, 11.123, 10.874], "texture": "#4"}
			}
		},
		{
			"from": [7.6875, 4.5625, -3.375],
			"to": [8.3125, 4.9375, -1.5],
			"faces": {
				"north": {"uv": [7.375, 6.125, 9.499, 8.375], "texture": "#4"},
				"east": {"uv": [7.375, 6.125, 9.499, 8.375], "texture": "#4"},
				"south": {"uv": [7.375, 6.125, 9.499, 8.375], "texture": "#4"},
				"west": {"uv": [7.375, 6.125, 9.499, 8.375], "texture": "#4"},
				"up": {"uv": [7.375, 6.125, 9.499, 8.375], "texture": "#4"},
				"down": {"uv": [7.375, 6.125, 9.499, 8.375], "texture": "#4"}
			}
		},
		{
			"from": [8, 5.125, -3.375],
			"to": [8.125, 5.25, -1.5],
			"rotation": {"angle": 45, "axis": "z", "origin": [8.3125, 4.9375, -2.34375], "rescale": true},
			"faces": {
				"north": {"uv": [6.25, 5.125, 9.624, 7.874], "texture": "#4"},
				"east": {"uv": [6.25, 5.125, 9.624, 7.874], "texture": "#4"},
				"south": {"uv": [6.25, 5.125, 9.624, 7.874], "texture": "#4"},
				"west": {"uv": [6.25, 5.125, 9.624, 7.874], "texture": "#4"},
				"up": {"uv": [6.25, 5.125, 9.624, 7.874], "texture": "#4"},
				"down": {"uv": [6.25, 5.125, 9.624, 7.874], "texture": "#4"}
			}
		},
		{
			"from": [7.375, 4.625, -4.6875],
			"to": [7.5, 4.75, -3.125],
			"rotation": {"angle": 45, "axis": "z", "origin": [7.6875, 4.9375, -2.90625], "rescale": true},
			"faces": {
				"north": {"uv": [7.5, 6.5, 10.249, 8.999], "texture": "#4"},
				"east": {"uv": [7.5, 6.5, 10.249, 8.999], "texture": "#4"},
				"south": {"uv": [7.5, 6.5, 10.249, 8.999], "texture": "#4"},
				"west": {"uv": [7.5, 6.5, 10.249, 8.999], "texture": "#4"},
				"up": {"uv": [7.5, 6.5, 10.249, 8.999], "texture": "#4"},
				"down": {"uv": [7.5, 6.5, 10.249, 8.999], "texture": "#4"}
			}
		},
		{
			"from": [7.875, 5.25, -4.6875],
			"to": [8, 5.375, -3.125],
			"rotation": {"angle": 45, "axis": "z", "origin": [8.1875, 5.0625, -2.90625], "rescale": true},
			"faces": {
				"north": {"uv": [6.375, 5.375, 8.999, 7.999], "texture": "#4"},
				"east": {"uv": [6.375, 5.375, 8.999, 7.999], "texture": "#4"},
				"south": {"uv": [6.375, 5.375, 8.999, 7.999], "texture": "#4"},
				"west": {"uv": [6.375, 5.375, 8.999, 7.999], "texture": "#4"},
				"up": {"uv": [6.375, 5.375, 8.999, 7.999], "texture": "#4"},
				"down": {"uv": [6.375, 5.375, 8.999, 7.999], "texture": "#4"}
			}
		},
		{
			"from": [7.5625, 4.875, -4.6875],
			"to": [7.6875, 5.0625, -3.125],
			"faces": {
				"north": {"uv": [6.375, 5.625, 8.749, 7.748], "texture": "#4"},
				"east": {"uv": [6.375, 5.625, 8.749, 7.748], "texture": "#4"},
				"south": {"uv": [6.375, 5.625, 8.749, 7.748], "texture": "#4"},
				"west": {"uv": [6.375, 5.625, 8.749, 7.748], "texture": "#4"},
				"up": {"uv": [6.375, 5.625, 8.749, 7.748], "texture": "#4"},
				"down": {"uv": [6.375, 5.625, 8.749, 7.748], "texture": "#4"}
			}
		},
		{
			"from": [7.5625, 4.4375, -4.6875],
			"to": [7.6875, 4.625, -3.125],
			"faces": {
				"north": {"uv": [6.125, 5.999, 9.499, 9.499], "texture": "#4"},
				"east": {"uv": [6.125, 5.999, 9.499, 9.499], "texture": "#4"},
				"south": {"uv": [6.125, 5.999, 9.499, 9.499], "texture": "#4"},
				"west": {"uv": [6.125, 5.999, 9.499, 9.499], "texture": "#4"},
				"up": {"uv": [6.125, 5.999, 9.499, 9.499], "texture": "#4"},
				"down": {"uv": [6.125, 5.999, 9.499, 9.499], "texture": "#4"}
			}
		},
		{
			"from": [7.1875, 3.5, 1.4375],
			"to": [8.8125, 3.625, 1.875],
			"faces": {
				"east": {"uv": [0, 2.49987, 1, 3.49987], "texture": "#2"},
				"west": {"uv": [0, 2.49987, 1, 3.49987], "texture": "#2"},
				"down": {"uv": [0, 2.49987, 1, 3.49987], "texture": "#2"}
			}
		},
		{
			"from": [7.1875, 3.75, -0.625],
			"to": [8.8125, 3.875, 1.875],
			"faces": {
				"east": {"uv": [0, 2.49987, 1, 3.49987], "texture": "#2"},
				"west": {"uv": [0, 2.49987, 1, 3.49987], "texture": "#2"},
				"down": {"uv": [0, 2.49987, 1, 3.49987], "texture": "#2"}
			}
		},
		{
			"from": [7.1875, 3.875, -1.4375],
			"to": [8.8125, 4, 1.875],
			"faces": {
				"east": {"uv": [0, 2.49987, 1, 3.49987], "texture": "#2"},
				"west": {"uv": [0, 2.49987, 1, 3.49987], "texture": "#2"},
				"down": {"uv": [0, 2.49987, 1, 3.49987], "texture": "#2"}
			}
		},
		{
			"from": [7.18698, 3.96584, -1.76896],
			"to": [8.81198, 4.09084, -1.39396],
			"rotation": {"angle": 22.5, "axis": "x", "origin": [7.99948, 4.02834, -1.64396]},
			"faces": {
				"east": {"uv": [0, 2.49987, 1, 3.49987], "texture": "#2"},
				"west": {"uv": [0, 2.49987, 1, 3.49987], "texture": "#2"},
				"down": {"uv": [0, 2.49987, 1, 3.49987], "texture": "#2"}
			}
		},
		{
			"from": [7.16758, 3.57958, 7.8043],
			"to": [8.82382, 4.57958, 8.1793],
			"rotation": {"angle": 22.5, "axis": "x", "origin": [7.9957, 4.07958, 7.9918]},
			"faces": {
				"north": {"uv": [10.49978, 0, 11.49978, 1], "texture": "#0"},
				"east": {"uv": [10.49978, 0, 11.49978, 1], "texture": "#0"},
				"south": {"uv": [10.49978, 0, 11.49978, 1], "texture": "#0"},
				"west": {"uv": [10.49978, 0, 11.49978, 1], "texture": "#0"}
			}
		},
		{
			"from": [7.16977, 3.57772, 7.42894],
			"to": [8.82602, 3.95272, 7.80394],
			"rotation": {"angle": -45, "axis": "x", "origin": [7.99789, 3.76522, 7.92894]},
			"faces": {
				"east": {"uv": [10.49978, 0, 11.49978, 1], "texture": "#0"},
				"west": {"uv": [10.49978, 0, 11.49978, 1], "texture": "#0"},
				"up": {"uv": [10.49978, 0, 11.49978, 1], "texture": "#0"},
				"down": {"uv": [10.49978, 0, 11.49978, 1], "texture": "#0"}
			}
		},
		{
			"from": [7.5, 2.8125, 7.625],
			"to": [8.5, 3.5625, 7.8125],
			"faces": {
				"east": {"uv": [0, 2.49987, 1, 3.49987], "texture": "#2"},
				"south": {"uv": [0, 2.49987, 1, 3.49987], "texture": "#2"},
				"west": {"uv": [0, 2.49987, 1, 3.49987], "texture": "#2"}
			}
		},
		{
			"from": [7.17149, 3.23976, 7.07789],
			"to": [8.82774, 3.61476, 7.64039],
			"rotation": {"angle": -22.5, "axis": "x", "origin": [7.99961, 3.42726, 7.57789]},
			"faces": {
				"east": {"uv": [10.49978, 0, 11.49978, 1], "texture": "#0"},
				"west": {"uv": [10.49978, 0, 11.49978, 1], "texture": "#0"},
				"up": {"uv": [10.49978, 0, 11.49978, 1], "texture": "#0"},
				"down": {"uv": [10.49978, 0, 11.49978, 1], "texture": "#0"}
			}
		},
		{
			"from": [7.17188, 3.1875, 4.875],
			"to": [8.82813, 3.40625, 7.1875],
			"faces": {
				"north": {"uv": [10.49978, 0, 11.49978, 1], "texture": "#0"},
				"east": {"uv": [10.49978, 0, 11.49978, 1], "texture": "#0"},
				"west": {"uv": [10.49978, 0, 11.49978, 1], "texture": "#0"},
				"up": {"uv": [10.49978, 0, 11.49978, 1], "texture": "#0"}
			}
		},
		{
			"from": [7.1875, 3.5, 1.875],
			"to": [8.8125, 5.3125, 7.875],
			"faces": {
				"east": {"uv": [3.49981, 0, 9.48981, 2], "texture": "#2"},
				"west": {"uv": [3.49981, 0, 9.48981, 2], "texture": "#2"},
				"down": {"uv": [3.49981, 0, 9.48981, 2], "texture": "#2"}
			}
		},
		{
			"from": [8.8225, 3.5, 1.875],
			"to": [8.8225, 5.3125, 7.875],
			"faces": {
				"east": {"uv": [2.875, 7.249, 8.864, 9.249], "texture": "#4"},
				"west": {"uv": [3.49981, 0, 9.48981, 2], "texture": "#2"},
				"down": {"uv": [3.49981, 0, 9.48981, 2], "texture": "#2"}
			}
		},
		{
			"from": [7.1875, 3.625, 0.25],
			"to": [8.8125, 3.75, 1.875],
			"faces": {
				"east": {"uv": [0, 2.49987, 1, 3.49987], "texture": "#2"},
				"west": {"uv": [0, 2.49987, 1, 3.49987], "texture": "#2"},
				"down": {"uv": [0, 2.49987, 1, 3.49987], "texture": "#2"}
			}
		},
		{
			"from": [7.18698, 3.59084, 1.10604],
			"to": [8.81198, 3.71584, 1.48104],
			"rotation": {"angle": 22.5, "axis": "x", "origin": [7.99948, 3.65334, 1.23104]},
			"faces": {
				"east": {"uv": [0, 2.49987, 1, 3.49987], "texture": "#2"},
				"west": {"uv": [0, 2.49987, 1, 3.49987], "texture": "#2"},
				"down": {"uv": [0, 2.49987, 1, 3.49987], "texture": "#2"}
			}
		},
		{
			"from": [7.18698, 3.71584, -0.08146],
			"to": [8.81198, 3.84084, 0.29354],
			"rotation": {"angle": 22.5, "axis": "x", "origin": [7.99948, 3.77834, 0.04354]},
			"faces": {
				"east": {"uv": [0, 2.49987, 1, 3.49987], "texture": "#2"},
				"west": {"uv": [0, 2.49987, 1, 3.49987], "texture": "#2"},
				"down": {"uv": [0, 2.49987, 1, 3.49987], "texture": "#2"}
			}
		},
		{
			"from": [7.18698, 3.46584, 2.54354],
			"to": [8.81198, 3.59084, 2.91854],
			"rotation": {"angle": 22.5, "axis": "x", "origin": [7.99948, 3.52834, 2.66854]},
			"faces": {
				"east": {"uv": [0, 2.49987, 1, 3.49987], "texture": "#2"},
				"west": {"uv": [0, 2.49987, 1, 3.49987], "texture": "#2"},
				"down": {"uv": [0, 2.49987, 1, 3.49987], "texture": "#2"}
			}
		},
		{
			"from": [7.5, 4.75, -3.375],
			"to": [7.625, 4.875, -1.5],
			"rotation": {"angle": 45, "axis": "z", "origin": [7.8125, 5.0625, -2.34375], "rescale": true},
			"faces": {
				"north": {"uv": [5.875, 5.375, 8.748, 8.124], "texture": "#4"},
				"east": {"uv": [5.875, 5.375, 8.748, 8.124], "texture": "#4"},
				"south": {"uv": [5.875, 5.375, 8.748, 8.124], "texture": "#4"},
				"west": {"uv": [5.875, 5.375, 8.748, 8.124], "texture": "#4"},
				"up": {"uv": [5.875, 5.375, 8.748, 8.124], "texture": "#4"},
				"down": {"uv": [5.875, 5.375, 8.748, 8.124], "texture": "#4"}
			}
		},
		{
			"from": [8.5, 4.75, -4.6875],
			"to": [8.625, 4.875, -3.125],
			"rotation": {"angle": 45, "axis": "z", "origin": [8.3125, 4.5625, -2.90625], "rescale": true},
			"faces": {
				"north": {"uv": [8.375, 5.5, 11.248, 8.374], "texture": "#4"},
				"east": {"uv": [8.375, 5.5, 11.248, 8.374], "texture": "#4"},
				"south": {"uv": [8.375, 5.5, 11.248, 8.374], "texture": "#4"},
				"west": {"uv": [8.375, 5.5, 11.248, 8.374], "texture": "#4"},
				"up": {"uv": [8.375, 5.5, 11.248, 8.374], "texture": "#4"},
				"down": {"uv": [8.375, 5.5, 11.248, 8.374], "texture": "#4"}
			}
		},
		{
			"from": [7.6875, 5.0625, -4.6875],
			"to": [7.875, 5.1875, -3.125],
			"faces": {
				"north": {"uv": [7.125, 5.5, 9.624, 7.874], "texture": "#4"},
				"east": {"uv": [7.125, 5.5, 9.624, 7.874], "texture": "#4"},
				"south": {"uv": [7.125, 5.5, 9.624, 7.874], "texture": "#4"},
				"west": {"uv": [7.125, 5.5, 9.624, 7.874], "texture": "#4"},
				"up": {"uv": [7.125, 5.5, 9.624, 7.874], "texture": "#4"},
				"down": {"uv": [7.125, 5.5, 9.624, 7.874], "texture": "#4"}
			}
		},
		{
			"from": [8.125, 4.3125, -4.6875],
			"to": [8.3125, 4.4375, -3.125],
			"faces": {
				"north": {"uv": [6.875, 5.125, 10.248, 9.374], "texture": "#4"},
				"east": {"uv": [6.875, 5.125, 10.248, 9.374], "texture": "#4"},
				"south": {"uv": [6.875, 5.125, 10.248, 9.374], "texture": "#4"},
				"west": {"uv": [6.875, 5.125, 10.248, 9.374], "texture": "#4"},
				"up": {"uv": [6.875, 5.125, 10.248, 9.374], "texture": "#4"},
				"down": {"uv": [6.875, 5.125, 10.248, 9.374], "texture": "#4"}
			}
		},
		{
			"from": [7.6875, 4.3125, -4.6875],
			"to": [7.875, 4.4375, -3.125],
			"faces": {
				"north": {"uv": [6.125, 5.75, 8.749, 7.873], "texture": "#4"},
				"east": {"uv": [6.125, 5.75, 8.749, 7.873], "texture": "#4"},
				"south": {"uv": [6.125, 5.75, 8.749, 7.873], "texture": "#4"},
				"west": {"uv": [6.125, 5.75, 8.749, 7.873], "texture": "#4"},
				"up": {"uv": [6.125, 5.75, 8.749, 7.873], "texture": "#4"},
				"down": {"uv": [6.125, 5.75, 8.749, 7.873], "texture": "#4"}
			}
		},
		{
			"from": [7.18742, 4.05567, -1.872],
			"to": [8.81242, 4.27442, -1.71575],
			"rotation": {"angle": -22.5, "axis": "x", "origin": [7.99992, 4.17285, -1.70013]},
			"faces": {
				"north": {"uv": [0, 2.49987, 1, 3.49987], "texture": "#2"},
				"east": {"uv": [0, 2.49987, 1, 3.49987], "texture": "#2"},
				"west": {"uv": [0, 2.49987, 1, 3.49987], "texture": "#2"}
			}
		},
		{
			"from": [7.18737, 3.99886, -1.81407],
			"to": [8.81237, 4.20198, -1.4547],
			"faces": {
				"east": {"uv": [0, 2.49987, 1, 3.49987], "texture": "#2"},
				"west": {"uv": [0, 2.49987, 1, 3.49987], "texture": "#2"},
				"down": {"uv": [0, 2.49987, 1, 3.49987], "texture": "#2"}
			}
		},
		{
			"from": [7.18698, 3.84084, -0.95646],
			"to": [8.81198, 3.96584, -0.58146],
			"rotation": {"angle": 22.5, "axis": "x", "origin": [7.99948, 3.90334, -0.83146]},
			"faces": {
				"east": {"uv": [0, 2.49987, 1, 3.49987], "texture": "#2"},
				"west": {"uv": [0, 2.49987, 1, 3.49987], "texture": "#2"},
				"down": {"uv": [0, 2.49987, 1, 3.49987], "texture": "#2"}
			}
		},
		{
			"from": [7.8125, 4.4375, -3.375],
			"to": [8.1875, 5.0625, -1.5],
			"faces": {
				"north": {"uv": [7.249, 6.625, 8.249, 7.624], "texture": "#4"},
				"east": {"uv": [7.249, 6.625, 8.249, 7.624], "texture": "#4"},
				"south": {"uv": [7.249, 6.625, 8.249, 7.624], "texture": "#4"},
				"west": {"uv": [7.249, 6.625, 8.249, 7.624], "texture": "#4"},
				"up": {"uv": [7.249, 6.625, 8.249, 7.624], "texture": "#4"},
				"down": {"uv": [7.249, 6.625, 8.249, 7.624], "texture": "#4"}
			}
		},
		{
			"from": [8.125, 5.0625, -4.6875],
			"to": [8.3125, 5.1875, -3.125],
			"faces": {
				"north": {"uv": [7.249, 5.999, 9.624, 8.374], "texture": "#4"},
				"east": {"uv": [7.249, 5.999, 9.624, 8.374], "texture": "#4"},
				"south": {"uv": [7.249, 5.999, 9.624, 8.374], "texture": "#4"},
				"west": {"uv": [7.249, 5.999, 9.624, 8.374], "texture": "#4"},
				"up": {"uv": [7.249, 5.999, 9.624, 8.374], "texture": "#4"},
				"down": {"uv": [7.249, 5.999, 9.624, 8.374], "texture": "#4"}
			}
		},
		{
			"from": [8.3125, 4.875, -4.6875],
			"to": [8.4375, 5.0625, -3.125],
			"faces": {
				"north": {"uv": [6.625, 6.5, 9.249, 9.624], "texture": "#4"},
				"east": {"uv": [6.625, 6.5, 9.249, 9.624], "texture": "#4"},
				"south": {"uv": [6.625, 6.5, 9.249, 9.624], "texture": "#4"},
				"west": {"uv": [6.625, 6.5, 9.249, 9.624], "texture": "#4"},
				"up": {"uv": [6.625, 6.5, 9.249, 9.624], "texture": "#4"},
				"down": {"uv": [6.625, 6.5, 9.249, 9.624], "texture": "#4"}
			}
		},
		{
			"from": [8.3125, 4.4375, -4.6875],
			"to": [8.4375, 4.625, -3.125],
			"faces": {
				"north": {"uv": [7, 5.875, 9.873, 8.249], "texture": "#4"},
				"east": {"uv": [7, 5.875, 9.873, 8.249], "texture": "#4"},
				"south": {"uv": [7, 5.875, 9.873, 8.249], "texture": "#4"},
				"west": {"uv": [7, 5.875, 9.873, 8.249], "texture": "#4"},
				"up": {"uv": [7, 5.875, 9.873, 8.249], "texture": "#4"},
				"down": {"uv": [7, 5.875, 9.873, 8.249], "texture": "#4"}
			}
		},
		{
			"from": [8, 4.125, -4.6875],
			"to": [8.125, 4.25, -3.125],
			"rotation": {"angle": 45, "axis": "z", "origin": [7.8125, 4.4375, -2.90625], "rescale": true},
			"faces": {
				"north": {"uv": [5.25, 5.875, 7.373, 8.124], "texture": "#4"},
				"east": {"uv": [5.25, 5.875, 7.373, 8.124], "texture": "#4"},
				"south": {"uv": [5.25, 5.875, 7.373, 8.124], "texture": "#4"},
				"west": {"uv": [5.25, 5.875, 7.373, 8.124], "texture": "#4"},
				"up": {"uv": [5.25, 5.875, 7.373, 8.124], "texture": "#4"},
				"down": {"uv": [5.25, 5.875, 7.373, 8.124], "texture": "#4"}
			}
		},
		{
			"from": [8.375, 4.625, -3.375],
			"to": [8.5, 4.75, -1.5],
			"rotation": {"angle": 45, "axis": "z", "origin": [8.1875, 4.4375, -2.34375], "rescale": true},
			"faces": {
				"north": {"uv": [6.625, 5.75, 9.748, 8.998], "texture": "#4"},
				"east": {"uv": [6.625, 5.75, 9.748, 8.998], "texture": "#4"},
				"south": {"uv": [6.625, 5.75, 9.748, 8.998], "texture": "#4"},
				"west": {"uv": [6.625, 5.75, 9.748, 8.998], "texture": "#4"},
				"up": {"uv": [6.625, 5.75, 9.748, 8.998], "texture": "#4"},
				"down": {"uv": [6.625, 5.75, 9.748, 8.998], "texture": "#4"}
			}
		},
		{
			"from": [7.875, 4.25, -3.375],
			"to": [8, 4.375, -1.5],
			"rotation": {"angle": 45, "axis": "z", "origin": [7.6875, 4.5625, -2.34375], "rescale": true},
			"faces": {
				"north": {"uv": [5.625, 4.875, 10.998, 8.624], "texture": "#4"},
				"east": {"uv": [5.625, 4.875, 10.998, 8.624], "texture": "#4"},
				"south": {"uv": [5.625, 4.875, 10.998, 8.624], "texture": "#4"},
				"west": {"uv": [5.625, 4.875, 10.998, 8.624], "texture": "#4"},
				"up": {"uv": [5.625, 4.875, 10.998, 8.624], "texture": "#4"},
				"down": {"uv": [5.625, 4.875, 10.998, 8.624], "texture": "#4"}
			}
		},
		{
			"from": [7.1875, 4.28125, 7.875],
			"to": [8.8125, 5.3125, 8.25],
			"faces": {
				"east": {"uv": [0, 2.49987, 1, 3.49987], "texture": "#2"},
				"west": {"uv": [0, 2.49987, 1, 3.49987], "texture": "#2"}
			}
		},
		{
			"from": [7.4375, 0.625, 10.125],
			"to": [8.5625, 0.8125, 12.5],
			"faces": {
				"north": {"uv": [1.49992, 7.49994, 2.24953, 8.24955], "texture": "#1"},
				"east": {"uv": [1.49992, 7.49994, 2.24953, 8.24955], "texture": "#1"},
				"south": {"uv": [1.49992, 7.49994, 2.24953, 8.24955], "texture": "#1"},
				"west": {"uv": [1.49992, 7.49994, 2.24953, 8.24955], "texture": "#1"},
				"up": {"uv": [1.49992, 7.49994, 2.24953, 8.24955], "texture": "#1"},
				"down": {"uv": [1.49992, 7.49994, 2.24953, 8.24955], "texture": "#1"}
			}
		},
		{
			"from": [7.56247, 3.61747, 9.89528],
			"to": [8.43747, 4.30497, 10.22341],
			"rotation": {"angle": 45, "axis": "x", "origin": [7.99997, 4.11747, 10.06716]},
			"faces": {
				"north": {"uv": [11.74971, 0, 12.74897, 0.99926], "texture": "#0"},
				"east": {"uv": [11.74971, 0, 12.74897, 0.99926], "texture": "#0"},
				"south": {"uv": [11.74971, 0, 12.74897, 0.99926], "texture": "#0"},
				"west": {"uv": [11.74971, 0, 12.74897, 0.99926], "texture": "#0"},
				"down": {"uv": [11.74971, 0, 12.74897, 0.99926], "texture": "#0"}
			}
		},
		{
			"from": [7.43747, 3.99247, 10.08278],
			"to": [8.56247, 4.86747, 12.72341],
			"rotation": {"angle": 22.5, "axis": "x", "origin": [7.99997, 4.05497, 10.25466]},
			"faces": {
				"north": {"uv": [11.74971, 0, 12.74897, 0.99926], "texture": "#0"},
				"east": {"uv": [11.74971, 0, 12.74897, 0.99926], "texture": "#0"},
				"south": {"uv": [11.74971, 0, 12.74897, 0.99926], "texture": "#0"},
				"west": {"uv": [11.74971, 0, 12.74897, 0.99926], "texture": "#0"},
				"down": {"uv": [11.74971, 0, 12.74897, 0.99926], "texture": "#0"}
			}
		},
		{
			"from": [7.0625, 3.8125, 14],
			"to": [8.9375, 7, 14.3125],
			"faces": {
				"north": {"uv": [11.74971, 0, 12.74897, 0.99926], "texture": "#0"},
				"east": {"uv": [11.74971, 0, 12.74897, 0.99926], "texture": "#0"},
				"south": {"uv": [11.74971, 0, 12.74897, 0.99926], "texture": "#0"},
				"west": {"uv": [11.74971, 0, 12.74897, 0.99926], "texture": "#0"}
			}
		},
		{
			"from": [7.1875, 3.6875, 14],
			"to": [8.8125, 7.125, 14.3125],
			"faces": {
				"north": {"uv": [11.74971, 0, 12.74897, 0.99926], "texture": "#0"},
				"south": {"uv": [11.74971, 0, 12.74897, 0.99926], "texture": "#0"},
				"up": {"uv": [11.74971, 0, 12.74897, 0.99926], "texture": "#0"},
				"down": {"uv": [11.74971, 0, 12.74897, 0.99926], "texture": "#0"}
			}
		},
		{
			"from": [7.12462, 3.74868, 14.00169],
			"to": [7.24962, 3.87368, 14.31419],
			"rotation": {"angle": 45, "axis": "z", "origin": [7.18712, 3.81118, 14.15794], "rescale": true},
			"faces": {
				"north": {"uv": [11.74971, 0, 12.74897, 0.99926], "texture": "#0"},
				"south": {"uv": [11.74971, 0, 12.74897, 0.99926], "texture": "#0"},
				"west": {"uv": [11.74971, 0, 12.74897, 0.99926], "texture": "#0"}
			}
		},
		{
			"from": [8.78288, 6.06247, 13.99842],
			"to": [8.90788, 6.18747, 14.31092],
			"rotation": {"angle": 45, "axis": "z", "origin": [7.97038, 4.46872, 14.15467], "rescale": true},
			"faces": {
				"north": {"uv": [11.74971, 0, 12.74897, 0.99926], "texture": "#0"},
				"south": {"uv": [11.74971, 0, 12.74897, 0.99926], "texture": "#0"},
				"up": {"uv": [11.74971, 0, 12.74897, 0.99926], "texture": "#0"}
			}
		},
		{
			"from": [7.08963, 6.05948, 14.00715],
			"to": [7.21463, 6.18448, 14.31965],
			"rotation": {"angle": 45, "axis": "z", "origin": [6.27713, 7.77823, 14.1634], "rescale": true},
			"faces": {
				"north": {"uv": [11.74971, 0, 12.74897, 0.99926], "texture": "#0"},
				"east": {"uv": [11.74971, 0, 12.74897, 0.99926], "texture": "#0"},
				"south": {"uv": [11.74971, 0, 12.74897, 0.99926], "texture": "#0"}
			}
		},
		{
			"from": [7.09212, 4.62503, 14.00158],
			"to": [7.21712, 4.75003, 14.31408],
			"rotation": {"angle": 45, "axis": "z", "origin": [8.02962, 6.34378, 14.15783], "rescale": true},
			"faces": {
				"north": {"uv": [11.74971, 0, 12.74897, 0.99926], "texture": "#0"},
				"south": {"uv": [11.74971, 0, 12.74897, 0.99926], "texture": "#0"},
				"down": {"uv": [11.74971, 0, 12.74897, 0.99926], "texture": "#0"}
			}
		},
		{
			"from": [7.28125, 6.59375, 11],
			"to": [7.59375, 6.90625, 14],
			"rotation": {"angle": 45, "axis": "z", "origin": [7.4375, 6.75, 8.5], "rescale": true},
			"faces": {
				"up": {"uv": [3.24983, 7.49718, 6.24933, 7.74717], "rotation": 90, "texture": "#0"}
			}
		},
		{
			"from": [8.40625, 6.59375, 11],
			"to": [8.71875, 6.90625, 14],
			"rotation": {"angle": 45, "axis": "z", "origin": [8.5625, 6.75, 8.5], "rescale": true},
			"faces": {
				"east": {"uv": [3.24983, 5.74969, 6.24933, 5.99692], "rotation": 180, "texture": "#0"}
			}
		},
		{
			"from": [7.125, 3.9375, 11.8125],
			"to": [8.875, 4.0625, 14],
			"faces": {
				"east": {"uv": [2.9995, 7.99977, 0.5, 8.09977], "texture": "#0"},
				"west": {"uv": [0.5, 7.99977, 2.9995, 8.09977], "texture": "#0"},
				"down": {"uv": [9.24985, 1.24993, 10.24945, 2.24953], "texture": "#0"}
			}
		},
		{
			"from": [7.12497, 3.99247, 11.52028],
			"to": [8.87497, 4.11747, 11.84841],
			"rotation": {"angle": 22.5, "axis": "x", "origin": [7.99997, 4.05497, 11.69216]},
			"faces": {
				"east": {"uv": [9.24985, 1.24993, 10.24945, 2.24953], "texture": "#0"},
				"west": {"uv": [9.24985, 1.24993, 10.24945, 2.24953], "texture": "#0"},
				"down": {"uv": [9.24985, 1.24993, 10.24945, 2.24953], "texture": "#0"}
			}
		},
		{
			"from": [7.125, 3.8125, 12.8125],
			"to": [8.875, 3.9375, 14],
			"faces": {
				"east": {"uv": [2.9995, 8.12477, 1.625, 8.22477], "texture": "#0"},
				"west": {"uv": [1.625, 8.12477, 2.9995, 8.22477], "texture": "#0"},
				"down": {"uv": [3.62498, 5.87486, 4.99801, 7.37236], "rotation": 270, "texture": "#0"}
			}
		},
		{
			"from": [7.12497, 3.86747, 12.52028],
			"to": [8.87497, 3.99247, 12.84841],
			"rotation": {"angle": 22.5, "axis": "x", "origin": [7.99997, 3.92997, 12.69216]},
			"faces": {
				"east": {"uv": [9.24985, 1.24993, 10.24945, 2.24953], "texture": "#0"},
				"west": {"uv": [9.24985, 1.24993, 10.24945, 2.24953], "texture": "#0"},
				"down": {"uv": [9.24985, 1.24993, 10.24945, 2.24953], "texture": "#0"}
			}
		},
		{
			"from": [7.4375, 6.75, 11],
			"to": [8.5625, 7.0625, 14],
			"faces": {
				"up": {"uv": [3.24983, 5.99968, 6.24933, 7.49753], "rotation": 90, "texture": "#0"}
			}
		},
		{
			"from": [7.125, 4.1875, 11],
			"to": [8.875, 6.75, 14],
			"faces": {
				"east": {"uv": [0, 5.74969, 2.9995, 8.24852], "rotation": 180, "texture": "#0"},
				"west": {"uv": [0, 8.24852, 2.9995, 5.74969], "texture": "#0"},
				"up": {"uv": [0, 5.74969, 2.49952, 6.49896], "rotation": 90, "texture": "#0"}
			}
		},
		{
			"from": [7.5, 0.75, 10.1875],
			"to": [8.5, 4.25, 12.4375],
			"faces": {
				"north": {"uv": [6.74779, 0, 4.74928, 6.99961], "texture": "#1"},
				"east": {"uv": [4.49826, 0, 0, 6.99883], "texture": "#1"},
				"south": {"uv": [4.74928, 0, 6.74779, 6.99961], "texture": "#1"},
				"west": {"uv": [0, 0, 4.49826, 6.99883], "texture": "#1"}
			}
		},
		{
			"from": [7.125, 4.0625, 10.8125],
			"to": [8.875, 4.1875, 14],
			"faces": {
				"east": {"uv": [2.9995, 7.87477, 0, 7.97477], "texture": "#0"},
				"west": {"uv": [0, 7.87477, 2.9995, 7.97477], "texture": "#0"},
				"down": {"uv": [9.24985, 1.24993, 10.24945, 2.24953], "texture": "#0"}
			}
		},
		{
			"from": [7.12497, 4.11747, 10.52028],
			"to": [8.87497, 4.24247, 10.84841],
			"rotation": {"angle": 22.5, "axis": "x", "origin": [7.99997, 4.17997, 10.69216]},
			"faces": {
				"east": {"uv": [9.24985, 1.24993, 10.24945, 2.24953], "texture": "#0"},
				"west": {"uv": [9.24985, 1.24993, 10.24945, 2.24953], "texture": "#0"},
				"down": {"uv": [9.24985, 1.24993, 10.24945, 2.24953], "texture": "#0"}
			}
		},
		{
			"from": [7, 5, 2],
			"to": [9, 7, 11],
			"faces": {
				"east": {"uv": [9, 0, 0, 2], "texture": "#0"},
				"south": {"uv": [9.24985, 0.59342, 10.24876, 2.24609], "texture": "#0"},
				"west": {"uv": [0, 0, 9, 2], "texture": "#0"}
			}
		},
		{
			"from": [9, 5, 2],
			"to": [9, 7, 11],
			"faces": {
				"east": {"uv": [11.748, 8.875, 7.125, 15.999], "rotation": 90, "texture": "#4"}
			}
		},
		{
			"from": [7, 5, 2],
			"to": [7, 7, 11],
			"faces": {
				"north": {"uv": [11.748, 8.875, 7.125, 15.999], "rotation": 90, "texture": "#4"},
				"east": {"uv": [11.748, 8.875, 7.125, 15.999], "rotation": 90, "texture": "#4"},
				"south": {"uv": [11.748, 8.875, 7.125, 15.999], "rotation": 90, "texture": "#4"},
				"west": {"uv": [11.748, 8.875, 7.125, 15.999], "rotation": 270, "texture": "#4"},
				"up": {"uv": [11.748, 8.875, 7.125, 15.999], "rotation": 90, "texture": "#4"},
				"down": {"uv": [11.748, 8.875, 7.125, 15.999], "rotation": 90, "texture": "#4"}
			}
		},
		{
			"from": [7.3125, 7, 2],
			"to": [8.6875, 7.3125, 11],
			"faces": {
				"north": {"uv": [10.49978, 0, 11.49978, 1], "texture": "#0"},
				"south": {"uv": [9.24985, 0, 10.24979, 0.99995], "texture": "#0"},
				"up": {"uv": [0, 2.49987, 9, 3.99841], "rotation": 90, "texture": "#0"}
			}
		},
		{
			"from": [7.3125, 7.01, 1.99],
			"to": [8.6875, 7.3225, 3.99],
			"faces": {
				"north": {"uv": [9.624, 6.125, 10.995, 9.374], "rotation": 270, "texture": "#4"},
				"up": {"uv": [7.75, 10.125, 9.367, 11.617], "rotation": 90, "texture": "#4"}
			}
		},
		{
			"from": [7.15625, 6.84375, 2],
			"to": [7.46875, 7.15625, 11],
			"rotation": {"angle": 45, "axis": "z", "origin": [7.3125, 7, 8.5], "rescale": true},
			"faces": {
				"north": {"uv": [7.625, 5.25, 9.624, 7.874], "texture": "#4"},
				"south": {"uv": [9.24985, 0, 10.24979, 0.99995], "texture": "#0"},
				"up": {"uv": [0, 3.9984, 8.99986, 4.24839], "rotation": 90, "texture": "#0"}
			}
		},
		{
			"from": [7.15625, 7.1663, 2],
			"to": [7.46875, 7.1663, 11],
			"rotation": {"angle": 45, "axis": "z", "origin": [7.3125, 7, 8.5], "rescale": true},
			"faces": {
				"north": {"uv": [7.625, 5.25, 9.624, 7.874], "texture": "#4"},
				"south": {"uv": [9.24985, 0, 10.24979, 0.99995], "texture": "#0"},
				"up": {"uv": [3.375, 3.624, 8.999, 4.373], "rotation": 270, "texture": "#4"}
			}
		},
		{
			"from": [8.53125, 6.84375, 2],
			"to": [8.84375, 7.15625, 11],
			"rotation": {"angle": 45, "axis": "z", "origin": [8.6875, 7, 8.5], "rescale": true},
			"faces": {
				"north": {"uv": [7.875, 5.875, 9.748, 8.623], "texture": "#4"},
				"east": {"uv": [0, 2.24988, 8.99986, 2.49814], "rotation": 180, "texture": "#0"},
				"south": {"uv": [9.24985, 0, 10.24979, 0.99995], "texture": "#0"}
			}
		},
		{
			"from": [8.8538, 6.84375, 2],
			"to": [8.8538, 7.15625, 11],
			"rotation": {"angle": 45, "axis": "z", "origin": [8.6875, 7, 8.5], "rescale": true},
			"faces": {
				"east": {"uv": [0.625, 4.625, 6.623, 7.495], "texture": "#4"}
			}
		},
		{
			"from": [7, 4.1875, 8.1875],
			"to": [9, 5.01563, 11],
			"faces": {
				"north": {"uv": [9.24985, 1.24993, 10.24945, 2.24953], "texture": "#0"},
				"east": {"uv": [2.49814, 4.49987, 0, 5.24811], "texture": "#0"},
				"south": {"uv": [9.24985, 1.24993, 10.24945, 2.24953], "texture": "#0"},
				"west": {"uv": [0, 4.49976, 2.49952, 5.24937], "texture": "#0"},
				"down": {"uv": [0, 4.49976, 2.49952, 5.24937], "rotation": 270, "texture": "#0"}
			}
		},
		{
			"from": [7.375, 5.75, 1.1875],
			"to": [8.625, 6.75, 2.0625],
			"faces": {
				"north": {"uv": [6.374, 6.124, 10.372, 9.87], "texture": "#4"},
				"east": {"uv": [5.374, 6.124, 10.372, 10.747], "texture": "#4"},
				"south": {"uv": [5.374, 6.124, 10.372, 10.747], "texture": "#4"},
				"west": {"uv": [5.374, 6.124, 10.372, 10.747], "texture": "#4"},
				"up": {"uv": [5.374, 6.124, 10.372, 10.747], "texture": "#4"},
				"down": {"uv": [5.374, 6.124, 10.372, 10.747], "texture": "#4"}
			}
		},
		{
			"from": [7.5, 5.9375, 0.625],
			"to": [7.625, 6.5625, 1.1875],
			"faces": {
				"north": {"uv": [5.75, 3.5, 11.498, 10.623], "texture": "#4"},
				"east": {"uv": [5.75, 3.5, 11.498, 10.623], "texture": "#4"},
				"south": {"uv": [5.75, 3.5, 11.498, 10.623], "texture": "#4"},
				"west": {"uv": [5.75, 3.5, 11.498, 10.623], "texture": "#4"},
				"up": {"uv": [5.75, 3.5, 11.498, 10.623], "texture": "#4"},
				"down": {"uv": [5.75, 3.5, 11.498, 10.623], "texture": "#4"}
			}
		},
		{
			"from": [7.6875, 5.75, 0.625],
			"to": [8.3125, 5.9375, 1.1875],
			"faces": {
				"north": {"uv": [7, 8.5, 10.374, 11.747], "texture": "#4"},
				"east": {"uv": [7, 8.5, 10.374, 11.747], "texture": "#4"},
				"south": {"uv": [7, 8.5, 10.374, 11.747], "texture": "#4"},
				"west": {"uv": [7, 8.5, 10.374, 11.747], "texture": "#4"},
				"up": {"uv": [7, 8.5, 10.374, 11.747], "texture": "#4"},
				"down": {"uv": [7, 8.5, 10.374, 11.747], "texture": "#4"}
			}
		},
		{
			"from": [7.5, 5.625, 1.1875],
			"to": [8.5, 6.875, 2.0625],
			"faces": {
				"north": {"uv": [6.375, 5.125, 9.874, 8.873], "texture": "#4"},
				"east": {"uv": [6.375, 5.125, 9.874, 8.873], "texture": "#4"},
				"south": {"uv": [6.375, 5.125, 9.874, 8.873], "texture": "#4"},
				"west": {"uv": [6.375, 5.125, 9.874, 8.873], "texture": "#4"},
				"up": {"uv": [6.375, 5.125, 9.874, 8.873], "texture": "#4"},
				"down": {"uv": [6.375, 5.125, 9.874, 8.873], "texture": "#4"}
			}
		},
		{
			"from": [7.01563, 5.04103, 1.57926],
			"to": [8.98438, 6.88478, 2.34488],
			"rotation": {"angle": 22.5, "axis": "x", "origin": [8, 5.88478, 2.07926]},
			"faces": {
				"north": {"uv": [6.25, 6.124, 9.621, 10.246], "texture": "#4"},
				"east": {"uv": [6.25, 6.124, 9.621, 10.246], "texture": "#4"},
				"south": {"uv": [6.25, 6.124, 9.621, 10.246], "texture": "#4"},
				"west": {"uv": [6.25, 6.124, 9.621, 10.246], "texture": "#4"},
				"up": {"uv": [6.25, 6.124, 9.621, 10.246], "texture": "#4"},
				"down": {"uv": [6.25, 6.124, 9.621, 10.246], "texture": "#4"}
			}
		},
		{
			"from": [7.4375, 6.6875, 1.1875],
			"to": [7.5625, 6.8125, 2.0625],
			"rotation": {"angle": 45, "axis": "z", "origin": [7.5, 6.75, 1.625], "rescale": true},
			"faces": {
				"north": {"uv": [7.625, 5.875, 10.997, 9.248], "texture": "#4"},
				"east": {"uv": [7.625, 5.875, 10.997, 9.248], "texture": "#4"},
				"south": {"uv": [7.625, 5.875, 10.997, 9.248], "texture": "#4"},
				"west": {"uv": [7.625, 5.875, 10.997, 9.248], "texture": "#4"},
				"up": {"uv": [7.625, 5.875, 10.997, 9.248], "texture": "#4"},
				"down": {"uv": [7.625, 5.875, 10.997, 9.248], "texture": "#4"}
			}
		},
		{
			"from": [8.4375, 6.6875, 1.1875],
			"to": [8.5625, 6.8125, 2.0625],
			"rotation": {"angle": 45, "axis": "z", "origin": [8.5, 6.75, 1.625], "rescale": true},
			"faces": {
				"north": {"uv": [7.625, 5.25, 11.122, 8.373], "texture": "#4"},
				"east": {"uv": [7.625, 5.25, 11.122, 8.373], "texture": "#4"},
				"south": {"uv": [7.625, 5.25, 11.122, 8.373], "texture": "#4"},
				"west": {"uv": [7.625, 5.25, 11.122, 8.373], "texture": "#4"},
				"up": {"uv": [7.625, 5.25, 11.122, 8.373], "texture": "#4"},
				"down": {"uv": [7.625, 5.25, 11.122, 8.373], "texture": "#4"}
			}
		},
		{
			"from": [7.59375, 6.53125, 0.625],
			"to": [7.78125, 6.65625, 1.1875],
			"rotation": {"angle": 45, "axis": "z", "origin": [7.6875, 6.5625, 0.90625], "rescale": true},
			"faces": {
				"north": {"uv": [6.875, 7.25, 8.249, 8.999], "texture": "#4"},
				"east": {"uv": [6.875, 7.25, 8.249, 8.999], "texture": "#4"},
				"south": {"uv": [6.875, 7.25, 8.249, 8.999], "texture": "#4"},
				"west": {"uv": [6.875, 7.25, 8.249, 8.999], "texture": "#4"},
				"up": {"uv": [6.875, 7.25, 8.249, 8.999], "texture": "#4"},
				"down": {"uv": [6.875, 7.25, 8.249, 8.999], "texture": "#4"}
			}
		},
		{
			"from": [8.28125, 6.46875, 0.625],
			"to": [8.40625, 6.65625, 1.1875],
			"rotation": {"angle": 45, "axis": "z", "origin": [8.3125, 6.5625, 0.90625], "rescale": true},
			"faces": {
				"north": {"uv": [5, 6.5, 9.874, 10.874], "texture": "#4"},
				"east": {"uv": [5, 6.5, 9.874, 10.874], "texture": "#4"},
				"south": {"uv": [5, 6.5, 9.874, 10.874], "texture": "#4"},
				"west": {"uv": [5, 6.5, 9.874, 10.874], "texture": "#4"},
				"up": {"uv": [5, 6.5, 9.874, 10.874], "texture": "#4"},
				"down": {"uv": [5, 6.5, 9.874, 10.874], "texture": "#4"}
			}
		},
		{
			"from": [8.21875, 5.84375, 0.625],
			"to": [8.40625, 5.96875, 1.1875],
			"rotation": {"angle": 45, "axis": "z", "origin": [8.3125, 5.9375, 0.90625], "rescale": true},
			"faces": {
				"north": {"uv": [5.375, 5.875, 10.874, 11.499], "texture": "#4"},
				"east": {"uv": [5.375, 5.875, 10.874, 11.499], "texture": "#4"},
				"south": {"uv": [5.375, 5.875, 10.874, 11.499], "texture": "#4"},
				"west": {"uv": [5.375, 5.875, 10.874, 11.499], "texture": "#4"},
				"up": {"uv": [5.375, 5.875, 10.874, 11.499], "texture": "#4"},
				"down": {"uv": [5.375, 5.875, 10.874, 11.499], "texture": "#4"}
			}
		},
		{
			"from": [7.59375, 5.84375, 0.625],
			"to": [7.71875, 6.03125, 1.1875],
			"rotation": {"angle": 45, "axis": "z", "origin": [7.6875, 5.9375, 0.90625], "rescale": true},
			"faces": {
				"north": {"uv": [6.375, 3.75, 8.373, 6.499], "texture": "#4"},
				"east": {"uv": [6.375, 3.75, 8.373, 6.499], "texture": "#4"},
				"south": {"uv": [6.375, 3.75, 8.373, 6.499], "texture": "#4"},
				"west": {"uv": [6.375, 3.75, 8.373, 6.499], "texture": "#4"},
				"up": {"uv": [6.375, 3.75, 8.373, 6.499], "texture": "#4"},
				"down": {"uv": [6.375, 3.75, 8.373, 6.499], "texture": "#4"}
			}
		},
		{
			"from": [7.4375, 5.6875, 1.1875],
			"to": [7.5625, 5.8125, 2.0625],
			"rotation": {"angle": 45, "axis": "z", "origin": [7.5, 5.75, 1.625], "rescale": true},
			"faces": {
				"north": {"uv": [6.375, 5, 9.748, 9.249], "texture": "#4"},
				"east": {"uv": [6.375, 5, 9.748, 9.249], "texture": "#4"},
				"south": {"uv": [6.375, 5, 9.748, 9.249], "texture": "#4"},
				"west": {"uv": [6.375, 5, 9.748, 9.249], "texture": "#4"},
				"up": {"uv": [6.375, 5, 9.748, 9.249], "texture": "#4"},
				"down": {"uv": [6.375, 5, 9.748, 9.249], "texture": "#4"}
			}
		},
		{
			"from": [8.4375, 5.6875, 1.1875],
			"to": [8.5625, 5.8125, 2.0625],
			"rotation": {"angle": 45, "axis": "z", "origin": [8.5, 5.75, 1.625], "rescale": true},
			"faces": {
				"north": {"uv": [6, 6.25, 9.623, 10.499], "texture": "#4"},
				"east": {"uv": [6, 6.25, 9.623, 10.499], "texture": "#4"},
				"south": {"uv": [6, 6.25, 9.623, 10.499], "texture": "#4"},
				"west": {"uv": [6, 6.25, 9.623, 10.499], "texture": "#4"},
				"up": {"uv": [6, 6.25, 9.623, 10.499], "texture": "#4"},
				"down": {"uv": [6, 6.25, 9.623, 10.499], "texture": "#4"}
			}
		},
		{
			"from": [7.02583, 4.74973, 1.29447],
			"to": [7.21333, 5.06223, 8.1851],
			"rotation": {"angle": 45, "axis": "z", "origin": [7.08833, 4.99973, 9.14604]},
			"faces": {
				"north": {"uv": [10.49978, 0, 11.49978, 1], "texture": "#0"},
				"west": {"uv": [10.49978, 0, 11.49978, 1], "texture": "#0"}
			}
		},
		{
			"from": [7, 4.99972, 1.29443],
			"to": [9, 5.2966, 2.01318],
			"faces": {
				"north": {"uv": [5.625, 5.625, 7.749, 9.374], "texture": "#4"},
				"east": {"uv": [5.625, 5.625, 7.749, 9.374], "texture": "#4"},
				"south": {"uv": [5.625, 5.625, 7.749, 9.374], "texture": "#4"},
				"west": {"uv": [5.625, 5.625, 7.749, 9.374], "texture": "#4"},
				"up": {"uv": [5.625, 5.625, 7.749, 9.374], "texture": "#4"},
				"down": {"uv": [5.625, 5.625, 7.749, 9.374], "texture": "#4"}
			}
		},
		{
			"from": [8.78655, 4.74971, 1.2945],
			"to": [8.97405, 5.06221, 8.18512],
			"rotation": {"angle": -45, "axis": "z", "origin": [8.91155, 4.99971, 9.14606]},
			"faces": {
				"north": {"uv": [8.125, 5.75, 10.374, 7.748], "texture": "#4"},
				"east": {"uv": [10.49978, 0, 11.49978, 1], "texture": "#0"}
			}
		},
		{
			"from": [8.9841, 4.74971, 1.2945],
			"to": [8.9841, 5.06221, 8.18512],
			"rotation": {"angle": -45, "axis": "z", "origin": [8.91155, 4.99971, 9.14606]},
			"faces": {
				"east": {"uv": [2.75, 10.5, 10.373, 11.371], "texture": "#4"}
			}
		},
		{
			"from": [7.00014, 4.24505, 7.82712],
			"to": [8.98452, 5.37005, 8.45212],
			"rotation": {"angle": -45, "axis": "x", "origin": [8.00014, 4.6513, 8.07712]},
			"faces": {
				"north": {"uv": [10.49978, 0, 11.49978, 1], "texture": "#0"},
				"east": {"uv": [10.49978, 0, 11.49978, 1], "texture": "#0"},
				"west": {"uv": [10.49978, 0, 11.49978, 1], "texture": "#0"}
			}
		},
		{
			"from": [8.375, 5.9375, 0.625],
			"to": [8.5, 6.5625, 1.1875],
			"faces": {
				"north": {"uv": [5.875, 7.25, 9.874, 10.748], "texture": "#4"},
				"east": {"uv": [5.875, 7.25, 9.874, 10.748], "texture": "#4"},
				"south": {"uv": [5.875, 7.25, 9.874, 10.748], "texture": "#4"},
				"west": {"uv": [5.875, 7.25, 9.874, 10.748], "texture": "#4"},
				"up": {"uv": [5.875, 7.25, 9.874, 10.748], "texture": "#4"},
				"down": {"uv": [5.875, 7.25, 9.874, 10.748], "texture": "#4"}
			}
		},
		{
			"from": [7.6875, 6.625, 0.625],
			"to": [8.3125, 6.75, 1.1875],
			"faces": {
				"north": {"uv": [7, 3.375, 8.499, 6.624], "texture": "#4"},
				"east": {"uv": [7, 3.375, 8.499, 6.624], "texture": "#4"},
				"south": {"uv": [7, 3.375, 8.499, 6.624], "texture": "#4"},
				"west": {"uv": [7, 3.375, 8.499, 6.624], "texture": "#4"},
				"up": {"uv": [7, 3.375, 8.499, 6.624], "texture": "#4"},
				"down": {"uv": [7, 3.375, 8.499, 6.624], "texture": "#4"}
			}
		},
		{
			"from": [7.67, 8.4825, 2.8125],
			"to": [8.33, 8.62, 3.5],
			"faces": {
				"north": {"uv": [8.625, 5, 10.874, 7.249], "texture": "#4"},
				"east": {"uv": [8.625, 5, 10.874, 7.249], "texture": "#4"},
				"south": {"uv": [8.625, 5, 10.874, 7.249], "texture": "#4"},
				"west": {"uv": [8.625, 5, 10.874, 7.249], "texture": "#4"},
				"up": {"uv": [8.625, 5, 10.874, 7.249], "texture": "#4"},
				"down": {"uv": [8.625, 5, 10.874, 7.249], "texture": "#4"}
			}
		},
		{
			"from": [7.5875, 8.315, 2.8125],
			"to": [7.725, 8.5375, 3.5],
			"faces": {
				"north": {"uv": [5.375, 6.5, 7.874, 9.624], "texture": "#4"},
				"east": {"uv": [5.375, 6.5, 7.874, 9.624], "texture": "#4"},
				"south": {"uv": [5.375, 6.5, 7.874, 9.624], "texture": "#4"},
				"west": {"uv": [5.375, 6.5, 7.874, 9.624], "texture": "#4"},
				"up": {"uv": [5.375, 6.5, 7.874, 9.624], "texture": "#4"},
				"down": {"uv": [5.375, 6.5, 7.874, 9.624], "texture": "#4"}
			}
		},
		{
			"from": [8.275, 8.315, 2.8125],
			"to": [8.4125, 8.5375, 3.5],
			"faces": {
				"north": {"uv": [7.375, 4.375, 10.499, 6.874], "texture": "#4"},
				"east": {"uv": [7.375, 4.375, 10.499, 6.874], "texture": "#4"},
				"south": {"uv": [7.375, 4.375, 10.499, 6.874], "texture": "#4"},
				"west": {"uv": [7.375, 4.375, 10.499, 6.874], "texture": "#4"},
				"up": {"uv": [7.375, 4.375, 10.499, 6.874], "texture": "#4"},
				"down": {"uv": [7.375, 4.375, 10.499, 6.874], "texture": "#4"}
			}
		},
		{
			"from": [7.58676, 8.19841, 2.92681],
			"to": [7.72426, 8.38591, 3.71181],
			"rotation": {"angle": 22.5, "axis": "x", "origin": [7.65551, 8.54216, 3.16306]},
			"faces": {
				"north": {"uv": [8, 5.125, 10.998, 8.249], "texture": "#4"},
				"east": {"uv": [8, 5.125, 10.998, 8.249], "texture": "#4"},
				"south": {"uv": [8, 5.125, 10.998, 8.249], "texture": "#4"},
				"west": {"uv": [8, 5.125, 10.998, 8.249], "texture": "#4"},
				"up": {"uv": [8, 5.125, 10.998, 8.249], "texture": "#4"},
				"down": {"uv": [8, 5.125, 10.998, 8.249], "texture": "#4"}
			}
		},
		{
			"from": [8.27426, 8.19841, 2.92681],
			"to": [8.41176, 8.38591, 3.71181],
			"rotation": {"angle": 22.5, "axis": "x", "origin": [8.34301, 8.54216, 3.16306]},
			"faces": {
				"north": {"uv": [6.5, 5.875, 9.999, 8.873], "texture": "#4"},
				"east": {"uv": [6.5, 5.875, 9.999, 8.873], "texture": "#4"},
				"south": {"uv": [6.5, 5.875, 9.999, 8.873], "texture": "#4"},
				"west": {"uv": [6.5, 5.875, 9.999, 8.873], "texture": "#4"},
				"up": {"uv": [6.5, 5.875, 9.999, 8.873], "texture": "#4"},
				"down": {"uv": [6.5, 5.875, 9.999, 8.873], "texture": "#4"}
			}
		},
		{
			"from": [8.275, 8.19, 3.1875],
			"to": [8.4125, 8.31875, 3.5],
			"faces": {
				"north": {"uv": [7.875, 5, 9.748, 7.749], "texture": "#4"},
				"east": {"uv": [7.875, 5, 9.748, 7.749], "texture": "#4"},
				"south": {"uv": [7.875, 5, 9.748, 7.749], "texture": "#4"},
				"west": {"uv": [7.875, 5, 9.748, 7.749], "texture": "#4"},
				"up": {"uv": [7.875, 5, 9.748, 7.749], "texture": "#4"},
				"down": {"uv": [7.875, 5, 9.748, 7.749], "texture": "#4"}
			}
		},
		{
			"from": [7.5875, 8.19, 3.1875],
			"to": [7.725, 8.31875, 3.5],
			"faces": {
				"north": {"uv": [7.375, 5.375, 10.249, 8.249], "texture": "#4"},
				"east": {"uv": [7.375, 5.375, 10.249, 8.249], "texture": "#4"},
				"south": {"uv": [7.375, 5.375, 10.249, 8.249], "texture": "#4"},
				"west": {"uv": [7.375, 5.375, 10.249, 8.249], "texture": "#4"},
				"up": {"uv": [7.375, 5.375, 10.249, 8.249], "texture": "#4"},
				"down": {"uv": [7.375, 5.375, 10.249, 8.249], "texture": "#4"}
			}
		},
		{
			"from": [7.125, 7.3125, 4.1875],
			"to": [7.25, 8.625, 6.6875],
			"faces": {
				"south": {"uv": [13.12481, 0.12482, 13.81201, 0.81065], "texture": "#0"},
				"west": {"uv": [13.12481, 0.12482, 13.81201, 0.81065], "texture": "#0"}
			}
		},
		{
			"from": [7.125, 7.3125, 8.9375],
			"to": [7.25, 8.625, 9.5],
			"faces": {
				"north": {"uv": [13.12481, 0.12482, 13.81201, 0.81065], "texture": "#0"},
				"south": {"uv": [13.12481, 0.12482, 13.81201, 0.81065], "texture": "#0"},
				"west": {"uv": [13.12481, 0.12482, 13.81201, 0.81065], "texture": "#0"}
			}
		},
		{
			"from": [7.125, 8.3125, 6.6875],
			"to": [7.25, 8.625, 8.9375],
			"faces": {
				"west": {"uv": [13.12481, 0.12482, 13.81201, 0.81065], "texture": "#0"},
				"down": {"uv": [13.12481, 0.12482, 13.81201, 0.81065], "texture": "#0"}
			}
		},
		{
			"from": [7.125, 7.3125, 6.6875],
			"to": [7.25, 7.625, 8.9375],
			"faces": {
				"west": {"uv": [13.12481, 0.12482, 13.81201, 0.81065], "texture": "#0"},
				"up": {"uv": [13.12481, 0.12482, 13.81201, 0.81065], "texture": "#0"}
			}
		},
		{
			"from": [7.31376, 7.12078, 3.18916],
			"to": [8.68876, 7.52703, 3.37666],
			"rotation": {"angle": 45, "axis": "x", "origin": [8.00126, 6.87078, 3.50166]},
			"faces": {
				"north": {"uv": [6.625, 5.999, 9.873, 8.998], "texture": "#4"},
				"east": {"uv": [6.625, 5.999, 9.873, 8.998], "texture": "#4"},
				"south": {"uv": [6.625, 5.999, 9.873, 8.998], "texture": "#4"},
				"west": {"uv": [6.625, 5.999, 9.873, 8.998], "texture": "#4"},
				"up": {"uv": [6.625, 5.999, 9.873, 8.998], "texture": "#4"},
				"down": {"uv": [6.625, 5.999, 9.873, 8.998], "texture": "#4"}
			}
		},
		{
			"from": [7.31376, 7.37078, 9.73604],
			"to": [8.68876, 7.77703, 9.92354],
			"rotation": {"angle": -45, "axis": "x", "origin": [8.00126, 7.12078, 10.04854]},
			"faces": {
				"east": {"uv": [10.49978, 0, 11.49978, 1], "texture": "#0"},
				"south": {"uv": [10.49978, 0, 11.49978, 1], "texture": "#0"},
				"west": {"uv": [10.49978, 0, 11.49978, 1], "texture": "#0"}
			}
		},
		{
			"from": [7.125, 7.84375, 6.9375],
			"to": [7.25, 8.09375, 7.1875],
			"faces": {
				"north": {"uv": [13.12481, 0.12482, 13.81201, 0.81065], "texture": "#0"},
				"south": {"uv": [13.12481, 0.12482, 13.81201, 0.81065], "texture": "#0"},
				"west": {"uv": [13.12481, 0.12482, 13.81201, 0.81065], "texture": "#0"},
				"up": {"uv": [13.12481, 0.12482, 13.81201, 0.81065], "texture": "#0"},
				"down": {"uv": [13.12481, 0.12482, 13.81201, 0.81065], "texture": "#0"}
			}
		},
		{
			"from": [7.125, 7.84375, 7.71875],
			"to": [7.25, 8.09375, 7.96875],
			"faces": {
				"north": {"uv": [13.12481, 0.12482, 13.81201, 0.81065], "texture": "#0"},
				"south": {"uv": [13.12481, 0.12482, 13.81201, 0.81065], "texture": "#0"},
				"west": {"uv": [13.12481, 0.12482, 13.81201, 0.81065], "texture": "#0"},
				"up": {"uv": [13.12481, 0.12482, 13.81201, 0.81065], "texture": "#0"},
				"down": {"uv": [13.12481, 0.12482, 13.81201, 0.81065], "texture": "#0"}
			}
		},
		{
			"from": [7.125, 7.84375, 8.5],
			"to": [7.25, 8.09375, 8.75],
			"faces": {
				"north": {"uv": [13.12481, 0.12482, 13.81201, 0.81065], "texture": "#0"},
				"south": {"uv": [13.12481, 0.12482, 13.81201, 0.81065], "texture": "#0"},
				"west": {"uv": [13.12481, 0.12482, 13.81201, 0.81065], "texture": "#0"},
				"up": {"uv": [13.12481, 0.12482, 13.81201, 0.81065], "texture": "#0"},
				"down": {"uv": [13.12481, 0.12482, 13.81201, 0.81065], "texture": "#0"}
			}
		},
		{
			"from": [7.375, 7.625, 9.8125],
			"to": [7.5, 8.125, 10.3125],
			"faces": {
				"east": {"uv": [11.74971, 0, 12.74897, 0.99926], "texture": "#0"},
				"south": {"uv": [11.74971, 0, 12.74897, 0.99926], "texture": "#0"},
				"west": {"uv": [11.74971, 0, 12.74897, 0.99926], "texture": "#0"}
			}
		},
		{
			"from": [8.5, 7.625, 9.8125],
			"to": [8.625, 8.125, 10.3125],
			"faces": {
				"east": {"uv": [11.74971, 0, 12.74897, 0.99926], "texture": "#0"},
				"south": {"uv": [11.74971, 0, 12.74897, 0.99926], "texture": "#0"},
				"west": {"uv": [11.74971, 0, 12.74897, 0.99926], "texture": "#0"}
			}
		},
		{
			"from": [7.3752, 7.92849, 9.52758],
			"to": [7.5002, 8.36599, 10.2307],
			"rotation": {"angle": 45, "axis": "x", "origin": [7.4377, 8.14724, 9.9807]},
			"faces": {
				"east": {"uv": [11.74971, 0, 12.74897, 0.99926], "texture": "#0"},
				"west": {"uv": [11.74971, 0, 12.74897, 0.99926], "texture": "#0"},
				"up": {"uv": [11.74971, 0, 12.74897, 0.99926], "texture": "#0"}
			}
		},
		{
			"from": [8.5002, 7.92849, 9.52758],
			"to": [8.6252, 8.36599, 10.2307],
			"rotation": {"angle": 45, "axis": "x", "origin": [8.5627, 8.14724, 9.9807]},
			"faces": {
				"east": {"uv": [11.74971, 0, 12.74897, 0.99926], "texture": "#0"},
				"west": {"uv": [11.74971, 0, 12.74897, 0.99926], "texture": "#0"},
				"up": {"uv": [11.74971, 0, 12.74897, 0.99926], "texture": "#0"}
			}
		},
		{
			"from": [7.5, 7.5, 9.3125],
			"to": [8.5, 7.625, 10.3125],
			"faces": {
				"south": {"uv": [11.74971, 0, 12.74897, 0.99926], "texture": "#0"},
				"up": {"uv": [11.74971, 0, 12.74897, 0.99926], "texture": "#0"},
				"down": {"uv": [11.74971, 0, 12.74897, 0.99926], "texture": "#0"}
			}
		},
		{
			"from": [8.28875, 7.83625, 3.5],
			"to": [8.37125, 7.91875, 4.25],
			"rotation": {"angle": 45, "axis": "z", "origin": [8.33, 7.8775, 3.8125], "rescale": true},
			"faces": {
				"north": {"uv": [7.249, 5.875, 9.248, 8.748], "texture": "#4"},
				"east": {"uv": [7.249, 5.875, 9.248, 8.748], "texture": "#4"},
				"south": {"uv": [7.249, 5.875, 9.248, 8.748], "texture": "#4"},
				"west": {"uv": [7.249, 5.875, 9.248, 8.748], "texture": "#4"},
				"up": {"uv": [7.249, 5.875, 9.248, 8.748], "texture": "#4"},
				"down": {"uv": [7.249, 5.875, 9.248, 8.748], "texture": "#4"}
			}
		},
		{
			"from": [7.62875, 7.83625, 3.5],
			"to": [7.71125, 7.91875, 4.25],
			"rotation": {"angle": 45, "axis": "z", "origin": [7.67, 7.8775, 3.8125], "rescale": true},
			"faces": {
				"north": {"uv": [8, 5.625, 9.873, 7.999], "texture": "#4"},
				"east": {"uv": [8, 5.625, 9.873, 7.999], "texture": "#4"},
				"south": {"uv": [8, 5.625, 9.873, 7.999], "texture": "#4"},
				"west": {"uv": [8, 5.625, 9.873, 7.999], "texture": "#4"},
				"up": {"uv": [8, 5.625, 9.873, 7.999], "texture": "#4"},
				"down": {"uv": [8, 5.625, 9.873, 7.999], "texture": "#4"}
			}
		},
		{
			"from": [7.5875, 7.8775, 3.5],
			"to": [8.4125, 8.5375, 4.25],
			"faces": {
				"north": {"uv": [7.249, 5.125, 9.373, 7.499], "texture": "#4"},
				"east": {"uv": [7.249, 5.125, 9.373, 7.499], "texture": "#4"},
				"south": {"uv": [7.249, 5.125, 9.373, 7.499], "texture": "#4"},
				"west": {"uv": [7.249, 5.125, 9.373, 7.499], "texture": "#4"},
				"up": {"uv": [7.249, 5.125, 9.373, 7.499], "texture": "#4"},
				"down": {"uv": [7.249, 5.125, 9.373, 7.499], "texture": "#4"}
			}
		},
		{
			"from": [8.28875, 8.49625, 2.8125],
			"to": [8.37125, 8.57875, 4.25],
			"rotation": {"angle": 45, "axis": "z", "origin": [8.33, 8.5375, 3.8125], "rescale": true},
			"faces": {
				"north": {"uv": [7.5, 5.25, 10.374, 7.749], "texture": "#4"},
				"east": {"uv": [7.5, 5.25, 10.374, 7.749], "texture": "#4"},
				"south": {"uv": [7.5, 5.25, 10.374, 7.749], "texture": "#4"},
				"west": {"uv": [7.5, 5.25, 10.374, 7.749], "texture": "#4"},
				"up": {"uv": [7.5, 5.25, 10.374, 7.749], "texture": "#4"},
				"down": {"uv": [7.5, 5.25, 10.374, 7.749], "texture": "#4"}
			}
		},
		{
			"from": [7.67, 7.795, 3.5],
			"to": [8.33, 8.62, 4.25],
			"faces": {
				"north": {"uv": [7.75, 5.75, 9.873, 8.748], "texture": "#4"},
				"east": {"uv": [7.75, 5.75, 9.873, 8.748], "texture": "#4"},
				"south": {"uv": [7.75, 5.75, 9.873, 8.748], "texture": "#4"},
				"west": {"uv": [7.75, 5.75, 9.873, 8.748], "texture": "#4"},
				"up": {"uv": [7.75, 5.75, 9.873, 8.748], "texture": "#4"},
				"down": {"uv": [7.75, 5.75, 9.873, 8.748], "texture": "#4"}
			}
		},
		{
			"from": [7.62875, 8.49625, 2.8125],
			"to": [7.71125, 8.57875, 4.25],
			"rotation": {"angle": 45, "axis": "z", "origin": [7.67, 8.5375, 3.8125], "rescale": true},
			"faces": {
				"north": {"uv": [7.75, 5.625, 9.873, 8.748], "texture": "#4"},
				"east": {"uv": [7.75, 5.625, 9.873, 8.748], "texture": "#4"},
				"south": {"uv": [7.75, 5.625, 9.873, 8.748], "texture": "#4"},
				"west": {"uv": [7.75, 5.625, 9.873, 8.748], "texture": "#4"},
				"up": {"uv": [7.75, 5.625, 9.873, 8.748], "texture": "#4"},
				"down": {"uv": [7.75, 5.625, 9.873, 8.748], "texture": "#4"}
			}
		},
		{
			"from": [8.4375, 7.5625, 9.1875],
			"to": [8.5625, 7.6875, 10.3125],
			"rotation": {"angle": 45, "axis": "z", "origin": [8.5, 7.625, 9.625], "rescale": true},
			"faces": {
				"south": {"uv": [11.74971, 0, 12.74897, 0.99926], "texture": "#0"},
				"up": {"uv": [11.74971, 0, 12.74897, 0.99926], "texture": "#0"},
				"down": {"uv": [11.74971, 0, 12.74897, 0.99926], "texture": "#0"}
			}
		},
		{
			"from": [7.4375, 7.5625, 9.1875],
			"to": [7.5625, 7.6875, 10.3125],
			"rotation": {"angle": 45, "axis": "z", "origin": [7.5, 7.625, 9.625], "rescale": true},
			"faces": {
				"east": {"uv": [11.74971, 0, 12.74897, 0.99926], "texture": "#0"},
				"south": {"uv": [11.74971, 0, 12.74897, 0.99926], "texture": "#0"},
				"west": {"uv": [11.74971, 0, 12.74897, 0.99926], "texture": "#0"}
			}
		},
		{
			"from": [7.375, 7.625, 9.1875],
			"to": [8.625, 8.625, 9.8125],
			"faces": {
				"east": {"uv": [11.74971, 0, 12.74897, 0.99926], "texture": "#0"},
				"south": {"uv": [11.74971, 0, 12.74897, 0.99926], "texture": "#0"},
				"west": {"uv": [11.74971, 0, 12.74897, 0.99926], "texture": "#0"}
			}
		},
		{
			"from": [8.4375, 8.5625, 9.1875],
			"to": [8.5625, 8.6875, 9.8125],
			"rotation": {"angle": 45, "axis": "z", "origin": [8.5, 8.625, 9.625], "rescale": true},
			"faces": {
				"east": {"uv": [11.74971, 0, 12.74897, 0.99926], "texture": "#0"},
				"south": {"uv": [11.74971, 0, 12.74897, 0.99926], "texture": "#0"}
			}
		},
		{
			"from": [7.12584, 7.30627, 3.74467],
			"to": [8.87584, 7.55627, 4.24467],
			"faces": {
				"north": {"uv": [6.875, 4.375, 8.937, 5.934], "texture": "#4"},
				"east": {"uv": [6.875, 4.375, 8.937, 5.934], "texture": "#4"},
				"south": {"uv": [6.875, 4.375, 8.937, 5.934], "texture": "#4"},
				"west": {"uv": [6.875, 4.375, 8.937, 5.934], "texture": "#4"},
				"up": {"uv": [6.875, 4.375, 8.937, 5.934], "texture": "#4"},
				"down": {"uv": [6.875, 4.375, 8.937, 5.934], "texture": "#4"}
			}
		},
		{
			"from": [7.4375, 8.5625, 9.1875],
			"to": [7.5625, 8.6875, 9.8125],
			"rotation": {"angle": 45, "axis": "z", "origin": [7.5, 8.625, 9.625], "rescale": true},
			"faces": {
				"south": {"uv": [11.74971, 0, 12.74897, 0.99926], "texture": "#0"},
				"up": {"uv": [11.74971, 0, 12.74897, 0.99926], "texture": "#0"}
			}
		},
		{
			"from": [7.5, 7.5, 9.1875],
			"to": [8.5, 8.75, 9.8125],
			"faces": {
				"south": {"uv": [11.74971, 0, 12.74897, 0.99926], "texture": "#0"},
				"up": {"uv": [11.74971, 0, 12.74897, 0.99926], "texture": "#0"},
				"down": {"uv": [11.74971, 0, 12.74897, 0.99926], "texture": "#0"}
			}
		},
		{
			"from": [7.25, 7.3125, 4.1875],
			"to": [8.875, 8.625, 9.5],
			"faces": {
				"east": {"uv": [13.12481, 0.12482, 13.81201, 0.81065], "texture": "#0"},
				"south": {"uv": [13.12481, 0.12482, 13.81201, 0.81065], "texture": "#0"},
				"west": {"uv": [3.74922, 3.49981, 13.749, 6.49919], "texture": "#3"}
			}
		},
		{
			"from": [8.885, 7.3125, 4.1875],
			"to": [8.885, 8.625, 9.5],
			"faces": {
				"east": {"uv": [0, 5.999, 5.561, 9.808], "texture": "#4"}
			}
		},
		{
			"from": [7.115, 7.3125, 4.1875],
			"to": [7.115, 8.625, 9.5],
			"faces": {
				"east": {"uv": [0, 5.999, 5.561, 9.808], "texture": "#4"},
				"west": {"uv": [11.125, 8.375, 15.998, 10.748], "texture": "#4"}
			}
		},
		{
			"from": [7.29688, 8.625, 4.1875],
			"to": [8.70313, 9.03125, 9.5],
			"faces": {
				"north": {"uv": [6.875, 9.25, 10.187, 11.309], "texture": "#4"},
				"south": {"uv": [13.12481, 0.12482, 13.81201, 0.81065], "texture": "#0"},
				"up": {"uv": [13.12481, 0.12482, 13.81201, 0.81065], "texture": "#0"}
			}
		},
		{
			"from": [7.29688, 9.03125, 4.1875],
			"to": [8.70313, 9.03125, 9.5],
			"faces": {
				"north": {"uv": [6.875, 9.25, 10.187, 11.309], "texture": "#4"},
				"south": {"uv": [13.12481, 0.12482, 13.81201, 0.81065], "texture": "#0"},
				"up": {"uv": [6.5, 0, 11.062, 5.184], "rotation": 180, "texture": "#4"}
			}
		},
		{
			"from": [7.17275, 8.55487, 4.18609],
			"to": [7.48525, 8.99237, 9.49859],
			"rotation": {"angle": -22.5, "axis": "z", "origin": [7.329, 8.71112, 6.84234]},
			"faces": {
				"north": {"uv": [6.5, 4.875, 8.437, 6.935], "texture": "#4"},
				"south": {"uv": [13.12481, 0.12482, 13.81201, 0.81065], "texture": "#0"},
				"west": {"uv": [13.12481, 0.12482, 13.81201, 0.81065], "texture": "#0"}
			}
		},
		{
			"from": [7.1627, 8.55487, 4.18609],
			"to": [7.1627, 8.99237, 9.49859],
			"rotation": {"angle": -22.5, "axis": "z", "origin": [7.329, 8.71112, 6.84234]},
			"faces": {
				"north": {"uv": [6.5, 4.875, 8.437, 6.935], "texture": "#4"},
				"south": {"uv": [13.12481, 0.12482, 13.81201, 0.81065], "texture": "#0"},
				"west": {"uv": [12.375, 7.875, 15.936, 8.559], "texture": "#4"}
			}
		},
		{
			"from": [8.5148, 8.55281, 4.1878],
			"to": [8.8273, 8.99031, 9.5003],
			"rotation": {"angle": 22.5, "axis": "z", "origin": [8.67105, 8.70906, 6.84405]},
			"faces": {
				"north": {"uv": [6.125, 4.875, 8.562, 6.685], "texture": "#4"},
				"east": {"uv": [13.12481, 0.12482, 13.81201, 0.81065], "texture": "#0"},
				"south": {"uv": [13.12481, 0.12482, 13.81201, 0.81065], "texture": "#0"}
			}
		},
		{
			"from": [8.8373, 8.55281, 4.1878],
			"to": [8.8373, 8.99031, 9.5003],
			"rotation": {"angle": 22.5, "axis": "z", "origin": [8.67105, 8.70906, 6.84405]},
			"faces": {
				"north": {"uv": [13.12481, 0.12482, 13.81201, 0.81065], "texture": "#0"},
				"east": {"uv": [0, 8, 5.436, 8.682], "texture": "#4"},
				"south": {"uv": [13.12481, 0.12482, 13.81201, 0.81065], "texture": "#0"}
			}
		},
		{
			"from": [7.28152, 7.15653, 3.74945],
			"to": [7.53152, 7.46903, 9.49945],
			"rotation": {"angle": 45, "axis": "z", "origin": [7.43777, 7.31278, 6.8432], "rescale": true},
			"faces": {
				"north": {"uv": [13.12481, 0.12482, 13.81201, 0.81065], "texture": "#0"},
				"south": {"uv": [13.12481, 0.12482, 13.81201, 0.81065], "texture": "#0"},
				"west": {"uv": [13.12481, 0.12482, 13.81201, 0.81065], "texture": "#0"}
			}
		},
		{
			"from": [8.40631, 7.15456, 3.75163],
			"to": [8.71881, 7.40456, 9.50163],
			"rotation": {"angle": 45, "axis": "z", "origin": [8.56256, 7.31081, 6.84538], "rescale": true},
			"faces": {
				"north": {"uv": [13.12481, 0.12482, 13.81201, 0.81065], "texture": "#0"},
				"south": {"uv": [13.12481, 0.12482, 13.81201, 0.81065], "texture": "#0"},
				"down": {"uv": [13.12481, 0.12482, 13.81201, 0.81065], "texture": "#0"}
			}
		},
		{
			"from": [8.40631, 7.1446, 3.75163],
			"to": [8.71881, 7.1446, 9.50163],
			"rotation": {"angle": 45, "axis": "z", "origin": [8.56256, 7.31081, 6.84538], "rescale": true},
			"faces": {
				"north": {"uv": [13.12481, 0.12482, 13.81201, 0.81065], "texture": "#0"},
				"south": {"uv": [13.12481, 0.12482, 13.81201, 0.81065], "texture": "#0"},
				"down": {"uv": [0, 5.125, 6.562, 6.06], "rotation": 90, "texture": "#4"}
			}
		},
		{
			"from": [7.12573, 7.3985, 3.91245],
			"to": [8.87573, 8.55475, 4.53745],
			"rotation": {"angle": 22.5, "axis": "x", "origin": [8.00073, 7.8985, 4.22495]},
			"faces": {
				"north": {"uv": [5.375, 5.5, 9.683, 9.06], "texture": "#4"},
				"east": {"uv": [5.375, 5.5, 9.683, 9.06], "texture": "#4"},
				"south": {"uv": [5.375, 5.5, 9.683, 9.06], "texture": "#4"},
				"west": {"uv": [5.375, 5.5, 9.683, 9.06], "texture": "#4"},
				"up": {"uv": [5.375, 5.5, 9.683, 9.06], "texture": "#4"},
				"down": {"uv": [5.375, 5.5, 9.683, 9.06], "texture": "#4"}
			}
		},
		{
			"from": [7.5, 7.6875, 9.20313],
			"to": [8.5, 8.6875, 9.82813],
			"faces": {
				"south": {"uv": [11.24974, 3.49981, 13.7489, 5.99898], "texture": "#0"}
			}
		},
		{
			"from": [7.7125, 7.90875, 3.48438],
			"to": [8.2875, 8.48375, 3.48438],
			"faces": {
				"north": {"uv": [6.875, 5.875, 10.498, 9.373], "texture": "#4"},
				"east": {"uv": [6.875, 5.875, 10.498, 9.373], "texture": "#4"},
				"south": {"uv": [6.875, 5.875, 10.498, 9.373], "texture": "#4"},
				"west": {"uv": [6.875, 5.875, 10.498, 9.373], "texture": "#4"},
				"up": {"uv": [6.875, 5.875, 10.498, 9.373], "texture": "#4"},
				"down": {"uv": [6.875, 5.875, 10.498, 9.373], "texture": "#4"}
			}
		}
	],
	"display": {
		"thirdperson_righthand": {
			"translation": [-0.5, 4, 2.25]
		},
		"firstperson_righthand": {
			"translation": [-3, 5.75, 2.5]
		},
		"gui": {
			"rotation": [90, -45, 90],
			"translation": [-3.75, 1, 0]
		},
		"fixed": {
			"rotation": [-25.75, 180, 0],
			"translation": [32.75, 9, -22.75],
			"scale": [2, 2, 2]
		}
	}
}