{
	"credit": "Made by 0ptima, totally cool guy from Frostburn",
	"textures": {
		"1": "models/9mm",
		"2": "models/9mm_llg",
		"particle": "models/9mm_llg"
	},
	"elements": [
		{
			"from": [0, 0, 0],
			"to": [14, 5, 4],
			"faces": {
				"north": {"uv": [0, 0, 14, 5], "texture": "#2"},
				"east": {"uv": [7.1, 0.1, 8.09926, 1.09926], "texture": "#1"},
				"south": {"uv": [0.99926, 3.49981, 14.99848, 8.49931], "texture": "#2"},
				"west": {"uv": [3.99944, 4.9995, 7.99888, 9.999], "texture": "#2"},
				"up": {"uv": [7.1, 0.1, 8.09926, 1.09926], "texture": "#1"},
				"down": {"uv": [1.99932, 3.99944, 15.99854, 7.99888], "texture": "#2"}
			}
		},
		{
			"from": [1.0625, 1, -1],
			"to": [13, 2, 5],
			"faces": {
				"north": {"uv": [3.6, 0.1, 4.59926, 1.09926], "texture": "#1"},
				"east": {"uv": [0, 0, 6, 1], "texture": "#0"},
				"south": {"uv": [3.6, 0.1, 4.59926, 1.09926], "texture": "#1"},
				"west": {"uv": [0, 0, 6, 1], "texture": "#0"},
				"up": {"uv": [3.6, 0.1, 4.59926, 1.09926], "texture": "#1"},
				"down": {"uv": [3.6, 0.1, 4.59926, 1.09926], "texture": "#1"}
			}
		},
		{
			"from": [1.0625, 3, -1],
			"to": [13, 4, 5],
			"faces": {
				"north": {"uv": [3.6, 0.1, 4.59926, 1.09926], "texture": "#1"},
				"east": {"uv": [0, 0, 6, 1], "texture": "#0"},
				"south": {"uv": [3.6, 0.1, 4.59926, 1.09926], "texture": "#1"},
				"west": {"uv": [0, 0, 6, 1], "texture": "#0"},
				"up": {"uv": [3.6, 0.1, 4.59926, 1.09926], "texture": "#1"},
				"down": {"uv": [3.6, 0.1, 4.59926, 1.09926], "texture": "#1"}
			}
		},
		{
			"from": [-1, 5.3125, 2.6875],
			"to": [1, 6.6875, 3],
			"faces": {
				"north": {"uv": [0.1, 0.1, 1.09926, 1.09926], "texture": "#1"},
				"east": {"uv": [0, 0, 0.3125, 1.375], "texture": "#0"},
				"south": {"uv": [13.99993, 0, 15.74743, 0.74755], "rotation": 180, "texture": "#1"},
				"west": {"uv": [15.4971, 0, 15.74708, 0.7472], "texture": "#1"}
			}
		},
		{
			"from": [0, 5, 0],
			"to": [0.5, 7, 4],
			"faces": {
				"north": {"uv": [5.49993, 3.99944, 5.99956, 5.99876], "texture": "#2"},
				"east": {"uv": [7.1, 0.1, 8.09926, 1.09926], "texture": "#1"},
				"south": {"uv": [1.74991, 3.2496, 2.24953, 5.24891], "texture": "#2"},
				"west": {"uv": [3.99944, 3.49981, 7.99888, 5.49913], "texture": "#2"},
				"up": {"uv": [0, 0, 0, 0], "texture": "#0"},
				"down": {"uv": [0, 0, 0, 0], "texture": "#0"}
			}
		},
		{
			"from": [0, 7, 0],
			"to": [1, 8, 4],
			"faces": {
				"north": {"uv": [7.1, 0.1, 8.09926, 1.09926], "texture": "#1"},
				"south": {"uv": [1.24947, 3.99944, 2.24873, 4.99869], "texture": "#2"},
				"west": {"uv": [0, 0, 4, 1], "texture": "#2"},
				"up": {"uv": [0, 0, 0, 0], "texture": "#0"},
				"down": {"uv": [7.1, 0.1, 8.09926, 1.09926], "texture": "#1"}
			}
		},
		{
			"from": [1, 5, 0],
			"to": [19, 8, 4],
			"faces": {
				"north": {"uv": [0, 0, 16, 3], "texture": "#2"},
				"south": {"uv": [0, 5.24972, 15.99939, 8.24909], "texture": "#2"},
				"west": {"uv": [7.1, 0.1, 8.09926, 1.09926], "texture": "#1"},
				"up": {"uv": [0, 0, 0, 0], "texture": "#0"},
				"down": {"uv": [7.1, 0.1, 8.09926, 1.09926], "texture": "#1"}
			}
		},
		{
			"from": [0.55556, 8, -1],
			"to": [19, 9, 5],
			"faces": {
				"north": {"uv": [3.6, 0.1, 4.59926, 1.09926], "texture": "#1"},
				"south": {"uv": [3.6, 0.1, 4.59926, 1.09926], "texture": "#1"},
				"up": {"uv": [3.6, 0.1, 4.59926, 1.09926], "texture": "#1"},
				"down": {"uv": [3.6, 0.1, 4.59926, 1.09926], "texture": "#1"}
			}
		},
		{
			"from": [14, 0, 0.22222],
			"to": [18, 5, 3.77778],
			"faces": {
				"north": {"uv": [1.85, 0.1, 2.84926, 1.09926], "texture": "#1"},
				"east": {"uv": [1.85, 0.1, 2.84926, 1.09926], "texture": "#1"},
				"south": {"uv": [1.85, 0.1, 2.84926, 1.09926], "texture": "#1"},
				"up": {"uv": [0, 0, 0, 0], "texture": "#0"},
				"down": {"uv": [1.85, 0.1, 2.84926, 1.09926], "texture": "#1"}
			}
		},
		{
			"from": [18, 0, 0.22222],
			"to": [22, 0.33333, 3.77778],
			"faces": {
				"north": {"uv": [1.85, 0.1, 2.84926, 1.09926], "texture": "#1"},
				"south": {"uv": [1.85, 0.1, 2.84926, 1.09926], "texture": "#1"},
				"up": {"uv": [1.85, 0.1, 2.84926, 1.09926], "texture": "#1"},
				"down": {"uv": [1.85, 0.1, 2.84926, 1.09926], "texture": "#1"}
			}
		},
		{
			"from": [18, 4, 0.22222],
			"to": [22, 5, 3.77778],
			"faces": {
				"north": {"uv": [1.85, 0.1, 2.84926, 1.09926], "texture": "#1"},
				"south": {"uv": [1.85, 0.1, 2.84926, 1.09926], "texture": "#1"},
				"up": {"uv": [0, 0, 0, 0], "texture": "#0"},
				"down": {"uv": [1.85, 0.1, 2.84926, 1.09926], "texture": "#1"}
			}
		},
		{
			"from": [20.33333, 2.11111, 1],
			"to": [21.33333, 4, 3],
			"faces": {
				"north": {"uv": [0.1, 0.1, 1.09926, 1.09926], "texture": "#1"},
				"east": {"uv": [0.1, 0.1, 1.09926, 1.09926], "texture": "#1"},
				"south": {"uv": [0.1, 0.1, 1.09926, 1.09926], "texture": "#1"},
				"west": {"uv": [0.1, 0.1, 1.09926, 1.09926], "texture": "#1"}
			}
		},
		{
			"from": [22, 0, 0.22222],
			"to": [26.55556, 5, 3.77778],
			"faces": {
				"north": {"uv": [1.85, 0.1, 2.84926, 1.09926], "texture": "#1"},
				"east": {"uv": [1.85, 0.1, 2.84926, 1.09926], "texture": "#1"},
				"south": {"uv": [1.85, 0.1, 2.84926, 1.09926], "texture": "#1"},
				"west": {"uv": [1.85, 0.1, 2.84926, 1.09926], "texture": "#1"},
				"up": {"uv": [1.85, 0.1, 2.84926, 1.09926], "texture": "#1"}
			}
		},
		{
			"from": [19, 5, -1],
			"to": [25, 9, 5],
			"faces": {
				"north": {"uv": [3.6, 0.1, 4.59926, 1.09926], "texture": "#1"},
				"east": {"uv": [0, 0, 6, 4], "texture": "#0"},
				"south": {"uv": [3.6, 0.1, 4.59926, 1.09926], "texture": "#1"},
				"west": {"uv": [3.6, 0.1, 4.59926, 1.09926], "texture": "#1"},
				"up": {"uv": [3.6, 0.1, 4.59926, 1.09926], "texture": "#1"},
				"down": {"uv": [3.6, 0.1, 4.59926, 1.09926], "texture": "#1"}
			}
		},
		{
			"from": [10, -3, 0],
			"to": [13, 0, 4],
			"faces": {
				"north": {"uv": [1.85, 0.1, 2.84926, 1.09926], "texture": "#1"},
				"south": {"uv": [1.85, 0.1, 2.84926, 1.09926], "texture": "#1"},
				"west": {"uv": [1.85, 0.1, 2.84926, 1.09926], "texture": "#1"},
				"down": {"uv": [1.85, 0.1, 2.84926, 1.09926], "texture": "#1"}
			}
		},
		{
			"from": [1, -3, 0],
			"to": [3, 0, 4],
			"faces": {
				"north": {"uv": [1.85, 0.1, 2.84926, 1.09926], "texture": "#1"},
				"east": {"uv": [1.85, 0.1, 2.84926, 1.09926], "texture": "#1"},
				"south": {"uv": [1.85, 0.1, 2.84926, 1.09926], "texture": "#1"},
				"west": {"uv": [1.85, 0.1, 2.84926, 1.09926], "texture": "#1"},
				"up": {"uv": [0, 0, 3, 4], "texture": "#0"},
				"down": {"uv": [1.85, 0.1, 2.84926, 1.09926], "texture": "#1"}
			}
		},
		{
			"name": "octagon",
			"from": [3.00801, -2.00591, 0.25199],
			"to": [9.99009, 0.01313, 3.61749],
			"faces": {
				"north": {"uv": [9.24985, 0, 12.74863, 0.49859], "texture": "#1"},
				"south": {"uv": [9.24996, 0, 12.74816, 0.49802], "texture": "#1"}
			}
		},
		{
			"name": "octagon",
			"from": [3.00801, -2.00591, 0.25199],
			"to": [9.99009, -0.61187, 3.61749],
			"rotation": {"angle": 45, "axis": "x", "origin": [8, -1.30889, 1.93474]},
			"faces": {
				"south": {"uv": [9.24985, 0.49997, 12.74863, 0.99822], "texture": "#1"}
			}
		},
		{
			"name": "octagon",
			"from": [3.00801, -2.99164, 1.23772],
			"to": [9.99009, 0.37386, 2.63176],
			"faces": {
				"down": {"uv": [9.24996, 0.99926, 12.74816, 1.49728], "texture": "#1"}
			}
		},
		{
			"name": "octagon",
			"from": [3.00801, -2.99164, 1.23772],
			"to": [9.99009, 0.37386, 2.63176],
			"rotation": {"angle": 45, "axis": "x", "origin": [8, -1.30889, 1.93474]},
			"faces": {
				"down": {"uv": [9.24985, 0.49997, 12.74863, 0.99822], "texture": "#1"}
			}
		},
		{
			"from": [0, 9, 0],
			"to": [3, 10, 4],
			"faces": {
				"north": {"uv": [3.6, 0.1, 4.59926, 1.09926], "texture": "#1"},
				"south": {"uv": [3.6, 0.1, 4.59926, 1.09926], "texture": "#1"},
				"up": {"uv": [3.6, 0.1, 4.59926, 1.09926], "texture": "#1"}
			}
		},
		{
			"from": [20.87228, 11.80838, 1.00002],
			"to": [21.59728, 13.26838, 3.00002],
			"rotation": {"angle": -45, "axis": "z", "origin": [7.99728, 8.00838, 8.00002]},
			"faces": {
				"north": {"uv": [0.1, 0.1, 1.09926, 1.09926], "texture": "#1"},
				"east": {"uv": [0.1, 0.1, 1.09926, 1.09926], "texture": "#1"},
				"south": {"uv": [0.1, 0.1, 1.09926, 1.09926], "texture": "#1"},
				"west": {"uv": [0.1, 0.1, 1.09926, 1.09926], "texture": "#1"},
				"down": {"uv": [0.1, 0.1, 1.09926, 1.09926], "texture": "#1"}
			}
		},
		{
			"from": [26.56368, 4.69858, 0.40972],
			"to": [29.13868, 5.97635, 3.59028],
			"rotation": {"angle": 22.5, "axis": "z", "origin": [28.99702, 4.19858, 2]},
			"faces": {
				"north": {"uv": [0.1, 0.1, 1.09926, 1.09926], "texture": "#1"},
				"east": {"uv": [0.1, 0.1, 1.09926, 1.09926], "texture": "#1"},
				"south": {"uv": [0.1, 0.1, 1.09926, 1.09926], "texture": "#1"},
				"up": {"uv": [0.1, 0.1, 1.09926, 1.09926], "texture": "#1"},
				"down": {"uv": [0.1, 0.1, 1.09926, 1.09926], "texture": "#1"}
			}
		},
		{
			"from": [21.77778, 0.22222, 1.22222],
			"to": [23.99556, 1.55556, 2.77778],
			"rotation": {"angle": 22.5, "axis": "z", "origin": [8, 13, 8]},
			"faces": {
				"north": {"uv": [0.1, 0.1, 1.09926, 1.09926], "texture": "#1"},
				"east": {"uv": [0.1, 0.1, 1.09926, 1.09926], "texture": "#1"},
				"south": {"uv": [0.1, 0.1, 1.09926, 1.09926], "texture": "#1"},
				"up": {"uv": [0.1, 0.1, 1.09926, 1.09926], "texture": "#1"},
				"down": {"uv": [0.1, 0.1, 1.09926, 1.09926], "texture": "#1"}
			}
		},
		{
			"from": [8.03854, 3.00003, -3.29132],
			"to": [9.48298, 4.00003, -2.29132],
			"rotation": {"angle": 45, "axis": "y", "origin": [8.03854, 8.00003, 8.01868]},
			"faces": {
				"north": {"uv": [3.6, 0.1, 4.59926, 1.09926], "texture": "#1"},
				"up": {"uv": [3.6, 0.1, 4.59926, 1.09926], "texture": "#1"},
				"down": {"uv": [3.6, 0.1, 4.59926, 1.09926], "texture": "#1"}
			}
		},
		{
			"from": [8.03854, 1.00003, -3.29132],
			"to": [9.48298, 2.00003, -2.29132],
			"rotation": {"angle": 45, "axis": "y", "origin": [8.03854, 8.00003, 8.01868]},
			"faces": {
				"north": {"uv": [3.6, 0.1, 4.59926, 1.09926], "texture": "#1"},
				"up": {"uv": [3.6, 0.1, 4.59926, 1.09926], "texture": "#1"},
				"down": {"uv": [3.6, 0.1, 4.59926, 1.09926], "texture": "#1"}
			}
		},
		{
			"from": [5.2103, 1.00008, -1.92535],
			"to": [6.62002, 2.00008, -0.92535],
			"rotation": {"angle": -45, "axis": "y", "origin": [7.98808, 8.00008, 7.94021]},
			"faces": {
				"north": {"uv": [3.6, 0.1, 4.59926, 1.09926], "texture": "#1"},
				"up": {"uv": [3.6, 0.1, 4.59926, 1.09926], "texture": "#1"},
				"down": {"uv": [3.6, 0.1, 4.59926, 1.09926], "texture": "#1"}
			}
		},
		{
			"from": [5.2103, 3.00008, -1.92535],
			"to": [6.62002, 4.00008, -0.92535],
			"rotation": {"angle": -45, "axis": "y", "origin": [7.98808, 8.00008, 7.94021]},
			"faces": {
				"north": {"uv": [3.6, 0.1, 4.59926, 1.09926], "texture": "#1"},
				"up": {"uv": [3.6, 0.1, 4.59926, 1.09926], "texture": "#1"},
				"down": {"uv": [3.6, 0.1, 4.59926, 1.09926], "texture": "#1"}
			}
		},
		{
			"from": [0.6, -1.75, 2.29306],
			"to": [1.2, -1.05, 2.55556],
			"faces": {
				"north": {"uv": [0.1, 0.1, 1.09926, 1.09926], "texture": "#1"},
				"south": {"uv": [0.1, 0.1, 1.09926, 1.09926], "texture": "#1"},
				"west": {"uv": [0.1, 0.1, 1.09926, 1.09926], "texture": "#1"}
			}
		},
		{
			"from": [5, 5, -1],
			"to": [19, 6.98, 5],
			"faces": {
				"north": {"uv": [3.6, 0.1, 4.59926, 1.09926], "texture": "#1"},
				"south": {"uv": [3.6, 0.1, 4.59926, 1.09926], "texture": "#1"},
				"up": {"uv": [3.6, 0.1, 4.59926, 1.09926], "texture": "#1"},
				"down": {"uv": [3.6, 0.1, 4.59926, 1.09926], "texture": "#1"}
			}
		},
		{
			"from": [5.4, 9.20005, -1.00012],
			"to": [6.4, 10.20005, 4.99988],
			"rotation": {"angle": 45, "axis": "z", "origin": [9.62, 8.80005, 7.99988], "rescale": true},
			"faces": {
				"north": {"uv": [3.6, 0.1, 4.59926, 1.09926], "texture": "#1"},
				"south": {"uv": [3.6, 0.1, 4.59926, 1.09926], "texture": "#1"},
				"west": {"uv": [3.6, 0.1, 4.59926, 1.09926], "texture": "#1"},
				"up": {"uv": [3.6, 0.1, 4.59926, 1.09926], "texture": "#1"}
			}
		},
		{
			"from": [25.54211, 4.24978, 0.40952],
			"to": [27.75989, 5.58312, 3.5824],
			"faces": {
				"north": {"uv": [0.1, 0.1, 1.09926, 1.09926], "texture": "#1"},
				"south": {"uv": [0.1, 0.1, 1.09926, 1.09926], "texture": "#1"},
				"up": {"uv": [0.1, 0.1, 1.09926, 1.09926], "texture": "#1"}
			}
		},
		{
			"from": [23.9375, 4.875, -1.125],
			"to": [24.9375, 7, 5.17361],
			"faces": {
				"north": {"uv": [12.99999, 0, 13.74857, 1.49889], "texture": "#1"},
				"east": {"uv": [12.99999, 0, 13.74857, 1.49889], "texture": "#1"},
				"south": {"uv": [12.99999, 0, 13.74857, 1.49889], "texture": "#1"},
				"west": {"uv": [12.99999, 0, 13.74857, 1.49889], "texture": "#1"},
				"up": {"uv": [12.99999, 0, 13.74857, 1.49889], "texture": "#1"},
				"down": {"uv": [12.99999, 0, 13.74788, 0.24826], "texture": "#1"}
			}
		},
		{
			"from": [21.9375, 4.875, -1.125],
			"to": [22.9375, 7, 5.17361],
			"faces": {
				"north": {"uv": [12.99999, 0, 13.74857, 1.49889], "texture": "#1"},
				"east": {"uv": [12.99999, 0, 13.74857, 1.49889], "texture": "#1"},
				"south": {"uv": [12.99999, 0, 13.74857, 1.49889], "texture": "#1"},
				"west": {"uv": [12.99999, 0, 13.74857, 1.49889], "texture": "#1"},
				"up": {"uv": [12.99999, 0, 13.74857, 1.49889], "texture": "#1"},
				"down": {"uv": [12.99999, 0, 13.74788, 0.24826], "texture": "#1"}
			}
		},
		{
			"from": [19.9375, 4.875, -1.125],
			"to": [20.9375, 7, 5.17361],
			"faces": {
				"north": {"uv": [12.99999, 0, 13.74857, 1.49889], "texture": "#1"},
				"east": {"uv": [12.99999, 0, 13.74857, 1.49889], "texture": "#1"},
				"south": {"uv": [12.99999, 0, 13.74857, 1.49889], "texture": "#1"},
				"west": {"uv": [12.99999, 0, 13.74857, 1.49889], "texture": "#1"},
				"up": {"uv": [12.99999, 0, 13.74857, 1.49889], "texture": "#1"},
				"down": {"uv": [12.99999, 0, 13.74788, 0.24826], "texture": "#1"}
			}
		},
		{
			"from": [8.0385, 3.00011, 6.29114],
			"to": [9.48294, 4.00011, 7.29114],
			"rotation": {"angle": -45, "axis": "y", "origin": [8.0385, 8.00011, -4.01886]},
			"faces": {
				"south": {"uv": [3.6, 0.1, 4.59926, 1.09926], "texture": "#1"},
				"up": {"uv": [3.6, 0.1, 4.59926, 1.09926], "texture": "#1"},
				"down": {"uv": [3.6, 0.1, 4.59926, 1.09926], "texture": "#1"}
			}
		},
		{
			"from": [8.0385, 1.00011, 6.29114],
			"to": [9.48294, 2.00011, 7.29114],
			"rotation": {"angle": -45, "axis": "y", "origin": [8.0385, 8.00011, -4.01886]},
			"faces": {
				"north": {"uv": [0, 0, 1.44444, 1], "texture": "#0"},
				"east": {"uv": [0, 0, 1, 1], "texture": "#0"},
				"south": {"uv": [3.6, 0.1, 4.59926, 1.09926], "texture": "#1"},
				"west": {"uv": [0, 0, 1, 1], "texture": "#0"},
				"up": {"uv": [3.6, 0.1, 4.59926, 1.09926], "texture": "#1"},
				"down": {"uv": [3.6, 0.1, 4.59926, 1.09926], "texture": "#1"}
			}
		},
		{
			"from": [5.21051, 0.99987, 4.92539],
			"to": [6.62023, 1.99987, 5.92539],
			"rotation": {"angle": 45, "axis": "y", "origin": [7.98829, 7.99987, -3.94017]},
			"faces": {
				"south": {"uv": [3.6, 0.1, 4.59926, 1.09926], "texture": "#1"},
				"up": {"uv": [3.6, 0.1, 4.59926, 1.09926], "texture": "#1"},
				"down": {"uv": [3.6, 0.1, 4.59926, 1.09926], "texture": "#1"}
			}
		},
		{
			"from": [5.21051, 2.99987, 4.92539],
			"to": [6.62023, 3.99987, 5.92539],
			"rotation": {"angle": 45, "axis": "y", "origin": [7.98829, 7.99987, -3.94017]},
			"faces": {
				"south": {"uv": [3.6, 0.1, 4.59926, 1.09926], "texture": "#1"},
				"up": {"uv": [3.6, 0.1, 4.59926, 1.09926], "texture": "#1"},
				"down": {"uv": [3.6, 0.1, 4.59926, 1.09926], "texture": "#1"}
			}
		},
		{
			"from": [24.15555, -7.44778, 0.22222],
			"to": [28.88888, -5.18778, 3.77222],
			"faces": {
				"north": {"uv": [1.85, 0.1, 2.84926, 1.09926], "texture": "#1"},
				"east": {"uv": [1.85, 0.1, 2.84926, 1.09926], "texture": "#1"},
				"south": {"uv": [1.85, 0.1, 2.84926, 1.09926], "texture": "#1"},
				"up": {"uv": [0, 0, 0, 0], "texture": "#0"},
				"down": {"uv": [1.85, 0.1, 2.84926, 1.09926], "texture": "#1"}
			}
		},
		{
			"from": [0.11111, 9.89111, 0.66444],
			"to": [1.19444, 10.35639, 1.45784],
			"faces": {
				"north": {"uv": [0.1, 0.1, 1.09926, 1.09926], "texture": "#1"},
				"east": {"uv": [0.1, 0.1, 1.09926, 1.09926], "texture": "#1"},
				"south": {"uv": [0.1, 0.1, 1.09926, 1.09926], "texture": "#1"},
				"west": {"uv": [0.1, 0.1, 1.09926, 1.09926], "texture": "#1"}
			}
		},
		{
			"from": [18, 9, 0],
			"to": [24, 10, 4],
			"faces": {
				"north": {"uv": [3.6, 0.1, 4.59926, 1.09926], "texture": "#1"},
				"south": {"uv": [3.6, 0.1, 4.59926, 1.09926], "texture": "#1"},
				"up": {"uv": [3.6, 0.1, 4.59926, 1.09926], "texture": "#1"}
			}
		},
		{
			"from": [18, 10.3125, 0],
			"to": [19, 12.86806, 0.22222],
			"faces": {
				"north": {"uv": [0.1, 0.1, 1.09926, 1.09926], "texture": "#1"},
				"east": {"uv": [0.1, 0.1, 1.09926, 1.09926], "texture": "#1"},
				"south": {"uv": [0.1, 0.1, 1.09926, 1.09926], "texture": "#1"},
				"west": {"uv": [0.1, 0.1, 1.09926, 1.09926], "texture": "#1"}
			}
		},
		{
			"from": [18, 10.3125, 3.77778],
			"to": [19, 12.86806, 4],
			"faces": {
				"north": {"uv": [0.1, 0.1, 1.09926, 1.09926], "texture": "#1"},
				"east": {"uv": [0.1, 0.1, 1.09926, 1.09926], "texture": "#1"},
				"south": {"uv": [0.1, 0.1, 1.09926, 1.09926], "texture": "#1"},
				"west": {"uv": [0.1, 0.1, 1.09926, 1.09926], "texture": "#1"}
			}
		},
		{
			"from": [18, 13.3275, 0.6999],
			"to": [19, 13.58083, 3.2989],
			"faces": {
				"east": {"uv": [0.1, 0.1, 1.09926, 1.09926], "texture": "#1"},
				"west": {"uv": [0.1, 0.1, 1.09926, 1.09926], "texture": "#1"},
				"up": {"uv": [0.1, 0.1, 1.09926, 1.09926], "texture": "#1"},
				"down": {"uv": [0.1, 0.1, 1.09926, 1.09926], "texture": "#1"}
			}
		},
		{
			"from": [18, 5.2925, -2.3],
			"to": [19, 6.2925, -2.07778],
			"rotation": {"angle": 45, "axis": "x", "origin": [8, 6.3125, 8]},
			"faces": {
				"north": {"uv": [0.1, 0.1, 1.09926, 1.09926], "texture": "#1"},
				"east": {"uv": [0.1, 0.1, 1.09926, 1.09926], "texture": "#1"},
				"south": {"uv": [0.1, 0.1, 1.09926, 1.09926], "texture": "#1"},
				"west": {"uv": [0.1, 0.1, 1.09926, 1.09926], "texture": "#1"}
			}
		},
		{
			"from": [18, 13.7775, 9.59],
			"to": [19, 14.7775, 9.81222],
			"rotation": {"angle": -45, "axis": "x", "origin": [8, 6.3125, 8]},
			"faces": {
				"north": {"uv": [0.1, 0.1, 1.09926, 1.09926], "texture": "#1"},
				"east": {"uv": [0.1, 0.1, 1.09926, 1.09926], "texture": "#1"},
				"south": {"uv": [0.1, 0.1, 1.09926, 1.09926], "texture": "#1"},
				"west": {"uv": [0.1, 0.1, 1.09926, 1.09926], "texture": "#1"}
			}
		},
		{
			"from": [23.53053, -5.18778, 0.22224],
			"to": [26.56074, 0.00972, 3.77224],
			"faces": {
				"north": {"uv": [1.85, 0.1, 2.84926, 1.09926], "texture": "#1"},
				"south": {"uv": [1.85, 0.1, 2.84926, 1.09926], "texture": "#1"},
				"up": {"uv": [0, 0, 0, 0], "texture": "#0"},
				"down": {"uv": [0, 0, 0, 0], "texture": "#0"}
			}
		},
		{
			"from": [25.64197, -5.83544, 0.22267],
			"to": [27.98468, 0.29956, 3.77267],
			"rotation": {"angle": 22.5, "axis": "z", "origin": [26.81332, -3.23669, 1.99767]},
			"faces": {
				"north": {"uv": [1.85, 0.1, 2.84926, 1.09926], "texture": "#1"},
				"east": {"uv": [1.85, 0.1, 2.84926, 1.09926], "texture": "#1"},
				"south": {"uv": [1.85, 0.1, 2.84926, 1.09926], "texture": "#1"},
				"up": {"uv": [0, 0, 0, 0], "texture": "#0"},
				"down": {"uv": [0, 0, 0, 0], "texture": "#0"}
			}
		},
		{
			"from": [23.07426, -7.19309, 0.21561],
			"to": [25.41696, 0.87941, 3.76561],
			"rotation": {"angle": 22.5, "axis": "z", "origin": [24.24561, -4.59434, 1.99061]},
			"faces": {
				"north": {"uv": [1.85, 0.1, 2.84926, 1.09926], "texture": "#1"},
				"south": {"uv": [1.85, 0.1, 2.84926, 1.09926], "texture": "#1"},
				"west": {"uv": [1.85, 0.1, 2.84926, 1.09926], "texture": "#1"},
				"up": {"uv": [1.85, 0.1, 2.84926, 1.09926], "texture": "#1"},
				"down": {"uv": [0, 0, 0, 0], "texture": "#0"}
			}
		},
		{
			"from": [11.49892, -2.38174, 0.00414],
			"to": [14.81142, 0.61826, 3.98851],
			"rotation": {"angle": 45, "axis": "z", "origin": [12.99892, -0.88174, 2.00414]},
			"faces": {
				"north": {"uv": [1.85, 0.1, 2.84926, 1.09926], "texture": "#1"},
				"east": {"uv": [1.85, 0.1, 2.84926, 1.09926], "texture": "#1"},
				"south": {"uv": [1.85, 0.1, 2.84926, 1.09926], "texture": "#1"},
				"down": {"uv": [1.85, 0.1, 2.84926, 1.09926], "texture": "#1"}
			}
		},
		{
			"from": [14.49892, -0.66299, 0.00414],
			"to": [16.24892, 0.02451, 4.00414],
			"faces": {
				"north": {"uv": [1.85, 0.1, 2.84926, 1.09926], "texture": "#1"},
				"east": {"uv": [1.85, 0.1, 2.84926, 1.09926], "texture": "#1"},
				"south": {"uv": [1.85, 0.1, 2.84926, 1.09926], "texture": "#1"},
				"up": {"uv": [1.85, 0.1, 2.84926, 1.09926], "texture": "#1"},
				"down": {"uv": [1.85, 0.1, 2.84926, 1.09926], "texture": "#1"}
			}
		},
		{
			"from": [18, 10, 0],
			"to": [19, 10.3125, 4],
			"faces": {
				"north": {"uv": [0.1, 0.1, 1.09926, 1.09926], "texture": "#1"},
				"east": {"uv": [0.1, 0.1, 1.09926, 1.09926], "texture": "#1"},
				"south": {"uv": [0.1, 0.1, 1.09926, 1.09926], "texture": "#1"},
				"west": {"uv": [0, 0, 4, 0.3125], "texture": "#0"},
				"up": {"uv": [0.1, 0.1, 1.09926, 1.09926], "texture": "#1"}
			}
		},
		{
			"from": [23.50036, 8.35452, 0.00051],
			"to": [24.50036, 9.79202, 4.00051],
			"rotation": {"angle": 45, "axis": "z", "origin": [24.00036, 9.29202, 2.00051]},
			"faces": {
				"north": {"uv": [3.6, 0.1, 4.59926, 1.09926], "texture": "#1"},
				"east": {"uv": [3.6, 0.1, 4.59926, 1.09926], "texture": "#1"},
				"south": {"uv": [3.6, 0.1, 4.59926, 1.09926], "texture": "#1"}
			}
		},
		{
			"from": [16.56197, 8.66788, 0.00054],
			"to": [18.49947, 10.10538, 4.00054],
			"rotation": {"angle": 45, "axis": "z", "origin": [17.99947, 9.60538, 2.00054]},
			"faces": {
				"north": {"uv": [3.6, 0.1, 4.59926, 1.09926], "texture": "#1"},
				"south": {"uv": [3.6, 0.1, 4.59926, 1.09926], "texture": "#1"},
				"up": {"uv": [3.6, 0.1, 4.59926, 1.09926], "texture": "#1"}
			}
		},
		{
			"from": [25, 5, 0],
			"to": [26, 9, 4],
			"faces": {
				"north": {"uv": [0, 0, 1, 4], "texture": "#0"},
				"east": {"uv": [3.6, 0.1, 4.59926, 1.09926], "texture": "#1"},
				"south": {"uv": [0, 0, 1, 4], "texture": "#0"},
				"west": {"uv": [0, 0, 4, 4], "texture": "#0"},
				"up": {"uv": [3.6, 0.1, 4.59926, 1.09926], "texture": "#1"},
				"down": {"uv": [3.6, 0.1, 4.59926, 1.09926], "texture": "#1"}
			}
		},
		{
			"from": [24.5626, 5, -0.53136],
			"to": [25.5001, 9, 0.46864],
			"rotation": {"angle": 45, "axis": "y", "origin": [25.03135, 7, -0.03136], "rescale": true},
			"faces": {
				"east": {"uv": [3.6, 0.1, 4.59926, 1.09926], "texture": "#1"},
				"up": {"uv": [3.6, 0.1, 4.59926, 1.09926], "texture": "#1"},
				"down": {"uv": [3.6, 0.1, 4.59926, 1.09926], "texture": "#1"}
			}
		},
		{
			"from": [24.50011, 4.99978, 3.53137],
			"to": [25.50011, 8.99978, 4.53137],
			"rotation": {"angle": 45, "axis": "y", "origin": [24.96886, 6.99978, 4.03137], "rescale": true},
			"faces": {
				"south": {"uv": [3.6, 0.1, 4.59926, 1.09926], "texture": "#1"},
				"up": {"uv": [3.6, 0.1, 4.59926, 1.09926], "texture": "#1"},
				"down": {"uv": [3.6, 0.1, 4.59926, 1.09926], "texture": "#1"}
			}
		},
		{
			"from": [2.50036, 8.35452, 0.00051],
			"to": [3.50036, 9.79202, 4.00051],
			"rotation": {"angle": 45, "axis": "z", "origin": [3.00036, 9.29202, 2.00051]},
			"faces": {
				"north": {"uv": [3.6, 0.1, 4.59926, 1.09926], "texture": "#1"},
				"east": {"uv": [3.6, 0.1, 4.59926, 1.09926], "texture": "#1"},
				"south": {"uv": [3.6, 0.1, 4.59926, 1.09926], "texture": "#1"}
			}
		},
		{
			"from": [0.11111, 9.89111, 2.64882],
			"to": [1.19444, 10.35639, 3.44222],
			"faces": {
				"north": {"uv": [0.1, 0.1, 1.09926, 1.09926], "texture": "#1"},
				"east": {"uv": [0.1, 0.1, 1.09926, 1.09926], "texture": "#1"},
				"south": {"uv": [0.1, 0.1, 1.09926, 1.09926], "texture": "#1"},
				"west": {"uv": [0.1, 0.1, 1.09926, 1.09926], "texture": "#1"}
			}
		},
		{
			"from": [0.12674, 9.9675, 0.82553],
			"to": [1.17882, 10.52653, 1.38456],
			"rotation": {"angle": 45, "axis": "x", "origin": [0.65278, 10.35639, 1.21442]},
			"faces": {
				"north": {"uv": [13.99993, 0.99995, 14.74955, 1.7468], "texture": "#1"},
				"east": {"uv": [13.99993, 0.99995, 14.74955, 1.7468], "texture": "#1"},
				"west": {"uv": [13.99993, 0.99995, 14.74955, 1.7468], "texture": "#1"},
				"up": {"uv": [13.99993, 0.99995, 14.74955, 1.7468], "texture": "#1"}
			}
		},
		{
			"from": [0.12671, 9.96753, 2.8099],
			"to": [1.17879, 10.52656, 3.36893],
			"rotation": {"angle": 45, "axis": "x", "origin": [0.65275, 10.35642, 3.19879]},
			"faces": {
				"north": {"uv": [13.99993, 0.99995, 14.74955, 1.7468], "texture": "#1"},
				"east": {"uv": [13.99993, 0.99995, 14.74955, 1.7468], "texture": "#1"},
				"west": {"uv": [13.99993, 0.99995, 14.74955, 1.7468], "texture": "#1"},
				"up": {"uv": [13.99993, 0.99995, 14.74955, 1.7468], "texture": "#1"}
			}
		},
		{
			"from": [-0.22938, 8.72171, -0.00001],
			"to": [0.77062, 9.84671, 3.99999],
			"rotation": {"angle": -22.5, "axis": "z", "origin": [0.27062, 9.34671, 1.99999]},
			"faces": {
				"north": {"uv": [3.6, 0.1, 4.59926, 1.09926], "texture": "#1"},
				"south": {"uv": [3.6, 0.1, 4.59926, 1.09926], "texture": "#1"},
				"west": {"uv": [3.6, 0.1, 4.59926, 1.09926], "texture": "#1"}
			}
		},
		{
			"from": [-0.44444, 8, 0],
			"to": [0.55556, 9, 4],
			"faces": {
				"north": {"uv": [0, 0, 1, 1], "texture": "#0"},
				"east": {"uv": [0, 0, 4, 1], "texture": "#0"},
				"south": {"uv": [0, 0, 1, 1], "texture": "#0"},
				"west": {"uv": [3.6, 0.1, 4.59926, 1.09926], "texture": "#1"},
				"up": {"uv": [3.6, 0.1, 4.59926, 1.09926], "texture": "#1"},
				"down": {"uv": [3.6, 0.1, 4.59926, 1.09926], "texture": "#1"}
			}
		},
		{
			"from": [0.05607, 7.99949, -0.50001],
			"to": [1.05607, 8.99949, 0.49999],
			"rotation": {"angle": 45, "axis": "y", "origin": [0.55607, 8.49949, -0.00001], "rescale": true},
			"faces": {
				"north": {"uv": [3.6, 0.1, 4.59926, 1.09926], "texture": "#1"},
				"up": {"uv": [3.6, 0.1, 4.59926, 1.09926], "texture": "#1"},
				"down": {"uv": [3.6, 0.1, 4.59926, 1.09926], "texture": "#1"}
			}
		},
		{
			"from": [0.05607, 7.99949, 3.49999],
			"to": [1.05607, 8.99949, 4.49999],
			"rotation": {"angle": 45, "axis": "y", "origin": [0.55607, 8.49949, 3.99999], "rescale": true},
			"faces": {
				"west": {"uv": [3.6, 0.1, 4.59926, 1.09926], "texture": "#1"},
				"up": {"uv": [3.6, 0.1, 4.59926, 1.09926], "texture": "#1"},
				"down": {"uv": [3.6, 0.1, 4.59926, 1.09926], "texture": "#1"}
			}
		},
		{
			"from": [-1, 5, 1.3125],
			"to": [1, 5.3125, 2.6875],
			"faces": {
				"east": {"uv": [0, 0, 1.375, 0.3125], "texture": "#0"},
				"west": {"uv": [15.4971, 0, 15.74708, 0.7472], "texture": "#1"},
				"up": {"uv": [0.1, 0.1, 1.09926, 1.09926], "texture": "#1"},
				"down": {"uv": [13.99993, 0, 15.74743, 0.74755], "rotation": 180, "texture": "#1"}
			}
		},
		{
			"from": [-1, 5.3125, 1],
			"to": [1, 6.6875, 1.3125],
			"faces": {
				"north": {"uv": [13.99993, 0, 15.74743, 0.74755], "texture": "#1"},
				"east": {"uv": [0, 0, 0.3125, 1.375], "texture": "#0"},
				"south": {"uv": [0.1, 0.1, 1.09926, 1.09926], "texture": "#1"},
				"west": {"uv": [15.4971, 0, 15.74708, 0.7472], "texture": "#1"}
			}
		},
		{
			"from": [-1, 6.6875, 1.3125],
			"to": [1, 7, 2.6875],
			"faces": {
				"east": {"uv": [0, 0, 1.375, 0.3125], "texture": "#0"},
				"west": {"uv": [15.4971, 0, 15.74708, 0.7472], "texture": "#1"},
				"up": {"uv": [13.99993, 0, 15.74743, 0.74755], "rotation": 180, "texture": "#1"},
				"down": {"uv": [0.1, 0.1, 1.09926, 1.09926], "texture": "#1"}
			}
		},
		{
			"from": [-1, 6.53153, 2.53098],
			"to": [1, 6.84403, 2.84348],
			"rotation": {"angle": 45, "axis": "x", "origin": [0, 6.68778, 2.68723], "rescale": true},
			"faces": {
				"east": {"uv": [0, 0, 0.3125, 0.3125], "texture": "#0"},
				"west": {"uv": [15.4971, 0, 15.74708, 0.7472], "texture": "#1"},
				"up": {"uv": [13.99993, 0, 15.74743, 0.74755], "rotation": 180, "texture": "#1"},
				"down": {"uv": [0.1, 0.1, 1.09926, 1.09926], "texture": "#1"}
			}
		},
		{
			"from": [-1, 5.15653, 2.53098],
			"to": [1, 5.46903, 2.84348],
			"rotation": {"angle": 45, "axis": "x", "origin": [0, 5.31278, 2.68723], "rescale": true},
			"faces": {
				"north": {"uv": [0.1, 0.1, 1.09926, 1.09926], "texture": "#1"},
				"east": {"uv": [0, 0, 0.3125, 0.3125], "texture": "#0"},
				"south": {"uv": [13.99993, 0, 15.74743, 0.74755], "rotation": 180, "texture": "#1"},
				"west": {"uv": [15.4971, 0, 15.74708, 0.7472], "texture": "#1"}
			}
		},
		{
			"from": [-1, 5.15653, 1.15598],
			"to": [1, 5.46903, 1.46848],
			"rotation": {"angle": 45, "axis": "x", "origin": [0, 5.31278, 1.31223], "rescale": true},
			"faces": {
				"east": {"uv": [0, 0, 0.3125, 0.3125], "texture": "#0"},
				"west": {"uv": [15.4971, 0, 15.74708, 0.7472], "texture": "#1"},
				"up": {"uv": [0.1, 0.1, 1.09926, 1.09926], "texture": "#1"},
				"down": {"uv": [13.99993, 0, 15.74743, 0.74755], "rotation": 180, "texture": "#1"}
			}
		},
		{
			"from": [-1, 6.53153, 1.15598],
			"to": [1, 6.84403, 1.46848],
			"rotation": {"angle": 45, "axis": "x", "origin": [0, 6.68778, 1.31223], "rescale": true},
			"faces": {
				"north": {"uv": [13.99993, 0, 15.74743, 0.74755], "texture": "#1"},
				"east": {"uv": [0, 0, 0.3125, 0.3125], "texture": "#0"},
				"south": {"uv": [0.1, 0.1, 1.09926, 1.09926], "texture": "#1"},
				"west": {"uv": [15.4971, 0, 15.74708, 0.7472], "texture": "#1"}
			}
		},
		{
			"from": [23.38676, -6.38059, 0.09061],
			"to": [27.41696, 0.50441, 3.89061],
			"rotation": {"angle": 22.5, "axis": "z", "origin": [25.49561, -3.78184, 1.99061]},
			"faces": {
				"north": {"uv": [5.3497, 0.1, 6.34896, 1.09926], "texture": "#1"},
				"east": {"uv": [5.3497, 0.1, 6.34896, 1.09926], "texture": "#1"},
				"south": {"uv": [5.3497, 0.1, 6.34896, 1.09926], "texture": "#1"},
				"west": {"uv": [5.3497, 0.1, 6.34896, 1.09926], "texture": "#1"},
				"up": {"uv": [5.3497, 0.1, 6.34896, 1.09926], "texture": "#1"},
				"down": {"uv": [0, 0, 0, 0], "texture": "#0"}
			}
		},
		{
			"from": [24.54179, -6.98979, 0.09061],
			"to": [28.2595, -5.44854, 3.89061],
			"faces": {
				"north": {"uv": [5.3497, 0.1, 6.34896, 1.09926], "texture": "#1"},
				"east": {"uv": [5.3497, 0.1, 6.34896, 1.09926], "texture": "#1"},
				"south": {"uv": [5.3497, 0.1, 6.34896, 1.09926], "texture": "#1"},
				"up": {"uv": [0, 0, 0, 0], "texture": "#0"},
				"down": {"uv": [5.3497, 0.1, 6.34896, 1.09926], "texture": "#1"}
			}
		},
		{
			"from": [0.6, -2, 1.60556],
			"to": [1.2, -1.7375, 2.30556],
			"faces": {
				"west": {"uv": [0.1, 0.1, 1.09926, 1.09926], "texture": "#1"},
				"up": {"uv": [0.1, 0.1, 1.09926, 1.09926], "texture": "#1"},
				"down": {"uv": [0.1, 0.1, 1.09926, 1.09926], "texture": "#1"}
			}
		},
		{
			"from": [0.6, -1.75, 1.35556],
			"to": [1.2, -1.05, 1.61806],
			"faces": {
				"north": {"uv": [0.1, 0.1, 1.09926, 1.09926], "texture": "#1"},
				"south": {"uv": [0.1, 0.1, 1.09926, 1.09926], "texture": "#1"},
				"west": {"uv": [0.1, 0.1, 1.09926, 1.09926], "texture": "#1"}
			}
		},
		{
			"from": [0.6, -1.0625, 1.60556],
			"to": [1.2, -0.8, 2.30556],
			"faces": {
				"west": {"uv": [0.1, 0.1, 1.09926, 1.09926], "texture": "#1"},
				"up": {"uv": [0.1, 0.1, 1.09926, 1.09926], "texture": "#1"},
				"down": {"uv": [0.1, 0.1, 1.09926, 1.09926], "texture": "#1"}
			}
		},
		{
			"from": [0.59956, -1.86855, 2.17454],
			"to": [1.19956, -1.62167, 2.43704],
			"rotation": {"angle": 45, "axis": "x", "origin": [0.89956, -1.7373, 2.30579], "rescale": true},
			"faces": {
				"north": {"uv": [0.1, 0.1, 1.09926, 1.09926], "texture": "#1"},
				"south": {"uv": [0.1, 0.1, 1.09926, 1.09926], "texture": "#1"},
				"west": {"uv": [0.1, 0.1, 1.09926, 1.09926], "texture": "#1"}
			}
		},
		{
			"from": [0.60002, -1.88125, 1.48678],
			"to": [1.20002, -1.61875, 1.73366],
			"rotation": {"angle": 45, "axis": "x", "origin": [0.90002, -1.75, 1.61803], "rescale": true},
			"faces": {
				"west": {"uv": [0.1, 0.1, 1.09926, 1.09926], "texture": "#1"},
				"up": {"uv": [0.1, 0.1, 1.09926, 1.09926], "texture": "#1"},
				"down": {"uv": [0.1, 0.1, 1.09926, 1.09926], "texture": "#1"}
			}
		},
		{
			"from": [0.59989, -1.1781, 1.4744],
			"to": [1.19989, -0.93122, 1.7369],
			"rotation": {"angle": 45, "axis": "x", "origin": [0.89989, -1.06247, 1.60565], "rescale": true},
			"faces": {
				"north": {"uv": [0.1, 0.1, 1.09926, 1.09926], "texture": "#1"},
				"south": {"uv": [0.1, 0.1, 1.09926, 1.09926], "texture": "#1"},
				"west": {"uv": [0.1, 0.1, 1.09926, 1.09926], "texture": "#1"}
			}
		},
		{
			"from": [0.59948, -1.19322, 2.17431],
			"to": [1.19948, -0.93072, 2.42119],
			"rotation": {"angle": 45, "axis": "x", "origin": [0.89948, -1.06197, 2.30556], "rescale": true},
			"faces": {
				"west": {"uv": [0.1, 0.1, 1.09926, 1.09926], "texture": "#1"},
				"up": {"uv": [0.1, 0.1, 1.09926, 1.09926], "texture": "#1"},
				"down": {"uv": [0.1, 0.1, 1.09926, 1.09926], "texture": "#1"}
			}
		},
		{
			"from": [18.375, 11.515, 1.6999],
			"to": [18.375, 12.114, 2.2989],
			"rotation": {"angle": 45, "axis": "x", "origin": [18.375, 11.8145, 1.9994]},
			"faces": {
				"east": {"uv": [13.99993, 0.99995, 14.74955, 1.7468], "texture": "#1"},
				"west": {"uv": [13.99993, 0.99995, 14.74955, 1.7468], "texture": "#1"}
			}
		},
		{
			"from": [24.53055, -8.01028, 0.53472],
			"to": [28.63888, -5.75028, 3.52222],
			"faces": {
				"north": {"uv": [7.1, 0.1, 8.09926, 1.09926], "texture": "#1"},
				"east": {"uv": [7.1, 0.1, 8.09926, 1.09926], "texture": "#1"},
				"south": {"uv": [7.1, 0.1, 8.09926, 1.09926], "texture": "#1"},
				"west": {"uv": [7.1, 0.1, 8.09926, 1.09926], "texture": "#1"},
				"down": {"uv": [7.1, 0.1, 8.09926, 1.09926], "texture": "#1"}
			}
		},
		{
			"from": [16.8233, 1.49625, -0.12498],
			"to": [17.5483, 2.95625, 0.25002],
			"rotation": {"angle": -22.5, "axis": "z", "origin": [17.1858, 2.22625, 0.06252]},
			"faces": {
				"north": {"uv": [0.1, 0.1, 1.09926, 1.09926], "texture": "#1"},
				"east": {"uv": [0.1, 0.1, 1.09926, 1.09926], "texture": "#1"},
				"west": {"uv": [0.1, 0.1, 1.09926, 1.09926], "texture": "#1"},
				"up": {"uv": [0.1, 0.1, 1.09926, 1.09926], "texture": "#1"},
				"down": {"uv": [0.1, 0.1, 1.09926, 1.09926], "texture": "#1"}
			}
		},
		{
			"from": [17.5625, 0.26563, 0.22222],
			"to": [18, 1.1875, 3.77778],
			"rotation": {"angle": 45, "axis": "z", "origin": [18.25, 1.03125, 2]},
			"faces": {
				"north": {"uv": [1.85, 0.1, 2.84926, 1.09926], "texture": "#1"},
				"east": {"uv": [1.85, 0.1, 2.84926, 1.09926], "texture": "#1"},
				"south": {"uv": [1.85, 0.1, 2.84926, 1.09926], "texture": "#1"}
			}
		}
	],
	"display": {
		"thirdperson_righthand": {
			"rotation": [0, -90, 0],
			"translation": [-2, 1.25, -4],
			"scale": [0.33, 0.33, 0.33]
		},
		"thirdperson_lefthand": {
			"rotation": [0, 90, 0],
			"translation": [2, 1.25, -3.25],
			"scale": [0.33, 0.33, 0.33]
		},
		"firstperson_righthand": {
			"rotation": [0, -90, 0],
			"translation": [4.5, -7.25, -32]
		},
		"firstperson_lefthand": {
			"rotation": [0, 90, 0],
			"translation": [10.75, -7.25, -32]
		},
		"ground": {
			"translation": [-0.5, 1.5, 2.25],
			"scale": [0.3, 0.3, 0.3]
		},
		"gui": {
			"rotation": [10, -157, -35],
			"translation": [-0.25, 5, 0],
			"scale": [0.5, 0.5, 0.5]
		},
		"head": {
			"rotation": [0, 0, -26],
			"translation": [-1.75, -12.5, 7.75],
			"scale": [0.5, 0.5, 0.5]
		},
		"fixed": {
			"translation": [-3, 3, 1.25],
			"scale": [0.6, 0.6, 0.6]
		}
	},
	"groups": [0, 1, 2, 3, 4, 5, 6, 7, 8, 9, 10, 11, 12, 13, 14, 15,
		{
			"name": "octagon",
			"children": [16, 17, 18, 19]
		}, 20, 21, 22, 23, 24, 25, 26, 27, 28, 29, 30, 31, 32, 33, 34, 35, 36, 37, 38, 39, 40, 41, 42, 43, 44, 45, 46, 47, 48, 49, 50, 51, 52, 53, 54, 55, 56, 57, 58, 59, 60, 61, 62, 63, 64, 65, 66, 67, 68, 69, 70, 71, 72, 73, 74, 75, 76, 77, 78, 79, 80, 81, 82, 83, 84, 85]
}