{
	"credit": "Made with Blockbench",
	"ambientocclusion": false,
	"textures": {
		"1": "models/stalker_mask/crafting_table_top",
		"2": "models/stalker_mask/door_spruce_lower",
		"3": "models/laboratory/furnace_side",
		"4": "models/laboratory/sklo",
		"6": "blocks/planks_jungle",
		"7": "models/reaktor/energo_off",
		"particle": "blocks/endframe_top"
	},
	"elements": [
		{
			"from": [3, 0, 3],
			"to": [13, 11, 13],
			"rotation": {"angle": 0, "axis": "y", "origin": [11, 8, 11]},
			"faces": {
				"north": {"uv": [0, 0, 16, 13], "rotation": 180, "texture": "#3"},
				"east": {"uv": [0, 0, 16, 13], "rotation": 180, "texture": "#3"},
				"south": {"uv": [0, 0, 16, 13], "rotation": 180, "texture": "#3"},
				"west": {"uv": [0, 0, 16, 13], "rotation": 180, "texture": "#3"},
				"down": {"uv": [0, 0, 16, 16], "texture": "#1"}
			}
		},
		{
			"from": [7, 11, 3],
			"to": [13, 15, 13],
			"rotation": {"angle": 0, "axis": "y", "origin": [11, 12, 11]},
			"faces": {
				"north": {"uv": [7, 9, 16, 16], "rotation": 180, "texture": "#3"},
				"east": {"uv": [0, 9, 16, 16], "rotation": 180, "texture": "#3"},
				"south": {"uv": [0, 9, 9, 16], "rotation": 180, "texture": "#3"}
			}
		},
		{
			"from": [3, 11, 3],
			"to": [6, 15, 6],
			"rotation": {"angle": 0, "axis": "y", "origin": [4, 12, 11]},
			"faces": {
				"north": {"uv": [0, 9, 5, 16], "rotation": 180, "texture": "#3"},
				"south": {"uv": [0, 3, 1, 3], "rotation": 90, "texture": "#2"},
				"west": {"uv": [11, 9, 16, 16], "rotation": 180, "texture": "#3"}
			}
		},
		{
			"from": [3, 11, 10],
			"to": [6, 15, 13],
			"rotation": {"angle": 0, "axis": "y", "origin": [4, 12, 18]},
			"faces": {
				"north": {"uv": [0, 3, 1, 3], "rotation": 90, "texture": "#2"},
				"south": {"uv": [11, 9, 16, 16], "rotation": 180, "texture": "#3"},
				"west": {"uv": [0, 9, 5, 16], "rotation": 180, "texture": "#3"}
			}
		},
		{
			"from": [3, 15, 3],
			"to": [13, 31, 13],
			"rotation": {"angle": 0, "axis": "y", "origin": [11, 28, 11]},
			"faces": {
				"north": {"uv": [0, 0, 16, 16], "texture": "#3"},
				"east": {"uv": [0, 0, 16, 16], "texture": "#3"},
				"south": {"uv": [0, 0, 16, 16], "texture": "#3"},
				"west": {"uv": [0, 0, 16, 16], "texture": "#3"},
				"up": {"uv": [0, 0, 16, 16], "texture": "#1"}
			}
		},
		{
			"from": [4.25, 31, 10.5],
			"to": [5.5, 31.25, 11.75],
			"rotation": {"angle": 0, "axis": "y", "origin": [12.25, 28, 10.5]},
			"faces": {
				"north": {"uv": [6, 10, 10, 11], "texture": "#7"},
				"east": {"uv": [6, 10, 10, 11], "texture": "#7"},
				"south": {"uv": [6, 10, 10, 11], "texture": "#7"},
				"west": {"uv": [6, 10, 10, 11], "texture": "#7"},
				"up": {"uv": [6, 6, 10, 10], "texture": "#7"}
			}
		},
		{
			"from": [4.25, 31, 4.25],
			"to": [5.5, 31.25, 5.5],
			"rotation": {"angle": 0, "axis": "y", "origin": [12.25, 28, 4.25]},
			"faces": {
				"north": {"uv": [6, 10, 10, 11], "texture": "#7"},
				"east": {"uv": [6, 10, 10, 11], "texture": "#7"},
				"south": {"uv": [6, 10, 10, 11], "texture": "#7"},
				"west": {"uv": [6, 10, 10, 11], "texture": "#7"},
				"up": {"uv": [6, 6, 10, 10], "texture": "#7"}
			}
		},
		{
			"from": [10.5, 31, 10.5],
			"to": [11.75, 31.25, 11.75],
			"rotation": {"angle": 0, "axis": "y", "origin": [18.5, 28, 10.5]},
			"faces": {
				"north": {"uv": [6, 10, 10, 11], "texture": "#7"},
				"east": {"uv": [6, 10, 10, 11], "texture": "#7"},
				"south": {"uv": [6, 10, 10, 11], "texture": "#7"},
				"west": {"uv": [6, 10, 10, 11], "texture": "#7"},
				"up": {"uv": [6, 6, 10, 10], "texture": "#7"}
			}
		},
		{
			"from": [10.5, 31, 4.25],
			"to": [11.75, 31.25, 5.5],
			"rotation": {"angle": 0, "axis": "y", "origin": [18.5, 28, 4.25]},
			"faces": {
				"north": {"uv": [6, 10, 10, 11], "texture": "#7"},
				"east": {"uv": [6, 10, 10, 11], "texture": "#7"},
				"south": {"uv": [6, 10, 10, 11], "texture": "#7"},
				"west": {"uv": [6, 10, 10, 11], "texture": "#7"},
				"up": {"uv": [6, 6, 10, 10], "texture": "#7"}
			}
		},
		{
			"from": [2.05, 31, 6],
			"to": [13.9, 32, 10],
			"rotation": {"angle": 0, "axis": "y", "origin": [11.05, 9, 11]},
			"faces": {
				"north": {"uv": [0, 3, 16, 10], "rotation": 90, "texture": "#2"},
				"south": {"uv": [0, 3, 16, 10], "rotation": 90, "texture": "#2"},
				"up": {"uv": [0, 3, 16, 10], "rotation": 90, "texture": "#2"}
			}
		},
		{
			"from": [6.05, 31, 2.1],
			"to": [10.05, 32, 6],
			"rotation": {"angle": 0, "axis": "y", "origin": [11.05, 9, 4.95]},
			"faces": {
				"east": {"uv": [0, 3, 16, 10], "rotation": 90, "texture": "#2"},
				"west": {"uv": [0, 3, 16, 10], "rotation": 90, "texture": "#2"},
				"up": {"uv": [0, 3, 16, 10], "texture": "#2"}
			}
		},
		{
			"from": [6.05, 31, 10.025],
			"to": [10.05, 32, 13.925],
			"rotation": {"angle": 0, "axis": "y", "origin": [11.05, 9, 12.875]},
			"faces": {
				"east": {"uv": [0, 3, 16, 10], "rotation": 90, "texture": "#2"},
				"west": {"uv": [0, 3, 16, 10], "rotation": 90, "texture": "#2"},
				"up": {"uv": [0, 3, 16, 10], "texture": "#2"}
			}
		},
		{
			"from": [6, 6, 0],
			"to": [10, 27, 3],
			"rotation": {"angle": 0, "axis": "y", "origin": [11, 8, 1]},
			"faces": {
				"north": {"uv": [0, 3, 16, 10], "texture": "#2"},
				"east": {"uv": [0, 3, 16, 10], "texture": "#2"},
				"west": {"uv": [0, 3, 16, 10], "texture": "#2"}
			}
		},
		{
			"from": [5.99, 26.325, 0.475],
			"to": [10.01, 31.725, 3.475],
			"rotation": {"angle": 22.5, "axis": "x", "origin": [8, 27.825, 1.975]},
			"faces": {
				"north": {"uv": [0, 3, 16, 16], "rotation": 180, "texture": "#2"},
				"east": {"uv": [0, 3, 16, 16], "rotation": 180, "texture": "#2"},
				"west": {"uv": [0, 3, 16, 16], "rotation": 180, "texture": "#2"}
			}
		},
		{
			"from": [5.99, 26.325, 12.55],
			"to": [10.01, 31.725, 15.55],
			"rotation": {"angle": -22.5, "axis": "x", "origin": [9, 27.825, 14.05]},
			"faces": {
				"east": {"uv": [0, 3, 16, 16], "rotation": 180, "texture": "#2"},
				"south": {"uv": [0, 3, 16, 16], "rotation": 180, "texture": "#2"},
				"west": {"uv": [0, 3, 16, 16], "rotation": 180, "texture": "#2"}
			}
		},
		{
			"from": [5.99, 1.45, 11.625],
			"to": [10.01, 6.85, 14.625],
			"rotation": {"angle": 22.5, "axis": "x", "origin": [9, 2.95, 13.125]},
			"faces": {
				"east": {"uv": [0, 3, 16, 16], "texture": "#2"},
				"south": {"uv": [0, 3, 16, 16], "texture": "#2"},
				"west": {"uv": [0, 3, 16, 16], "texture": "#2"},
				"down": {"uv": [0, 15, 16, 16], "texture": "#2"}
			}
		},
		{
			"from": [5.99, 1.45, 1.375],
			"to": [10.01, 6.85, 4.375],
			"rotation": {"angle": -22.5, "axis": "x", "origin": [9, 2.95, 2.875]},
			"faces": {
				"north": {"uv": [0, 3, 16, 16], "texture": "#2"},
				"east": {"uv": [0, 3, 16, 16], "texture": "#2"},
				"west": {"uv": [0, 3, 16, 16], "texture": "#2"},
				"down": {"uv": [6, 15, 16, 16], "texture": "#2"}
			}
		},
		{
			"from": [6, 6, 13],
			"to": [10, 27, 16],
			"rotation": {"angle": 0, "axis": "y", "origin": [11, 8, 14]},
			"faces": {
				"east": {"uv": [0, 3, 16, 10], "texture": "#2"},
				"south": {"uv": [0, 3, 16, 10], "texture": "#2"},
				"west": {"uv": [0, 3, 16, 10], "texture": "#2"}
			}
		},
		{
			"from": [13, 6, 6],
			"to": [16, 27, 10],
			"rotation": {"angle": 0, "axis": "y", "origin": [18, 8, 8]},
			"faces": {
				"north": {"uv": [0, 3, 16, 10], "texture": "#2"},
				"east": {"uv": [0, 3, 16, 10], "texture": "#2"},
				"south": {"uv": [0, 3, 16, 10], "texture": "#2"}
			}
		},
		{
			"from": [12.525, 26.3, 5.99],
			"to": [15.525, 31.7, 10.01],
			"rotation": {"angle": 22.5, "axis": "z", "origin": [14.025, 27.8, 8]},
			"faces": {
				"north": {"uv": [0, 3, 16, 16], "rotation": 180, "texture": "#2"},
				"east": {"uv": [0, 3, 16, 16], "rotation": 180, "texture": "#2"},
				"south": {"uv": [0, 3, 16, 16], "rotation": 180, "texture": "#2"}
			}
		},
		{
			"from": [0.425, 26.3, 5.99],
			"to": [3.425, 31.7, 10.01],
			"rotation": {"angle": -22.5, "axis": "z", "origin": [1.925, 27.8, 8]},
			"faces": {
				"north": {"uv": [0, 3, 16, 16], "rotation": 180, "texture": "#2"},
				"south": {"uv": [0, 3, 16, 16], "rotation": 180, "texture": "#2"},
				"west": {"uv": [0, 3, 16, 16], "rotation": 180, "texture": "#2"}
			}
		},
		{
			"from": [1.375, 0.5, 5.99],
			"to": [4.375, 6.9, 10.01],
			"rotation": {"angle": 22.5, "axis": "z", "origin": [2.875, 3, 8]},
			"faces": {
				"north": {"uv": [0, 3, 16, 16], "texture": "#2"},
				"south": {"uv": [0, 3, 16, 16], "texture": "#2"},
				"west": {"uv": [0, 3, 16, 16], "texture": "#2"},
				"down": {"uv": [0, 15, 16, 16], "texture": "#2"}
			}
		},
		{
			"from": [11.625, 0.5, 5.99],
			"to": [14.625, 6.9, 10.01],
			"rotation": {"angle": -22.5, "axis": "z", "origin": [13.125, 3, 8]},
			"faces": {
				"north": {"uv": [0, 3, 16, 16], "texture": "#2"},
				"east": {"uv": [0, 3, 16, 16], "texture": "#2"},
				"south": {"uv": [0, 3, 16, 16], "texture": "#2"},
				"down": {"uv": [0, 15, 16, 16], "texture": "#2"}
			}
		},
		{
			"from": [6, 11, 6],
			"to": [6.5, 15, 10],
			"rotation": {"angle": 0, "axis": "y", "origin": [11, 4, 8]},
			"faces": {
				"north": {"uv": [0, 0, 16, 1], "rotation": 90, "texture": "#1"},
				"east": {"uv": [0, 0, 16, 16], "rotation": 180, "texture": "#1"},
				"south": {"uv": [0, 0, 16, 1], "rotation": 90, "texture": "#1"},
				"west": {"uv": [0, 0, 16, 16], "rotation": 180, "texture": "#1"},
				"up": {"uv": [0, 0, 16, 1], "rotation": 90, "texture": "#1"},
				"down": {"uv": [0, 0, 16, 1], "rotation": 90, "texture": "#1"}
			}
		},
		{
			"from": [6.2, 11, 6],
			"to": [6.2, 15, 10],
			"rotation": {"angle": 0, "axis": "y", "origin": [11.2, 4, 8]},
			"faces": {
				"west": {"uv": [0, 0, 16, 16], "rotation": 180, "texture": "#1"}
			}
		},
		{
			"from": [0, 15, 6],
			"to": [3, 27, 10],
			"rotation": {"angle": 0, "axis": "y", "origin": [5, 8, 8]},
			"faces": {
				"north": {"uv": [0, 3, 16, 10], "texture": "#2"},
				"south": {"uv": [0, 3, 16, 10], "texture": "#2"},
				"west": {"uv": [0, 2, 16, 10], "rotation": 180, "texture": "#2"},
				"down": {"uv": [0, 2, 16, 6], "rotation": 270, "texture": "#2"}
			}
		},
		{
			"from": [0, 6, 6],
			"to": [3, 11, 10],
			"rotation": {"angle": 0, "axis": "y", "origin": [5, 8, 8]},
			"faces": {
				"north": {"uv": [0, 3, 16, 5], "texture": "#2"},
				"south": {"uv": [0, 3, 16, 5], "texture": "#2"},
				"west": {"uv": [0, 2, 16, 6], "texture": "#2"},
				"up": {"uv": [0, 2, 16, 6], "rotation": 270, "texture": "#2"}
			}
		},
		{
			"from": [3, 11, 6],
			"to": [6, 11, 10],
			"faces": {
				"up": {"uv": [0, 3, 16, 7], "rotation": 270, "texture": "#2"}
			}
		},
		{
			"from": [3, 15, 6],
			"to": [6, 15, 10],
			"rotation": {"angle": 0, "axis": "y", "origin": [8, 12, 8]},
			"faces": {
				"down": {"uv": [0, 3, 16, 7], "rotation": 270, "texture": "#2"}
			}
		},
		{
			"from": [0, 9, 10],
			"to": [3, 16, 11],
			"rotation": {"angle": 0, "axis": "y", "origin": [5, 12, 8]},
			"faces": {
				"north": {"uv": [0, 3, 1, 3], "rotation": 90, "texture": "#2"},
				"south": {"uv": [0, 3, 1, 3], "rotation": 90, "texture": "#2"},
				"west": {"uv": [0, 3, 3, 10], "texture": "#2"},
				"up": {"uv": [0, 3, 3, 10], "rotation": 90, "texture": "#2"},
				"down": {"uv": [0, 3, 3, 10], "rotation": 90, "texture": "#2"}
			}
		},
		{
			"from": [0, 9, 5],
			"to": [3, 16, 6],
			"rotation": {"angle": 0, "axis": "y", "origin": [5, 12, 3]},
			"faces": {
				"north": {"uv": [0, 3, 1, 3], "rotation": 90, "texture": "#2"},
				"south": {"uv": [0, 3, 1, 3], "rotation": 90, "texture": "#2"},
				"west": {"uv": [0, 3, 3, 10], "texture": "#2"},
				"up": {"uv": [0, 3, 3, 10], "rotation": 90, "texture": "#2"},
				"down": {"uv": [0, 3, 3, 10], "rotation": 90, "texture": "#2"}
			}
		},
		{
			"from": [5, -8, 5],
			"to": [11, 0, 11],
			"rotation": {"angle": 0, "axis": "y", "origin": [13, 7, 13]},
			"faces": {
				"north": {"uv": [1, 4, 15, 13], "texture": "#4"},
				"east": {"uv": [1, 4, 15, 13], "texture": "#4"},
				"south": {"uv": [1, 4, 15, 13], "texture": "#4"},
				"west": {"uv": [1, 4, 15, 13], "texture": "#4"},
				"down": {"uv": [2, 2, 14, 14], "texture": "#4"}
			}
		},
		{
			"from": [6, -7, 6],
			"to": [10, 0, 10],
			"rotation": {"angle": 0, "axis": "y", "origin": [13, 7, 13]},
			"faces": {
				"north": {"uv": [5, 3, 11, 13], "texture": "#7"},
				"east": {"uv": [5, 3, 11, 13], "texture": "#7"},
				"south": {"uv": [5, 3, 11, 13], "texture": "#7"},
				"west": {"uv": [5, 3, 11, 13], "texture": "#7"},
				"down": {"uv": [4, 4, 12, 12], "texture": "#7"}
			}
		},
		{
			"from": [0.01, -16, 0.01],
			"to": [3.01, -9, 3.01],
			"rotation": {"angle": 0, "axis": "y", "origin": [8, -8, 8]},
			"faces": {
				"north": {"uv": [0, 0, 16, 13], "rotation": 180, "texture": "#3"},
				"east": {"uv": [0, 0, 16, 13], "rotation": 180, "texture": "#3"},
				"south": {"uv": [0, 0, 16, 13], "rotation": 180, "texture": "#3"},
				"west": {"uv": [0, 0, 16, 13], "rotation": 180, "texture": "#3"}
			}
		},
		{
			"from": [0.01, -16, 12.95],
			"to": [3.01, -9, 15.95],
			"rotation": {"angle": 0, "axis": "y", "origin": [8, -8, 21]},
			"faces": {
				"north": {"uv": [0, 0, 16, 13], "rotation": 180, "texture": "#3"},
				"east": {"uv": [0, 0, 16, 13], "rotation": 180, "texture": "#3"},
				"south": {"uv": [0, 0, 16, 13], "rotation": 180, "texture": "#3"},
				"west": {"uv": [0, 0, 16, 13], "rotation": 180, "texture": "#3"}
			}
		},
		{
			"from": [12.98, -16, 12.95],
			"to": [15.99, -9, 15.96],
			"rotation": {"angle": 0, "axis": "y", "origin": [21, -8, 21]},
			"faces": {
				"north": {"uv": [0, 0, 16, 13], "rotation": 180, "texture": "#3"},
				"east": {"uv": [0, 0, 16, 13], "rotation": 180, "texture": "#3"},
				"south": {"uv": [0, 0, 16, 13], "rotation": 180, "texture": "#3"},
				"west": {"uv": [0, 0, 16, 13], "rotation": 180, "texture": "#3"}
			}
		},
		{
			"from": [14, -10.5, 12.375],
			"to": [16, -5.25, 15.375],
			"rotation": {"angle": -45, "axis": "x", "origin": [14.5, -9, 13.875]},
			"faces": {
				"north": {"uv": [0, 5, 16, 13], "rotation": 180, "texture": "#3"},
				"east": {"uv": [0, 5, 16, 13], "rotation": 180, "texture": "#3"},
				"south": {"uv": [0, 5, 16, 13], "rotation": 180, "texture": "#3"},
				"west": {"uv": [0, 5, 16, 13], "rotation": 180, "texture": "#3"}
			}
		},
		{
			"from": [12.375, -10.5, 13.975],
			"to": [15.375, -5.25, 15.975],
			"rotation": {"angle": 45, "axis": "z", "origin": [13.875, -9, 14.475]},
			"faces": {
				"north": {"uv": [0, 5, 16, 13], "rotation": 180, "texture": "#3"},
				"east": {"uv": [0, 5, 16, 13], "rotation": 180, "texture": "#3"},
				"south": {"uv": [0, 5, 16, 13], "rotation": 180, "texture": "#3"},
				"west": {"uv": [0, 5, 16, 13], "rotation": 180, "texture": "#3"}
			}
		},
		{
			"from": [12.375, -10.5, -0.025],
			"to": [15.375, -5.25, 1.975],
			"rotation": {"angle": 45, "axis": "z", "origin": [13.875, -9, 1.475]},
			"faces": {
				"north": {"uv": [0, 5, 16, 13], "rotation": 180, "texture": "#3"},
				"east": {"uv": [0, 5, 16, 13], "rotation": 180, "texture": "#3"},
				"south": {"uv": [0, 5, 16, 13], "rotation": 180, "texture": "#3"},
				"west": {"uv": [0, 5, 16, 13], "rotation": 180, "texture": "#3"}
			}
		},
		{
			"from": [0.625, -10.5, -0.025],
			"to": [3.625, -5.25, 1.975],
			"rotation": {"angle": -45, "axis": "z", "origin": [2.125, -9, 1.475]},
			"faces": {
				"north": {"uv": [0, 5, 16, 13], "rotation": 180, "texture": "#3"},
				"east": {"uv": [0, 5, 16, 13], "rotation": 180, "texture": "#3"},
				"south": {"uv": [0, 5, 16, 13], "rotation": 180, "texture": "#3"},
				"west": {"uv": [0, 5, 16, 13], "rotation": 180, "texture": "#3"}
			}
		},
		{
			"from": [3.65, -7.575, -0.05],
			"to": [6.3, -3.575, 1.95],
			"rotation": {"angle": 0, "axis": "z", "origin": [5.15, -6.075, 1.45]},
			"faces": {
				"north": {"uv": [0, 5, 16, 15], "texture": "#3"},
				"east": {"uv": [0, 5, 16, 15], "texture": "#3"},
				"south": {"uv": [0, 5, 16, 15], "texture": "#3"},
				"west": {"uv": [0, 5, 16, 15], "texture": "#3"},
				"up": {"uv": [3, 5, 13, 13], "texture": "#3"},
				"down": {"uv": [13, 14, 14, 15], "texture": "#3"}
			}
		},
		{
			"from": [-0.00503, -7.575, 9.68003],
			"to": [1.99497, -3.575, 12.33003],
			"rotation": {"angle": 0, "axis": "y", "origin": [1.5, -2.97419, 7.98003]},
			"faces": {
				"north": {"uv": [0, 5, 16, 15], "texture": "#3"},
				"east": {"uv": [0, 5, 16, 15], "texture": "#3"},
				"south": {"uv": [0, 5, 16, 15], "texture": "#3"},
				"west": {"uv": [0, 5, 16, 15], "texture": "#3"},
				"up": {"uv": [3, 5, 13, 13], "texture": "#3"},
				"down": {"uv": [13, 14, 14, 15], "texture": "#3"}
			}
		},
		{
			"from": [14.01997, -7.575, 9.68003],
			"to": [16.01997, -3.575, 12.33003],
			"rotation": {"angle": 0, "axis": "y", "origin": [15.525, -2.97419, 7.98003]},
			"faces": {
				"north": {"uv": [0, 5, 16, 15], "texture": "#3"},
				"east": {"uv": [0, 5, 16, 15], "texture": "#3"},
				"south": {"uv": [0, 5, 16, 15], "texture": "#3"},
				"west": {"uv": [0, 5, 16, 15], "texture": "#3"},
				"up": {"uv": [3, 5, 13, 13], "texture": "#3"},
				"down": {"uv": [13, 14, 14, 15], "texture": "#3"}
			}
		},
		{
			"from": [3.65, -7.575, 14],
			"to": [6.3, -3.575, 16],
			"rotation": {"angle": 0, "axis": "z", "origin": [5.15, -6.075, 15.5]},
			"faces": {
				"north": {"uv": [0, 5, 16, 15], "texture": "#3"},
				"east": {"uv": [0, 5, 16, 15], "texture": "#3"},
				"south": {"uv": [0, 5, 16, 15], "texture": "#3"},
				"west": {"uv": [0, 5, 16, 15], "texture": "#3"},
				"up": {"uv": [3, 5, 13, 13], "texture": "#3"},
				"down": {"uv": [13, 14, 14, 15], "texture": "#3"}
			}
		},
		{
			"from": [9.65, -7.575, -0.05],
			"to": [12.3, -3.575, 1.95],
			"rotation": {"angle": 0, "axis": "z", "origin": [11.15, -6.075, 1.45]},
			"faces": {
				"north": {"uv": [0, 5, 16, 15], "texture": "#3"},
				"east": {"uv": [0, 5, 16, 15], "texture": "#3"},
				"south": {"uv": [0, 5, 16, 15], "texture": "#3"},
				"west": {"uv": [0, 5, 16, 15], "texture": "#3"},
				"up": {"uv": [3, 5, 13, 13], "texture": "#3"},
				"down": {"uv": [13, 14, 14, 15], "texture": "#3"}
			}
		},
		{
			"from": [-0.00503, -7.575, 3.68003],
			"to": [1.99497, -3.575, 6.33003],
			"rotation": {"angle": 0, "axis": "y", "origin": [1.5, -2.97419, 7.98003]},
			"faces": {
				"north": {"uv": [0, 5, 16, 15], "texture": "#3"},
				"east": {"uv": [0, 5, 16, 15], "texture": "#3"},
				"south": {"uv": [0, 5, 16, 15], "texture": "#3"},
				"west": {"uv": [0, 5, 16, 15], "texture": "#3"},
				"up": {"uv": [3, 5, 13, 13], "texture": "#3"},
				"down": {"uv": [13, 14, 14, 15], "texture": "#3"}
			}
		},
		{
			"from": [14.01997, -7.575, 3.68003],
			"to": [16.01997, -3.575, 6.33003],
			"rotation": {"angle": 0, "axis": "y", "origin": [15.525, -2.97419, 7.98003]},
			"faces": {
				"north": {"uv": [0, 5, 16, 15], "texture": "#3"},
				"east": {"uv": [0, 5, 16, 15], "texture": "#3"},
				"south": {"uv": [0, 5, 16, 15], "texture": "#3"},
				"west": {"uv": [0, 5, 16, 15], "texture": "#3"},
				"up": {"uv": [3, 5, 13, 13], "texture": "#3"},
				"down": {"uv": [13, 14, 14, 15], "texture": "#3"}
			}
		},
		{
			"from": [9.65, -7.575, 14],
			"to": [12.3, -3.575, 16],
			"rotation": {"angle": 0, "axis": "z", "origin": [11.15, -6.075, 15.5]},
			"faces": {
				"north": {"uv": [0, 5, 16, 15], "texture": "#3"},
				"east": {"uv": [0, 5, 16, 15], "texture": "#3"},
				"south": {"uv": [0, 5, 16, 15], "texture": "#3"},
				"west": {"uv": [0, 5, 16, 15], "texture": "#3"},
				"up": {"uv": [3, 5, 13, 13], "texture": "#3"},
				"down": {"uv": [13, 14, 14, 15], "texture": "#3"}
			}
		},
		{
			"from": [0.625, -10.5, 13.975],
			"to": [3.625, -5.25, 15.975],
			"rotation": {"angle": -45, "axis": "z", "origin": [2.125, -9, 15.475]},
			"faces": {
				"north": {"uv": [0, 5, 16, 13], "rotation": 180, "texture": "#3"},
				"east": {"uv": [0, 5, 16, 13], "rotation": 180, "texture": "#3"},
				"south": {"uv": [0, 5, 16, 13], "rotation": 180, "texture": "#3"},
				"west": {"uv": [0, 5, 16, 13], "rotation": 180, "texture": "#3"}
			}
		},
		{
			"from": [0, -10.5, 12.375],
			"to": [2, -5.25, 15.375],
			"rotation": {"angle": -45, "axis": "x", "origin": [1.5, -9, 13.875]},
			"faces": {
				"north": {"uv": [0, 5, 16, 13], "rotation": 180, "texture": "#3"},
				"east": {"uv": [0, 5, 16, 13], "rotation": 180, "texture": "#3"},
				"south": {"uv": [0, 5, 16, 13], "rotation": 180, "texture": "#3"},
				"west": {"uv": [0, 5, 16, 13], "rotation": 180, "texture": "#3"}
			}
		},
		{
			"from": [0, -10.5, 0.6],
			"to": [2, -7.5, 5.85],
			"rotation": {"angle": -45, "axis": "x", "origin": [1.5, -9, 2.1]},
			"faces": {
				"east": {"uv": [0, 5, 16, 13], "rotation": 90, "texture": "#3"},
				"west": {"uv": [0, 5, 16, 13], "rotation": 90, "texture": "#3"},
				"up": {"uv": [0, 5, 16, 13], "rotation": 180, "texture": "#3"},
				"down": {"uv": [0, 5, 16, 13], "rotation": 180, "texture": "#3"}
			}
		},
		{
			"from": [14, -10.5, 0.6],
			"to": [16, -7.5, 5.85],
			"rotation": {"angle": -45, "axis": "x", "origin": [15.5, -9, 2.1]},
			"faces": {
				"east": {"uv": [0, 5, 16, 13], "rotation": 90, "texture": "#3"},
				"west": {"uv": [0, 5, 16, 13], "rotation": 90, "texture": "#3"},
				"up": {"uv": [0, 5, 16, 13], "rotation": 180, "texture": "#3"},
				"down": {"uv": [0, 5, 16, 13], "rotation": 180, "texture": "#3"}
			}
		},
		{
			"from": [12.98, -16, 0],
			"to": [15.99, -9, 3.01],
			"rotation": {"angle": 0, "axis": "y", "origin": [21, -8, 8]},
			"faces": {
				"north": {"uv": [0, 0, 16, 13], "rotation": 180, "texture": "#3"},
				"east": {"uv": [0, 0, 16, 13], "rotation": 180, "texture": "#3"},
				"south": {"uv": [0, 0, 16, 13], "rotation": 180, "texture": "#3"},
				"west": {"uv": [0, 0, 16, 13], "rotation": 180, "texture": "#3"}
			}
		},
		{
			"from": [1, -2, 3.99],
			"to": [3, 1, 6.01],
			"rotation": {"angle": 0, "axis": "y", "origin": [9, 8, 12]},
			"faces": {
				"north": {"uv": [0, 5, 16, 13], "rotation": 180, "texture": "#3"},
				"east": {"uv": [0, 5, 16, 13], "rotation": 180, "texture": "#3"},
				"south": {"uv": [0, 5, 16, 13], "rotation": 180, "texture": "#3"},
				"west": {"uv": [0, 5, 16, 13], "rotation": 180, "texture": "#3"}
			}
		},
		{
			"from": [1.425, 0, 4],
			"to": [3.425, 3, 6],
			"rotation": {"angle": -45, "axis": "z", "origin": [2.425, 1, 5]},
			"faces": {
				"north": {"uv": [0, 5, 16, 13], "rotation": 180, "texture": "#3"},
				"south": {"uv": [0, 5, 16, 13], "rotation": 180, "texture": "#3"},
				"west": {"uv": [0, 5, 16, 13], "rotation": 180, "texture": "#3"}
			}
		},
		{
			"from": [1.425, 0, 10],
			"to": [3.425, 3, 12],
			"rotation": {"angle": -45, "axis": "z", "origin": [2.425, 1, 11]},
			"faces": {
				"north": {"uv": [0, 5, 16, 13], "rotation": 180, "texture": "#3"},
				"south": {"uv": [0, 5, 16, 13], "rotation": 180, "texture": "#3"},
				"west": {"uv": [0, 5, 16, 13], "rotation": 180, "texture": "#3"}
			}
		},
		{
			"from": [4, 0, 11.575],
			"to": [6, 2, 14.575],
			"rotation": {"angle": 45, "axis": "x", "origin": [5, 1, 13.575]},
			"faces": {
				"east": {"uv": [0, 5, 16, 13], "rotation": 180, "texture": "#3"},
				"west": {"uv": [0, 5, 16, 13], "rotation": 180, "texture": "#3"},
				"up": {"uv": [0, 5, 16, 13], "rotation": 180, "texture": "#3"}
			}
		},
		{
			"from": [10, 0, 1.4],
			"to": [12, 3, 3.4],
			"rotation": {"angle": 45, "axis": "x", "origin": [11, 1, 2.4]},
			"faces": {
				"north": {"uv": [0, 5, 16, 13], "rotation": 180, "texture": "#3"},
				"east": {"uv": [0, 5, 16, 13], "rotation": 180, "texture": "#3"},
				"west": {"uv": [0, 5, 16, 13], "rotation": 180, "texture": "#3"}
			}
		},
		{
			"from": [4, 0, 1.4],
			"to": [6, 3, 3.4],
			"rotation": {"angle": 45, "axis": "x", "origin": [5, 1, 2.4]},
			"faces": {
				"north": {"uv": [0, 5, 16, 13], "rotation": 180, "texture": "#3"},
				"east": {"uv": [0, 5, 16, 13], "rotation": 180, "texture": "#3"},
				"west": {"uv": [0, 5, 16, 13], "rotation": 180, "texture": "#3"}
			}
		},
		{
			"from": [10, 0, 11.575],
			"to": [12, 2, 14.575],
			"rotation": {"angle": 45, "axis": "x", "origin": [11, 1, 13.575]},
			"faces": {
				"east": {"uv": [0, 5, 16, 13], "rotation": 180, "texture": "#3"},
				"west": {"uv": [0, 5, 16, 13], "rotation": 180, "texture": "#3"},
				"up": {"uv": [0, 5, 16, 13], "rotation": 180, "texture": "#3"}
			}
		},
		{
			"from": [12.575, 0, 10],
			"to": [14.575, 3, 12],
			"rotation": {"angle": 45, "axis": "z", "origin": [13.575, 1, 11]},
			"faces": {
				"north": {"uv": [0, 5, 16, 13], "rotation": 180, "texture": "#3"},
				"east": {"uv": [0, 5, 16, 13], "rotation": 180, "texture": "#3"},
				"south": {"uv": [0, 5, 16, 13], "rotation": 180, "texture": "#3"}
			}
		},
		{
			"from": [12.575, 0, 4],
			"to": [14.575, 3, 6],
			"rotation": {"angle": 45, "axis": "z", "origin": [13.575, 1, 5]},
			"faces": {
				"north": {"uv": [0, 5, 16, 13], "rotation": 180, "texture": "#3"},
				"east": {"uv": [0, 5, 16, 13], "rotation": 180, "texture": "#3"},
				"south": {"uv": [0, 5, 16, 13], "rotation": 180, "texture": "#3"}
			}
		},
		{
			"from": [13, -2, 3.99],
			"to": [15, 1, 6.01],
			"rotation": {"angle": 0, "axis": "y", "origin": [21, 8, 12]},
			"faces": {
				"north": {"uv": [0, 5, 16, 13], "rotation": 180, "texture": "#3"},
				"east": {"uv": [0, 5, 16, 13], "rotation": 180, "texture": "#3"},
				"south": {"uv": [0, 5, 16, 13], "rotation": 180, "texture": "#3"},
				"west": {"uv": [0, 5, 16, 13], "rotation": 180, "texture": "#3"}
			}
		},
		{
			"from": [1, -2, 9.99],
			"to": [3, 1, 12.01],
			"rotation": {"angle": 0, "axis": "y", "origin": [9, 8, 18]},
			"faces": {
				"north": {"uv": [0, 5, 16, 13], "rotation": 180, "texture": "#3"},
				"east": {"uv": [0, 5, 16, 13], "rotation": 180, "texture": "#3"},
				"south": {"uv": [0, 5, 16, 13], "rotation": 180, "texture": "#3"},
				"west": {"uv": [0, 5, 16, 13], "rotation": 180, "texture": "#3"}
			}
		},
		{
			"from": [13, -2, 9.99],
			"to": [15, 1, 12.01],
			"rotation": {"angle": 0, "axis": "y", "origin": [21, 8, 18]},
			"faces": {
				"north": {"uv": [0, 5, 16, 13], "rotation": 180, "texture": "#3"},
				"east": {"uv": [0, 5, 16, 13], "rotation": 180, "texture": "#3"},
				"south": {"uv": [0, 5, 16, 13], "rotation": 180, "texture": "#3"},
				"west": {"uv": [0, 5, 16, 13], "rotation": 180, "texture": "#3"}
			}
		},
		{
			"from": [3.99, -2, 1],
			"to": [6.01, 1, 3],
			"rotation": {"angle": 0, "axis": "y", "origin": [12, 8, 9]},
			"faces": {
				"north": {"uv": [0, 5, 16, 13], "rotation": 180, "texture": "#3"},
				"east": {"uv": [0, 5, 16, 13], "rotation": 180, "texture": "#3"},
				"south": {"uv": [0, 5, 16, 13], "rotation": 180, "texture": "#3"},
				"west": {"uv": [0, 5, 16, 13], "rotation": 180, "texture": "#3"}
			}
		},
		{
			"from": [4, -7.8, 3.2],
			"to": [6, -4.8, 5.2],
			"rotation": {"angle": 22.5, "axis": "x", "origin": [12, 2.2, 11.2]},
			"faces": {
				"north": {"uv": [0, 5, 16, 13], "rotation": 180, "texture": "#3"},
				"east": {"uv": [0, 5, 16, 13], "rotation": 180, "texture": "#3"},
				"south": {"uv": [0, 5, 16, 13], "rotation": 180, "texture": "#3"},
				"west": {"uv": [0, 5, 16, 13], "rotation": 180, "texture": "#3"}
			}
		},
		{
			"from": [0.5, -4.47419, 9.98003],
			"to": [2.5, -1.47419, 11.98003],
			"rotation": {"angle": -22.5, "axis": "z", "origin": [1.5, -2.97419, 7.98003]},
			"faces": {
				"north": {"uv": [0, 5, 16, 13], "rotation": 180, "texture": "#3"},
				"east": {"uv": [0, 5, 16, 13], "rotation": 180, "texture": "#3"},
				"south": {"uv": [0, 5, 16, 13], "rotation": 180, "texture": "#3"},
				"west": {"uv": [0, 5, 16, 13], "rotation": 180, "texture": "#3"}
			}
		},
		{
			"from": [13.5, -4.47419, 9.98003],
			"to": [15.5, -1.47419, 11.98003],
			"rotation": {"angle": 22.5, "axis": "z", "origin": [14.5, -2.97419, 7.98003]},
			"faces": {
				"north": {"uv": [0, 5, 16, 13], "rotation": 180, "texture": "#3"},
				"east": {"uv": [0, 5, 16, 13], "rotation": 180, "texture": "#3"},
				"south": {"uv": [0, 5, 16, 13], "rotation": 180, "texture": "#3"},
				"west": {"uv": [0, 5, 16, 13], "rotation": 180, "texture": "#3"}
			}
		},
		{
			"from": [10, -7.8, 3.2],
			"to": [12, -4.8, 5.2],
			"rotation": {"angle": 22.5, "axis": "x", "origin": [18, 2.2, 11.2]},
			"faces": {
				"north": {"uv": [0, 5, 16, 13], "rotation": 180, "texture": "#3"},
				"east": {"uv": [0, 5, 16, 13], "rotation": 180, "texture": "#3"},
				"south": {"uv": [0, 5, 16, 13], "rotation": 180, "texture": "#3"},
				"west": {"uv": [0, 5, 16, 13], "rotation": 180, "texture": "#3"}
			}
		},
		{
			"from": [0.5, -4.47419, 3.98003],
			"to": [2.5, -1.47419, 5.98003],
			"rotation": {"angle": -22.5, "axis": "z", "origin": [1.5, -2.97419, 7.98003]},
			"faces": {
				"north": {"uv": [0, 5, 16, 13], "rotation": 180, "texture": "#3"},
				"east": {"uv": [0, 5, 16, 13], "rotation": 180, "texture": "#3"},
				"south": {"uv": [0, 5, 16, 13], "rotation": 180, "texture": "#3"},
				"west": {"uv": [0, 5, 16, 13], "rotation": 180, "texture": "#3"}
			}
		},
		{
			"from": [13.5, -4.47419, 3.98003],
			"to": [15.5, -1.47419, 5.98003],
			"rotation": {"angle": 22.5, "axis": "z", "origin": [14.5, -2.97419, 7.98003]},
			"faces": {
				"north": {"uv": [0, 5, 16, 13], "rotation": 180, "texture": "#3"},
				"east": {"uv": [0, 5, 16, 13], "rotation": 180, "texture": "#3"},
				"south": {"uv": [0, 5, 16, 13], "rotation": 180, "texture": "#3"},
				"west": {"uv": [0, 5, 16, 13], "rotation": 180, "texture": "#3"}
			}
		},
		{
			"from": [10, -4.39919, 13.48003],
			"to": [12, -1.49919, 15.48003],
			"rotation": {"angle": -22.5, "axis": "x", "origin": [11, -2.89919, 14.48003]},
			"faces": {
				"north": {"uv": [0, 5, 16, 13], "rotation": 180, "texture": "#3"},
				"east": {"uv": [0, 5, 16, 13], "rotation": 180, "texture": "#3"},
				"south": {"uv": [0, 5, 16, 13], "rotation": 180, "texture": "#3"},
				"west": {"uv": [0, 5, 16, 13], "rotation": 180, "texture": "#3"}
			}
		},
		{
			"from": [4, -4.39919, 13.48003],
			"to": [6, -1.49919, 15.48003],
			"rotation": {"angle": -22.5, "axis": "x", "origin": [5, -2.89919, 14.48003]},
			"faces": {
				"north": {"uv": [0, 5, 16, 13], "rotation": 180, "texture": "#3"},
				"east": {"uv": [0, 5, 16, 13], "rotation": 180, "texture": "#3"},
				"south": {"uv": [0, 5, 16, 13], "rotation": 180, "texture": "#3"},
				"west": {"uv": [0, 5, 16, 13], "rotation": 180, "texture": "#3"}
			}
		},
		{
			"from": [3.99, -2, 13],
			"to": [6.01, 1, 15],
			"rotation": {"angle": 0, "axis": "y", "origin": [12, 8, 21]},
			"faces": {
				"north": {"uv": [0, 5, 16, 13], "rotation": 180, "texture": "#3"},
				"east": {"uv": [0, 5, 16, 13], "rotation": 180, "texture": "#3"},
				"south": {"uv": [0, 5, 16, 13], "rotation": 180, "texture": "#3"},
				"west": {"uv": [0, 5, 16, 13], "rotation": 180, "texture": "#3"}
			}
		},
		{
			"from": [9.99, -2, 1],
			"to": [12.01, 1, 3],
			"rotation": {"angle": 0, "axis": "y", "origin": [18, 8, 9]},
			"faces": {
				"north": {"uv": [0, 5, 16, 13], "rotation": 180, "texture": "#3"},
				"east": {"uv": [0, 5, 16, 13], "rotation": 180, "texture": "#3"},
				"south": {"uv": [0, 5, 16, 13], "rotation": 180, "texture": "#3"},
				"west": {"uv": [0, 5, 16, 13], "rotation": 180, "texture": "#3"}
			}
		},
		{
			"from": [9.99, -2, 13],
			"to": [12.01, 1, 15],
			"rotation": {"angle": 0, "axis": "y", "origin": [18, 8, 21]},
			"faces": {
				"north": {"uv": [0, 5, 16, 13], "rotation": 180, "texture": "#3"},
				"east": {"uv": [0, 5, 16, 13], "rotation": 180, "texture": "#3"},
				"south": {"uv": [0, 5, 16, 13], "rotation": 180, "texture": "#3"},
				"west": {"uv": [0, 5, 16, 13], "rotation": 180, "texture": "#3"}
			}
		},
		{
			"from": [4, -16, 4],
			"to": [12, -15.5, 12],
			"rotation": {"angle": 0, "axis": "y", "origin": [12, -8, 12]},
			"faces": {
				"north": {"uv": [0, 15, 16, 16], "texture": "#6"},
				"east": {"uv": [0, 15, 16, 16], "texture": "#6"},
				"south": {"uv": [0, 15, 16, 16], "texture": "#6"},
				"west": {"uv": [0, 15, 16, 16], "texture": "#6"},
				"up": {"uv": [0, 0, 16, 16], "texture": "#6"}
			}
		},
		{
			"from": [6.625, 7, -0.125],
			"to": [9.375, 8, 0.875],
			"rotation": {"angle": 0, "axis": "y", "origin": [8, 16.5, 0.375]},
			"faces": {
				"north": {"uv": [4, 5, 11.75, 11], "texture": "#7"},
				"east": {"uv": [4, 5, 5, 6], "texture": "#7"},
				"west": {"uv": [4, 5, 5, 6], "texture": "#7"},
				"up": {"uv": [4, 5, 6.75, 6], "texture": "#7"},
				"down": {"uv": [4, 5, 6.75, 6], "texture": "#7"}
			}
		},
		{
			"from": [6.625, 7, 15.175],
			"to": [9.375, 8, 16.175],
			"rotation": {"angle": 0, "axis": "y", "origin": [8, 16.5, 15.675]},
			"faces": {
				"east": {"uv": [4, 5, 5, 6], "texture": "#7"},
				"south": {"uv": [4, 5, 11.75, 11], "texture": "#7"},
				"west": {"uv": [4, 5, 5, 6], "texture": "#7"},
				"up": {"uv": [4, 5, 6.75, 6], "rotation": 180, "texture": "#7"},
				"down": {"uv": [4, 5, 6.75, 6], "rotation": 180, "texture": "#7"}
			}
		},
		{
			"from": [-0.175, 7, 6.65],
			"to": [0.825, 8, 9.4],
			"rotation": {"angle": 0, "axis": "y", "origin": [0.325, 16.5, 8.025]},
			"faces": {
				"north": {"uv": [4, 5, 5, 6], "texture": "#7"},
				"south": {"uv": [4, 5, 5, 6], "texture": "#7"},
				"west": {"uv": [4, 5, 11.75, 11], "texture": "#7"},
				"up": {"uv": [4, 5, 6.75, 6], "rotation": 270, "texture": "#7"},
				"down": {"uv": [4, 5, 6.75, 6], "rotation": 90, "texture": "#7"}
			}
		},
		{
			"from": [6.625, 10, -0.125],
			"to": [9.375, 11, 0.875],
			"rotation": {"angle": 0, "axis": "y", "origin": [8, 16.5, 0.375]},
			"faces": {
				"north": {"uv": [4, 5, 11.75, 11], "texture": "#7"},
				"east": {"uv": [4, 5, 5, 6], "texture": "#7"},
				"west": {"uv": [4, 5, 5, 6], "texture": "#7"},
				"up": {"uv": [4, 5, 6.75, 6], "texture": "#7"},
				"down": {"uv": [4, 5, 6.75, 6], "texture": "#7"}
			}
		},
		{
			"from": [6.625, 10, 15.175],
			"to": [9.375, 11, 16.175],
			"rotation": {"angle": 0, "axis": "y", "origin": [8, 16.5, 15.675]},
			"faces": {
				"east": {"uv": [4, 5, 5, 6], "texture": "#7"},
				"south": {"uv": [4, 5, 11.75, 11], "texture": "#7"},
				"west": {"uv": [4, 5, 5, 6], "texture": "#7"},
				"up": {"uv": [4, 5, 6.75, 6], "rotation": 180, "texture": "#7"},
				"down": {"uv": [4, 5, 6.75, 6], "rotation": 180, "texture": "#7"}
			}
		},
		{
			"from": [6.625, 13, -0.125],
			"to": [9.375, 14, 0.875],
			"rotation": {"angle": 0, "axis": "y", "origin": [8, 16.5, 0.375]},
			"faces": {
				"north": {"uv": [4, 5, 11.75, 11], "texture": "#7"},
				"east": {"uv": [4, 5, 5, 6], "texture": "#7"},
				"west": {"uv": [4, 5, 5, 6], "texture": "#7"},
				"up": {"uv": [4, 5, 6.75, 6], "texture": "#7"},
				"down": {"uv": [4, 5, 6.75, 6], "texture": "#7"}
			}
		},
		{
			"from": [6.625, 13, 15.175],
			"to": [9.375, 14, 16.175],
			"rotation": {"angle": 0, "axis": "y", "origin": [8, 16.5, 15.675]},
			"faces": {
				"east": {"uv": [4, 5, 5, 6], "texture": "#7"},
				"south": {"uv": [4, 5, 11.75, 11], "texture": "#7"},
				"west": {"uv": [4, 5, 5, 6], "texture": "#7"},
				"up": {"uv": [4, 5, 6.75, 6], "rotation": 180, "texture": "#7"},
				"down": {"uv": [4, 5, 6.75, 6], "rotation": 180, "texture": "#7"}
			}
		},
		{
			"from": [15.125, 13, 6.65],
			"to": [16.125, 14, 9.4],
			"rotation": {"angle": 0, "axis": "y", "origin": [15.625, 16.5, 8.025]},
			"faces": {
				"north": {"uv": [4, 5, 5, 6], "texture": "#7"},
				"east": {"uv": [4, 5, 11.75, 11], "texture": "#7"},
				"south": {"uv": [4, 5, 5, 6], "texture": "#7"},
				"up": {"uv": [4, 5, 6.75, 6], "rotation": 90, "texture": "#7"},
				"down": {"uv": [4, 5, 6.75, 6], "rotation": 270, "texture": "#7"}
			}
		},
		{
			"from": [6.625, 16, -0.125],
			"to": [9.375, 17, 0.875],
			"rotation": {"angle": 0, "axis": "y", "origin": [8, 16.5, 0.375]},
			"faces": {
				"north": {"uv": [4, 5, 11.75, 11], "texture": "#7"},
				"east": {"uv": [4, 5, 5, 6], "texture": "#7"},
				"west": {"uv": [4, 5, 5, 6], "texture": "#7"},
				"up": {"uv": [4, 5, 6.75, 6], "texture": "#7"},
				"down": {"uv": [4, 5, 6.75, 6], "texture": "#7"}
			}
		},
		{
			"from": [6.625, 16, 15.175],
			"to": [9.375, 17, 16.175],
			"rotation": {"angle": 0, "axis": "y", "origin": [8, 16.5, 15.675]},
			"faces": {
				"east": {"uv": [4, 5, 5, 6], "texture": "#7"},
				"south": {"uv": [4, 5, 11.75, 11], "texture": "#7"},
				"west": {"uv": [4, 5, 5, 6], "texture": "#7"},
				"up": {"uv": [4, 5, 6.75, 6], "rotation": 180, "texture": "#7"},
				"down": {"uv": [4, 5, 6.75, 6], "rotation": 180, "texture": "#7"}
			}
		},
		{
			"from": [15.125, 16, 6.65],
			"to": [16.125, 17, 9.4],
			"rotation": {"angle": 0, "axis": "y", "origin": [15.625, 16.5, 8.025]},
			"faces": {
				"north": {"uv": [4, 5, 5, 6], "texture": "#7"},
				"east": {"uv": [4, 5, 11.75, 11], "texture": "#7"},
				"south": {"uv": [4, 5, 5, 6], "texture": "#7"},
				"up": {"uv": [4, 5, 6.75, 6], "rotation": 90, "texture": "#7"},
				"down": {"uv": [4, 5, 6.75, 6], "rotation": 270, "texture": "#7"}
			}
		},
		{
			"from": [-0.175, 16, 6.65],
			"to": [0.825, 17, 9.4],
			"rotation": {"angle": 0, "axis": "y", "origin": [0.325, 16.5, 8.025]},
			"faces": {
				"north": {"uv": [4, 5, 5, 6], "texture": "#7"},
				"south": {"uv": [4, 5, 5, 6], "texture": "#7"},
				"west": {"uv": [4, 5, 11.75, 11], "texture": "#7"},
				"up": {"uv": [4, 5, 6.75, 6], "rotation": 270, "texture": "#7"},
				"down": {"uv": [4, 5, 6.75, 6], "rotation": 90, "texture": "#7"}
			}
		},
		{
			"from": [6.625, 19, -0.125],
			"to": [9.375, 20, 0.875],
			"rotation": {"angle": 0, "axis": "y", "origin": [8, 16.5, 0.375]},
			"faces": {
				"north": {"uv": [4, 5, 11.75, 11], "texture": "#7"},
				"east": {"uv": [4, 5, 5, 6], "texture": "#7"},
				"west": {"uv": [4, 5, 5, 6], "texture": "#7"},
				"up": {"uv": [4, 5, 6.75, 6], "texture": "#7"},
				"down": {"uv": [4, 5, 6.75, 6], "texture": "#7"}
			}
		},
		{
			"from": [6.625, 19, 15.175],
			"to": [9.375, 20, 16.175],
			"rotation": {"angle": 0, "axis": "y", "origin": [8, 16.5, 15.675]},
			"faces": {
				"east": {"uv": [4, 5, 5, 6], "texture": "#7"},
				"south": {"uv": [4, 5, 11.75, 11], "texture": "#7"},
				"west": {"uv": [4, 5, 5, 6], "texture": "#7"},
				"up": {"uv": [4, 5, 6.75, 6], "rotation": 180, "texture": "#7"},
				"down": {"uv": [4, 5, 6.75, 6], "rotation": 180, "texture": "#7"}
			}
		},
		{
			"from": [15.125, 19, 6.65],
			"to": [16.125, 20, 9.4],
			"rotation": {"angle": 0, "axis": "y", "origin": [15.625, 16.5, 8.025]},
			"faces": {
				"north": {"uv": [4, 5, 5, 6], "texture": "#7"},
				"east": {"uv": [4, 5, 11.75, 11], "texture": "#7"},
				"south": {"uv": [4, 5, 5, 6], "texture": "#7"},
				"up": {"uv": [4, 5, 6.75, 6], "rotation": 90, "texture": "#7"},
				"down": {"uv": [4, 5, 6.75, 6], "rotation": 270, "texture": "#7"}
			}
		},
		{
			"from": [-0.175, 19, 6.65],
			"to": [0.825, 20, 9.4],
			"rotation": {"angle": 0, "axis": "y", "origin": [0.325, 16.5, 8.025]},
			"faces": {
				"north": {"uv": [4, 5, 5, 6], "texture": "#7"},
				"south": {"uv": [4, 5, 5, 6], "texture": "#7"},
				"west": {"uv": [4, 5, 11.75, 11], "texture": "#7"},
				"up": {"uv": [4, 5, 6.75, 6], "rotation": 270, "texture": "#7"},
				"down": {"uv": [4, 5, 6.75, 6], "rotation": 90, "texture": "#7"}
			}
		},
		{
			"from": [6.625, 22, -0.125],
			"to": [9.375, 23, 0.875],
			"rotation": {"angle": 0, "axis": "y", "origin": [8, 16.5, 0.375]},
			"faces": {
				"north": {"uv": [4, 5, 11.75, 11], "texture": "#7"},
				"east": {"uv": [4, 5, 5, 6], "texture": "#7"},
				"west": {"uv": [4, 5, 5, 6], "texture": "#7"},
				"up": {"uv": [4, 5, 6.75, 6], "texture": "#7"},
				"down": {"uv": [4, 5, 6.75, 6], "texture": "#7"}
			}
		},
		{
			"from": [6.625, 22, 15.175],
			"to": [9.375, 23, 16.175],
			"rotation": {"angle": 0, "axis": "y", "origin": [8, 16.5, 15.675]},
			"faces": {
				"east": {"uv": [4, 5, 5, 6], "texture": "#7"},
				"south": {"uv": [4, 5, 11.75, 11], "texture": "#7"},
				"west": {"uv": [4, 5, 5, 6], "texture": "#7"},
				"up": {"uv": [4, 5, 6.75, 6], "rotation": 180, "texture": "#7"},
				"down": {"uv": [4, 5, 6.75, 6], "rotation": 180, "texture": "#7"}
			}
		},
		{
			"from": [15.125, 22, 6.65],
			"to": [16.125, 23, 9.4],
			"rotation": {"angle": 0, "axis": "y", "origin": [15.625, 16.5, 8.025]},
			"faces": {
				"north": {"uv": [4, 5, 5, 6], "texture": "#7"},
				"east": {"uv": [4, 5, 11.75, 11], "texture": "#7"},
				"south": {"uv": [4, 5, 5, 6], "texture": "#7"},
				"up": {"uv": [4, 5, 6.75, 6], "rotation": 90, "texture": "#7"},
				"down": {"uv": [4, 5, 6.75, 6], "rotation": 270, "texture": "#7"}
			}
		},
		{
			"from": [-0.175, 22, 6.65],
			"to": [0.825, 23, 9.4],
			"rotation": {"angle": 0, "axis": "y", "origin": [0.325, 16.5, 8.025]},
			"faces": {
				"north": {"uv": [4, 5, 5, 6], "texture": "#7"},
				"south": {"uv": [4, 5, 5, 6], "texture": "#7"},
				"west": {"uv": [4, 5, 11.75, 11], "texture": "#7"},
				"up": {"uv": [4, 5, 6.75, 6], "rotation": 270, "texture": "#7"},
				"down": {"uv": [4, 5, 6.75, 6], "rotation": 90, "texture": "#7"}
			}
		},
		{
			"from": [6.625, 25, -0.125],
			"to": [9.375, 26, 0.875],
			"rotation": {"angle": 0, "axis": "y", "origin": [8, 16.5, 0.375]},
			"faces": {
				"north": {"uv": [4, 5, 11.75, 11], "texture": "#7"},
				"east": {"uv": [4, 5, 11.75, 11], "texture": "#7"},
				"west": {"uv": [4, 5, 11.75, 11], "texture": "#7"},
				"up": {"uv": [4, 5, 11.75, 11], "texture": "#7"},
				"down": {"uv": [4, 5, 11.75, 11], "texture": "#7"}
			}
		},
		{
			"from": [6.625, 25, 15.175],
			"to": [9.375, 26, 16.175],
			"rotation": {"angle": 0, "axis": "y", "origin": [8, 16.5, 15.675]},
			"faces": {
				"east": {"uv": [4, 5, 11.75, 11], "texture": "#7"},
				"south": {"uv": [4, 5, 11.75, 11], "texture": "#7"},
				"west": {"uv": [4, 5, 11.75, 11], "texture": "#7"},
				"up": {"uv": [4, 5, 11.75, 11], "rotation": 180, "texture": "#7"},
				"down": {"uv": [4, 5, 11.75, 11], "rotation": 180, "texture": "#7"}
			}
		},
		{
			"from": [15.125, 25, 6.65],
			"to": [16.125, 26, 9.4],
			"rotation": {"angle": 0, "axis": "y", "origin": [15.625, 16.5, 8.025]},
			"faces": {
				"north": {"uv": [4, 5, 11.75, 11], "texture": "#7"},
				"east": {"uv": [4, 5, 11.75, 11], "texture": "#7"},
				"south": {"uv": [4, 5, 11.75, 11], "texture": "#7"},
				"up": {"uv": [4, 5, 11.75, 11], "rotation": 90, "texture": "#7"},
				"down": {"uv": [4, 5, 11.75, 11], "rotation": 270, "texture": "#7"}
			}
		},
		{
			"from": [-0.175, 25, 6.65],
			"to": [0.825, 26, 9.4],
			"rotation": {"angle": 0, "axis": "y", "origin": [0.325, 16.5, 8.025]},
			"faces": {
				"north": {"uv": [4, 5, 11.75, 11], "texture": "#7"},
				"south": {"uv": [4, 5, 11.75, 11], "texture": "#7"},
				"west": {"uv": [4, 5, 11.75, 11], "texture": "#7"},
				"up": {"uv": [4, 5, 11.75, 11], "rotation": 270, "texture": "#7"},
				"down": {"uv": [4, 5, 11.75, 11], "rotation": 90, "texture": "#7"}
			}
		}
	],
	"display": {
		"gui": {
			"rotation": [28, 48, 0],
			"scale": [0.3, 0.3, 0.3]
		},
		"fixed": {
			"rotation": [0, -180, 0],
			"translation": [0, 0, 18],
			"scale": [2, 2, 2]
		}
	}
}