{
	"credit": "by mordobi27",
	"textures": {
		"5": "models/mordobi pipes/piston_bottom",
		"particle": "models/mordobi pipes/hardened_clay_stained_red"
	},
	"elements": [
		{
			"from": [3.5, 0, 8.5],
			"to": [12.5, 3, 10.5],
			"rotation": {"angle": 0, "axis": "y", "origin": [8, 1.5, 9.5]},
			"faces": {
				"north": {"uv": [0, 0, 16, 16], "texture": "#5"},
				"east": {"uv": [0, 0, 16, 16], "texture": "#5"},
				"south": {"uv": [0, 0, 16, 16], "texture": "#5"},
				"west": {"uv": [0, 0, 16, 16], "texture": "#5"},
				"up": {"uv": [0, 0, 16, 16], "rotation": 90, "texture": "#5"},
				"down": {"uv": [0, 0, 16, 16], "rotation": 270, "texture": "#5"}
			}
		}
	],
	"display": {
		"thirdperson_righthand": {
			"rotation": [105.45, -84.68, 2.75],
			"translation": [1.5, -2.25, 6.5]
		},
		"thirdperson_lefthand": {
			"rotation": [105.45, -84.68, 2.75],
			"translation": [1.5, -2.25, 6.5]
		},
		"ground": {
			"translation": [0, 4.5, 0]
		},
		"gui": {
			"rotation": [24.5, 61.75, 0],
			"translation": [-2.25, 12, 0],
			"scale": [2, 2, 2]
		},
		"fixed": {
			"rotation": [-90, 0, 40.5],
			"translation": [-7.75, -17, -22],
			"scale": [2, 2, 2]
		}
	}
}