{
	"credit": "Made with Blockbench",
	"textures": {
		"0": "models/morrow/blood",
		"particle": "models/morrow/blood"
	},
	"elements": [
		{
			"from": [7.925, -1, 1],
			"to": [9.925, 2, 1],
			"rotation": {"angle": 0, "axis": "y", "origin": [16.925, 8, 8]},
			"faces": {
				"north": {"uv": [0.25, 9.625, 13.75, 16], "texture": "#0"}
			}
		},
		{
			"from": [6.325, -1.7, 1],
			"to": [10.325, -0.2, 1],
			"rotation": {"angle": 0, "axis": "y", "origin": [15.325, 6.3, 8]},
			"faces": {
				"north": {"uv": [0.25, 8.75, 13.75, 12.25], "texture": "#0"}
			}
		},
		{
			"from": [5.925, -1.7, 0.975],
			"to": [9.925, -1.7, 2.475],
			"rotation": {"angle": 0, "axis": "x", "origin": [7.925, -1.7, 1.725]},
			"faces": {
				"down": {"uv": [1.875, 11, 15.375, 14.5], "rotation": 180, "texture": "#0"}
			}
		},
		{
			"from": [1.325, -2.9, 6.4],
			"to": [1.325, 3.1, 9.4],
			"rotation": {"angle": 0, "axis": "y", "origin": [1.325, 2.1, 8.4]},
			"faces": {
				"west": {"uv": [1.625, 12.125, 12.25, 16], "texture": "#0"}
			}
		},
		{
			"from": [14.225, -1.875, 5.35],
			"to": [14.225, 3.125, 8.35],
			"rotation": {"angle": 0, "axis": "y", "origin": [14.225, 2.125, 7.35]},
			"faces": {
				"east": {"uv": [0.25, 11.25, 13.75, 16], "texture": "#0"}
			}
		},
		{
			"from": [5.8, -1.825, 1],
			"to": [7.8, 2.175, 1],
			"rotation": {"angle": 0, "axis": "y", "origin": [14.8, 8.175, 8]},
			"faces": {
				"north": {"uv": [0.25, 10.125, 15.125, 16], "texture": "#0"}
			}
		},
		{
			"from": [2.8, 1.175, 1],
			"to": [5.8, 3.175, 1],
			"rotation": {"angle": 0, "axis": "y", "origin": [11.8, 10.175, 8]},
			"faces": {
				"north": {"uv": [12, 3.125, 16, 11], "rotation": 90, "texture": "#0"}
			}
		},
		{
			"from": [9.4, 1.175, 1],
			"to": [12.4, 3.175, 1],
			"rotation": {"angle": 0, "axis": "y", "origin": [18.4, 10.175, 8]},
			"faces": {
				"north": {"uv": [11.75, 2.625, 15.75, 11.75], "rotation": 90, "texture": "#0"}
			}
		},
		{
			"from": [2.8, 3.175, 1],
			"to": [5.8, 5.175, 1],
			"rotation": {"angle": 0, "axis": "y", "origin": [11.8, 11.175, 8]},
			"faces": {
				"north": {"uv": [12.25, 3.125, 16, 11.75], "rotation": 270, "texture": "#0"}
			}
		},
		{
			"from": [5.975, 2.9, 1],
			"to": [6.975, 3.9, 1],
			"rotation": {"angle": 0, "axis": "y", "origin": [14.975, 10.9, 8]},
			"faces": {
				"north": {"uv": [13, 2.375, 15.875, 11], "rotation": 180, "texture": "#0"}
			}
		},
		{
			"from": [12.675, 2.9, 1],
			"to": [13.675, 3.9, 1],
			"rotation": {"angle": 0, "axis": "y", "origin": [21.675, 10.9, 8]},
			"faces": {
				"north": {"uv": [13, 2.375, 15.875, 11], "rotation": 180, "texture": "#0"}
			}
		},
		{
			"from": [2.775, 2.9, 1],
			"to": [3.775, 3.9, 1],
			"rotation": {"angle": 0, "axis": "y", "origin": [11.775, 10.9, 8]},
			"faces": {
				"north": {"uv": [13, 2.375, 15.875, 11], "rotation": 180, "texture": "#0"}
			}
		},
		{
			"from": [9.475, 2.9, 1],
			"to": [10.475, 3.9, 1],
			"rotation": {"angle": 0, "axis": "y", "origin": [18.475, 10.9, 8]},
			"faces": {
				"north": {"uv": [13, 2.375, 15.875, 11], "rotation": 180, "texture": "#0"}
			}
		},
		{
			"from": [4.975, 2.9, 1],
			"to": [5.975, 3.9, 1],
			"rotation": {"angle": 0, "axis": "y", "origin": [13.975, 10.9, 8]},
			"faces": {
				"north": {"uv": [13.375, 3.125, 16, 11.75], "texture": "#0"}
			}
		},
		{
			"from": [11.675, 2.9, 1],
			"to": [12.675, 3.9, 1],
			"rotation": {"angle": 0, "axis": "y", "origin": [20.675, 10.9, 8]},
			"faces": {
				"north": {"uv": [13.375, 3.125, 16, 11.75], "texture": "#0"}
			}
		},
		{
			"from": [1.775, 2.9, 1],
			"to": [2.775, 3.9, 1],
			"rotation": {"angle": 0, "axis": "y", "origin": [10.775, 10.9, 8]},
			"faces": {
				"north": {"uv": [13.375, 3.125, 16, 11.75], "texture": "#0"}
			}
		},
		{
			"from": [8.475, 2.9, 1],
			"to": [9.475, 3.9, 1],
			"rotation": {"angle": 0, "axis": "y", "origin": [17.475, 10.9, 8]},
			"faces": {
				"north": {"uv": [13.375, 3.125, 16, 11.75], "texture": "#0"}
			}
		},
		{
			"from": [9.4, 3.175, 1],
			"to": [12.4, 5.175, 1],
			"rotation": {"angle": 0, "axis": "y", "origin": [18.4, 11.175, 8]},
			"faces": {
				"north": {"uv": [2.25, 3.375, 5.125, 12.5], "rotation": 90, "texture": "#0"}
			}
		},
		{
			"from": [7.7, 2, 1],
			"to": [9.5, 2.75, 1],
			"rotation": {"angle": 0, "axis": "y", "origin": [16.7, 10, 8]},
			"faces": {
				"north": {"uv": [0.25, 9.875, 14.25, 16], "rotation": 180, "texture": "#0"}
			}
		},
		{
			"from": [5.775, 2.175, 1],
			"to": [7.275, 2.925, 1],
			"rotation": {"angle": 0, "axis": "y", "origin": [14.775, 10.175, 8]},
			"faces": {
				"north": {"uv": [0.25, 10.25, 12.875, 16], "rotation": 180, "texture": "#0"}
			}
		},
		{
			"from": [6.175, -0.225, 1],
			"to": [9.175, 0.525, 1],
			"rotation": {"angle": 0, "axis": "y", "origin": [15.175, 7.775, 8]},
			"faces": {
				"north": {"uv": [0.25, 10.25, 12.875, 16], "rotation": 180, "texture": "#0"}
			}
		}
	],
	"display": {
		"thirdperson_righthand": {
			"rotation": [-2.5, -86.5, 0],
			"translation": [-0.75, -12.25, 1]
		},
		"thirdperson_lefthand": {
			"rotation": [-2.5, -86.5, 0],
			"translation": [-0.75, -12.25, 1]
		},
		"firstperson_righthand": {
			"scale": [0.1, 0.1, 0.1]
		},
		"firstperson_lefthand": {
			"scale": [0.1, 0.1, 0.1]
		},
		"gui": {
			"rotation": [32, 160, 0],
			"translation": [0.25, 8.25, 0]
		},
		"head": {
			"translation": [0.25, 3.25, 0.5]
		},
		"fixed": {
			"rotation": [90, 0, 44],
			"translation": [-4, -29.75, -6.75],
			"scale": [2, 2, 2]
		}
	}
}