{
	"credit": "Made by 0ptima, totally cool guy from Frostburn",
	"textures": {
		"0": "models/mordobi pipes/prismarine_dark",
		"3": "models/mordobi pipes/piston_inner",
		"particle": "models/mordobi pipes/prismarine_dark"
	},
	"elements": [
		{
			"from": [0, 5, 0],
			"to": [6, 11, 16],
			"faces": {
				"north": {"uv": [0, 0, 15.999, 15.999], "texture": "#3"},
				"east": {"uv": [0, 5, 16, 11], "texture": "#0"},
				"south": {"uv": [0, 0, 15.999, 15.999], "texture": "#3"},
				"west": {"uv": [0, 5, 16, 11], "texture": "#0"},
				"up": {"uv": [0, 5, 16, 11], "rotation": 90, "texture": "#0"},
				"down": {"uv": [0, 5, 16, 11], "rotation": 90, "texture": "#0"}
			}
		},
		{
			"from": [6, 5.5, 0],
			"to": [6.2, 10.5, 16],
			"faces": {
				"north": {"uv": [0, 10, 16, 11], "texture": "#0"},
				"east": {"uv": [0, 5, 16, 11], "texture": "#0"},
				"south": {"uv": [0, 10, 16, 11], "texture": "#0"},
				"west": {"uv": [0, 5, 16, 11], "texture": "#0"},
				"up": {"uv": [0, 10, 16, 11], "texture": "#0"},
				"down": {"uv": [0, 5, 16, 6], "texture": "#0"}
			}
		},
		{
			"from": [-0.2, 5.5, 0],
			"to": [0, 10.5, 16],
			"faces": {
				"north": {"uv": [0, 10, 16, 11], "texture": "#0"},
				"east": {"uv": [0, 5, 16, 11], "texture": "#0"},
				"south": {"uv": [0, 10, 16, 11], "texture": "#0"},
				"west": {"uv": [0, 5, 16, 11], "texture": "#0"},
				"up": {"uv": [0, 10, 16, 11], "texture": "#0"},
				"down": {"uv": [0, 10, 16, 11], "texture": "#0"}
			}
		},
		{
			"from": [0.5, 11, 0],
			"to": [5.5, 11.2, 16],
			"faces": {
				"north": {"uv": [0, 5, 0.998, 5.998], "texture": "#0"},
				"east": {"uv": [0, 5, 15.999, 5.999], "texture": "#0"},
				"south": {"uv": [0, 5, 0.998, 5.998], "texture": "#0"},
				"west": {"uv": [0, 5, 15.999, 5.999], "texture": "#0"},
				"up": {"uv": [0, 5, 16, 11], "rotation": 90, "texture": "#0"},
				"down": {"uv": [4, 0, 12, 16], "texture": "#missing"}
			}
		},
		{
			"from": [0.5, 4.8, 0],
			"to": [5.5, 5, 16],
			"faces": {
				"north": {"uv": [0, 5, 0.998, 5.998], "texture": "#0"},
				"east": {"uv": [0, 10, 15.999, 10.998], "texture": "#0"},
				"south": {"uv": [0, 5, 0.998, 5.998], "texture": "#0"},
				"west": {"uv": [0, 10, 15.999, 10.998], "texture": "#0"},
				"up": {"uv": [4, 0, 12, 16], "texture": "#missing"},
				"down": {"uv": [0, 5, 16, 11], "rotation": 90, "texture": "#0"}
			}
		}
	],
	"display": {
		"thirdperson_righthand": {
			"rotation": [76.25, 0, 0],
			"translation": [5, -2.5, -1.5],
			"scale": [0.8, 0.8, 0.8]
		},
		"thirdperson_lefthand": {
			"rotation": [76.25, 0, 0],
			"translation": [-3.25, -2.5, -1.5],
			"scale": [0.8, 0.8, 0.8]
		},
		"firstperson_righthand": {
			"translation": [5.75, 0, 0]
		},
		"ground": {
			"translation": [5, 0, 0],
			"scale": [0.7, 0.7, 0.7]
		},
		"gui": {
			"rotation": [35, 45, 0],
			"translation": [3.75, 1.5, 0]
		},
		"head": {
			"translation": [2.75, -1.25, 0]
		},
		"fixed": {
			"rotation": [0, -90, 0],
			"translation": [0, 0, 5],
			"scale": [2, 2, 2]
		}
	},
	"groups": [
		{
			"name": "trubka",
			"children": [0, 1, 2, 3, 4]
		}
	]
}