{
	"credit": "Made by 0ptima, totally cool guy from Frostburn",
	"textures": {
		"0": "models/mordobi pipes/prismarine_dark",
		"2": "models/mordobi pipes/planks_oak",
		"3": "models/mordobi pipes/piston_inner",
		"particle": "models/mordobi pipes/prismarine_dark"
	},
	"elements": [
		{
			"from": [0, 5, 0],
			"to": [6, 11, 16],
			"faces": {
				"north": {"uv": [0, 0, 15.999, 15.999], "texture": "#3"},
				"east": {"uv": [0, 5, 16, 11], "texture": "#0"},
				"south": {"uv": [0, 0, 15.999, 15.999], "texture": "#3"},
				"west": {"uv": [0, 5, 16, 11], "texture": "#0"},
				"up": {"uv": [0, 5, 16, 11], "rotation": 90, "texture": "#0"},
				"down": {"uv": [0, 5, 16, 11], "rotation": 90, "texture": "#0"}
			}
		},
		{
			"from": [6, 5.5, 0],
			"to": [6.2, 10.5, 16],
			"faces": {
				"north": {"uv": [0, 10, 16, 11], "texture": "#0"},
				"east": {"uv": [0, 5, 16, 11], "texture": "#0"},
				"south": {"uv": [0, 10, 16, 11], "texture": "#0"},
				"west": {"uv": [0, 5, 16, 11], "texture": "#0"},
				"up": {"uv": [0, 10, 16, 11], "texture": "#0"},
				"down": {"uv": [0, 5, 16, 6], "texture": "#0"}
			}
		},
		{
			"from": [-0.2, 5.5, 0],
			"to": [0, 10.5, 16],
			"faces": {
				"north": {"uv": [0, 10, 16, 11], "texture": "#0"},
				"east": {"uv": [0, 5, 16, 11], "texture": "#0"},
				"south": {"uv": [0, 10, 16, 11], "texture": "#0"},
				"west": {"uv": [0, 5, 16, 11], "texture": "#0"},
				"up": {"uv": [0, 10, 16, 11], "texture": "#0"},
				"down": {"uv": [0, 10, 16, 11], "texture": "#0"}
			}
		},
		{
			"from": [0.5, 11, 0],
			"to": [5.5, 11.2, 16],
			"faces": {
				"north": {"uv": [0, 5, 0.998, 5.998], "texture": "#0"},
				"east": {"uv": [0, 5, 15.999, 5.999], "texture": "#0"},
				"south": {"uv": [0, 5, 0.998, 5.998], "texture": "#0"},
				"west": {"uv": [0, 5, 15.999, 5.999], "texture": "#0"},
				"up": {"uv": [0, 5, 16, 11], "rotation": 90, "texture": "#0"},
				"down": {"uv": [4, 0, 12, 16], "texture": "#missing"}
			}
		},
		{
			"from": [0.5, 4.8, 0],
			"to": [5.5, 5, 16],
			"faces": {
				"north": {"uv": [0, 5, 0.998, 5.998], "texture": "#0"},
				"east": {"uv": [0, 10, 15.999, 10.998], "texture": "#0"},
				"south": {"uv": [0, 5, 0.998, 5.998], "texture": "#0"},
				"west": {"uv": [0, 10, 15.999, 10.998], "texture": "#0"},
				"up": {"uv": [4, 0, 12, 16], "texture": "#missing"},
				"down": {"uv": [0, 5, 16, 11], "rotation": 90, "texture": "#0"}
			}
		},
		{
			"from": [0, 4, 13],
			"to": [6, 12, 14],
			"faces": {
				"north": {"uv": [4, 3, 12, 11], "texture": "#2"},
				"east": {"uv": [8, 3, 9, 11], "texture": "#2"},
				"south": {"uv": [4, 3, 12, 11], "texture": "#2"},
				"west": {"uv": [8, 3, 9, 11], "texture": "#2"},
				"up": {"uv": [8, 3, 9, 11], "rotation": 90, "texture": "#2"},
				"down": {"uv": [8, 3, 9, 11], "rotation": 90, "texture": "#2"}
			}
		},
		{
			"from": [-1, 5, 13],
			"to": [7, 11, 14],
			"faces": {
				"north": {"uv": [4, 3, 12, 11], "texture": "#2"},
				"east": {"uv": [8, 3, 9, 11], "texture": "#2"},
				"south": {"uv": [4, 3, 12, 11], "texture": "#2"},
				"west": {"uv": [8, 3, 9, 11], "texture": "#2"},
				"up": {"uv": [8, 3, 9, 11], "rotation": 90, "texture": "#2"},
				"down": {"uv": [8, 3, 9, 11], "rotation": 90, "texture": "#2"}
			}
		},
		{
			"from": [-1, 5, 2],
			"to": [7, 11, 3],
			"faces": {
				"north": {"uv": [4, 3, 12, 11], "texture": "#2"},
				"east": {"uv": [8, 3, 9, 11], "texture": "#2"},
				"south": {"uv": [4, 3, 12, 11], "texture": "#2"},
				"west": {"uv": [8, 3, 9, 11], "texture": "#2"},
				"up": {"uv": [8, 3, 9, 11], "rotation": 90, "texture": "#2"},
				"down": {"uv": [8, 3, 9, 11], "rotation": 90, "texture": "#2"}
			}
		},
		{
			"from": [0, 4, 2],
			"to": [6, 12, 3],
			"faces": {
				"north": {"uv": [4, 3, 12, 11], "texture": "#2"},
				"east": {"uv": [8, 3, 9, 11], "texture": "#2"},
				"south": {"uv": [4, 3, 12, 11], "texture": "#2"},
				"west": {"uv": [8, 3, 9, 11], "texture": "#2"},
				"up": {"uv": [8, 3, 9, 11], "rotation": 90, "texture": "#2"},
				"down": {"uv": [8, 3, 9, 11], "rotation": 90, "texture": "#2"}
			}
		},
		{
			"from": [5.75131, 10.24958, 12.99912],
			"to": [6.75131, 11.24958, 13.99912],
			"rotation": {"angle": 45, "axis": "z", "origin": [6.00131, 10.49958, 13.49912], "rescale": true},
			"faces": {
				"north": {"uv": [7, 5, 7.999, 5.998], "texture": "#2"},
				"east": {"uv": [7, 5, 7.999, 5.998], "texture": "#2"},
				"south": {"uv": [7, 5, 7.999, 5.998], "texture": "#2"},
				"west": {"uv": [7, 5, 7.999, 5.998], "texture": "#2"},
				"up": {"uv": [7, 5, 7.999, 5.998], "texture": "#2"},
				"down": {"uv": [7, 5, 7.999, 5.998], "texture": "#2"}
			}
		},
		{
			"from": [5.75131, 10.24958, 1.99912],
			"to": [6.75131, 11.24958, 2.99912],
			"rotation": {"angle": 45, "axis": "z", "origin": [6.00131, 10.49958, 2.49912], "rescale": true},
			"faces": {
				"north": {"uv": [7, 5, 7.999, 5.998], "texture": "#2"},
				"east": {"uv": [7, 5, 7.999, 5.998], "texture": "#2"},
				"south": {"uv": [7, 5, 7.999, 5.998], "texture": "#2"},
				"west": {"uv": [7, 5, 7.999, 5.998], "texture": "#2"},
				"up": {"uv": [7, 5, 7.999, 5.998], "texture": "#2"},
				"down": {"uv": [7, 5, 7.999, 5.998], "texture": "#2"}
			}
		},
		{
			"from": [-0.24869, 10.24958, 1.99912],
			"to": [0.75131, 11.24958, 2.99912],
			"rotation": {"angle": 45, "axis": "z", "origin": [0.00131, 10.49958, 2.49912], "rescale": true},
			"faces": {
				"north": {"uv": [7, 5, 7.999, 5.998], "texture": "#2"},
				"east": {"uv": [7, 5, 7.999, 5.998], "texture": "#2"},
				"south": {"uv": [7, 5, 7.999, 5.998], "texture": "#2"},
				"west": {"uv": [7, 5, 7.999, 5.998], "texture": "#2"},
				"up": {"uv": [7, 5, 7.999, 5.998], "texture": "#2"},
				"down": {"uv": [7, 5, 7.999, 5.998], "texture": "#2"}
			}
		},
		{
			"from": [-0.24869, 10.24958, 12.99912],
			"to": [0.75131, 11.24958, 13.99912],
			"rotation": {"angle": 45, "axis": "z", "origin": [0.00131, 10.49958, 13.49912], "rescale": true},
			"faces": {
				"north": {"uv": [7, 5, 7.999, 5.998], "texture": "#2"},
				"east": {"uv": [7, 5, 7.999, 5.998], "texture": "#2"},
				"south": {"uv": [7, 5, 7.999, 5.998], "texture": "#2"},
				"west": {"uv": [7, 5, 7.999, 5.998], "texture": "#2"},
				"up": {"uv": [7, 5, 7.999, 5.998], "texture": "#2"},
				"down": {"uv": [7, 5, 7.999, 5.998], "texture": "#2"}
			}
		},
		{
			"from": [5.75131, 4.24958, 12.99912],
			"to": [6.75131, 5.24958, 13.99912],
			"rotation": {"angle": 45, "axis": "z", "origin": [6.00131, 4.49958, 13.49912], "rescale": true},
			"faces": {
				"north": {"uv": [7, 5, 7.999, 5.998], "texture": "#2"},
				"east": {"uv": [7, 5, 7.999, 5.998], "texture": "#2"},
				"south": {"uv": [7, 5, 7.999, 5.998], "texture": "#2"},
				"west": {"uv": [7, 5, 7.999, 5.998], "texture": "#2"},
				"up": {"uv": [7, 5, 7.999, 5.998], "texture": "#2"},
				"down": {"uv": [7, 5, 7.999, 5.998], "texture": "#2"}
			}
		},
		{
			"from": [-0.24869, 4.24958, 12.99912],
			"to": [0.75131, 5.24958, 13.99912],
			"rotation": {"angle": 45, "axis": "z", "origin": [0.00131, 4.49958, 13.49912], "rescale": true},
			"faces": {
				"north": {"uv": [7, 5, 7.999, 5.998], "texture": "#2"},
				"east": {"uv": [7, 5, 7.999, 5.998], "texture": "#2"},
				"south": {"uv": [7, 5, 7.999, 5.998], "texture": "#2"},
				"west": {"uv": [7, 5, 7.999, 5.998], "texture": "#2"},
				"up": {"uv": [7, 5, 7.999, 5.998], "texture": "#2"},
				"down": {"uv": [7, 5, 7.999, 5.998], "texture": "#2"}
			}
		},
		{
			"from": [-0.24869, 4.24958, 1.99912],
			"to": [0.75131, 5.24958, 2.99912],
			"rotation": {"angle": 45, "axis": "z", "origin": [0.00131, 4.49958, 2.49912], "rescale": true},
			"faces": {
				"north": {"uv": [7, 5, 7.999, 5.998], "texture": "#2"},
				"east": {"uv": [7, 5, 7.999, 5.998], "texture": "#2"},
				"south": {"uv": [7, 5, 7.999, 5.998], "texture": "#2"},
				"west": {"uv": [7, 5, 7.999, 5.998], "texture": "#2"},
				"up": {"uv": [7, 5, 7.999, 5.998], "texture": "#2"},
				"down": {"uv": [7, 5, 7.999, 5.998], "texture": "#2"}
			}
		},
		{
			"from": [5.75131, 4.24958, 1.99912],
			"to": [6.75131, 5.24958, 2.99912],
			"rotation": {"angle": 45, "axis": "z", "origin": [6.00131, 4.49958, 2.49912], "rescale": true},
			"faces": {
				"north": {"uv": [7, 5, 7.999, 5.998], "texture": "#2"},
				"east": {"uv": [7, 5, 7.999, 5.998], "texture": "#2"},
				"south": {"uv": [7, 5, 7.999, 5.998], "texture": "#2"},
				"west": {"uv": [7, 5, 7.999, 5.998], "texture": "#2"},
				"up": {"uv": [7, 5, 7.999, 5.998], "texture": "#2"},
				"down": {"uv": [7, 5, 7.999, 5.998], "texture": "#2"}
			}
		}
	],
	"display": {
		"thirdperson_righthand": {
			"rotation": [76.25, 0, 0],
			"translation": [5, -2.5, -1.5],
			"scale": [0.8, 0.8, 0.8]
		},
		"thirdperson_lefthand": {
			"rotation": [76.25, 0, 0],
			"translation": [-3.25, -2.5, -1.5],
			"scale": [0.8, 0.8, 0.8]
		},
		"firstperson_righthand": {
			"translation": [5.75, 0, 0]
		},
		"ground": {
			"translation": [5, 0, 0],
			"scale": [0.7, 0.7, 0.7]
		},
		"gui": {
			"rotation": [35, 45, 0],
			"translation": [3.75, 1.5, 0]
		},
		"head": {
			"translation": [2.75, -1.25, 0]
		},
		"fixed": {
			"rotation": [0, -90, 0],
			"translation": [0, 0, 5],
			"scale": [2, 2, 2]
		}
	},
	"groups": [
		{
			"name": "trubka",
			"children": [0, 1, 2, 3, 4, 5, 6, 7, 8, 9, 10, 11, 12, 13, 14, 15, 16]
		}
	]
}