{
	"credit": "Made by 0ptima, totally cool guy from Frostburn",
	"textures": {
		"0": "models/opt/fuckedpot",
		"1": "models/opt/flower_tulip_pink",
		"particle": "models/opt/fuckedpot"
	},
	"elements": [
		{
			"from": [11, 3, 10],
			"to": [12, 10, 15],
			"rotation": {"angle": 0, "axis": "y", "origin": [14, 11, 23]},
			"faces": {
				"east": {"uv": [1, 0, 6, 7], "texture": "#0"},
				"west": {"uv": [1, 0, 6, 7], "texture": "#0"},
				"up": {"uv": [14, 1, 15, 6], "texture": "#0"},
				"down": {"uv": [8, 1, 9, 6], "texture": "#0"}
			}
		},
		{
			"from": [5, 3, 10],
			"to": [6, 10, 15],
			"rotation": {"angle": 0, "axis": "y", "origin": [8, 11, 23]},
			"faces": {
				"east": {"uv": [1, 0, 6, 7], "texture": "#0"},
				"west": {"uv": [1, 0, 6, 7], "texture": "#0"},
				"up": {"uv": [8, 1, 9, 6], "texture": "#0"},
				"down": {"uv": [14, 1, 15, 6], "texture": "#0"}
			}
		},
		{
			"from": [6, 3, 10],
			"to": [11, 9, 15],
			"rotation": {"angle": 0, "axis": "y", "origin": [14, 11, 23]},
			"faces": {
				"up": {"uv": [0, 8, 5, 13], "texture": "#0"},
				"down": {"uv": [9, 1, 14, 6], "texture": "#0"}
			}
		},
		{
			"from": [8.5, 9, 8],
			"to": [8.5, 23, 15],
			"rotation": {"angle": 0, "axis": "y", "origin": [14.5, 17, 22]},
			"faces": {
				"east": {"uv": [7, 2, 0, 16], "texture": "#1"},
				"west": {"uv": [0, 2, 7, 16], "texture": "#1"}
			}
		},
		{
			"from": [5.00525, 9, 12.52096],
			"to": [12.00525, 23, 12.52096],
			"rotation": {"angle": 0, "axis": "y", "origin": [8.49214, 15.99474, 12.51311]},
			"faces": {
				"north": {"uv": [0, 2, 7, 16], "texture": "#1"},
				"south": {"uv": [7, 2, 0, 16], "texture": "#1"}
			}
		},
		{
			"from": [5, 3, 9],
			"to": [12, 10, 10],
			"rotation": {"angle": 0, "axis": "y", "origin": [14, 11, 23]},
			"faces": {
				"north": {"uv": [8, 0, 15, 7], "texture": "#0"},
				"east": {"uv": [6, 0, 7, 7], "texture": "#0"},
				"south": {"uv": [8, 0, 15, 7], "texture": "#0"},
				"west": {"uv": [0, 0, 1, 7], "texture": "#0"},
				"up": {"uv": [8, 0, 15, 1], "texture": "#0"},
				"down": {"uv": [8, 0, 15, 1], "texture": "#0"}
			}
		},
		{
			"from": [5, 3, 15],
			"to": [12, 10, 16],
			"rotation": {"angle": 0, "axis": "y", "origin": [14, 11, 29]},
			"faces": {
				"north": {"uv": [8, 0, 15, 7], "texture": "#0"},
				"east": {"uv": [0, 0, 1, 7], "texture": "#0"},
				"south": {"uv": [8, 0, 15, 7], "texture": "#0"},
				"west": {"uv": [6, 0, 7, 7], "texture": "#0"},
				"up": {"uv": [8, 6, 15, 7], "texture": "#0"},
				"down": {"uv": [8, 6, 15, 7], "texture": "#0"}
			}
		}
	],
	"display": {
		"thirdperson_righthand": {
			"translation": [-1.75, 0, -4],
			"scale": [0.77, 0.77, 0.77]
		},
		"thirdperson_lefthand": {
			"translation": [-1.75, 0, -4],
			"scale": [0.77, 0.77, 0.77]
		},
		"firstperson_righthand": {
			"translation": [0, 2, 0],
			"scale": [0.6, 0.6, 0.6]
		},
		"firstperson_lefthand": {
			"translation": [0, 2, 0],
			"scale": [0.6, 0.6, 0.6]
		},
		"ground": {
			"translation": [0, 1.75, -4.5]
		},
		"gui": {
			"rotation": [35, 45, 0],
			"translation": [-4.25, 1.75, 0],
			"scale": [1.15, 1.15, 1.15]
		},
		"fixed": {
			"translation": [0, 0, -14],
			"scale": [2, 2, 2]
		}
	}
}