{
	"credit": "Made with Blockbench",
	"ambientocclusion": false,
	"textures": {
		"1": "models/gate/gate",
		"particle": "blocks/m_fence_spruce",
		"texture": "blocks/m_fence_spruce"
	},
	"elements": [
		{
			"name": "Cube1",
			"from": [9, 0, -2],
			"to": [9.5, 17, 0],
			"faces": {
				"north": {"uv": [15.5, 0, 16, 16], "texture": "#texture"},
				"east": {"uv": [13.5, 0, 15.5, 16], "texture": "#texture"},
				"south": {"uv": [15.5, 0, 16, 16], "texture": "#texture"},
				"up": {"uv": [3.5, 13, 4, 15], "texture": "#texture"}
			}
		},
		{
			"name": "Cube1",
			"from": [7, 0, -2.5],
			"to": [9, 17, 0],
			"faces": {
				"north": {"uv": [13.5, 0, 15.5, 16], "texture": "#texture"},
				"east": {"uv": [13, 0, 16, 16], "texture": "#texture"},
				"south": {"uv": [13.5, 0, 15.5, 16], "texture": "#texture"},
				"west": {"uv": [13, 0, 16, 16], "texture": "#texture"},
				"up": {"uv": [0, 12, 2, 15], "texture": "#texture"}
			}
		},
		{
			"name": "Cube4",
			"from": [7, 17, -2],
			"to": [9, 17.5, 0],
			"faces": {
				"north": {"uv": [0, 12.5, 2, 13], "texture": "#texture"},
				"east": {"uv": [0, 12, 2, 12.5], "texture": "#texture"},
				"south": {"uv": [0, 13, 2, 13.5], "texture": "#texture"},
				"west": {"uv": [0, 12.5, 2, 13], "texture": "#texture"},
				"up": {"uv": [0, 12, 2, 14], "texture": "#texture"}
			}
		},
		{
			"name": "Cube1",
			"from": [6.5, 0, -2],
			"to": [7, 17, 0],
			"faces": {
				"north": {"uv": [15.5, 0, 16, 16], "texture": "#texture"},
				"south": {"uv": [15.5, 0, 16, 16], "texture": "#texture"},
				"west": {"uv": [13.5, 0, 15.5, 16], "texture": "#texture"},
				"up": {"uv": [3.5, 13, 4, 15], "texture": "#texture"}
			}
		},
		{
			"name": "Cube4",
			"from": [7, 16, 0],
			"to": [9, 17, 6.5],
			"faces": {
				"east": {"uv": [0, 0, 1, 6], "rotation": 270, "texture": "#texture"},
				"west": {"uv": [0, 0, 1, 6], "rotation": 270, "texture": "#texture"},
				"up": {"uv": [0, 0, 2, 6], "texture": "#texture"},
				"down": {"uv": [0, 0, 2, 6], "texture": "#texture"}
			}
		},
		{
			"name": "Cube1",
			"from": [7.5, 0, 0],
			"to": [8.5, 16, 1],
			"faces": {
				"east": {"uv": [8, 0, 8.5, 16], "texture": "#texture"},
				"south": {"uv": [8, 0, 9, 16], "texture": "#texture"},
				"west": {"uv": [8, 0, 8.5, 16], "texture": "#texture"}
			}
		},
		{
			"name": "Cube4",
			"from": [7.25, -0.115, 0.76],
			"to": [8.75, 17.385, 2.26],
			"rotation": {"angle": -22.5, "axis": "x", "origin": [7.25, 16.25, 3.5]},
			"faces": {
				"north": {"uv": [9, 0, 10, 16], "texture": "#texture"},
				"east": {"uv": [8, 0, 9, 16], "texture": "#texture"},
				"south": {"uv": [9, 0, 10, 16], "texture": "#texture"},
				"west": {"uv": [8, 0, 9, 16], "texture": "#texture"}
			}
		},
		{
			"name": "Cube4",
			"from": [7.5, 0, 1],
			"to": [8.5, 0.5, 6.5],
			"faces": {
				"east": {"uv": [0, 0, 1, 6], "rotation": 270, "texture": "#texture"},
				"west": {"uv": [0, 0, 1, 6], "rotation": 270, "texture": "#texture"},
				"up": {"uv": [0, 0, 1, 6], "texture": "#texture"}
			}
		},
		{
			"from": [7.25, 0.5, -2.7],
			"to": [8.75, 16.5, -2.5],
			"faces": {
				"north": {"uv": [7, 3, 8.998, 12.999], "texture": "#1"},
				"east": {"uv": [7, 3, 8.5, 12.999], "texture": "#1"},
				"west": {"uv": [7, 3, 8.5, 12.999], "texture": "#1"},
				"up": {"uv": [7, 3, 8.5, 3.997], "texture": "#1"},
				"down": {"uv": [7, 12, 8.499, 12.998], "texture": "#1"}
			}
		}
	],
	"display": {
		"thirdperson_righthand": {
			"rotation": [15, 0, 0],
			"translation": [0, 0, 1.75],
			"scale": [0.35, 0.35, 0.35]
		},
		"thirdperson_lefthand": {
			"rotation": [15, 0, 0],
			"translation": [0, 0, 1.75],
			"scale": [0.35, 0.35, 0.35]
		},
		"firstperson_righthand": {
			"rotation": [-22, 54, 0],
			"translation": [7.25, 0, 0],
			"scale": [0.5, 0.5, 0.5]
		},
		"firstperson_lefthand": {
			"rotation": [-22, 54, 0],
			"translation": [7.25, 0, 0],
			"scale": [0.5, 0.5, 0.5]
		},
		"ground": {
			"rotation": [0, 0, 90],
			"translation": [0, -1.5, 2.5],
			"scale": [0.5, 0.5, 0.5]
		},
		"gui": {
			"rotation": [35, 135, 0],
			"translation": [5, 1.75, 0],
			"scale": [0.9, 0.9, 0.9]
		},
		"fixed": {
			"translation": [0, 0, 20],
			"scale": [2, 2, 2]
		}
	},
	"groups": [
		{
			"name": "spruce_fence_n_3d",
			"origin": [8, 8, 8],
			"children": [0, 1, 2, 3, 4, 5, 6, 7]
		}, 8]
}