{
	"credit": "Made by 0ptima, totally cool guy from Frostburn",
	"textures": {
		"1": "blocks/billboard_3x1_1"
	},
	"elements": [
		{
			"from": [-13.5, 2, 0],
			"to": [30, 30, 0.01],
			"faces": {
				"north": {"uv": [0, 0, 12, 7.978], "texture": "#1"},
				"east": {"uv": [13.688, 1.125, 14.688, 15.125], "texture": "#1"},
				"south": {"uv": [0, 0, 12, 7.978], "texture": "#1"},
				"west": {"uv": [13.688, 1.125, 14.688, 15.125], "texture": "#1"},
				"up": {"uv": [0.25, 10.5, 15.25, 11.5], "texture": "#1"},
				"down": {"uv": [0, 10.188, 15, 11.188], "texture": "#1"}
			}
		}
	],
	"display": {
		"thirdperson_righthand": {
			"translation": [0, 0, 2.75],
			"scale": [0.25, 0.25, 0.25]
		},
		"thirdperson_lefthand": {
			"translation": [0, 0, 2.75],
			"scale": [0.25, 0.25, 0.25]
		},
		"firstperson_righthand": {
			"rotation": [-36, 0, 0],
			"translation": [11, -1.75, 0],
			"scale": [0.5, 0.5, 0.5]
		},
		"firstperson_lefthand": {
			"rotation": [-36, 0, 0],
			"translation": [11, -1.75, 0],
			"scale": [0.5, 0.5, 0.5]
		},
		"ground": {
			"rotation": [-90, 0, 0],
			"translation": [0, 0, 2.75],
			"scale": [0.25, 0.25, 0.25]
		},
		"gui": {
			"rotation": [-35, 45, 0],
			"translation": [2.75, -1.5, 0],
			"scale": [0.5, 0.5, 0.5]
		},
		"fixed": {
			"rotation": [0, 0, -180],
			"translation": [-32, 0, -15],
			"scale": [-2, -2, -2]
		}
	}
}