{
	"credit": "Made by 0ptima, totally cool guy from Frostburn",
	"textures": {
		"0": "blocks/exit",
		"particle": "blocks/exit"
	},
	"elements": [
		{
			"from": [0, 15, 1],
			"to": [16, 16, 15],
			"faces": {
				"north": {"uv": [0, 0, 16, 0.5], "texture": "#0"},
				"east": {"uv": [0, 0, 16, 0.5], "texture": "#0"},
				"south": {"uv": [0, 0, 16, 0.5], "texture": "#0"},
				"west": {"uv": [0, 0, 16, 0.5], "texture": "#0"},
				"down": {"uv": [0, 11, 4.499, 15.499], "texture": "#0"}
			}
		},
		{
			"from": [0, 6, 1],
			"to": [16, 15, 2],
			"rotation": {"angle": -22.5, "axis": "x", "origin": [8, 15, 1]},
			"faces": {
				"north": {"uv": [0, 0, 16, 9], "texture": "#0"},
				"east": {"uv": [0, 0, 1, 9], "texture": "#0"},
				"south": {"uv": [0, 11, 8, 15.499], "texture": "#0"},
				"west": {"uv": [15, 0, 16, 9], "texture": "#0"},
				"down": {"uv": [0, 8, 16, 9], "texture": "#0"}
			}
		},
		{
			"from": [0, 6, 14],
			"to": [16, 15, 15],
			"rotation": {"angle": 22.5, "axis": "x", "origin": [8, 15, 15]},
			"faces": {
				"north": {"uv": [0, 11, 8, 15.499], "texture": "#0"},
				"east": {"uv": [15, 0, 16, 9], "texture": "#0"},
				"south": {"uv": [0, 0, 16, 9], "texture": "#0"},
				"west": {"uv": [0, 0, 1, 9], "texture": "#0"},
				"down": {"uv": [0, 8, 16, 9], "texture": "#0"}
			}
		},
		{
			"from": [1, 7, 5],
			"to": [2, 8, 11],
			"faces": {
				"north": {"uv": [14, 9.5, 15.998, 11.498], "texture": "#0"},
				"east": {"uv": [14, 9.5, 15.998, 11.498], "texture": "#0"},
				"south": {"uv": [14, 9.5, 15.998, 11.498], "texture": "#0"},
				"west": {"uv": [14, 9.5, 15.998, 11.498], "texture": "#0"},
				"up": {"uv": [14, 9.5, 15.998, 11.498], "texture": "#0"},
				"down": {"uv": [14, 9.5, 15.998, 11.498], "texture": "#0"}
			}
		},
		{
			"from": [14, 7, 5],
			"to": [15, 8, 11],
			"faces": {
				"north": {"uv": [14, 9.5, 15.998, 11.498], "texture": "#0"},
				"east": {"uv": [14, 9.5, 15.998, 11.498], "texture": "#0"},
				"south": {"uv": [14, 9.5, 15.998, 11.498], "texture": "#0"},
				"west": {"uv": [14, 9.5, 15.998, 11.498], "texture": "#0"},
				"up": {"uv": [14, 9.5, 15.998, 11.498], "texture": "#0"},
				"down": {"uv": [14, 9.5, 15.998, 11.498], "texture": "#0"}
			}
		}
	],
	"display": {
		"thirdperson_righthand": {
			"scale": [0.4, 0.4, 0.4]
		},
		"thirdperson_lefthand": {
			"scale": [0.4, 0.4, 0.4]
		},
		"firstperson_righthand": {
			"rotation": [-31, -44, 0],
			"scale": [0.55, 0.55, 0.55]
		},
		"firstperson_lefthand": {
			"rotation": [-31, -44, 0],
			"scale": [0.55, 0.55, 0.55]
		},
		"ground": {
			"scale": [0.5, 0.5, 0.5]
		},
		"gui": {
			"rotation": [-35, 45, 0],
			"translation": [0, -3.25, 0],
			"scale": [0.74, 0.74, 0.74]
		},
		"fixed": {
			"translation": [-16, 0, 18],
			"scale": [2, 2, 2]
		}
	}
}