{
	"credit": "Made by 0ptima, totally cool guy from Frostburn",
	"textures": {
		"4": "models/camera",
		"particle": "models/camera"
	},
	"elements": [
		{
			"from": [11, 7.125, 7.25],
			"to": [15, 8.375, 8.75],
			"faces": {
				"north": {"uv": [0, 2, 1.999, 8], "rotation": 90, "texture": "#4"},
				"south": {"uv": [0, 2, 1.999, 8], "rotation": 90, "texture": "#4"},
				"up": {"uv": [0, 2, 1.999, 8], "rotation": 270, "texture": "#4"},
				"down": {"uv": [0, 2, 1.999, 8], "rotation": 90, "texture": "#4"}
			}
		},
		{
			"from": [15, 6.5, 6.5],
			"to": [15.5, 9, 9.5],
			"faces": {
				"north": {"uv": [2, 0, 2.998, 3.999], "rotation": 180, "texture": "#4"},
				"south": {"uv": [5, 0, 5.998, 3.999], "rotation": 180, "texture": "#4"},
				"west": {"uv": [2, 0, 5.999, 3.999], "rotation": 180, "texture": "#4"},
				"up": {"uv": [2, 0, 5.998, 0.998], "rotation": 270, "texture": "#4"},
				"down": {"uv": [2, 3, 5.998, 3.998], "rotation": 90, "texture": "#4"}
			}
		},
		{
			"from": [15.5, 6.5, 5.5],
			"to": [16, 9, 10.5],
			"faces": {
				"north": {"uv": [2, 5, 3, 8], "rotation": 180, "texture": "#4"},
				"south": {"uv": [6, 5, 7, 8], "rotation": 180, "texture": "#4"},
				"west": {"uv": [2, 5, 7, 8], "rotation": 180, "texture": "#4"}
			}
		},
		{
			"from": [15.5, 9, 6.5],
			"to": [16, 10, 9.5],
			"faces": {
				"west": {"uv": [3, 4, 5.999, 5], "rotation": 180, "texture": "#4"},
				"up": {"uv": [3, 4, 5.999, 5], "rotation": 180, "texture": "#4"}
			}
		},
		{
			"from": [15.5, 5.5, 6.5],
			"to": [16, 6.5, 9.5],
			"faces": {
				"west": {"uv": [3, 8, 5.999, 9], "rotation": 180, "texture": "#4"},
				"down": {"uv": [3, 8, 5.999, 9], "rotation": 180, "texture": "#4"}
			}
		},
		{
			"from": [15.50011, 8.51086, 9.01172],
			"to": [16.00011, 9.51086, 10.01172],
			"rotation": {"angle": 45, "axis": "x", "origin": [15.74921, 9.02266, 9.50084], "rescale": true},
			"faces": {
				"west": {"uv": [6, 4, 6.998, 5], "rotation": 180, "texture": "#4"},
				"up": {"uv": [6, 4, 6.998, 5], "rotation": 180, "texture": "#4"}
			}
		},
		{
			"from": [15.50011, 8.51086, 6.01172],
			"to": [16.00011, 9.51086, 7.01172],
			"rotation": {"angle": 45, "axis": "x", "origin": [15.74921, 9.02266, 6.50084], "rescale": true},
			"faces": {
				"north": {"uv": [2, 4, 2.998, 5], "rotation": 180, "texture": "#4"},
				"west": {"uv": [2, 4, 2.998, 5], "rotation": 180, "texture": "#4"}
			}
		},
		{
			"from": [15.50011, 6.01086, 6.01172],
			"to": [16.00011, 7.01086, 7.01172],
			"rotation": {"angle": 45, "axis": "x", "origin": [15.74921, 6.52266, 6.50084], "rescale": true},
			"faces": {
				"west": {"uv": [2, 8, 2.998, 9], "rotation": 180, "texture": "#4"},
				"down": {"uv": [2, 8, 2.998, 9], "rotation": 180, "texture": "#4"}
			}
		},
		{
			"from": [15.50011, 6.01086, 9.01172],
			"to": [16.00011, 7.01086, 10.01172],
			"rotation": {"angle": 45, "axis": "x", "origin": [15.74921, 6.52266, 9.50084], "rescale": true},
			"faces": {
				"south": {"uv": [6, 8, 6.998, 9], "rotation": 180, "texture": "#4"},
				"west": {"uv": [6, 8, 6.998, 9], "rotation": 180, "texture": "#4"}
			}
		},
		{
			"from": [12.375, 8.5625, 7.6875],
			"to": [15, 8.6875, 7.8125],
			"faces": {
				"north": {"uv": [14.5, 12.5, 15.5, 13.5], "texture": "#4"},
				"east": {"uv": [14.5, 12.5, 15.5, 13.5], "texture": "#4"},
				"south": {"uv": [14.5, 12.5, 15.5, 13.5], "texture": "#4"},
				"west": {"uv": [14.5, 12.5, 15.5, 13.5], "texture": "#4"},
				"up": {"uv": [14.5, 12.5, 15.5, 13.5], "texture": "#4"},
				"down": {"uv": [14.5, 12.5, 15.5, 13.5], "texture": "#4"}
			}
		},
		{
			"from": [12.05522, 8.40423, 7.687],
			"to": [12.49272, 8.52923, 7.812],
			"rotation": {"angle": 45, "axis": "z", "origin": [12.24272, 8.46673, 7.7495]},
			"faces": {
				"north": {"uv": [14.5, 12.5, 15.5, 13.5], "texture": "#4"},
				"east": {"uv": [14.5, 12.5, 15.5, 13.5], "texture": "#4"},
				"south": {"uv": [14.5, 12.5, 15.5, 13.5], "texture": "#4"},
				"west": {"uv": [14.5, 12.5, 15.5, 13.5], "texture": "#4"},
				"up": {"uv": [14.5, 12.5, 15.5, 13.5], "texture": "#4"},
				"down": {"uv": [14.5, 12.5, 15.5, 13.5], "texture": "#4"}
			}
		},
		{
			"from": [12.8125, 8.375, 8.25],
			"to": [15, 8.5, 8.375],
			"faces": {
				"north": {"uv": [14.5, 12.5, 15.5, 13.5], "texture": "#4"},
				"east": {"uv": [14.5, 12.5, 15.5, 13.5], "texture": "#4"},
				"south": {"uv": [14.5, 12.5, 15.5, 13.5], "texture": "#4"},
				"west": {"uv": [14.5, 12.5, 15.5, 13.5], "texture": "#4"},
				"up": {"uv": [14.5, 12.5, 15.5, 13.5], "texture": "#4"},
				"down": {"uv": [14.5, 12.5, 15.5, 13.5], "texture": "#4"}
			}
		},
		{
			"from": [12.17533, 8.37486, 8.37668],
			"to": [12.86283, 8.49986, 8.50168],
			"rotation": {"angle": 22.5, "axis": "y", "origin": [12.51908, 8.43736, 8.43918]},
			"faces": {
				"north": {"uv": [14.5, 12.5, 15.5, 13.5], "texture": "#4"},
				"east": {"uv": [14.5, 12.5, 15.5, 13.5], "texture": "#4"},
				"south": {"uv": [14.5, 12.5, 15.5, 13.5], "texture": "#4"},
				"west": {"uv": [14.5, 12.5, 15.5, 13.5], "texture": "#4"},
				"up": {"uv": [14.5, 12.5, 15.5, 13.5], "texture": "#4"},
				"down": {"uv": [14.5, 12.5, 15.5, 13.5], "texture": "#4"}
			}
		},
		{
			"from": [11.22543, 8.37273, 8.50558],
			"to": [12.22543, 8.49773, 8.63058],
			"faces": {
				"north": {"uv": [14.5, 12.5, 15.5, 13.5], "texture": "#4"},
				"east": {"uv": [14.5, 12.5, 15.5, 13.5], "texture": "#4"},
				"south": {"uv": [14.5, 12.5, 15.5, 13.5], "texture": "#4"},
				"west": {"uv": [14.5, 12.5, 15.5, 13.5], "texture": "#4"},
				"up": {"uv": [14.5, 12.5, 15.5, 13.5], "texture": "#4"},
				"down": {"uv": [14.5, 12.5, 15.5, 13.5], "texture": "#4"}
			}
		},
		{
			"from": [10.9375, 8.6875, 7.9375],
			"to": [14, 8.8125, 8.0625],
			"faces": {
				"north": {"uv": [14.5, 12.5, 15.5, 13.5], "texture": "#4"},
				"east": {"uv": [14.5, 12.5, 15.5, 13.5], "texture": "#4"},
				"south": {"uv": [14.5, 12.5, 15.5, 13.5], "texture": "#4"},
				"west": {"uv": [14.5, 12.5, 15.5, 13.5], "texture": "#4"},
				"up": {"uv": [14.5, 12.5, 15.5, 13.5], "texture": "#4"},
				"down": {"uv": [14.5, 12.5, 15.5, 13.5], "texture": "#4"}
			}
		},
		{
			"from": [13.83733, 8.41814, 7.9374],
			"to": [14.52483, 8.54314, 8.0624],
			"rotation": {"angle": -45, "axis": "z", "origin": [14.24358, 8.48064, 7.9999]},
			"faces": {
				"north": {"uv": [14.5, 12.5, 15.5, 13.5], "texture": "#4"},
				"east": {"uv": [14.5, 12.5, 15.5, 13.5], "texture": "#4"},
				"south": {"uv": [14.5, 12.5, 15.5, 13.5], "texture": "#4"},
				"west": {"uv": [14.5, 12.5, 15.5, 13.5], "texture": "#4"},
				"up": {"uv": [14.5, 12.5, 15.5, 13.5], "texture": "#4"},
				"down": {"uv": [14.5, 12.5, 15.5, 13.5], "texture": "#4"}
			}
		},
		{
			"from": [14.375, 6.625, 8.25],
			"to": [15, 6.75, 8.375],
			"faces": {
				"north": {"uv": [14.5, 12.5, 15.5, 13.5], "texture": "#4"},
				"east": {"uv": [14.5, 12.5, 15.5, 13.5], "texture": "#4"},
				"south": {"uv": [14.5, 12.5, 15.5, 13.5], "texture": "#4"},
				"west": {"uv": [14.5, 12.5, 15.5, 13.5], "texture": "#4"},
				"up": {"uv": [14.5, 12.5, 15.5, 13.5], "texture": "#4"},
				"down": {"uv": [14.5, 12.5, 15.5, 13.5], "texture": "#4"}
			}
		},
		{
			"from": [14.23545, 6.51057, 8.24936],
			"to": [14.42295, 6.63557, 8.37436],
			"rotation": {"angle": 22.5, "axis": "z", "origin": [14.11045, 6.57307, 8.31186]},
			"faces": {
				"north": {"uv": [14.5, 12.5, 15.5, 13.5], "texture": "#4"},
				"east": {"uv": [14.5, 12.5, 15.5, 13.5], "texture": "#4"},
				"south": {"uv": [14.5, 12.5, 15.5, 13.5], "texture": "#4"},
				"west": {"uv": [14.5, 12.5, 15.5, 13.5], "texture": "#4"},
				"up": {"uv": [14.5, 12.5, 15.5, 13.5], "texture": "#4"},
				"down": {"uv": [14.5, 12.5, 15.5, 13.5], "texture": "#4"}
			}
		},
		{
			"from": [14.0777, 6.2415, 8.24884],
			"to": [14.2027, 6.679, 8.37384],
			"rotation": {"angle": -22.5, "axis": "z", "origin": [14.1402, 6.3665, 8.31134]},
			"faces": {
				"north": {"uv": [14.5, 12.5, 15.5, 13.5], "rotation": 90, "texture": "#4"},
				"east": {"uv": [14.5, 12.5, 15.5, 13.5], "rotation": 270, "texture": "#4"},
				"south": {"uv": [14.5, 12.5, 15.5, 13.5], "rotation": 270, "texture": "#4"},
				"west": {"uv": [14.5, 12.5, 15.5, 13.5], "rotation": 90, "texture": "#4"},
				"up": {"uv": [14.5, 12.5, 15.5, 13.5], "rotation": 270, "texture": "#4"},
				"down": {"uv": [14.5, 12.5, 15.5, 13.5], "rotation": 270, "texture": "#4"}
			}
		},
		{
			"from": [13.75973, 5.98913, 8.24776],
			"to": [14.19723, 6.11413, 8.37276],
			"rotation": {"angle": 45, "axis": "z", "origin": [13.88473, 6.05163, 8.31026]},
			"faces": {
				"north": {"uv": [14.5, 12.5, 15.5, 13.5], "texture": "#4"},
				"east": {"uv": [14.5, 12.5, 15.5, 13.5], "rotation": 180, "texture": "#4"},
				"south": {"uv": [14.5, 12.5, 15.5, 13.5], "texture": "#4"},
				"west": {"uv": [14.5, 12.5, 15.5, 13.5], "rotation": 180, "texture": "#4"},
				"up": {"uv": [14.5, 12.5, 15.5, 13.5], "rotation": 180, "texture": "#4"},
				"down": {"uv": [14.5, 12.5, 15.5, 13.5], "rotation": 180, "texture": "#4"}
			}
		},
		{
			"from": [13.65286, 5.79477, 8.24773],
			"to": [13.84036, 5.91977, 8.37273],
			"rotation": {"angle": 22.5, "axis": "z", "origin": [13.52786, 5.85727, 8.31023]},
			"faces": {
				"north": {"uv": [14.5, 12.5, 15.5, 13.5], "texture": "#4"},
				"east": {"uv": [14.5, 12.5, 15.5, 13.5], "texture": "#4"},
				"south": {"uv": [14.5, 12.5, 15.5, 13.5], "texture": "#4"},
				"west": {"uv": [14.5, 12.5, 15.5, 13.5], "texture": "#4"},
				"up": {"uv": [14.5, 12.5, 15.5, 13.5], "texture": "#4"},
				"down": {"uv": [14.5, 12.5, 15.5, 13.5], "texture": "#4"}
			}
		},
		{
			"from": [13.40217, 5.96252, 8.2477],
			"to": [13.71467, 6.08752, 8.3727],
			"rotation": {"angle": -22.5, "axis": "z", "origin": [13.40217, 6.02502, 8.3102]},
			"faces": {
				"north": {"uv": [14.5, 12.5, 15.5, 13.5], "texture": "#4"},
				"east": {"uv": [14.5, 12.5, 15.5, 13.5], "texture": "#4"},
				"south": {"uv": [14.5, 12.5, 15.5, 13.5], "texture": "#4"},
				"west": {"uv": [14.5, 12.5, 15.5, 13.5], "texture": "#4"},
				"up": {"uv": [14.5, 12.5, 15.5, 13.5], "texture": "#4"},
				"down": {"uv": [14.5, 12.5, 15.5, 13.5], "texture": "#4"}
			}
		},
		{
			"from": [13.13916, 5.92003, 8.24743],
			"to": [13.26416, 6.23253, 8.37243],
			"rotation": {"angle": 45, "axis": "z", "origin": [13.20166, 6.23253, 8.30993]},
			"faces": {
				"north": {"uv": [14.5, 12.5, 15.5, 13.5], "rotation": 270, "texture": "#4"},
				"east": {"uv": [14.5, 12.5, 15.5, 13.5], "rotation": 270, "texture": "#4"},
				"south": {"uv": [14.5, 12.5, 15.5, 13.5], "rotation": 90, "texture": "#4"},
				"west": {"uv": [14.5, 12.5, 15.5, 13.5], "rotation": 270, "texture": "#4"},
				"up": {"uv": [14.5, 12.5, 15.5, 13.5], "rotation": 90, "texture": "#4"},
				"down": {"uv": [14.5, 12.5, 15.5, 13.5], "rotation": 270, "texture": "#4"}
			}
		},
		{
			"from": [13.03342, 6.18828, 8.24732],
			"to": [13.15842, 6.50078, 8.37232],
			"rotation": {"angle": 22.5, "axis": "z", "origin": [13.09592, 6.50078, 8.30982]},
			"faces": {
				"north": {"uv": [14.5, 12.5, 15.5, 13.5], "rotation": 270, "texture": "#4"},
				"east": {"uv": [14.5, 12.5, 15.5, 13.5], "rotation": 90, "texture": "#4"},
				"south": {"uv": [14.5, 12.5, 15.5, 13.5], "rotation": 90, "texture": "#4"},
				"west": {"uv": [14.5, 12.5, 15.5, 13.5], "rotation": 90, "texture": "#4"},
				"up": {"uv": [14.5, 12.5, 15.5, 13.5], "rotation": 270, "texture": "#4"},
				"down": {"uv": [14.5, 12.5, 15.5, 13.5], "rotation": 90, "texture": "#4"}
			}
		},
		{
			"from": [13.03822, 6.47687, 8.24727],
			"to": [13.16322, 6.72687, 8.37227],
			"faces": {
				"north": {"uv": [14.5, 12.5, 15.5, 13.5], "rotation": 270, "texture": "#4"},
				"east": {"uv": [14.5, 12.5, 15.5, 13.5], "rotation": 90, "texture": "#4"},
				"south": {"uv": [14.5, 12.5, 15.5, 13.5], "rotation": 90, "texture": "#4"},
				"west": {"uv": [14.5, 12.5, 15.5, 13.5], "rotation": 90, "texture": "#4"},
				"up": {"uv": [14.5, 12.5, 15.5, 13.5], "rotation": 270, "texture": "#4"},
				"down": {"uv": [14.5, 12.5, 15.5, 13.5], "rotation": 90, "texture": "#4"}
			}
		},
		{
			"from": [12.8359, 6.59079, 8.24728],
			"to": [12.9609, 6.84079, 8.37228],
			"rotation": {"angle": 45, "axis": "z", "origin": [12.8984, 6.90329, 8.30978]},
			"faces": {
				"north": {"uv": [14.5, 12.5, 15.5, 13.5], "rotation": 270, "texture": "#4"},
				"east": {"uv": [14.5, 12.5, 15.5, 13.5], "rotation": 90, "texture": "#4"},
				"south": {"uv": [14.5, 12.5, 15.5, 13.5], "rotation": 90, "texture": "#4"},
				"west": {"uv": [14.5, 12.5, 15.5, 13.5], "rotation": 90, "texture": "#4"},
				"up": {"uv": [14.5, 12.5, 15.5, 13.5], "rotation": 270, "texture": "#4"},
				"down": {"uv": [14.5, 12.5, 15.5, 13.5], "rotation": 90, "texture": "#4"}
			}
		},
		{
			"from": [12.73655, 6.90301, 8.24701],
			"to": [12.98655, 7.02801, 8.37201],
			"rotation": {"angle": -22.5, "axis": "z", "origin": [12.67405, 6.96551, 8.30951]},
			"faces": {
				"north": {"uv": [14.5, 12.5, 15.5, 13.5], "texture": "#4"},
				"east": {"uv": [14.5, 12.5, 15.5, 13.5], "texture": "#4"},
				"south": {"uv": [14.5, 12.5, 15.5, 13.5], "texture": "#4"},
				"west": {"uv": [14.5, 12.5, 15.5, 13.5], "texture": "#4"},
				"up": {"uv": [14.5, 12.5, 15.5, 13.5], "texture": "#4"},
				"down": {"uv": [14.5, 12.5, 15.5, 13.5], "texture": "#4"}
			}
		},
		{
			"from": [11.19326, 6.87448, 8.24682],
			"to": [12.75576, 6.99948, 8.37182],
			"faces": {
				"north": {"uv": [14.5, 12.5, 15.5, 13.5], "texture": "#4"},
				"east": {"uv": [14.5, 12.5, 15.5, 13.5], "texture": "#4"},
				"south": {"uv": [14.5, 12.5, 15.5, 13.5], "texture": "#4"},
				"west": {"uv": [14.5, 12.5, 15.5, 13.5], "texture": "#4"},
				"up": {"uv": [14.5, 12.5, 15.5, 13.5], "texture": "#4"},
				"down": {"uv": [14.5, 12.5, 15.5, 13.5], "texture": "#4"}
			}
		},
		{
			"from": [11.19326, 6.93698, 7.87182],
			"to": [12.44326, 7.06198, 7.99682],
			"faces": {
				"north": {"uv": [14.5, 12.5, 15.5, 13.5], "texture": "#4"},
				"east": {"uv": [14.5, 12.5, 15.5, 13.5], "texture": "#4"},
				"south": {"uv": [14.5, 12.5, 15.5, 13.5], "texture": "#4"},
				"west": {"uv": [14.5, 12.5, 15.5, 13.5], "texture": "#4"},
				"up": {"uv": [14.5, 12.5, 15.5, 13.5], "texture": "#4"},
				"down": {"uv": [14.5, 12.5, 15.5, 13.5], "texture": "#4"}
			}
		},
		{
			"from": [13.34246, 6.90252, 7.87133],
			"to": [15.02996, 7.02752, 7.99633],
			"faces": {
				"north": {"uv": [14.5, 12.5, 15.5, 13.5], "texture": "#4"},
				"east": {"uv": [14.5, 12.5, 15.5, 13.5], "texture": "#4"},
				"south": {"uv": [14.5, 12.5, 15.5, 13.5], "texture": "#4"},
				"west": {"uv": [14.5, 12.5, 15.5, 13.5], "texture": "#4"},
				"up": {"uv": [14.5, 12.5, 15.5, 13.5], "texture": "#4"},
				"down": {"uv": [14.5, 12.5, 15.5, 13.5], "texture": "#4"}
			}
		},
		{
			"from": [12.39903, 6.95521, 7.87193],
			"to": [12.83653, 7.08021, 7.99693],
			"rotation": {"angle": -45, "axis": "z", "origin": [12.39903, 7.01771, 7.93443]},
			"faces": {
				"north": {"uv": [14.5, 12.5, 15.5, 13.5], "texture": "#4"},
				"east": {"uv": [14.5, 12.5, 15.5, 13.5], "texture": "#4"},
				"south": {"uv": [14.5, 12.5, 15.5, 13.5], "texture": "#4"},
				"west": {"uv": [14.5, 12.5, 15.5, 13.5], "texture": "#4"},
				"up": {"uv": [14.5, 12.5, 15.5, 13.5], "texture": "#4"},
				"down": {"uv": [14.5, 12.5, 15.5, 13.5], "texture": "#4"}
			}
		},
		{
			"from": [12.6323, 6.41664, 7.87145],
			"to": [12.7573, 6.72914, 7.99645],
			"rotation": {"angle": 22.5, "axis": "z", "origin": [12.6948, 6.72914, 7.93395]},
			"faces": {
				"north": {"uv": [14.5, 12.5, 15.5, 13.5], "rotation": 270, "texture": "#4"},
				"east": {"uv": [14.5, 12.5, 15.5, 13.5], "rotation": 270, "texture": "#4"},
				"south": {"uv": [14.5, 12.5, 15.5, 13.5], "rotation": 90, "texture": "#4"},
				"west": {"uv": [14.5, 12.5, 15.5, 13.5], "rotation": 270, "texture": "#4"},
				"up": {"uv": [14.5, 12.5, 15.5, 13.5], "rotation": 90, "texture": "#4"},
				"down": {"uv": [14.5, 12.5, 15.5, 13.5], "rotation": 270, "texture": "#4"}
			}
		},
		{
			"from": [12.78035, 6.4119, 7.87151],
			"to": [13.09285, 6.5369, 7.99651],
			"rotation": {"angle": -22.5, "axis": "z", "origin": [12.78035, 6.4744, 7.93401]},
			"faces": {
				"north": {"uv": [14.5, 12.5, 15.5, 13.5], "texture": "#4"},
				"east": {"uv": [14.5, 12.5, 15.5, 13.5], "rotation": 180, "texture": "#4"},
				"south": {"uv": [14.5, 12.5, 15.5, 13.5], "texture": "#4"},
				"west": {"uv": [14.5, 12.5, 15.5, 13.5], "rotation": 180, "texture": "#4"},
				"up": {"uv": [14.5, 12.5, 15.5, 13.5], "rotation": 180, "texture": "#4"},
				"down": {"uv": [14.5, 12.5, 15.5, 13.5], "rotation": 180, "texture": "#4"}
			}
		},
		{
			"from": [13.00119, 6.2785, 7.87155],
			"to": [13.31369, 6.4035, 7.99655],
			"rotation": {"angle": 45, "axis": "z", "origin": [13.00119, 6.341, 7.93405]},
			"faces": {
				"north": {"uv": [14.5, 12.5, 15.5, 13.5], "texture": "#4"},
				"east": {"uv": [14.5, 12.5, 15.5, 13.5], "rotation": 180, "texture": "#4"},
				"south": {"uv": [14.5, 12.5, 15.5, 13.5], "texture": "#4"},
				"west": {"uv": [14.5, 12.5, 15.5, 13.5], "rotation": 180, "texture": "#4"},
				"up": {"uv": [14.5, 12.5, 15.5, 13.5], "rotation": 180, "texture": "#4"},
				"down": {"uv": [14.5, 12.5, 15.5, 13.5], "rotation": 180, "texture": "#4"}
			}
		},
		{
			"from": [13.1463, 6.54173, 7.87132],
			"to": [13.2713, 7.04173, 7.99632],
			"rotation": {"angle": -22.5, "axis": "z", "origin": [13.2088, 6.54173, 7.93382]},
			"faces": {
				"north": {"uv": [14.5, 12.5, 15.5, 13.5], "rotation": 90, "texture": "#4"},
				"east": {"uv": [14.5, 12.5, 15.5, 13.5], "rotation": 90, "texture": "#4"},
				"south": {"uv": [14.5, 12.5, 15.5, 13.5], "rotation": 270, "texture": "#4"},
				"west": {"uv": [14.5, 12.5, 15.5, 13.5], "rotation": 270, "texture": "#4"},
				"up": {"uv": [14.5, 12.5, 15.5, 13.5], "rotation": 90, "texture": "#4"},
				"down": {"uv": [14.5, 12.5, 15.5, 13.5], "rotation": 90, "texture": "#4"}
			}
		},
		{
			"from": [8.54697, 5.43798, 4.15907],
			"to": [11.04697, 8.37548, 9.65907],
			"rotation": {"angle": -22.5, "axis": "x", "origin": [10.09412, 6.4863, 5.51047]},
			"faces": {
				"north": {"uv": [2, 0, 5.999, 3.999], "texture": "#4"},
				"east": {"uv": [7, 4.5, 8, 5.5], "texture": "#missing"},
				"south": {"uv": [2, 0, 5.999, 3.999], "texture": "#4"},
				"west": {"uv": [8, 4.5, 9, 5.5], "texture": "#4"},
				"up": {"uv": [8, 0, 12.999, 9], "rotation": 180, "texture": "#4"},
				"down": {"uv": [8, 0, 12.999, 9], "texture": "#4"}
			}
		},
		{
			"from": [9.04697, 6.22338, 3.88563],
			"to": [10.54697, 7.72338, 4.38563],
			"rotation": {"angle": -22.5, "axis": "x", "origin": [10.09412, 6.4863, 5.51047]},
			"faces": {
				"north": {"uv": [0.5, 0.5, 1.5, 1.5], "rotation": 180, "texture": "#4"},
				"east": {"uv": [0.5, 0.5, 1.5, 1.5], "texture": "#4"},
				"west": {"uv": [0.5, 0.5, 1.5, 1.5], "texture": "#4"},
				"up": {"uv": [0.5, 0.5, 1.5, 1.5], "rotation": 270, "texture": "#4"},
				"down": {"uv": [0.5, 0.5, 1.5, 1.5], "rotation": 90, "texture": "#4"}
			}
		},
		{
			"from": [8.09886, 5.17635, 3.66047],
			"to": [8.54886, 8.37635, 9.66047],
			"rotation": {"angle": -22.5, "axis": "x", "origin": [10.09412, 6.4863, 5.51047]},
			"faces": {
				"north": {"uv": [0, 9, 1, 16], "rotation": 180, "texture": "#4"},
				"east": {"uv": [12, 9, 0, 16], "texture": "#4"},
				"south": {"uv": [2, 0, 2.998, 3.999], "texture": "#4"},
				"west": {"uv": [0, 9, 12, 16], "texture": "#4"},
				"up": {"uv": [7, 0, 7.998, 7.999], "rotation": 180, "texture": "#4"},
				"down": {"uv": [7, 0, 7.998, 7.999], "texture": "#4"}
			}
		},
		{
			"from": [11.48185, 5.83538, 4.46007],
			"to": [11.66935, 6.33538, 4.96007],
			"rotation": {"angle": -22.5, "axis": "x", "origin": [10.09412, 6.4863, 5.51047]},
			"faces": {
				"north": {"uv": [14.5, 14.5, 15.5, 15.5], "rotation": 180, "texture": "#4"},
				"east": {"uv": [14.5, 14.5, 15.5, 15.5], "texture": "#4"},
				"south": {"uv": [14.5, 14.5, 15.5, 15.5], "rotation": 180, "texture": "#4"},
				"up": {"uv": [14.5, 14.5, 15.5, 15.5], "rotation": 270, "texture": "#4"},
				"down": {"uv": [14.5, 14.5, 15.5, 15.5], "rotation": 90, "texture": "#4"}
			}
		},
		{
			"from": [11.04886, 5.17616, 3.66093],
			"to": [11.49886, 8.37616, 9.66093],
			"rotation": {"angle": -22.5, "axis": "x", "origin": [10.09412, 6.4863, 5.51047]},
			"faces": {
				"north": {"uv": [0, 9, 1, 16], "rotation": 180, "texture": "#4"},
				"east": {"uv": [12, 9, 0, 16], "texture": "#4"},
				"south": {"uv": [5, 0, 5.998, 3.999], "texture": "#4"},
				"west": {"uv": [0, 9, 12, 16], "texture": "#4"},
				"up": {"uv": [13, 0, 13.998, 7.999], "rotation": 180, "texture": "#4"},
				"down": {"uv": [13, 0, 13.998, 7.999], "texture": "#4"}
			}
		},
		{
			"from": [8.54749, 5.17483, 3.66161],
			"to": [11.04749, 5.62483, 4.31161],
			"rotation": {"angle": -22.5, "axis": "x", "origin": [10.09412, 6.4863, 5.51047]},
			"faces": {
				"north": {"uv": [0, 10, 1, 15.999], "rotation": 270, "texture": "#4"},
				"east": {"uv": [7, 4.5, 8, 5.5], "texture": "#missing"},
				"south": {"uv": [8, 0, 12.998, 0.999], "rotation": 90, "texture": "#4"},
				"west": {"uv": [8, 4.5, 9, 5.5], "texture": "#4"},
				"up": {"uv": [0, 10, 1, 15.999], "rotation": 270, "texture": "#4"},
				"down": {"uv": [8, 0, 12.998, 0.999], "texture": "#4"}
			}
		}
	],
	"display": {
		"thirdperson_righthand": {
			"rotation": [-77, -61, 0],
			"translation": [0.5, -2.5, -1.75]
		},
		"thirdperson_lefthand": {
			"rotation": [73, -61, 0],
			"translation": [0.5, -2.5, 0.75]
		},
		"firstperson_righthand": {
			"rotation": [48, -77, 0],
			"translation": [0, 3, 0]
		},
		"firstperson_lefthand": {
			"rotation": [-160, -77, 0],
			"translation": [0, 3, 0]
		},
		"ground": {
			"translation": [-4.75, 0, 0]
		},
		"gui": {
			"rotation": [35, 135, 0],
			"translation": [4.25, -1.25, 0],
			"scale": [1.5, 1.5, 1.5]
		},
		"head": {
			"rotation": [0, -90, 0],
			"translation": [0, 0, -22.5],
			"scale": [2, 2, 2]
		},
		"fixed": {
			"rotation": [0, -90, 0],
			"translation": [0, 0.75, -20],
			"scale": [3, 3, 3]
		}
	},
	"groups": [
		{
			"name": "holder",
			"children": [0, 1, 2, 3, 4, 5, 6, 7, 8, 9, 10, 11, 12, 13, 14, 15, 16, 17, 18, 19, 20, 21, 22, 23, 24, 25, 26, 27, 28, 29, 30, 31, 32, 33, 34]
		},
		{
			"name": "head",
			"origin": [8, 19, 8],
			"children": [35, 36, 37, 38, 39, 40]
		}
	]
}