{
	"credit": "Made by 0ptima, totally cool guy from Frostburn",
	"textures": {
		"0": "blocks/vent_empty",
		"particle": "blocks/vent_empty"
	},
	"elements": [
		{
			"from": [0, 0, 16],
			"to": [16, 16, 16],
			"faces": {
				"north": {"uv": [0, 0, 16, 16], "texture": "#0"}
			}
		}
	],
	"display": {
		"thirdperson_righthand": {
			"rotation": [-14, -26, 0],
			"translation": [0, -0.5, -5.5],
			"scale": [0.7, 0.7, 0.7]
		},
		"thirdperson_lefthand": {
			"rotation": [-14, -26, 0],
			"translation": [0, -0.5, -5.5],
			"scale": [0.7, 0.7, 0.7]
		},
		"firstperson_righthand": {
			"rotation": [-36, 0, 0],
			"translation": [0, 0.5, 0],
			"scale": [0.6, 0.6, 0.6]
		},
		"firstperson_lefthand": {
			"rotation": [-36, 0, 0],
			"translation": [0, 0.5, 0],
			"scale": [0.6, 0.6, 0.6]
		},
		"ground": {
			"rotation": [90, 0, 0],
			"translation": [0, 5, 0]
		},
		"gui": {
			"scale": [1.2, 1.2, 1]
		},
		"head": {
			"translation": [0, 0, -14.5]
		},
		"fixed": {
			"translation": [0, 0, -14.51],
			"scale": [2.1, 2.1, 2]
		}
	}
}