{
	"credit": "Made by 0ptima, totally cool guy from Frostburn",
	"textures": {
		"1": "models/med2",
		"2": "models/med1",
		"particle": "models/med1"
	},
	"elements": [
		{
			"from": [3.38, 3.38, 2.72],
			"to": [12.62, 12.62, 3.38],
			"faces": {
				"north": {"uv": [2, 1, 14, 15], "texture": "#2"},
				"south": {"uv": [0, 0, 0.834, 1], "texture": "#missing"}
			}
		},
		{
			"from": [12.62, 3.38, 2.72],
			"to": [13.28, 12.62, 6.68],
			"faces": {
				"north": {"uv": [1, 1, 2, 15], "texture": "#2"},
				"east": {"uv": [0, 1, 5, 14.999], "texture": "#2"},
				"south": {"uv": [0, 0, 1, 14], "texture": "#2"},
				"west": {"uv": [0, 0, 0.834, 1], "texture": "#missing"}
			}
		},
		{
			"from": [2.72, 3.38, 2.72],
			"to": [3.38, 12.62, 6.68],
			"faces": {
				"north": {"uv": [1, 1, 2, 15], "texture": "#2"},
				"east": {"uv": [0, 0, 0.834, 1], "texture": "#missing"},
				"south": {"uv": [0, 0, 1, 14], "texture": "#2"},
				"west": {"uv": [11, 1, 16, 14.999], "texture": "#2"}
			}
		},
		{
			"from": [2.72, 2.72, 2.72],
			"to": [13.28, 3.38, 6.68],
			"faces": {
				"north": {"uv": [0, 15, 16, 16], "texture": "#2"},
				"east": {"uv": [0, 15, 4.999, 16], "texture": "#2"},
				"south": {"uv": [0, 0, 16, 1], "texture": "#2"},
				"west": {"uv": [11, 15, 15.999, 16], "texture": "#2"},
				"up": {"uv": [0, 0, 0.834, 1], "texture": "#missing"},
				"down": {"uv": [0, 0, 15.999, 4.999], "texture": "#2"}
			}
		},
		{
			"from": [2.72, 12.62, 2.72],
			"to": [13.28, 13.28, 6.68],
			"faces": {
				"north": {"uv": [0, 0, 16, 1], "texture": "#2"},
				"east": {"uv": [0, 0, 4.999, 1], "texture": "#2"},
				"south": {"uv": [0, 0, 16, 1], "texture": "#2"},
				"west": {"uv": [11, 0, 15.999, 1], "texture": "#2"},
				"up": {"uv": [0, 11, 15.999, 15.999], "texture": "#2"},
				"down": {"uv": [0, 0, 0.834, 1], "texture": "#missing"}
			}
		},
		{
			"name": "základ",
			"from": [3.38, 3.38, 6.68],
			"to": [12.62, 12.62, 7.34],
			"faces": {
				"north": {"uv": [0, 0, 0.834, 1], "texture": "#missing"},
				"east": {"uv": [15, 0, 16, 16], "texture": "#2"},
				"south": {"uv": [0, 0, 16, 16], "texture": "#2"},
				"west": {"uv": [0, 0, 1, 16], "texture": "#2"},
				"up": {"uv": [0, 0, 16, 1], "texture": "#2"},
				"down": {"uv": [0, 15, 16, 16], "texture": "#2"}
			}
		},
		{
			"from": [7.21434, 6.80514, 7.3109],
			"to": [8.85114, 7.21434, 7.4413],
			"faces": {
				"east": {"uv": [0, 0, 3, 6], "texture": "#1"},
				"south": {"uv": [0, 0, 3, 6], "texture": "#1"},
				"west": {"uv": [0, 0, 3, 6], "texture": "#1"},
				"up": {"uv": [0, 0, 3, 6], "texture": "#1"},
				"down": {"uv": [0, 0, 3, 6], "texture": "#1"}
			}
		},
		{
			"from": [7.21434, 8.85114, 7.3109],
			"to": [8.85114, 9.26034, 7.4413],
			"faces": {
				"east": {"uv": [0, 0, 3, 6], "texture": "#1"},
				"south": {"uv": [0, 0, 3, 6], "texture": "#1"},
				"west": {"uv": [0, 0, 3, 6], "texture": "#1"},
				"up": {"uv": [0, 0, 3, 6], "texture": "#1"},
				"down": {"uv": [0, 0, 3, 6], "texture": "#1"}
			}
		},
		{
			"from": [8.85114, 6.80514, 7.3109],
			"to": [9.26034, 9.26034, 7.4413],
			"faces": {
				"east": {"uv": [0, 0, 3, 6], "texture": "#1"},
				"south": {"uv": [0, 0, 3, 6], "texture": "#1"},
				"west": {"uv": [0, 0, 3, 6], "texture": "#1"},
				"up": {"uv": [0, 0, 3, 6], "texture": "#1"},
				"down": {"uv": [0, 0, 3, 6], "texture": "#1"}
			}
		},
		{
			"from": [8.37319, 7.62681, 7.37426],
			"to": [8.7562, 8.36337, 7.5485],
			"faces": {
				"east": {"uv": [0, 0, 0.44, 3], "texture": "#1"},
				"south": {"uv": [0, 0, 1.56, 3], "texture": "#1"},
				"up": {"uv": [0, 0, 1.56, 0.44], "texture": "#1"},
				"down": {"uv": [0, 0, 1.56, 0.44], "texture": "#1"}
			}
		},
		{
			"from": [7.27326, 7.62681, 7.37426],
			"to": [7.63663, 8.36337, 7.5485],
			"faces": {
				"south": {"uv": [0, 0, 1.48, 3], "texture": "#1"},
				"west": {"uv": [0, 0, 0.44, 3], "texture": "#1"},
				"up": {"uv": [0, 0, 1.48, 0.44], "texture": "#1"},
				"down": {"uv": [0, 0, 1.48, 0.44], "texture": "#1"}
			}
		},
		{
			"from": [7.63663, 7.28308, 7.37426],
			"to": [8.37319, 8.7562, 7.5485],
			"faces": {
				"east": {"uv": [0, 0, 0.44, 6], "texture": "#1"},
				"south": {"uv": [0, 0, 3, 6], "texture": "#1"},
				"west": {"uv": [0, 0, 0.44, 6], "texture": "#1"},
				"up": {"uv": [0, 0, 3, 0.44], "texture": "#1"},
				"down": {"uv": [0, 0, 3, 0.44], "texture": "#1"}
			}
		},
		{
			"from": [6.80514, 6.80514, 7.3109],
			"to": [7.21434, 9.26034, 7.4413],
			"faces": {
				"east": {"uv": [0, 0, 3, 6], "texture": "#1"},
				"south": {"uv": [0, 0, 3, 6], "texture": "#1"},
				"west": {"uv": [0, 0, 3, 6], "texture": "#1"},
				"up": {"uv": [0, 0, 3, 6], "texture": "#1"},
				"down": {"uv": [0, 0, 3, 6], "texture": "#1"}
			}
		},
		{
			"name": "zámok",
			"from": [2.984, 7.34, 6.68],
			"to": [3.38, 8.66, 7.076],
			"faces": {
				"north": {"uv": [0, 0, 3, 6], "texture": "#1"},
				"east": {"uv": [0, 0, 3, 6], "texture": "#1"},
				"south": {"uv": [0, 0, 3, 6], "texture": "#1"},
				"west": {"uv": [0, 0, 3, 6], "texture": "#1"},
				"up": {"uv": [0, 0, 3, 6], "texture": "#1"},
				"down": {"uv": [0, 0, 3, 6], "texture": "#1"}
			}
		}
	],
	"display": {
		"thirdperson_righthand": {
			"rotation": [-21, -25, 0],
			"translation": [-0.75, 2.5, 0],
			"scale": [0.69, 0.69, 0.69]
		},
		"thirdperson_lefthand": {
			"rotation": [-21, -25, 0],
			"translation": [-0.75, 2.5, 0],
			"scale": [0.69, 0.69, 0.69]
		},
		"firstperson_righthand": {
			"rotation": [-56, 0, 0],
			"translation": [2.75, 0.25, 0]
		},
		"firstperson_lefthand": {
			"rotation": [-56, 0, 0],
			"translation": [2.75, 0.25, 0]
		},
		"ground": {
			"rotation": [-90, 0, 0],
			"translation": [0, 0.75, 0],
			"scale": [0.75, 0.75, 0.75]
		},
		"gui": {
			"rotation": [35, -45, 0],
			"translation": [-2.75, -2.25, 0],
			"scale": [1.2, 1.2, 1.2]
		},
		"head": {
			"rotation": [0, -180, 0],
			"translation": [0, 0, -13],
			"scale": [1.3, 1.3, 1.3]
		},
		"fixed": {
			"rotation": [0, -180, 0],
			"translation": [0, 0, -9],
			"scale": [2, 2, 2]
		}
	},
	"groups": [
		{
			"name": "základ",
			"children": [0, 1, 2, 3, 4]
		},
		{
			"name": "otvor",
			"children": [5,
				{
					"name": "logo\"",
					"children": [6, 7, 8, 9, 10, 11, 12]
				}
			]
		}, 13]
}