{
	"credit": "Made by 0ptima, totally cool guy from Frostburn",
	"textures": {
		"0": "models/glass_in/glass",
		"particle": "models/glass_in/glass"
	},
	"elements": [
		{
			"from": [6.875, 0, 7.125],
			"to": [8.5, 16, 8.875],
			"faces": {
				"north": {"uv": [0, 0, 1.5, 15.999], "texture": "#0"},
				"south": {"uv": [1.5, 0, 0, 15.999], "texture": "#0"},
				"west": {"uv": [1, 0, 2, 15.999], "texture": "#0"}
			}
		}
	],
	"display": {
		"thirdperson_righthand": {
			"scale": [0.5, 0.5, 0.5]
		},
		"thirdperson_lefthand": {
			"scale": [0.5, 0.5, 0.5]
		},
		"firstperson_righthand": {
			"rotation": [-41, 0, 0]
		},
		"firstperson_lefthand": {
			"rotation": [-41, 0, 0]
		},
		"ground": {
			"rotation": [90, 0, 0],
			"translation": [0, -4.25, 0]
		},
		"fixed": {
			"translation": [0, 0, 18],
			"scale": [2, 2, 2]
		}
	}
}