{
	"credit": "Made by 0ptima, totally cool guy from FrostBurn",
	"textures": {
		"0": "blocks/terminal",
		"1": "blocks/terminal_in",
		"2": "blocks/terminal_in_l1",
		"3": "blocks/terminal_in_l2",
		"particle": "blocks/terminal"
	},
	"elements": [
		{
			"from": [3, 1, 16],
			"to": [13, 15, 16],
			"faces": {
				"north": {"uv": [2, 1, 12, 15], "texture": "#1"},
				"east": {"uv": [2, 1, 3, 15], "texture": "#0"},
				"south": {"uv": [2, 1, 12, 15], "texture": "#1"},
				"west": {"uv": [11, 1, 12, 15], "texture": "#0"},
				"up": {"uv": [2, 1, 12, 2], "texture": "#0"},
				"down": {"uv": [2, 14, 12, 15], "texture": "#0"}
			}
		},
		{
			"from": [12.5, 1, 6.1875],
			"to": [13.5, 15, 16.1875],
			"rotation": {"angle": -45, "axis": "y", "origin": [13, 8, 16.6875]},
			"faces": {
				"north": {"uv": [11, 1, 12, 15], "texture": "#0"},
				"east": {"uv": [2, 1, 12, 15], "texture": "#0"},
				"south": {"uv": [2, 1, 3, 15], "texture": "#0"},
				"up": {"uv": [2, 1, 12, 2], "texture": "#0", "rotation": 90},
				"down": {"uv": [2, 14, 12, 15], "texture": "#0", "rotation": 270}
			}
		},
		{
			"from": [13.5, 1, 6.1875],
			"to": [12.5, 15, 16.1875],
			"rotation": {"angle": -45, "axis": "y", "origin": [13, 8, 16.6875]},
			"faces": {
				"north": {"uv": [11, 1, 12, 15], "texture": "#1"},
				"south": {"uv": [2, 1, 3, 15], "texture": "#1"},
				"west": {"uv": [2, 1, 12, 15], "texture": "#1"},
				"up": {"uv": [2, 1, 12, 2], "texture": "#1", "rotation": 90},
				"down": {"uv": [2, 14, 12, 15], "texture": "#1", "rotation": 270}
			}
		},
		{
			"from": [4, 2, 15.92],
			"to": [12, 14, 15.92],
			"faces": {
				"north": {"uv": [14, 1, 16, 3], "texture": "#1"},
				"east": {"uv": [2, 1, 2, 15], "texture": "#0"},
				"west": {"uv": [11, 1, 11, 15], "texture": "#0"},
				"up": {"uv": [2, 1, 12, 1], "texture": "#0"},
				"down": {"uv": [2, 14, 12, 14], "texture": "#0"}
			}
		},
		{
			"from": [4, 2, 15.792],
			"to": [12, 14, 15.792],
			"faces": {
				"north": {"uv": [3, 2, 11.5, 14], "texture": "#2"},
				"east": {"uv": [2, 1, 2, 15], "texture": "#0"},
				"west": {"uv": [11, 1, 11, 15], "texture": "#0"},
				"up": {"uv": [2, 1, 12, 1], "texture": "#0"},
				"down": {"uv": [2, 14, 12, 14], "texture": "#0"}
			}
		},
		{
			"from": [4, 2, 15.888],
			"to": [12, 14, 15.888],
			"faces": {
				"north": {"uv": [3, 2, 11.5, 14], "texture": "#3"},
				"east": {"uv": [2, 1, 2, 15], "texture": "#0"},
				"west": {"uv": [11, 1, 11, 15], "texture": "#0"},
				"up": {"uv": [2, 1, 12, 1], "texture": "#0"},
				"down": {"uv": [2, 14, 12, 14], "texture": "#0"}
			}
		}
	],
	"display": {
		"thirdperson_righthand": {
			"scale": [0.7, 0.7, 0.7],
			"rotation": [-10, 9, 0],
			"translation": [-1.5, 2, -4.5]
		},
		"thirdperson_lefthand": {
			"scale": [0.7, 0.7, 0.7],
			"rotation": [-10, 9, 0],
			"translation": [-1.5, 2, -4.5]
		},
		"firstperson_righthand": {
			"scale": [0.8, 0.8, 0.8],
			"translation": [2, 0, -5.5],
			"rotation": [-29, 7, 0]
		},
		"firstperson_lefthand": {
			"scale": [0.8, 0.8, 0.8],
			"rotation": [-29, 7, 0],
			"translation": [2, 0, -5.5]
		},
		"ground": {
			"scale": [0.8, 0.8, 0.8],
			"rotation": [-90, 0, 0],
			"translation": [0, -9.5, 0]
		},
		"fixed": {
			"scale": [2, 2, 2],
			"translation": [0, 0, -14]
		}
	}
}