{
    "variants": {
        "facing=up": { "model": "end_rod" },
        "facing=down": { "model": "end_rod", "x": 180 },
        "facing=east": { "model": "end_rod_side", "y": 180},
        "facing=south": { "model": "end_rod_side", "y": 270},
        "facing=west": { "model": "end_rod_side", "y": 0},
        "facing=north": { "model": "end_rod_side", "y": 90}
    }
}
