{
    "variants": {
          "normal":[
		{ "model": "red_tulip1" 		  },
		{ "model": "red_tulip1", "y": 90  },
		{ "model": "red_tulip1", "y": 180 },
		{ "model": "red_tulip1", "y": 270 },
		{ "model": "red_tulip2" 		  },
		{ "model": "red_tulip2", "y": 90  },
		{ "model": "red_tulip2", "y": 180 },
		{ "model": "red_tulip2", "y": 270 }
		{ "model": "red_tulip3" 		  },
		{ "model": "red_tulip3", "y": 90  },
		{ "model": "red_tulip3", "y": 180 },
		{ "model": "red_tulip3", "y": 270 },
		{ "model": "red_tulip4" 		  },
		{ "model": "red_tulip4", "y": 90  },
		{ "model": "red_tulip4", "y": 180 },
		{ "model": "red_tulip4", "y": 270 },
		{ "model": "red_tulip5" 		  },
		{ "model": "red_tulip5", "y": 90  },
		{ "model": "red_tulip5", "y": 180 },
		{ "model": "red_tulip5", "y": 270 },
		{ "model": "red_tulip6" 		  },
		{ "model": "red_tulip6", "y": 90  },
		{ "model": "red_tulip6", "y": 180 },
		{ "model": "red_tulip6", "y": 270 }
		]
    }
}
