{
	"credit": "Made by JoubaMety with Blockbench",
	"ambientocclusion": false,
	"textures": {
		"bottom": "blocks/door_iron_lower",
		"texture": "blocks/m_jungle_door_upper_sides"
	},
	"elements": [
		{
			"from": [6, 0, 0],
			"to": [8, 2, 13],
			"faces": {
				"north": {"uv": [16, 14, 15, 16], "texture": "#bottom", "cullface": "north"},
				"east": {"uv": [3, 14, 16, 16], "texture": "#bottom"},
				"south": {"uv": [15, 14, 16, 16], "texture": "#bottom", "cullface": "south"},
				"west": {"uv": [3, 14, 16, 16], "texture": "#bottom", "cullface": "west"},
				"up": {"uv": [3, 14, 16, 15], "rotation": 270, "texture": "#bottom"},
				"down": {"uv": [3, 14, 16, 15], "rotation": 270, "texture": "#bottom", "cullface": "down"}
			}
		},
		{
			"from": [6, 0, 13],
			"to": [8, 16, 16],
			"faces": {
				"north": {"uv": [0, 0, 1, 16], "texture": "#bottom", "cullface": "north"},
				"east": {"uv": [0, 0, 3, 16], "texture": "#bottom"},
				"south": {"uv": [0, 0, 1, 16], "texture": "#bottom", "cullface": "south"},
				"west": {"uv": [0, 0, 3, 16], "texture": "#bottom", "cullface": "west"},
				"up": {"uv": [0, 0, 3, 1], "rotation": 90, "texture": "#bottom"},
				"down": {"uv": [0, 0, 3, 1], "rotation": 90, "texture": "#bottom", "cullface": "down"}
			}
		},
		{
			"from": [0, 0, 13],
			"to": [2, 16, 16],
			"faces": {
				"north": {"uv": [0, 0, 1, 16], "texture": "#bottom", "cullface": "north"},
				"east": {"uv": [0, 0, 3, 16], "texture": "#bottom"},
				"south": {"uv": [0, 0, 1, 16], "texture": "#bottom", "cullface": "south"},
				"west": {"uv": [0, 0, 3, 16], "texture": "#bottom", "cullface": "west"},
				"up": {"uv": [0, 0, 3, 1], "rotation": 90, "texture": "#bottom"},
				"down": {"uv": [0, 0, 3, 1], "rotation": 90, "texture": "#bottom", "cullface": "down"}
			}
		},
		{
			"from": [0, 0, 0],
			"to": [2, 2, 13],
			"faces": {
				"north": {"uv": [16, 14, 15, 16], "texture": "#bottom", "cullface": "north"},
				"east": {"uv": [3, 14, 16, 16], "texture": "#bottom"},
				"south": {"uv": [15, 14, 16, 16], "texture": "#bottom", "cullface": "south"},
				"west": {"uv": [3, 14, 16, 16], "texture": "#bottom", "cullface": "west"},
				"up": {"uv": [3, 14, 16, 15], "rotation": 270, "texture": "#bottom"},
				"down": {"uv": [3, 14, 16, 15], "rotation": 270, "texture": "#bottom", "cullface": "down"}
			}
		},
		{
			"from": [6, 11, 12],
			"to": [7, 16, 13],
			"faces": {
				"north": {"uv": [0, 0, 1, 16], "texture": "#bottom", "cullface": "north"},
				"east": {"uv": [4, 0, 5, 5], "texture": "#bottom"},
				"south": {"uv": [0, 0, 1, 16], "texture": "#bottom", "cullface": "south"},
				"west": {"uv": [4, 0, 5, 5], "texture": "#bottom", "cullface": "west"},
				"up": {"uv": [13, 12, 16, 13], "rotation": 90, "texture": "#bottom"},
				"down": {"uv": [13, 12, 16, 13], "rotation": 90, "texture": "#bottom", "cullface": "down"}
			}
		},
		{
			"from": [2, 0, 1],
			"to": [6, 16, 17],
			"faces": {
				"north": {"uv": [6, 0, 0, 16], "texture": "#texture", "cullface": "north"},
				"east": {"uv": [0, 0, 16, 16], "texture": "#bottom"},
				"south": {"uv": [0, 0, 6, 16], "texture": "#texture", "cullface": "south"},
				"west": {"uv": [16, 0, 0, 16], "texture": "#bottom", "cullface": "west"},
				"up": {"uv": [0, 0, 6, 16], "texture": "#texture"},
				"down": {"uv": [13, 0, 16, 16], "texture": "#texture", "cullface": "down"}
			}
		},
		{
			"from": [6, 15, 9],
			"to": [7.5, 16, 10],
			"faces": {
				"north": {"uv": [3, 1, 6, 2], "rotation": 270, "texture": "#bottom", "cullface": "north"},
				"east": {"uv": [3, 1, 6, 2], "rotation": 270, "texture": "#bottom"},
				"south": {"uv": [3, 1, 6, 2], "rotation": 270, "texture": "#bottom", "cullface": "south"},
				"west": {"uv": [3, 1, 6, 2], "rotation": 270, "texture": "#bottom", "cullface": "west"},
				"up": {"uv": [3, 1, 7, 2], "rotation": 90, "texture": "#bottom"},
				"down": {"uv": [0, 0, 3, 1], "rotation": 90, "texture": "#bottom", "cullface": "down"}
			}
		},
		{
			"from": [6, 13, 4],
			"to": [7, 16, 5],
			"faces": {
				"north": {"uv": [0, 0, 1, 16], "texture": "#bottom", "cullface": "north"},
				"east": {"uv": [12, 0, 13, 4], "texture": "#bottom"},
				"south": {"uv": [0, 0, 1, 16], "texture": "#bottom", "cullface": "south"},
				"west": {"uv": [12, 0, 13, 4], "texture": "#bottom", "cullface": "west"},
				"up": {"uv": [13, 12, 16, 13], "rotation": 90, "texture": "#bottom"},
				"down": {"uv": [0, 0, 3, 1], "rotation": 90, "texture": "#bottom", "cullface": "down"}
			}
		},
		{
			"from": [6, 4, 5],
			"to": [7, 16, 7],
			"faces": {
				"north": {"uv": [0, 0, 1, 16], "texture": "#bottom", "cullface": "north"},
				"east": {"uv": [10, 0, 12, 12], "texture": "#bottom"},
				"south": {"uv": [0, 0, 1, 16], "texture": "#bottom", "cullface": "south"},
				"west": {"uv": [12, 0, 10, 12], "texture": "#bottom", "cullface": "west"},
				"up": {"uv": [13, 12, 16, 13], "rotation": 90, "texture": "#bottom"},
				"down": {"uv": [13, 12, 16, 13], "rotation": 90, "texture": "#bottom", "cullface": "down"}
			}
		},
		{
			"from": [6, 5, 7],
			"to": [7, 16, 9],
			"faces": {
				"north": {"uv": [0, 0, 1, 16], "texture": "#bottom", "cullface": "north"},
				"east": {"uv": [8, 0, 10, 11], "texture": "#bottom"},
				"south": {"uv": [0, 0, 1, 16], "texture": "#bottom", "cullface": "south"},
				"west": {"uv": [10, 0, 8, 11], "texture": "#bottom", "cullface": "west"},
				"up": {"uv": [13, 12, 16, 13], "rotation": 90, "texture": "#bottom"},
				"down": {"uv": [13, 12, 16, 13], "rotation": 90, "texture": "#bottom", "cullface": "down"}
			}
		},
		{
			"from": [6, 6, 9],
			"to": [7, 16, 10],
			"faces": {
				"north": {"uv": [0, 0, 1, 16], "texture": "#bottom", "cullface": "north"},
				"east": {"uv": [7, 0, 8, 10], "texture": "#bottom"},
				"south": {"uv": [0, 0, 1, 16], "texture": "#bottom", "cullface": "south"},
				"west": {"uv": [7, 0, 8, 10], "texture": "#bottom", "cullface": "west"},
				"up": {"uv": [13, 12, 16, 13], "rotation": 90, "texture": "#bottom"},
				"down": {"uv": [13, 12, 16, 13], "rotation": 90, "texture": "#bottom", "cullface": "down"}
			}
		},
		{
			"from": [6, 7, 10],
			"to": [7, 16, 11],
			"faces": {
				"north": {"uv": [0, 0, 1, 16], "texture": "#bottom", "cullface": "north"},
				"east": {"uv": [6, 0, 7, 9], "texture": "#bottom"},
				"south": {"uv": [0, 0, 1, 16], "texture": "#bottom", "cullface": "south"},
				"west": {"uv": [6, 0, 7, 9], "texture": "#bottom", "cullface": "west"},
				"up": {"uv": [13, 12, 16, 13], "rotation": 90, "texture": "#bottom"},
				"down": {"uv": [13, 12, 16, 13], "rotation": 90, "texture": "#bottom", "cullface": "down"}
			}
		},
		{
			"from": [6, 9, 11],
			"to": [7, 16, 12],
			"faces": {
				"north": {"uv": [0, 0, 1, 16], "texture": "#bottom", "cullface": "north"},
				"east": {"uv": [5, 0, 6, 7], "texture": "#bottom"},
				"south": {"uv": [0, 0, 1, 16], "texture": "#bottom", "cullface": "south"},
				"west": {"uv": [5, 0, 6, 7], "texture": "#bottom", "cullface": "west"},
				"up": {"uv": [13, 12, 16, 13], "rotation": 90, "texture": "#bottom"},
				"down": {"uv": [13, 12, 16, 13], "rotation": 90, "texture": "#bottom", "cullface": "down"}
			}
		},
		{
			"from": [6, 3, 1],
			"to": [7, 13, 5],
			"faces": {
				"north": {"uv": [0, 0, 1, 16], "texture": "#bottom", "cullface": "north"},
				"east": {"uv": [12, 3, 16, 13], "texture": "#bottom"},
				"south": {"uv": [0, 0, 1, 16], "texture": "#bottom", "cullface": "south"},
				"west": {"uv": [16, 3, 12, 13], "texture": "#bottom", "cullface": "west"},
				"up": {"uv": [13, 12, 16, 13], "rotation": 90, "texture": "#bottom"},
				"down": {"uv": [13, 12, 16, 13], "rotation": 90, "texture": "#bottom", "cullface": "down"}
			}
		},
		{
			"from": [7, 8, 1],
			"to": [8, 9, 5],
			"faces": {
				"north": {"uv": [9, 3, 10, 4], "texture": "#bottom", "cullface": "north"},
				"east": {"uv": [16, 7, 12, 8], "texture": "#bottom"},
				"south": {"uv": [9, 3, 10, 4], "texture": "#bottom", "cullface": "south"},
				"west": {"uv": [16, 7, 12, 8], "texture": "#bottom", "cullface": "west"},
				"up": {"uv": [16, 7, 12, 8], "rotation": 90, "texture": "#bottom"},
				"down": {"uv": [16, 7, 12, 8], "rotation": 270, "texture": "#bottom", "cullface": "down"}
			}
		},
		{
			"from": [6, 14, 10],
			"to": [7.5, 16, 14],
			"faces": {
				"north": {"uv": [3, 1, 6, 2], "rotation": 270, "texture": "#bottom", "cullface": "north"},
				"east": {"uv": [3, 0, 7, 2], "texture": "#bottom"},
				"south": {"uv": [3, 1, 6, 2], "rotation": 270, "texture": "#bottom", "cullface": "south"},
				"west": {"uv": [3, 0, 7, 2], "texture": "#bottom", "cullface": "west"},
				"up": {"uv": [3, 1, 6, 2], "rotation": 90, "texture": "#bottom"},
				"down": {"uv": [3, 1, 7, 2], "rotation": 90, "texture": "#bottom", "cullface": "down"}
			}
		},
		{
			"from": [7, 12, 7],
			"to": [8, 16, 8],
			"faces": {
				"north": {"uv": [9, 0, 10, 4], "texture": "#bottom", "cullface": "north"},
				"east": {"uv": [9, 0, 10, 4], "texture": "#bottom"},
				"south": {"uv": [9, 0, 10, 4], "texture": "#bottom", "cullface": "south"},
				"west": {"uv": [9, 0, 10, 4], "texture": "#bottom", "cullface": "west"},
				"up": {"uv": [9, 0, 10, 1], "rotation": 180, "texture": "#bottom"},
				"down": {"uv": [9, 3, 10, 4], "rotation": 180, "texture": "#bottom", "cullface": "down"}
			}
		},
		{
			"from": [7, 11, 8],
			"to": [8, 12, 9],
			"faces": {
				"north": {"uv": [9, 3, 10, 4], "texture": "#bottom", "cullface": "north"},
				"east": {"uv": [9, 3, 10, 4], "texture": "#bottom"},
				"south": {"uv": [9, 3, 10, 4], "texture": "#bottom", "cullface": "south"},
				"west": {"uv": [9, 3, 10, 4], "texture": "#bottom", "cullface": "west"},
				"up": {"uv": [9, 3, 10, 4], "rotation": 180, "texture": "#bottom"},
				"down": {"uv": [9, 3, 10, 4], "rotation": 180, "texture": "#bottom", "cullface": "down"}
			}
		},
		{
			"from": [7, 7, 5],
			"to": [8, 8, 6],
			"faces": {
				"north": {"uv": [9, 3, 10, 4], "texture": "#bottom", "cullface": "north"},
				"east": {"uv": [9, 3, 10, 4], "texture": "#bottom"},
				"south": {"uv": [9, 3, 10, 4], "texture": "#bottom", "cullface": "south"},
				"west": {"uv": [9, 3, 10, 4], "texture": "#bottom", "cullface": "west"},
				"up": {"uv": [9, 3, 10, 4], "rotation": 180, "texture": "#bottom"},
				"down": {"uv": [9, 3, 10, 4], "rotation": 180, "texture": "#bottom", "cullface": "down"}
			}
		},
		{
			"from": [0, 11, 8],
			"to": [1, 12, 9],
			"faces": {
				"north": {"uv": [9, 3, 10, 4], "texture": "#bottom", "cullface": "north"},
				"east": {"uv": [9, 3, 10, 4], "texture": "#bottom"},
				"south": {"uv": [9, 3, 10, 4], "texture": "#bottom", "cullface": "south"},
				"west": {"uv": [9, 3, 10, 4], "texture": "#bottom", "cullface": "west"},
				"up": {"uv": [9, 3, 10, 4], "rotation": 180, "texture": "#bottom"},
				"down": {"uv": [9, 3, 10, 4], "rotation": 180, "texture": "#bottom", "cullface": "down"}
			}
		},
		{
			"from": [0, 12, 7],
			"to": [1, 16, 8],
			"faces": {
				"north": {"uv": [9, 0, 10, 4], "texture": "#bottom", "cullface": "north"},
				"east": {"uv": [9, 0, 10, 4], "texture": "#bottom"},
				"south": {"uv": [9, 0, 10, 4], "texture": "#bottom", "cullface": "south"},
				"west": {"uv": [9, 0, 10, 4], "texture": "#bottom", "cullface": "west"},
				"up": {"uv": [9, 0, 10, 1], "rotation": 180, "texture": "#bottom"},
				"down": {"uv": [9, 3, 10, 4], "rotation": 180, "texture": "#bottom", "cullface": "down"}
			}
		},
		{
			"from": [0, 8, 1],
			"to": [1, 9, 5],
			"faces": {
				"north": {"uv": [9, 3, 10, 4], "texture": "#bottom", "cullface": "north"},
				"east": {"uv": [16, 7, 12, 8], "texture": "#bottom"},
				"south": {"uv": [9, 3, 10, 4], "texture": "#bottom", "cullface": "south"},
				"west": {"uv": [16, 7, 12, 8], "texture": "#bottom", "cullface": "west"},
				"up": {"uv": [16, 7, 12, 8], "rotation": 90, "texture": "#bottom"},
				"down": {"uv": [16, 7, 12, 8], "rotation": 270, "texture": "#bottom", "cullface": "down"}
			}
		},
		{
			"from": [0, 7, 5],
			"to": [1, 8, 6],
			"faces": {
				"north": {"uv": [9, 3, 10, 4], "texture": "#bottom", "cullface": "north"},
				"east": {"uv": [9, 3, 10, 4], "texture": "#bottom"},
				"south": {"uv": [9, 3, 10, 4], "texture": "#bottom", "cullface": "south"},
				"west": {"uv": [9, 3, 10, 4], "texture": "#bottom", "cullface": "west"},
				"up": {"uv": [9, 3, 10, 4], "rotation": 180, "texture": "#bottom"},
				"down": {"uv": [9, 3, 10, 4], "rotation": 180, "texture": "#bottom", "cullface": "down"}
			}
		},
		{
			"from": [0.5, 14, 10],
			"to": [2, 16, 14],
			"faces": {
				"north": {"uv": [3, 1, 6, 2], "rotation": 270, "texture": "#bottom", "cullface": "north"},
				"east": {"uv": [3, 0, 7, 2], "texture": "#bottom"},
				"south": {"uv": [3, 1, 6, 2], "rotation": 270, "texture": "#bottom", "cullface": "south"},
				"west": {"uv": [3, 0, 7, 2], "texture": "#bottom", "cullface": "west"},
				"up": {"uv": [3, 1, 6, 2], "rotation": 90, "texture": "#bottom"},
				"down": {"uv": [3, 1, 7, 2], "rotation": 90, "texture": "#bottom", "cullface": "down"}
			}
		},
		{
			"from": [0.5, 15, 9],
			"to": [2, 16, 10],
			"faces": {
				"north": {"uv": [3, 1, 6, 2], "rotation": 270, "texture": "#bottom", "cullface": "north"},
				"east": {"uv": [3, 1, 6, 2], "rotation": 270, "texture": "#bottom"},
				"south": {"uv": [3, 1, 6, 2], "rotation": 270, "texture": "#bottom", "cullface": "south"},
				"west": {"uv": [3, 1, 6, 2], "rotation": 270, "texture": "#bottom", "cullface": "west"},
				"up": {"uv": [3, 1, 7, 2], "rotation": 90, "texture": "#bottom"},
				"down": {"uv": [0, 0, 3, 1], "rotation": 90, "texture": "#bottom", "cullface": "down"}
			}
		},
		{
			"from": [1, 5, 7],
			"to": [2, 16, 9],
			"faces": {
				"north": {"uv": [0, 0, 1, 16], "texture": "#bottom", "cullface": "north"},
				"east": {"uv": [0, 0, 3, 16], "texture": "#bottom"},
				"south": {"uv": [0, 0, 1, 16], "texture": "#bottom", "cullface": "south"},
				"west": {"uv": [10, 0, 8, 11], "texture": "#bottom", "cullface": "west"},
				"up": {"uv": [13, 12, 16, 13], "rotation": 90, "texture": "#bottom"},
				"down": {"uv": [13, 12, 16, 13], "rotation": 90, "texture": "#bottom", "cullface": "down"}
			}
		},
		{
			"from": [1, 4, 5],
			"to": [2, 16, 7],
			"faces": {
				"north": {"uv": [0, 0, 1, 16], "texture": "#bottom", "cullface": "north"},
				"east": {"uv": [0, 0, 3, 16], "texture": "#bottom"},
				"south": {"uv": [0, 0, 1, 16], "texture": "#bottom", "cullface": "south"},
				"west": {"uv": [12, 0, 10, 12], "texture": "#bottom", "cullface": "west"},
				"up": {"uv": [13, 12, 16, 13], "rotation": 90, "texture": "#bottom"},
				"down": {"uv": [13, 12, 16, 13], "rotation": 90, "texture": "#bottom", "cullface": "down"}
			}
		},
		{
			"from": [1, 13, 4],
			"to": [2, 16, 5],
			"faces": {
				"north": {"uv": [0, 0, 1, 16], "texture": "#bottom", "cullface": "north"},
				"east": {"uv": [0, 0, 3, 16], "texture": "#bottom"},
				"south": {"uv": [0, 0, 1, 16], "texture": "#bottom", "cullface": "south"},
				"west": {"uv": [12, 0, 13, 4], "texture": "#bottom", "cullface": "west"},
				"up": {"uv": [13, 12, 16, 13], "rotation": 90, "texture": "#bottom"},
				"down": {"uv": [0, 0, 3, 1], "rotation": 90, "texture": "#bottom", "cullface": "down"}
			}
		},
		{
			"from": [1, 3, 1],
			"to": [2, 13, 5],
			"faces": {
				"north": {"uv": [0, 0, 1, 16], "texture": "#bottom", "cullface": "north"},
				"east": {"uv": [3, 0, 0, 16], "texture": "#bottom"},
				"south": {"uv": [0, 0, 1, 16], "texture": "#bottom", "cullface": "south"},
				"west": {"uv": [16, 3, 12, 13], "texture": "#bottom", "cullface": "west"},
				"up": {"uv": [13, 12, 16, 13], "rotation": 90, "texture": "#bottom"},
				"down": {"uv": [13, 12, 16, 13], "rotation": 90, "texture": "#bottom", "cullface": "down"}
			}
		},
		{
			"from": [1, 6, 9],
			"to": [2, 16, 10],
			"faces": {
				"north": {"uv": [0, 0, 1, 16], "texture": "#bottom", "cullface": "north"},
				"east": {"uv": [0, 0, 3, 16], "texture": "#bottom"},
				"south": {"uv": [0, 0, 1, 16], "texture": "#bottom", "cullface": "south"},
				"west": {"uv": [7, 0, 8, 10], "texture": "#bottom", "cullface": "west"},
				"up": {"uv": [13, 12, 16, 13], "rotation": 90, "texture": "#bottom"},
				"down": {"uv": [13, 12, 16, 13], "rotation": 90, "texture": "#bottom", "cullface": "down"}
			}
		},
		{
			"from": [1, 7, 10],
			"to": [2, 16, 11],
			"faces": {
				"north": {"uv": [0, 0, 1, 16], "texture": "#bottom", "cullface": "north"},
				"east": {"uv": [0, 0, 3, 16], "texture": "#bottom"},
				"south": {"uv": [0, 0, 1, 16], "texture": "#bottom", "cullface": "south"},
				"west": {"uv": [6, 0, 7, 9], "texture": "#bottom", "cullface": "west"},
				"up": {"uv": [13, 12, 16, 13], "rotation": 90, "texture": "#bottom"},
				"down": {"uv": [13, 12, 16, 13], "rotation": 90, "texture": "#bottom", "cullface": "down"}
			}
		},
		{
			"from": [1, 9, 11],
			"to": [2, 16, 12],
			"faces": {
				"north": {"uv": [0, 0, 1, 16], "texture": "#bottom", "cullface": "north"},
				"east": {"uv": [0, 0, 3, 16], "texture": "#bottom"},
				"south": {"uv": [0, 0, 1, 16], "texture": "#bottom", "cullface": "south"},
				"west": {"uv": [5, 0, 6, 7], "texture": "#bottom", "cullface": "west"},
				"up": {"uv": [13, 12, 16, 13], "rotation": 90, "texture": "#bottom"},
				"down": {"uv": [13, 12, 16, 13], "rotation": 90, "texture": "#bottom", "cullface": "down"}
			}
		},
		{
			"from": [1, 11, 12],
			"to": [2, 16, 13],
			"faces": {
				"north": {"uv": [0, 0, 1, 16], "texture": "#bottom", "cullface": "north"},
				"east": {"uv": [0, 0, 3, 16], "texture": "#bottom"},
				"south": {"uv": [0, 0, 1, 16], "texture": "#bottom", "cullface": "south"},
				"west": {"uv": [4, 0, 5, 5], "texture": "#bottom", "cullface": "west"},
				"up": {"uv": [13, 12, 16, 13], "rotation": 90, "texture": "#bottom"},
				"down": {"uv": [13, 12, 16, 13], "rotation": 90, "texture": "#bottom", "cullface": "down"}
			}
		}
	],
	"groups": [0, 1, 2, 3,
		{
			"name": "group",
			"children": [4, 5, 6, 7, 8, 9, 10, 11, 12, 13, 14, 15, 16, 17, 18, 19, 20, 21, 22, 23, 24, 25, 26, 27, 28, 29, 30, 31, 32]
		}
	]
}